####
#
#	OBJ File Generated by LightWave3D
#	LightWave3D OBJ Export v2.2
#
####
#	Object: 3
#
#	                Vertices: 1154
#	                  Points: 0
#	                   Lines: 0
#	                   Faces: 1152
#	               Materials: 1
#
####

o 3

#	             Vertex list

v -0.365404 -0.0403732 0.101151
v -0.330076 -0.0520471 0.0985591
v -0.290915 -0.0637578 0.0971787
v -0.248188 -0.0750915 0.0978168
v -0.343631 -0.0382072 0.132608
v -0.311299 -0.0491842 0.12864
v -0.275788 -0.0600655 0.126138
v -0.237044 -0.0703809 0.12635
v -0.314956 -0.0365177 0.162232
v -0.286583 -0.0469005 0.156534
v -0.256653 -0.0569076 0.152099
v -0.225596 -0.0658631 0.150369
v -0.278731 -0.0358364 0.189663
v -0.254974 -0.0459095 0.181864
v -0.233033 -0.0551029 0.174271
v -0.215667 -0.0622704 0.167858
v -0.396543 -0.0291447 0.104209
v -0.372651 -0.0275886 0.136919
v -0.341198 -0.0263846 0.167917
v -0.301754 -0.0259014 0.196804
v -0.422765 -0.0187482 0.107229
v -0.397492 -0.0177178 0.14097
v -0.364153 -0.0169244 0.172994
v -0.322357 -0.0166068 0.202873
v -0.443248 -0.00956459 0.109766
v -0.417101 -0.00896842 0.144289
v -0.382516 -0.00850983 0.177037
v -0.339063 -0.00832639 0.207563
v -0.380825 -0.0424964 0.0682441
v -0.413275 -0.0306882 0.0701939
v -0.440358 -0.0197769 0.0721956
v -0.46139 -0.0101608 0.0739091
v -0.390042 -0.0441063 0.0343551
v -0.423129 -0.0318686 0.0353033
v -0.450644 -0.0205674 0.0363008
v -0.471958 -0.0106193 0.0371642
v -0.393103 -0.0447447 -2.48399e-005
v -0.426358 -0.0323391 -2.48399e-005
v -0.45399 -0.0208834 -2.48399e-005
v -0.475385 -0.0108028 -2.48399e-005
v -0.343663 -0.0548016 0.0667041
v -0.352005 -0.0568636 0.0336416
v -0.354843 -0.0576749 -2.48399e-005
v -0.302336 -0.0671973 0.0660036
v -0.309629 -0.0697227 0.0333572
v -0.312193 -0.0707044 -2.48399e-005
v -0.257362 -0.0792756 0.0665899
v -0.26352 -0.0822658 0.0336986
v -0.265771 -0.083408 -2.48399e-005
v -0.466628 0.0124668 0.112276
v -0.439574 0.0122147 0.147557
v -0.403661 0.0120209 0.180993
v -0.358388 0.0119433 0.212122
v -0.462212 0.0206199 0.111506
v -0.435356 0.0201406 0.146554
v -0.399718 0.0197719 0.179779
v -0.354805 0.0196245 0.210723
v -0.452016 0.0306052 0.11002
v -0.42559 0.0298754 0.14462
v -0.390564 0.0293139 0.177437
v -0.346467 0.0290893 0.208025
v -0.436234 0.0432795 0.10787
v -0.410462 0.042245 0.141823
v -0.376369 0.0414492 0.17405
v -0.333527 0.0411308 0.204121
v -0.485329 0.0127189 0.0756113
v -0.480782 0.0210991 0.075089
v -0.47031 0.0313351 0.0740813
v -0.454114 0.044314 0.072624
v -0.496179 0.0129128 0.0380239
v -0.491562 0.0214678 0.0377601
v -0.480942 0.0318966 0.0372512
v -0.464528 0.0451098 0.0365152
v -0.499684 0.0129903 -2.48399e-005
v -0.495045 0.0216153 -2.48399e-005
v -0.484382 0.0321211 -2.48395e-005
v -0.467904 0.0454282 -2.48385e-005
v -0.465069 0.00528943 0.112278
v -0.483747 0.00530697 0.0756125
v -0.494589 0.00532048 0.0380245
v -0.498093 0.00532588 -2.48399e-005
v -0.457341 -0.00176883 0.111459
v -0.475834 -0.0020238 0.0750571
v -0.486584 -0.00221993 0.037744
v -0.490062 -0.00229838 -2.48399e-005
v -0.43806 0.00527189 0.147559
v -0.430631 -0.00151386 0.146493
v -0.402223 0.00525841 0.180996
v -0.395231 -0.00131771 0.179705
v -0.357061 0.00525302 0.212125
v -0.35067 -0.00123926 0.210637
v -0.101719 0.192592 0.110991
v -0.152516 0.18257 0.105462
v -0.200684 0.169915 0.100458
v -0.245705 0.154619 0.0970773
v -0.09845 0.18257 0.14408
v -0.147212 0.17358 0.136591
v -0.192753 0.162263 0.129787
v -0.234496 0.148513 0.125283
v -0.0969357 0.169915 0.173841
v -0.143943 0.162263 0.164283
v -0.186387 0.153003 0.155325
v -0.222952 0.142251 0.148964
v -0.0987142 0.154619 0.199464
v -0.145014 0.148513 0.187697
v -0.184228 0.142251 0.175927
v -0.212924 0.136898 0.166153
v -0.048844 0.199956 0.115989
v -0.0471027 0.189276 0.150743
v -0.0466611 0.1758 0.182147
v -0.0484222 0.159609 0.209371
v 0.00541643 0.204508 0.11959
v 0.0059549 0.193495 0.155475
v 0.00567423 0.179598 0.187945
v 0.00412721 0.162932 0.216145
v 0.0603364 0.206067 0.120972
v 0.0597887 0.19496 0.157275
v 0.0588858 0.180945 0.190123
v 0.0575389 0.164139 0.218654
v -0.105301 0.199956 0.0753858
v -0.0510109 0.207747 0.0787173
v 0.00450244 0.212524 0.081142
v 0.0606176 0.214146 0.0820792
v -0.108148 0.204508 0.0381006
v -0.0528457 0.212524 0.0397661
v 0.00364203 0.217421 0.0409857
v 0.0607212 0.219081 0.041459
v -0.109308 0.206067 -2.48404e-005
v -0.0536193 0.214146 -2.48409e-005
v 0.00326067 0.219081 -2.48404e-005
v 0.060736 0.220752 -2.48399e-005
v -0.157756 0.189276 0.0717419
v -0.161672 0.193495 0.0362911
v -0.163211 0.19496 -2.48401e-005
v -0.207807 0.1758 0.0684353
v -0.212831 0.179598 0.0346468
v -0.214733 0.180945 -2.484e-005
v -0.254894 0.159609 0.0661297
v -0.261038 0.162932 0.0334784
v -0.263277 0.164139 -2.48399e-005
v 0.219672 0.192592 0.110991
v 0.214862 0.18257 0.14408
v 0.210786 0.169915 0.173841
v 0.208708 0.154619 0.199464
v 0.267101 0.18257 0.105462
v 0.260142 0.17358 0.136591
v 0.254117 0.162263 0.164283
v 0.251033 0.148513 0.187697
v 0.309902 0.169915 0.100458
v 0.300409 0.162263 0.129787
v 0.291563 0.153003 0.155325
v 0.285859 0.142251 0.175927
v 0.347106 0.154619 0.0970773
v 0.334772 0.148513 0.125283
v 0.321867 0.142251 0.148964
v 0.310595 0.136898 0.166152
v 0.224043 0.199956 0.0753858
v 0.273188 0.189276 0.0717419
v 0.317837 0.1758 0.0684353
v 0.35692 0.159609 0.0661297
v 0.227181 0.204508 0.0381006
v 0.277416 0.193495 0.0362911
v 0.323159 0.179598 0.0346468
v 0.363294 0.162932 0.0334784
v 0.228383 0.206067 -2.48395e-005
v 0.279 0.19496 -2.48398e-005
v 0.325104 0.180945 -2.48399e-005
v 0.365566 0.164139 -2.48399e-005
v 0.168622 0.199956 0.115989
v 0.171481 0.207747 0.0787173
v 0.173571 0.212524 0.0397661
v 0.174381 0.214146 -2.48389e-005
v 0.115111 0.204508 0.11959
v 0.116627 0.212524 0.081142
v 0.11771 0.217421 0.0409857
v 0.118123 0.219081 -2.48395e-005
v 0.165532 0.189276 0.150743
v 0.1134 0.193495 0.155475
v 0.16286 0.1758 0.182147
v 0.111747 0.179598 0.187945
v 0.161283 0.159609 0.209371
v 0.110407 0.162932 0.216145
v 0.480099 0.0124668 0.112276
v 0.477248 0.0206199 0.111506
v 0.471747 0.0306052 0.11002
v 0.463792 0.0432795 0.10787
v 0.456193 0.0122147 0.147557
v 0.453495 0.0201406 0.146554
v 0.448288 0.0298754 0.14462
v 0.440758 0.042245 0.141823
v 0.425473 0.0120208 0.180993
v 0.422974 0.0197719 0.179779
v 0.418152 0.0293139 0.177437
v 0.411179 0.0414492 0.17405
v 0.387944 0.0119433 0.212122
v 0.385693 0.0196245 0.210723
v 0.381352 0.0290893 0.208025
v 0.375072 0.0411308 0.204121
v 0.480105 0.00528943 0.112278
v 0.456199 0.00527189 0.147559
v 0.425478 0.00525841 0.180996
v 0.387949 0.00525302 0.212125
v 0.477072 -0.00176883 0.111459
v 0.453329 -0.00151386 0.146493
v 0.42282 -0.00131771 0.179705
v 0.385555 -0.00123926 0.210637
v 0.470806 -0.00956459 0.109766
v 0.447397 -0.00896842 0.14429
v 0.417327 -0.00850983 0.177037
v 0.380608 -0.00832639 0.207563
v 0.497182 0.0127189 0.0756113
v 0.497189 0.00530697 0.0756125
v 0.494043 -0.0020238 0.0750571
v 0.487542 -0.0101608 0.0739091
v 0.507437 0.0129128 0.0380239
v 0.507444 0.00532047 0.0380245
v 0.504231 -0.00221993 0.037744
v 0.497592 -0.0106193 0.0371642
v 0.510857 0.0129903 -2.48399e-005
v 0.510864 0.00532588 -2.48399e-005
v 0.507629 -0.00229838 -2.48399e-005
v 0.500945 -0.0108028 -2.48399e-005
v 0.494224 0.0210991 0.075089
v 0.504417 0.0214678 0.0377601
v 0.507816 0.0216153 -2.484e-005
v 0.488518 0.0313351 0.0740813
v 0.498589 0.0318965 0.0372512
v 0.501949 0.0321211 -2.48404e-005
v 0.480265 0.044314 0.072624
v 0.490161 0.0451098 0.0365152
v 0.493463 0.0454281 -2.48414e-005
v 0.430256 -0.0403732 0.101151
v 0.409793 -0.0382072 0.132608
v 0.383494 -0.0365177 0.162232
v 0.351159 -0.0358364 0.189663
v 0.408501 -0.0520471 0.0985591
v 0.39021 -0.0491842 0.12864
v 0.36676 -0.0469005 0.156534
v 0.337786 -0.0459095 0.181864
v 0.381826 -0.0637578 0.0971787
v 0.366314 -0.0600655 0.126138
v 0.347178 -0.0569076 0.152099
v 0.324569 -0.0551029 0.174271
v 0.34959 -0.0750915 0.0978168
v 0.337321 -0.0703809 0.12635
v 0.324511 -0.0658631 0.150369
v 0.313339 -0.0622704 0.167858
v 0.445024 -0.0424964 0.0682441
v 0.421883 -0.0548016 0.0667041
v 0.393505 -0.0671973 0.0660036
v 0.359389 -0.0792756 0.0665899
v 0.454001 -0.0441063 0.0343551
v 0.43015 -0.0568636 0.0336416
v 0.400893 -0.0697227 0.0333572
v 0.365777 -0.0822658 0.0336986
v 0.457028 -0.0447447 -2.48399e-005
v 0.432977 -0.0576749 -2.48399e-005
v 0.403471 -0.0707044 -2.48399e-005
v 0.36806 -0.083408 -2.48399e-005
v 0.447673 -0.0291447 0.104209
v 0.46341 -0.0306882 0.0701939
v 0.472897 -0.0318686 0.0353033
v 0.476073 -0.0323391 -2.48399e-005
v 0.461096 -0.0187482 0.107229
v 0.477451 -0.0197769 0.0721956
v 0.487281 -0.0205674 0.0363008
v 0.490563 -0.0208834 -2.48399e-005
v 0.425731 -0.0275886 0.136919
v 0.438234 -0.0177178 0.14097
v 0.397557 -0.0263846 0.167917
v 0.408879 -0.0169244 0.172994
v 0.363107 -0.0259014 0.196804
v 0.373039 -0.0166068 0.202873
v 0.220082 -0.103207 0.111245
v 0.267937 -0.095125 0.105808
v 0.31141 -0.0856533 0.100959
v 0.21542 -0.095125 0.1446
v 0.26114 -0.0879953 0.137211
v 0.302055 -0.079695 0.130582
v 0.211594 -0.0856533 0.174778
v 0.255396 -0.079695 0.165306
v 0.293452 -0.0730299 0.156499
v 0.209898 -0.0750915 0.201007
v 0.252749 -0.0703809 0.189281
v 0.288119 -0.0658631 0.177571
v 0.168792 -0.109569 0.116199
v 0.165812 -0.100861 0.151216
v 0.163324 -0.09063 0.183048
v 0.162024 -0.0792756 0.210906
v 0.115165 -0.113748 0.119785
v 0.113513 -0.104711 0.155934
v 0.111956 -0.0940723 0.188839
v 0.110762 -0.0822658 0.217688
v 0.0603364 -0.115251 0.121166
v 0.0597888 -0.106118 0.157734
v 0.0588859 -0.0953581 0.19102
v 0.057539 -0.083408 0.220204
v 0.224381 -0.109569 0.0754912
v 0.171596 -0.116347 0.0787882
v 0.116651 -0.120748 0.0812007
v 0.0606176 -0.122317 0.0821365
v 0.227495 -0.113748 0.0381339
v 0.173666 -0.120748 0.0397809
v 0.117723 -0.125272 0.0409937
v 0.0607212 -0.126878 0.041466
v 0.228694 -0.115251 -2.48404e-005
v 0.174473 -0.122317 -2.48401e-005
v 0.118134 -0.126878 -2.484e-005
v 0.060736 -0.128495 -2.48399e-005
v 0.27395 -0.100861 0.0719157
v 0.278155 -0.104711 0.0363609
v 0.279739 -0.106118 -2.48409e-005
v 0.319286 -0.09063 0.0687234
v 0.324598 -0.0940723 0.0347769
v 0.326547 -0.0953581 -2.48404e-005
v -0.102129 -0.103207 0.111245
v -0.0990072 -0.095125 0.1446
v -0.097743 -0.0856533 0.174778
v -0.099904 -0.0750915 0.201007
v -0.153353 -0.095125 0.105808
v -0.14821 -0.0879953 0.137211
v -0.145221 -0.079695 0.165306
v -0.14673 -0.0703809 0.189281
v -0.202192 -0.0856533 0.100959
v -0.1944 -0.079695 0.130582
v -0.188276 -0.0730299 0.156499
v -0.186488 -0.0658631 0.177571
v -0.105639 -0.109569 0.0754912
v -0.158518 -0.100861 0.0719157
v -0.209257 -0.09063 0.0687234
v -0.108462 -0.113748 0.0381339
v -0.162412 -0.104711 0.0363609
v -0.21427 -0.0940723 0.0347769
v -0.10962 -0.115251 -2.48395e-005
v -0.16395 -0.106118 -2.48389e-005
v -0.216176 -0.0953581 -2.48395e-005
v -0.0490141 -0.109569 0.116199
v -0.0511255 -0.116347 0.0787882
v -0.0529405 -0.120748 0.0397809
v -0.0537116 -0.122317 -2.48398e-005
v 0.00536245 -0.113748 0.119785
v 0.00447842 -0.120748 0.0812007
v 0.00362896 -0.125272 0.0409937
v 0.00324912 -0.126878 -2.48399e-005
v -0.0473828 -0.100861 0.151216
v 0.00584232 -0.104711 0.155934
v -0.0471248 -0.09063 0.183048
v 0.00546475 -0.0940723 0.188839
v -0.0491627 -0.0792756 0.210906
v 0.0037728 -0.0822658 0.217688
v 0.219797 -0.0403732 0.254448
v 0.214891 -0.0520471 0.240358
v 0.211228 -0.0637578 0.222744
v 0.268721 -0.0382072 0.236284
v 0.26124 -0.0491842 0.223899
v 0.255319 -0.0600655 0.208483
v 0.312729 -0.0365177 0.214514
v 0.302429 -0.0469005 0.204289
v 0.293488 -0.0569076 0.192119
v 0.224949 -0.0291447 0.265556
v 0.276176 -0.0275886 0.24628
v 0.322458 -0.0263846 0.223136
v 0.229727 -0.0187482 0.274003
v 0.282836 -0.0177178 0.254084
v 0.330834 -0.0169244 0.23013
v 0.233606 -0.00956459 0.280053
v 0.28814 -0.00896842 0.259784
v 0.337362 -0.00850983 0.235375
v 0.166655 -0.0424964 0.268425
v 0.169476 -0.0306882 0.28027
v 0.172189 -0.0197769 0.289151
v 0.174422 -0.0101608 0.295445
v 0.110142 -0.0441063 0.277428
v 0.1105 -0.0318686 0.289664
v 0.110912 -0.0205674 0.298786
v 0.111249 -0.0106193 0.30522
v 0.0511447 -0.0447447 0.280615
v 0.0487765 -0.0323391 0.292967
v 0.0465859 -0.0208834 0.302163
v 0.0447505 -0.0108028 0.308643
v 0.164126 -0.0548016 0.253225
v 0.109969 -0.0568636 0.261646
v 0.053513 -0.0576749 0.264665
v 0.162403 -0.0671973 0.23421
v 0.110126 -0.0697227 0.241879
v 0.0557036 -0.0707044 0.244675
v 0.237346 0.0124668 0.28583
v 0.293309 0.0122147 0.265252
v 0.343716 0.0120208 0.240438
v 0.23614 0.0206199 0.284058
v 0.291706 0.0201406 0.263575
v 0.341764 0.0197719 0.238885
v 0.233849 0.0306052 0.280639
v 0.288624 0.0298754 0.260338
v 0.338 0.0293139 0.235888
v 0.230558 0.0432795 0.275694
v 0.284172 0.042245 0.255658
v 0.332558 0.0414492 0.231554
v 0.17645 0.0127189 0.301437
v 0.175689 0.0210991 0.299599
v 0.174305 0.0313351 0.296052
v 0.172355 0.044314 0.290922
v 0.111245 0.0129128 0.31134
v 0.110975 0.0214678 0.309463
v 0.110619 0.0318965 0.305841
v 0.110206 0.0451098 0.300602
v 0.0423528 0.0129903 0.314804
v 0.0426193 0.0216153 0.312914
v 0.0434185 0.0321211 0.309267
v 0.0447506 0.0454281 0.303993
v 0.237382 0.00528943 0.285834
v 0.176531 0.00530697 0.301441
v 0.1114 0.00532047 0.311344
v 0.0426192 0.00532588 0.314808
v 0.236164 -0.00176883 0.283949
v 0.175874 -0.0020238 0.299486
v 0.111411 -0.00221993 0.309347
v 0.0434184 -0.00229838 0.312798
v 0.293322 0.00527189 0.265256
v 0.291636 -0.00151386 0.263471
v 0.343721 0.00525841 0.240441
v 0.341648 -0.00131771 0.238789
v -0.173322 0.0124668 0.28583
v -0.171283 0.0206199 0.284058
v -0.166494 0.0306052 0.280639
v -0.15904 0.0432795 0.275694
v -0.241284 0.0122147 0.265252
v -0.238675 0.0201406 0.263575
v -0.232573 0.0298754 0.260338
v -0.22309 0.042245 0.255658
v -0.303691 0.0120208 0.240438
v -0.30056 0.0197719 0.238885
v -0.293255 0.0293139 0.235888
v -0.28191 0.0414492 0.231554
v -0.172525 0.00528943 0.285834
v -0.240291 0.00527189 0.265256
v -0.302517 0.00525841 0.240441
v -0.168809 -0.00176883 0.283949
v -0.235586 -0.00151386 0.263471
v -0.296902 -0.00131771 0.238789
v -0.162089 -0.00956459 0.280053
v -0.227058 -0.00896842 0.259784
v -0.286714 -0.00850983 0.235375
v -0.101958 0.0127189 0.301437
v -0.101358 0.00530697 0.301441
v -0.0986583 -0.0020238 0.299486
v -0.0938018 -0.0101608 0.295445
v -0.029348 0.0129128 0.31134
v -0.0289296 0.00532047 0.311344
v -0.0272202 -0.00221993 0.309347
v -0.0241906 -0.0106193 0.30522
v -0.100516 0.0210991 0.299599
v -0.0285043 0.0214678 0.309463
v -0.0970887 0.0313351 0.296052
v -0.0264275 0.0318965 0.305841
v -0.0917346 0.044314 0.290922
v -0.0231465 0.0451098 0.300602
v -0.12857 -0.0403732 0.254448
v -0.184087 -0.0382072 0.236284
v -0.234688 -0.0365177 0.214514
v -0.116611 -0.0520471 0.240358
v -0.168434 -0.0491842 0.223899
v -0.215113 -0.0469005 0.204289
v -0.106538 -0.0637578 0.222744
v -0.155224 -0.0600655 0.208483
v -0.198111 -0.0569076 0.192119
v -0.0697741 -0.0424964 0.268425
v -0.0612965 -0.0548016 0.253225
v -0.0541038 -0.0671973 0.23421
v -0.00932775 -0.0441063 0.277428
v -0.00406911 -0.0568636 0.261646
v 0.000473646 -0.0697227 0.241879
v -0.140931 -0.0291447 0.265556
v -0.0785906 -0.0306882 0.28027
v -0.0147771 -0.0318686 0.289664
v -0.152484 -0.0187482 0.274003
v -0.0868813 -0.0197769 0.289151
v -0.0199022 -0.0205674 0.298786
v -0.200063 -0.0275886 0.24628
v -0.214843 -0.0177178 0.254084
v -0.25425 -0.0263846 0.223136
v -0.27209 -0.0169244 0.23013
v 0.423796 0.0973108 0.099395
v 0.403322 0.117411 0.0971348
v 0.378054 0.136844 0.0961148
v 0.403639 0.0946445 0.130304
v 0.385219 0.11381 0.126746
v 0.362596 0.13209 0.124682
v 0.377752 0.0925154 0.159428
v 0.362039 0.110819 0.154206
v 0.343555 0.127793 0.15027
v 0.34596 0.0916453 0.186431
v 0.333463 0.10948 0.179177
v 0.321136 0.125189 0.172137
v 0.440304 0.077546 0.102215
v 0.418744 0.0755916 0.134318
v 0.391074 0.0740651 0.164763
v 0.357261 0.073449 0.19317
v 0.453453 0.0591774 0.105163
v 0.430999 0.0577502 0.138281
v 0.402177 0.0566495 0.169738
v 0.367002 0.0562086 0.19912
v 0.438345 0.0998336 0.0670606
v 0.455772 0.079458 0.0688438
v 0.469523 0.0605992 0.0707953
v 0.447188 0.101696 0.0337595
v 0.465099 0.0809055 0.0346221
v 0.479185 0.06169 0.0355937
v 0.45017 0.102423 -2.48404e-005
v 0.468223 0.0814791 -2.48406e-005
v 0.482412 0.0621257 -2.48412e-005
v 0.416563 0.120674 0.0657552
v 0.424735 0.123002 0.0331673
v 0.427528 0.123891 -2.48409e-005
v 0.389676 0.140943 0.0653111
v 0.397013 0.143766 0.0330159
v 0.399569 0.144818 -2.48404e-005
v 0.216971 0.0973108 0.250432
v 0.22174 0.077546 0.260976
v 0.226404 0.0591774 0.269253
v 0.265015 0.0946445 0.232459
v 0.271991 0.0755916 0.241937
v 0.278511 0.0577502 0.249587
v 0.308218 0.0925154 0.210944
v 0.317385 0.0740651 0.219106
v 0.325596 0.0566495 0.225964
v 0.2126 0.117411 0.237139
v 0.258193 0.11381 0.220797
v 0.298685 0.110819 0.201354
v 0.209516 0.136844 0.2204
v 0.252978 0.13209 0.206172
v 0.290546 0.127793 0.189867
v 0.16475 0.0998336 0.264274
v 0.162599 0.120674 0.249917
v 0.161288 0.140943 0.23183
v 0.109184 0.101696 0.273193
v 0.109205 0.123002 0.25828
v 0.109576 0.143767 0.239468
v 0.0511447 0.102423 0.276352
v 0.0535129 0.123891 0.261278
v 0.0557035 0.144818 0.24225
v 0.167304 0.0794579 0.275522
v 0.109404 0.0809055 0.284817
v 0.0487766 0.0814791 0.288087
v 0.169937 0.0605992 0.284223
v 0.109774 0.06169 0.293753
v 0.046586 0.0621257 0.297096
v -0.125744 0.0973108 0.250432
v -0.114319 0.117411 0.237139
v -0.104826 0.136844 0.2204
v -0.180381 0.0946445 0.232459
v -0.165386 0.11381 0.220797
v -0.152883 0.13209 0.206172
v -0.230178 0.0925154 0.210944
v -0.211368 0.110819 0.201354
v -0.195169 0.127793 0.189867
v -0.273532 0.0916453 0.186431
v -0.250652 0.10948 0.179177
v -0.2296 0.125189 0.172137
v -0.137722 0.077546 0.260976
v -0.195879 0.0755916 0.241937
v -0.249178 0.0740651 0.219106
v -0.295908 0.073449 0.19317
v -0.149161 0.0591774 0.269253
v -0.210517 0.0577502 0.249587
v -0.266852 0.0566495 0.225964
v -0.316321 0.0562086 0.19912
v -0.0678699 0.0998336 0.264274
v -0.0764185 0.079458 0.275522
v -0.0846286 0.0605992 0.284223
v -0.00836951 0.101696 0.273193
v -0.0136811 0.0809055 0.284817
v -0.0187646 0.06169 0.293753
v -0.0597697 0.120674 0.249917
v -0.00330599 0.123002 0.25828
v -0.0529895 0.140943 0.23183
v 0.00102271 0.143766 0.239468
v -0.358944 0.0973108 0.099395
v -0.389174 0.077546 0.102215
v -0.415122 0.0591774 0.105163
v -0.337476 0.0946445 0.130304
v -0.365664 0.0755916 0.134318
v -0.390257 0.0577502 0.138281
v -0.309214 0.0925154 0.159428
v -0.334716 0.0740651 0.164763
v -0.357451 0.0566495 0.169738
v -0.324898 0.117411 0.0971348
v -0.306308 0.11381 0.126746
v -0.281862 0.110819 0.154206
v -0.287144 0.136844 0.0961148
v -0.27207 0.13209 0.124682
v -0.25303 0.127793 0.15027
v -0.374146 0.0998336 0.0670606
v -0.338343 0.120674 0.0657552
v -0.298507 0.140943 0.0653111
v -0.383229 0.101696 0.0337595
v -0.34659 0.123002 0.0331673
v -0.305749 0.143767 0.0330159
v -0.386246 0.102423 -2.48395e-005
v -0.349394 0.123891 -2.48389e-005
v -0.308291 0.144818 -2.48395e-005
v -0.405637 0.079458 0.0688438
v -0.415332 0.0809055 0.0346221
v -0.418507 0.0814791 -2.48393e-005
v -0.43243 0.0605992 0.0707953
v -0.442548 0.06169 0.0355937
v -0.44584 0.0621257 -2.48386e-005
v -0.365404 -0.0403732 -0.101201
v -0.380825 -0.0424964 -0.0682938
v -0.390042 -0.0441063 -0.0344047
v -0.396543 -0.0291447 -0.104259
v -0.413275 -0.0306882 -0.0702436
v -0.423129 -0.0318686 -0.035353
v -0.422765 -0.0187482 -0.107278
v -0.440358 -0.0197769 -0.0722453
v -0.450644 -0.0205674 -0.0363504
v -0.443248 -0.00956459 -0.109815
v -0.46139 -0.0101608 -0.0739588
v -0.471958 -0.0106193 -0.0372139
v -0.343631 -0.0382072 -0.132657
v -0.372651 -0.0275886 -0.136968
v -0.397492 -0.0177178 -0.14102
v -0.417101 -0.00896842 -0.144339
v -0.314956 -0.0365177 -0.162281
v -0.341198 -0.0263846 -0.167966
v -0.364153 -0.0169244 -0.173043
v -0.382516 -0.00850983 -0.177086
v -0.278731 -0.0358364 -0.189713
v -0.301754 -0.0259014 -0.196854
v -0.322357 -0.0166068 -0.202922
v -0.339063 -0.00832639 -0.207612
v -0.330076 -0.0520471 -0.0986088
v -0.311299 -0.0491842 -0.12869
v -0.286583 -0.0469005 -0.156584
v -0.254974 -0.0459095 -0.181914
v -0.290915 -0.0637578 -0.0972283
v -0.275788 -0.0600655 -0.126187
v -0.256653 -0.0569076 -0.152148
v -0.233033 -0.0551029 -0.174321
v -0.248188 -0.0750915 -0.0978665
v -0.237044 -0.0703809 -0.126399
v -0.225596 -0.0658631 -0.150419
v -0.215667 -0.0622704 -0.167908
v -0.343663 -0.0548016 -0.0667538
v -0.302336 -0.0671973 -0.0660532
v -0.257362 -0.0792756 -0.0666396
v -0.352005 -0.0568636 -0.0336912
v -0.309629 -0.0697227 -0.0334069
v -0.26352 -0.0822658 -0.0337483
v -0.466628 0.0124668 -0.112326
v -0.465069 0.00528943 -0.112328
v -0.457341 -0.00176883 -0.111508
v -0.485329 0.0127189 -0.075661
v -0.483747 0.00530697 -0.0756622
v -0.475834 -0.0020238 -0.0751067
v -0.496179 0.0129128 -0.0380736
v -0.494589 0.00532048 -0.0380742
v -0.486584 -0.00221993 -0.0377937
v -0.462212 0.0206199 -0.111555
v -0.480782 0.0210991 -0.0751387
v -0.491562 0.0214678 -0.0378098
v -0.452016 0.0306052 -0.110069
v -0.47031 0.0313351 -0.074131
v -0.480942 0.0318966 -0.0373009
v -0.436234 0.0432795 -0.10792
v -0.454114 0.044314 -0.0726737
v -0.464528 0.0451098 -0.0365649
v -0.439574 0.0122147 -0.147607
v -0.435356 0.0201406 -0.146604
v -0.42559 0.0298754 -0.14467
v -0.410462 0.042245 -0.141873
v -0.403661 0.0120209 -0.181042
v -0.399718 0.0197719 -0.179829
v -0.390564 0.0293139 -0.177487
v -0.376369 0.0414492 -0.1741
v -0.358388 0.0119433 -0.212172
v -0.354805 0.0196245 -0.210773
v -0.346467 0.0290893 -0.208074
v -0.333527 0.0411308 -0.204171
v -0.43806 0.00527189 -0.147609
v -0.402223 0.00525841 -0.181045
v -0.357061 0.00525302 -0.212175
v -0.430631 -0.00151386 -0.146543
v -0.395231 -0.00131771 -0.179754
v -0.35067 -0.00123926 -0.210687
v -0.101719 0.192592 -0.11104
v -0.105301 0.199956 -0.0754355
v -0.108148 0.204508 -0.0381503
v -0.048844 0.199956 -0.116039
v -0.0510109 0.207747 -0.078767
v -0.0528457 0.212524 -0.0398158
v 0.00541643 0.204508 -0.119639
v 0.00450244 0.212524 -0.0811917
v 0.00364202 0.217421 -0.0410354
v 0.0603364 0.206067 -0.121022
v 0.0606176 0.214146 -0.0821289
v 0.0607212 0.219081 -0.0415087
v -0.09845 0.18257 -0.14413
v -0.0471027 0.189276 -0.150793
v 0.0059549 0.193495 -0.155525
v 0.0597887 0.19496 -0.157325
v -0.0969357 0.169915 -0.173891
v -0.0466611 0.1758 -0.182197
v 0.00567423 0.179598 -0.187994
v 0.0588858 0.180945 -0.190173
v -0.0987142 0.154619 -0.199513
v -0.0484222 0.159609 -0.209421
v 0.00412721 0.162932 -0.216195
v 0.0575389 0.164139 -0.218704
v -0.152516 0.18257 -0.105512
v -0.147212 0.17358 -0.136641
v -0.143943 0.162263 -0.164333
v -0.145014 0.148513 -0.187747
v -0.200684 0.169915 -0.100507
v -0.192753 0.162263 -0.129837
v -0.186387 0.153003 -0.155374
v -0.184228 0.142251 -0.175977
v -0.245705 0.154619 -0.097127
v -0.234496 0.148513 -0.125333
v -0.222952 0.142251 -0.149014
v -0.212924 0.136898 -0.166202
v -0.157756 0.189276 -0.0717916
v -0.207807 0.1758 -0.068485
v -0.254894 0.159609 -0.0661794
v -0.161672 0.193495 -0.0363408
v -0.212831 0.179598 -0.0346965
v -0.261038 0.162932 -0.0335281
v 0.219672 0.192592 -0.11104
v 0.168622 0.199956 -0.116039
v 0.115111 0.204508 -0.119639
v 0.224043 0.199956 -0.0754355
v 0.171481 0.207747 -0.078767
v 0.116627 0.212524 -0.0811917
v 0.227181 0.204508 -0.0381503
v 0.173571 0.212524 -0.0398158
v 0.11771 0.217421 -0.0410354
v 0.267101 0.18257 -0.105512
v 0.273188 0.189276 -0.0717916
v 0.277416 0.193495 -0.0363408
v 0.309902 0.169915 -0.100507
v 0.317837 0.1758 -0.068485
v 0.323159 0.179598 -0.0346965
v 0.347106 0.154619 -0.097127
v 0.35692 0.159609 -0.0661794
v 0.363294 0.162932 -0.0335281
v 0.214862 0.18257 -0.14413
v 0.260142 0.17358 -0.136641
v 0.300409 0.162263 -0.129837
v 0.334772 0.148513 -0.125333
v 0.210786 0.169915 -0.173891
v 0.254117 0.162263 -0.164333
v 0.291563 0.153003 -0.155374
v 0.321867 0.142251 -0.149014
v 0.208708 0.154619 -0.199513
v 0.251033 0.148513 -0.187747
v 0.285859 0.142251 -0.175977
v 0.310595 0.136898 -0.166202
v 0.165532 0.189276 -0.150793
v 0.16286 0.1758 -0.182197
v 0.161283 0.159609 -0.209421
v 0.1134 0.193495 -0.155525
v 0.111747 0.179598 -0.187994
v 0.110407 0.162932 -0.216195
v 0.480099 0.0124668 -0.112326
v 0.497182 0.0127189 -0.075661
v 0.507437 0.0129128 -0.0380736
v 0.480105 0.00528943 -0.112328
v 0.497189 0.00530697 -0.0756622
v 0.507444 0.00532047 -0.0380742
v 0.477072 -0.00176883 -0.111508
v 0.494043 -0.0020238 -0.0751067
v 0.504231 -0.00221993 -0.0377937
v 0.470806 -0.00956459 -0.109815
v 0.487542 -0.0101608 -0.0739588
v 0.497592 -0.0106193 -0.0372139
v 0.456193 0.0122147 -0.147607
v 0.456199 0.00527189 -0.147609
v 0.453329 -0.00151386 -0.146543
v 0.447397 -0.00896842 -0.144339
v 0.425473 0.0120208 -0.181042
v 0.425478 0.00525841 -0.181045
v 0.42282 -0.00131771 -0.179754
v 0.417327 -0.00850983 -0.177086
v 0.387944 0.0119433 -0.212172
v 0.387949 0.00525302 -0.212175
v 0.385555 -0.00123926 -0.210687
v 0.380608 -0.00832639 -0.207613
v 0.477248 0.0206199 -0.111555
v 0.453495 0.0201406 -0.146604
v 0.422974 0.0197719 -0.179829
v 0.385693 0.0196245 -0.210773
v 0.471747 0.0306052 -0.110069
v 0.448288 0.0298754 -0.14467
v 0.418152 0.0293139 -0.177487
v 0.381352 0.0290893 -0.208074
v 0.463792 0.0432795 -0.10792
v 0.440758 0.042245 -0.141873
v 0.411179 0.0414492 -0.1741
v 0.375072 0.0411308 -0.204171
v 0.494224 0.0210991 -0.0751387
v 0.488518 0.0313351 -0.074131
v 0.480265 0.044314 -0.0726737
v 0.504417 0.0214678 -0.0378098
v 0.498589 0.0318965 -0.0373009
v 0.490161 0.0451098 -0.0365649
v 0.430256 -0.0403732 -0.101201
v 0.447673 -0.0291447 -0.104259
v 0.461096 -0.0187482 -0.107278
v 0.445024 -0.0424964 -0.0682938
v 0.46341 -0.0306882 -0.0702436
v 0.477451 -0.0197769 -0.0722453
v 0.454001 -0.0441063 -0.0344047
v 0.472897 -0.0318686 -0.035353
v 0.487281 -0.0205674 -0.0363504
v 0.408501 -0.0520471 -0.0986087
v 0.421883 -0.0548016 -0.0667538
v 0.43015 -0.0568636 -0.0336912
v 0.381826 -0.0637578 -0.0972283
v 0.393505 -0.0671973 -0.0660532
v 0.400893 -0.0697227 -0.0334069
v 0.34959 -0.0750915 -0.0978665
v 0.359389 -0.0792756 -0.0666396
v 0.365777 -0.0822658 -0.0337483
v 0.409793 -0.0382072 -0.132657
v 0.39021 -0.0491842 -0.12869
v 0.366314 -0.0600655 -0.126187
v 0.337321 -0.0703809 -0.126399
v 0.383494 -0.0365177 -0.162281
v 0.36676 -0.0469005 -0.156584
v 0.347178 -0.0569076 -0.152148
v 0.324511 -0.0658631 -0.150419
v 0.351159 -0.0358364 -0.189713
v 0.337786 -0.0459095 -0.181914
v 0.324569 -0.0551029 -0.174321
v 0.313339 -0.0622704 -0.167908
v 0.425731 -0.0275886 -0.136968
v 0.397557 -0.0263846 -0.167966
v 0.363107 -0.0259014 -0.196854
v 0.438234 -0.0177178 -0.14102
v 0.408879 -0.0169244 -0.173043
v 0.373039 -0.0166068 -0.202922
v 0.220082 -0.103207 -0.111295
v 0.224381 -0.109569 -0.0755408
v 0.227495 -0.113748 -0.0381836
v 0.168792 -0.109569 -0.116248
v 0.171596 -0.116347 -0.0788379
v 0.173666 -0.120748 -0.0398305
v 0.115165 -0.113748 -0.119834
v 0.116651 -0.120748 -0.0812504
v 0.117723 -0.125272 -0.0410434
v 0.0603364 -0.115251 -0.121216
v 0.0606176 -0.122317 -0.0821861
v 0.0607212 -0.126878 -0.0415157
v 0.21542 -0.095125 -0.14465
v 0.165812 -0.100861 -0.151265
v 0.113513 -0.104711 -0.155984
v 0.0597888 -0.106118 -0.157784
v 0.211594 -0.0856533 -0.174828
v 0.163324 -0.09063 -0.183098
v 0.111956 -0.0940723 -0.188889
v 0.0588859 -0.0953581 -0.19107
v 0.209898 -0.0750915 -0.201057
v 0.162024 -0.0792756 -0.210955
v 0.110762 -0.0822658 -0.217738
v 0.057539 -0.083408 -0.220254
v 0.267937 -0.095125 -0.105858
v 0.26114 -0.0879953 -0.13726
v 0.255396 -0.079695 -0.165356
v 0.252749 -0.0703809 -0.189331
v 0.31141 -0.0856533 -0.101009
v 0.302055 -0.079695 -0.130632
v 0.293452 -0.0730299 -0.156549
v 0.288119 -0.0658631 -0.17762
v 0.27395 -0.100861 -0.0719654
v 0.319286 -0.09063 -0.0687731
v 0.278155 -0.104711 -0.0364106
v 0.324598 -0.0940723 -0.0348266
v -0.102129 -0.103207 -0.111295
v -0.0490141 -0.109569 -0.116248
v 0.00536245 -0.113748 -0.119834
v -0.105639 -0.109569 -0.0755408
v -0.0511255 -0.116347 -0.0788379
v 0.00447842 -0.120748 -0.0812504
v -0.108462 -0.113748 -0.0381836
v -0.0529405 -0.120748 -0.0398305
v 0.00362896 -0.125272 -0.0410434
v -0.153353 -0.095125 -0.105858
v -0.158518 -0.100861 -0.0719653
v -0.162412 -0.104711 -0.0364106
v -0.202192 -0.0856533 -0.101009
v -0.209257 -0.09063 -0.0687731
v -0.21427 -0.0940723 -0.0348266
v -0.0990072 -0.095125 -0.14465
v -0.14821 -0.0879953 -0.13726
v -0.1944 -0.079695 -0.130632
v -0.097743 -0.0856533 -0.174828
v -0.145221 -0.079695 -0.165356
v -0.188276 -0.0730299 -0.156549
v -0.099904 -0.0750915 -0.201057
v -0.14673 -0.0703809 -0.189331
v -0.186488 -0.0658631 -0.17762
v -0.0473828 -0.100861 -0.151265
v -0.0471248 -0.09063 -0.183098
v -0.0491627 -0.0792756 -0.210955
v 0.00584232 -0.104711 -0.155984
v 0.00546475 -0.0940723 -0.188889
v 0.00377281 -0.0822658 -0.217738
v 0.219797 -0.0403732 -0.254498
v 0.166655 -0.0424964 -0.268475
v 0.110142 -0.0441063 -0.277478
v 0.0511447 -0.0447447 -0.280665
v 0.224949 -0.0291447 -0.265606
v 0.169476 -0.0306882 -0.28032
v 0.1105 -0.0318686 -0.289714
v 0.0487765 -0.0323391 -0.293017
v 0.229727 -0.0187482 -0.274053
v 0.172189 -0.0197769 -0.289201
v 0.110912 -0.0205674 -0.298836
v 0.0465859 -0.0208834 -0.302212
v 0.233606 -0.00956459 -0.280104
v 0.174422 -0.0101608 -0.295495
v 0.111249 -0.0106193 -0.30527
v 0.0447505 -0.0108028 -0.308693
v 0.268721 -0.0382072 -0.236334
v 0.276176 -0.0275886 -0.24633
v 0.282836 -0.0177178 -0.254134
v 0.28814 -0.00896842 -0.259834
v 0.312729 -0.0365177 -0.214563
v 0.322458 -0.0263846 -0.223186
v 0.330834 -0.0169244 -0.23018
v 0.337362 -0.00850983 -0.235425
v 0.214891 -0.0520471 -0.240408
v 0.26124 -0.0491842 -0.223949
v 0.302429 -0.0469005 -0.204338
v 0.211228 -0.0637578 -0.222794
v 0.255319 -0.0600655 -0.208532
v 0.293488 -0.0569076 -0.192169
v 0.164126 -0.0548016 -0.253275
v 0.162403 -0.0671973 -0.23426
v 0.109969 -0.0568636 -0.261695
v 0.110126 -0.0697227 -0.241929
v 0.053513 -0.0576749 -0.264715
v 0.0557036 -0.0707044 -0.244725
v 0.237346 0.0124668 -0.285879
v 0.237382 0.00528943 -0.285884
v 0.236164 -0.00176883 -0.283999
v 0.17645 0.0127189 -0.301487
v 0.176531 0.00530697 -0.301491
v 0.175874 -0.0020238 -0.299536
v 0.111245 0.0129128 -0.31139
v 0.1114 0.00532047 -0.311394
v 0.111411 -0.00221993 -0.309397
v 0.0423528 0.0129903 -0.314854
v 0.0426192 0.00532588 -0.314858
v 0.0434184 -0.00229838 -0.312848
v 0.23614 0.0206199 -0.284107
v 0.175689 0.0210991 -0.299648
v 0.110975 0.0214678 -0.309512
v 0.0426193 0.0216153 -0.312964
v 0.233849 0.0306052 -0.280688
v 0.174305 0.0313351 -0.296102
v 0.110619 0.0318965 -0.30589
v 0.0434185 0.0321211 -0.309317
v 0.230558 0.0432795 -0.275744
v 0.172355 0.044314 -0.290972
v 0.110206 0.0451098 -0.300651
v 0.0447506 0.0454281 -0.304043
v 0.293309 0.0122147 -0.265302
v 0.291706 0.0201406 -0.263624
v 0.288624 0.0298754 -0.260388
v 0.284172 0.042245 -0.255707
v 0.343716 0.0120208 -0.240488
v 0.341764 0.0197719 -0.238934
v 0.338 0.0293139 -0.235938
v 0.332558 0.0414492 -0.231603
v 0.293322 0.00527189 -0.265306
v 0.343721 0.00525841 -0.240491
v 0.291636 -0.00151386 -0.263521
v 0.341648 -0.00131771 -0.238839
v -0.173322 0.0124668 -0.285879
v -0.101958 0.0127189 -0.301487
v -0.029348 0.0129128 -0.31139
v -0.172525 0.00528943 -0.285883
v -0.101358 0.00530697 -0.301491
v -0.0289296 0.00532047 -0.311394
v -0.168809 -0.00176883 -0.283998
v -0.0986583 -0.0020238 -0.299535
v -0.0272202 -0.00221993 -0.309397
v -0.162089 -0.00956459 -0.280103
v -0.0938018 -0.0101608 -0.295494
v -0.0241906 -0.0106193 -0.30527
v -0.241284 0.0122147 -0.265302
v -0.240291 0.00527189 -0.265305
v -0.235586 -0.00151386 -0.263521
v -0.227058 -0.00896842 -0.259834
v -0.303691 0.0120208 -0.240488
v -0.302517 0.00525841 -0.240491
v -0.296902 -0.00131771 -0.238839
v -0.286714 -0.00850983 -0.235425
v -0.171283 0.0206199 -0.284107
v -0.238675 0.0201406 -0.263624
v -0.30056 0.0197719 -0.238934
v -0.166494 0.0306052 -0.280688
v -0.232573 0.0298754 -0.260388
v -0.293255 0.0293139 -0.235938
v -0.15904 0.0432795 -0.275744
v -0.22309 0.042245 -0.255707
v -0.28191 0.0414492 -0.231603
v -0.100516 0.0210991 -0.299648
v -0.0970887 0.0313351 -0.296102
v -0.0917346 0.044314 -0.290972
v -0.0285043 0.0214678 -0.309512
v -0.0264275 0.0318965 -0.30589
v -0.0231465 0.0451098 -0.300651
v -0.12857 -0.0403732 -0.254498
v -0.140931 -0.0291447 -0.265606
v -0.152484 -0.0187482 -0.274053
v -0.0697741 -0.0424964 -0.268475
v -0.0785906 -0.0306882 -0.280319
v -0.0868813 -0.0197769 -0.289201
v -0.00932775 -0.0441063 -0.277477
v -0.0147771 -0.0318686 -0.289714
v -0.0199022 -0.0205674 -0.298835
v -0.116611 -0.0520471 -0.240408
v -0.0612965 -0.0548016 -0.253275
v -0.00406911 -0.0568636 -0.261695
v -0.106538 -0.0637578 -0.222794
v -0.0541038 -0.0671973 -0.23426
v 0.000473646 -0.0697227 -0.241929
v -0.184087 -0.0382072 -0.236334
v -0.168434 -0.0491842 -0.223949
v -0.155224 -0.0600655 -0.208532
v -0.234688 -0.0365177 -0.214563
v -0.215113 -0.0469005 -0.204338
v -0.198111 -0.0569076 -0.192169
v -0.200063 -0.0275886 -0.24633
v -0.25425 -0.0263846 -0.223186
v -0.214843 -0.0177178 -0.254134
v -0.27209 -0.0169244 -0.23018
v 0.423796 0.0973108 -0.0994446
v 0.438345 0.0998336 -0.0671102
v 0.447188 0.101696 -0.0338092
v 0.440304 0.077546 -0.102265
v 0.455772 0.0794579 -0.0688935
v 0.465099 0.0809055 -0.0346718
v 0.453453 0.0591774 -0.105213
v 0.469523 0.0605992 -0.070845
v 0.479185 0.06169 -0.0356434
v 0.403639 0.0946445 -0.130354
v 0.418744 0.0755916 -0.134367
v 0.430999 0.0577502 -0.138331
v 0.377752 0.0925154 -0.159478
v 0.391074 0.0740651 -0.164813
v 0.402177 0.0566495 -0.169787
v 0.34596 0.0916453 -0.186481
v 0.357261 0.073449 -0.19322
v 0.367002 0.0562086 -0.19917
v 0.403322 0.117411 -0.0971845
v 0.385219 0.11381 -0.126796
v 0.362039 0.110819 -0.154256
v 0.333463 0.10948 -0.179227
v 0.378054 0.136844 -0.0961645
v 0.362596 0.13209 -0.124732
v 0.343555 0.127793 -0.15032
v 0.321136 0.125189 -0.172186
v 0.416563 0.120674 -0.0658049
v 0.389676 0.140943 -0.0653607
v 0.424735 0.123002 -0.033217
v 0.397013 0.143767 -0.0330656
v 0.216971 0.0973108 -0.250482
v 0.16475 0.0998336 -0.264323
v 0.109184 0.101696 -0.273243
v 0.0511447 0.102423 -0.276402
v 0.2126 0.117411 -0.237189
v 0.162599 0.120674 -0.249967
v 0.109205 0.123002 -0.258329
v 0.0535129 0.123891 -0.261328
v 0.209516 0.136844 -0.220449
v 0.161288 0.140943 -0.23188
v 0.109576 0.143766 -0.239517
v 0.0557035 0.144818 -0.242299
v 0.265015 0.0946445 -0.232508
v 0.258193 0.11381 -0.220847
v 0.252978 0.13209 -0.206221
v 0.308218 0.0925154 -0.210994
v 0.298685 0.110819 -0.201404
v 0.290546 0.127793 -0.189916
v 0.22174 0.077546 -0.261025
v 0.271991 0.0755916 -0.241987
v 0.317385 0.0740651 -0.219156
v 0.226404 0.0591774 -0.269302
v 0.278511 0.0577502 -0.249637
v 0.325596 0.0566495 -0.226014
v 0.167304 0.079458 -0.275572
v 0.169937 0.0605992 -0.284273
v 0.109404 0.0809055 -0.284867
v 0.109774 0.06169 -0.293803
v 0.0487766 0.0814791 -0.288137
v 0.046586 0.0621257 -0.297146
v -0.125744 0.0973108 -0.250482
v -0.0678699 0.0998336 -0.264323
v -0.00836951 0.101696 -0.273243
v -0.137722 0.077546 -0.261025
v -0.0764185 0.0794579 -0.275572
v -0.0136811 0.0809055 -0.284867
v -0.149161 0.0591774 -0.269302
v -0.0846286 0.0605992 -0.284273
v -0.0187646 0.06169 -0.293803
v -0.180381 0.0946445 -0.232508
v -0.195879 0.0755916 -0.241987
v -0.210517 0.0577502 -0.249637
v -0.230178 0.0925154 -0.210994
v -0.249178 0.0740651 -0.219156
v -0.266852 0.0566495 -0.226014
v -0.273532 0.0916453 -0.186481
v -0.295908 0.073449 -0.19322
v -0.316321 0.0562086 -0.19917
v -0.114319 0.117411 -0.237189
v -0.165386 0.11381 -0.220847
v -0.211368 0.110819 -0.201404
v -0.250652 0.10948 -0.179227
v -0.104826 0.136844 -0.220449
v -0.152883 0.13209 -0.206221
v -0.195169 0.127793 -0.189916
v -0.2296 0.125189 -0.172186
v -0.0597697 0.120674 -0.249967
v -0.0529895 0.140943 -0.23188
v -0.00330599 0.123002 -0.258329
v 0.00102271 0.143767 -0.239517
v -0.358944 0.0973108 -0.0994446
v -0.374146 0.0998336 -0.0671102
v -0.383229 0.101696 -0.0338092
v -0.324898 0.117411 -0.0971845
v -0.338343 0.120674 -0.0658049
v -0.34659 0.123002 -0.033217
v -0.287144 0.136844 -0.0961645
v -0.298507 0.140943 -0.0653607
v -0.305749 0.143766 -0.0330656
v -0.337476 0.0946445 -0.130354
v -0.306308 0.11381 -0.126796
v -0.27207 0.13209 -0.124732
v -0.309214 0.0925154 -0.159478
v -0.281862 0.110819 -0.154256
v -0.25303 0.127793 -0.15032
v -0.389174 0.077546 -0.102265
v -0.365664 0.0755916 -0.134367
v -0.334716 0.0740651 -0.164813
v -0.415122 0.0591774 -0.105213
v -0.390257 0.0577502 -0.138331
v -0.357451 0.0566495 -0.169787
v -0.405637 0.079458 -0.0688935
v -0.43243 0.0605992 -0.070845
v -0.415332 0.0809055 -0.0346718
v -0.442548 0.06169 -0.0356434

#	               Face list

usemtl Default
f 2 6 5 1
f 3 7 6 2
f 4 8 7 3
f 6 10 9 5
f 7 11 10 6
f 8 12 11 7
f 10 14 13 9
f 11 15 14 10
f 12 16 15 11
f 5 18 17 1
f 9 19 18 5
f 13 20 19 9
f 18 22 21 17
f 19 23 22 18
f 20 24 23 19
f 22 26 25 21
f 23 27 26 22
f 24 28 27 23
f 17 30 29 1
f 21 31 30 17
f 25 32 31 21
f 30 34 33 29
f 31 35 34 30
f 32 36 35 31
f 34 38 37 33
f 35 39 38 34
f 36 40 39 35
f 29 41 2 1
f 33 42 41 29
f 37 43 42 33
f 41 44 3 2
f 42 45 44 41
f 43 46 45 42
f 44 47 4 3
f 45 48 47 44
f 46 49 48 45
f 51 55 54 50
f 52 56 55 51
f 53 57 56 52
f 55 59 58 54
f 56 60 59 55
f 57 61 60 56
f 59 63 62 58
f 60 64 63 59
f 61 65 64 60
f 54 67 66 50
f 58 68 67 54
f 62 69 68 58
f 67 71 70 66
f 68 72 71 67
f 69 73 72 68
f 71 75 74 70
f 72 76 75 71
f 73 77 76 72
f 66 79 78 50
f 70 80 79 66
f 74 81 80 70
f 79 83 82 78
f 80 84 83 79
f 81 85 84 80
f 83 32 25 82
f 84 36 32 83
f 85 40 36 84
f 78 86 51 50
f 82 87 86 78
f 25 26 87 82
f 86 88 52 51
f 87 89 88 86
f 26 27 89 87
f 88 90 53 52
f 89 91 90 88
f 27 28 91 89
f 93 97 96 92
f 94 98 97 93
f 95 99 98 94
f 97 101 100 96
f 98 102 101 97
f 99 103 102 98
f 101 105 104 100
f 102 106 105 101
f 103 107 106 102
f 96 109 108 92
f 100 110 109 96
f 104 111 110 100
f 109 113 112 108
f 110 114 113 109
f 111 115 114 110
f 113 117 116 112
f 114 118 117 113
f 115 119 118 114
f 108 121 120 92
f 112 122 121 108
f 116 123 122 112
f 121 125 124 120
f 122 126 125 121
f 123 127 126 122
f 125 129 128 124
f 126 130 129 125
f 127 131 130 126
f 120 132 93 92
f 124 133 132 120
f 128 134 133 124
f 132 135 94 93
f 133 136 135 132
f 134 137 136 133
f 135 138 95 94
f 136 139 138 135
f 137 140 139 136
f 142 146 145 141
f 143 147 146 142
f 144 148 147 143
f 146 150 149 145
f 147 151 150 146
f 148 152 151 147
f 150 154 153 149
f 151 155 154 150
f 152 156 155 151
f 145 158 157 141
f 149 159 158 145
f 153 160 159 149
f 158 162 161 157
f 159 163 162 158
f 160 164 163 159
f 162 166 165 161
f 163 167 166 162
f 164 168 167 163
f 157 170 169 141
f 161 171 170 157
f 165 172 171 161
f 170 174 173 169
f 171 175 174 170
f 172 176 175 171
f 174 123 116 173
f 175 127 123 174
f 176 131 127 175
f 169 177 142 141
f 173 178 177 169
f 116 117 178 173
f 177 179 143 142
f 178 180 179 177
f 117 118 180 178
f 179 181 144 143
f 180 182 181 179
f 118 119 182 180
f 184 188 187 183
f 185 189 188 184
f 186 190 189 185
f 188 192 191 187
f 189 193 192 188
f 190 194 193 189
f 192 196 195 191
f 193 197 196 192
f 194 198 197 193
f 187 200 199 183
f 191 201 200 187
f 195 202 201 191
f 200 204 203 199
f 201 205 204 200
f 202 206 205 201
f 204 208 207 203
f 205 209 208 204
f 206 210 209 205
f 199 212 211 183
f 203 213 212 199
f 207 214 213 203
f 212 216 215 211
f 213 217 216 212
f 214 218 217 213
f 216 220 219 215
f 217 221 220 216
f 218 222 221 217
f 211 223 184 183
f 215 224 223 211
f 219 225 224 215
f 223 226 185 184
f 224 227 226 223
f 225 228 227 224
f 226 229 186 185
f 227 230 229 226
f 228 231 230 227
f 233 237 236 232
f 234 238 237 233
f 235 239 238 234
f 237 241 240 236
f 238 242 241 237
f 239 243 242 238
f 241 245 244 240
f 242 246 245 241
f 243 247 246 242
f 236 249 248 232
f 240 250 249 236
f 244 251 250 240
f 249 253 252 248
f 250 254 253 249
f 251 255 254 250
f 253 257 256 252
f 254 258 257 253
f 255 259 258 254
f 248 261 260 232
f 252 262 261 248
f 256 263 262 252
f 261 265 264 260
f 262 266 265 261
f 263 267 266 262
f 265 214 207 264
f 266 218 214 265
f 267 222 218 266
f 260 268 233 232
f 264 269 268 260
f 207 208 269 264
f 268 270 234 233
f 269 271 270 268
f 208 209 271 269
f 270 272 235 234
f 271 273 272 270
f 209 210 273 271
f 275 278 277 274
f 276 279 278 275
f 244 245 279 276
f 278 281 280 277
f 279 282 281 278
f 245 246 282 279
f 281 284 283 280
f 282 285 284 281
f 246 247 285 282
f 277 287 286 274
f 280 288 287 277
f 283 289 288 280
f 287 291 290 286
f 288 292 291 287
f 289 293 292 288
f 291 295 294 290
f 292 296 295 291
f 293 297 296 292
f 286 299 298 274
f 290 300 299 286
f 294 301 300 290
f 299 303 302 298
f 300 304 303 299
f 301 305 304 300
f 303 307 306 302
f 304 308 307 303
f 305 309 308 304
f 298 310 275 274
f 302 311 310 298
f 306 312 311 302
f 310 313 276 275
f 311 314 313 310
f 312 315 314 311
f 313 251 244 276
f 314 255 251 313
f 315 259 255 314
f 317 321 320 316
f 318 322 321 317
f 319 323 322 318
f 321 325 324 320
f 322 326 325 321
f 323 327 326 322
f 325 8 4 324
f 326 12 8 325
f 327 16 12 326
f 320 329 328 316
f 324 330 329 320
f 4 47 330 324
f 329 332 331 328
f 330 333 332 329
f 47 48 333 330
f 332 335 334 331
f 333 336 335 332
f 48 49 336 333
f 328 338 337 316
f 331 339 338 328
f 334 340 339 331
f 338 342 341 337
f 339 343 342 338
f 340 344 343 339
f 342 301 294 341
f 343 305 301 342
f 344 309 305 343
f 337 345 317 316
f 341 346 345 337
f 294 295 346 341
f 345 347 318 317
f 346 348 347 345
f 295 296 348 346
f 347 349 319 318
f 348 350 349 347
f 296 297 350 348
f 352 355 354 351
f 353 356 355 352
f 283 284 356 353
f 355 358 357 354
f 356 359 358 355
f 284 285 359 356
f 358 239 235 357
f 359 243 239 358
f 285 247 243 359
f 354 361 360 351
f 357 362 361 354
f 235 272 362 357
f 361 364 363 360
f 362 365 364 361
f 272 273 365 362
f 364 367 366 363
f 365 368 367 364
f 273 210 368 365
f 360 370 369 351
f 363 371 370 360
f 366 372 371 363
f 370 374 373 369
f 371 375 374 370
f 372 376 375 371
f 374 378 377 373
f 375 379 378 374
f 376 380 379 375
f 369 381 352 351
f 373 382 381 369
f 377 383 382 373
f 381 384 353 352
f 382 385 384 381
f 383 386 385 382
f 384 289 283 353
f 385 293 289 384
f 386 297 293 385
f 388 391 390 387
f 389 392 391 388
f 195 196 392 389
f 391 394 393 390
f 392 395 394 391
f 196 197 395 392
f 394 397 396 393
f 395 398 397 394
f 197 198 398 395
f 390 400 399 387
f 393 401 400 390
f 396 402 401 393
f 400 404 403 399
f 401 405 404 400
f 402 406 405 401
f 404 408 407 403
f 405 409 408 404
f 406 410 409 405
f 399 412 411 387
f 403 413 412 399
f 407 414 413 403
f 412 416 415 411
f 413 417 416 412
f 414 418 417 413
f 416 372 366 415
f 417 376 372 416
f 418 380 376 417
f 411 419 388 387
f 415 420 419 411
f 366 367 420 415
f 419 421 389 388
f 420 422 421 419
f 367 368 422 420
f 421 202 195 389
f 422 206 202 421
f 368 210 206 422
f 424 428 427 423
f 425 429 428 424
f 426 430 429 425
f 428 432 431 427
f 429 433 432 428
f 430 434 433 429
f 432 57 53 431
f 433 61 57 432
f 434 65 61 433
f 427 436 435 423
f 431 437 436 427
f 53 90 437 431
f 436 439 438 435
f 437 440 439 436
f 90 91 440 437
f 439 442 441 438
f 440 443 442 439
f 91 28 443 440
f 435 445 444 423
f 438 446 445 435
f 441 447 446 438
f 445 449 448 444
f 446 450 449 445
f 447 451 450 446
f 449 414 407 448
f 450 418 414 449
f 451 380 418 450
f 444 452 424 423
f 448 453 452 444
f 407 408 453 448
f 452 454 425 424
f 453 455 454 452
f 408 409 455 453
f 454 456 426 425
f 455 457 456 454
f 409 410 457 455
f 459 462 461 458
f 460 463 462 459
f 13 14 463 460
f 462 465 464 461
f 463 466 465 462
f 14 15 466 463
f 465 323 319 464
f 466 327 323 465
f 15 16 327 466
f 461 468 467 458
f 464 469 468 461
f 319 349 469 464
f 468 471 470 467
f 469 472 471 468
f 349 350 472 469
f 471 383 377 470
f 472 386 383 471
f 350 297 386 472
f 467 474 473 458
f 470 475 474 467
f 377 378 475 470
f 474 477 476 473
f 475 478 477 474
f 378 379 478 475
f 477 447 441 476
f 478 451 447 477
f 379 380 451 478
f 473 479 459 458
f 476 480 479 473
f 441 442 480 476
f 479 481 460 459
f 480 482 481 479
f 442 443 482 480
f 481 20 13 460
f 482 24 20 481
f 443 28 24 482
f 484 487 486 483
f 485 488 487 484
f 153 154 488 485
f 487 490 489 486
f 488 491 490 487
f 154 155 491 488
f 490 493 492 489
f 491 494 493 490
f 155 156 494 491
f 486 496 495 483
f 489 497 496 486
f 492 498 497 489
f 496 500 499 495
f 497 501 500 496
f 498 502 501 497
f 500 190 186 499
f 501 194 190 500
f 502 198 194 501
f 495 504 503 483
f 499 505 504 495
f 186 229 505 499
f 504 507 506 503
f 505 508 507 504
f 229 230 508 505
f 507 510 509 506
f 508 511 510 507
f 230 231 511 508
f 503 512 484 483
f 506 513 512 503
f 509 514 513 506
f 512 515 485 484
f 513 516 515 512
f 514 517 516 513
f 515 160 153 485
f 516 164 160 515
f 517 168 164 516
f 519 522 521 518
f 520 523 522 519
f 396 397 523 520
f 522 525 524 521
f 523 526 525 522
f 397 398 526 523
f 525 498 492 524
f 526 502 498 525
f 398 198 502 526
f 521 528 527 518
f 524 529 528 521
f 492 493 529 524
f 528 531 530 527
f 529 532 531 528
f 493 494 532 529
f 531 148 144 530
f 532 152 148 531
f 494 156 152 532
f 527 534 533 518
f 530 535 534 527
f 144 181 535 530
f 534 537 536 533
f 535 538 537 534
f 181 182 538 535
f 537 540 539 536
f 538 541 540 537
f 182 119 541 538
f 533 542 519 518
f 536 543 542 533
f 539 544 543 536
f 542 545 520 519
f 543 546 545 542
f 544 547 546 543
f 545 402 396 520
f 546 406 402 545
f 547 410 406 546
f 549 552 551 548
f 550 553 552 549
f 104 105 553 550
f 552 555 554 551
f 553 556 555 552
f 105 106 556 553
f 555 558 557 554
f 556 559 558 555
f 106 107 559 556
f 551 561 560 548
f 554 562 561 551
f 557 563 562 554
f 561 565 564 560
f 562 566 565 561
f 563 567 566 562
f 565 430 426 564
f 566 434 430 565
f 567 65 434 566
f 560 569 568 548
f 564 570 569 560
f 426 456 570 564
f 569 572 571 568
f 570 573 572 569
f 456 457 573 570
f 572 544 539 571
f 573 547 544 572
f 457 410 547 573
f 568 574 549 548
f 571 575 574 568
f 539 540 575 571
f 574 576 550 549
f 575 577 576 574
f 540 541 577 575
f 576 111 104 550
f 577 115 111 576
f 541 119 115 577
f 579 582 581 578
f 580 583 582 579
f 62 63 583 580
f 582 585 584 581
f 583 586 585 582
f 63 64 586 583
f 585 563 557 584
f 586 567 563 585
f 64 65 567 586
f 581 588 587 578
f 584 589 588 581
f 557 558 589 584
f 588 591 590 587
f 589 592 591 588
f 558 559 592 589
f 591 99 95 590
f 592 103 99 591
f 559 107 103 592
f 587 594 593 578
f 590 595 594 587
f 95 138 595 590
f 594 597 596 593
f 595 598 597 594
f 138 139 598 595
f 597 600 599 596
f 598 601 600 597
f 139 140 601 598
f 593 602 579 578
f 596 603 602 593
f 599 604 603 596
f 602 605 580 579
f 603 606 605 602
f 604 607 606 603
f 605 69 62 580
f 606 73 69 605
f 607 77 73 606
f 609 612 611 608
f 610 613 612 609
f 37 38 613 610
f 612 615 614 611
f 613 616 615 612
f 38 39 616 613
f 615 618 617 614
f 616 619 618 615
f 39 40 619 616
f 611 621 620 608
f 614 622 621 611
f 617 623 622 614
f 621 625 624 620
f 622 626 625 621
f 623 627 626 622
f 625 629 628 624
f 626 630 629 625
f 627 631 630 626
f 620 633 632 608
f 624 634 633 620
f 628 635 634 624
f 633 637 636 632
f 634 638 637 633
f 635 639 638 634
f 637 641 640 636
f 638 642 641 637
f 639 643 642 638
f 632 644 609 608
f 636 645 644 632
f 640 646 645 636
f 644 647 610 609
f 645 648 647 644
f 646 649 648 645
f 647 43 37 610
f 648 46 43 647
f 649 49 46 648
f 651 654 653 650
f 652 655 654 651
f 617 618 655 652
f 654 657 656 653
f 655 658 657 654
f 618 619 658 655
f 657 81 74 656
f 658 85 81 657
f 619 40 85 658
f 653 660 659 650
f 656 661 660 653
f 74 75 661 656
f 660 663 662 659
f 661 664 663 660
f 75 76 664 661
f 663 666 665 662
f 664 667 666 663
f 76 77 667 664
f 659 669 668 650
f 662 670 669 659
f 665 671 670 662
f 669 673 672 668
f 670 674 673 669
f 671 675 674 670
f 673 677 676 672
f 674 678 677 673
f 675 679 678 674
f 668 680 651 650
f 672 681 680 668
f 676 682 681 672
f 680 683 652 651
f 681 684 683 680
f 682 685 684 681
f 683 623 617 652
f 684 627 623 683
f 685 631 627 684
f 687 690 689 686
f 688 691 690 687
f 128 129 691 688
f 690 693 692 689
f 691 694 693 690
f 129 130 694 691
f 693 696 695 692
f 694 697 696 693
f 130 131 697 694
f 689 699 698 686
f 692 700 699 689
f 695 701 700 692
f 699 703 702 698
f 700 704 703 699
f 701 705 704 700
f 703 707 706 702
f 704 708 707 703
f 705 709 708 704
f 698 711 710 686
f 702 712 711 698
f 706 713 712 702
f 711 715 714 710
f 712 716 715 711
f 713 717 716 712
f 715 719 718 714
f 716 720 719 715
f 717 721 720 716
f 710 722 687 686
f 714 723 722 710
f 718 724 723 714
f 722 725 688 687
f 723 726 725 722
f 724 727 726 723
f 725 134 128 688
f 726 137 134 725
f 727 140 137 726
f 729 732 731 728
f 730 733 732 729
f 695 696 733 730
f 732 735 734 731
f 733 736 735 732
f 696 697 736 733
f 735 172 165 734
f 736 176 172 735
f 697 131 176 736
f 731 738 737 728
f 734 739 738 731
f 165 166 739 734
f 738 741 740 737
f 739 742 741 738
f 166 167 742 739
f 741 744 743 740
f 742 745 744 741
f 167 168 745 742
f 737 747 746 728
f 740 748 747 737
f 743 749 748 740
f 747 751 750 746
f 748 752 751 747
f 749 753 752 748
f 751 755 754 750
f 752 756 755 751
f 753 757 756 752
f 746 758 729 728
f 750 759 758 746
f 754 760 759 750
f 758 761 730 729
f 759 762 761 758
f 760 763 762 759
f 761 701 695 730
f 762 705 701 761
f 763 709 705 762
f 765 768 767 764
f 766 769 768 765
f 219 220 769 766
f 768 771 770 767
f 769 772 771 768
f 220 221 772 769
f 771 774 773 770
f 772 775 774 771
f 221 222 775 772
f 767 777 776 764
f 770 778 777 767
f 773 779 778 770
f 777 781 780 776
f 778 782 781 777
f 779 783 782 778
f 781 785 784 780
f 782 786 785 781
f 783 787 786 782
f 776 789 788 764
f 780 790 789 776
f 784 791 790 780
f 789 793 792 788
f 790 794 793 789
f 791 795 794 790
f 793 797 796 792
f 794 798 797 793
f 795 799 798 794
f 788 800 765 764
f 792 801 800 788
f 796 802 801 792
f 800 803 766 765
f 801 804 803 800
f 802 805 804 801
f 803 225 219 766
f 804 228 225 803
f 805 231 228 804
f 807 810 809 806
f 808 811 810 807
f 773 774 811 808
f 810 813 812 809
f 811 814 813 810
f 774 775 814 811
f 813 263 256 812
f 814 267 263 813
f 775 222 267 814
f 809 816 815 806
f 812 817 816 809
f 256 257 817 812
f 816 819 818 815
f 817 820 819 816
f 257 258 820 817
f 819 822 821 818
f 820 823 822 819
f 258 259 823 820
f 815 825 824 806
f 818 826 825 815
f 821 827 826 818
f 825 829 828 824
f 826 830 829 825
f 827 831 830 826
f 829 833 832 828
f 830 834 833 829
f 831 835 834 830
f 824 836 807 806
f 828 837 836 824
f 832 838 837 828
f 836 839 808 807
f 837 840 839 836
f 838 841 840 837
f 839 779 773 808
f 840 783 779 839
f 841 787 783 840
f 843 846 845 842
f 844 847 846 843
f 306 307 847 844
f 846 849 848 845
f 847 850 849 846
f 307 308 850 847
f 849 852 851 848
f 850 853 852 849
f 308 309 853 850
f 845 855 854 842
f 848 856 855 845
f 851 857 856 848
f 855 859 858 854
f 856 860 859 855
f 857 861 860 856
f 859 863 862 858
f 860 864 863 859
f 861 865 864 860
f 854 867 866 842
f 858 868 867 854
f 862 869 868 858
f 867 871 870 866
f 868 872 871 867
f 869 873 872 868
f 871 827 821 870
f 872 831 827 871
f 873 835 831 872
f 866 874 843 842
f 870 875 874 866
f 821 822 875 870
f 874 876 844 843
f 875 877 876 874
f 822 823 877 875
f 876 312 306 844
f 877 315 312 876
f 823 259 315 877
f 879 882 881 878
f 880 883 882 879
f 851 852 883 880
f 882 885 884 881
f 883 886 885 882
f 852 853 886 883
f 885 340 334 884
f 886 344 340 885
f 853 309 344 886
f 881 888 887 878
f 884 889 888 881
f 334 335 889 884
f 888 891 890 887
f 889 892 891 888
f 335 336 892 889
f 891 646 640 890
f 892 649 646 891
f 336 49 649 892
f 887 894 893 878
f 890 895 894 887
f 640 641 895 890
f 894 897 896 893
f 895 898 897 894
f 641 642 898 895
f 897 900 899 896
f 898 901 900 897
f 642 643 901 898
f 893 902 879 878
f 896 903 902 893
f 899 904 903 896
f 902 905 880 879
f 903 906 905 902
f 904 907 906 903
f 905 857 851 880
f 906 861 857 905
f 907 865 861 906
f 909 913 912 908
f 910 914 913 909
f 911 915 914 910
f 913 917 916 912
f 914 918 917 913
f 915 919 918 914
f 917 921 920 916
f 918 922 921 917
f 919 923 922 918
f 912 925 924 908
f 916 926 925 912
f 920 927 926 916
f 925 929 928 924
f 926 930 929 925
f 927 931 930 926
f 929 838 832 928
f 930 841 838 929
f 931 787 841 930
f 924 933 932 908
f 928 934 933 924
f 832 833 934 928
f 933 936 935 932
f 934 937 936 933
f 833 834 937 934
f 936 869 862 935
f 937 873 869 936
f 834 835 873 937
f 932 938 909 908
f 935 939 938 932
f 862 863 939 935
f 938 940 910 909
f 939 941 940 938
f 863 864 941 939
f 940 942 911 910
f 941 943 942 940
f 864 865 943 941
f 945 948 947 944
f 946 949 948 945
f 920 921 949 946
f 948 951 950 947
f 949 952 951 948
f 921 922 952 949
f 951 954 953 950
f 952 955 954 951
f 922 923 955 952
f 947 957 956 944
f 950 958 957 947
f 953 959 958 950
f 957 961 960 956
f 958 962 961 957
f 959 963 962 958
f 961 965 964 960
f 962 966 965 961
f 963 967 966 962
f 956 969 968 944
f 960 970 969 956
f 964 971 970 960
f 969 973 972 968
f 970 974 973 969
f 971 975 974 970
f 973 791 784 972
f 974 795 791 973
f 975 799 795 974
f 968 976 945 944
f 972 977 976 968
f 784 785 977 972
f 976 978 946 945
f 977 979 978 976
f 785 786 979 977
f 978 927 920 946
f 979 931 927 978
f 786 787 931 979
f 981 984 983 980
f 982 985 984 981
f 953 954 985 982
f 984 987 986 983
f 985 988 987 984
f 954 955 988 985
f 987 990 989 986
f 988 991 990 987
f 955 923 991 988
f 983 993 992 980
f 986 994 993 983
f 989 995 994 986
f 993 997 996 992
f 994 998 997 993
f 995 999 998 994
f 997 682 676 996
f 998 685 682 997
f 999 631 685 998
f 992 1001 1000 980
f 996 1002 1001 992
f 676 677 1002 996
f 1001 1004 1003 1000
f 1002 1005 1004 1001
f 677 678 1005 1002
f 1004 1007 1006 1003
f 1005 1008 1007 1004
f 678 679 1008 1005
f 1000 1009 981 980
f 1003 1010 1009 1000
f 1006 1011 1010 1003
f 1009 1012 982 981
f 1010 1013 1012 1009
f 1011 1014 1013 1010
f 1012 959 953 982
f 1013 963 959 1012
f 1014 967 963 1013
f 1016 1019 1018 1015
f 1017 1020 1019 1016
f 989 990 1020 1017
f 1019 1022 1021 1018
f 1020 1023 1022 1019
f 990 991 1023 1020
f 1022 915 911 1021
f 1023 919 915 1022
f 991 923 919 1023
f 1018 1025 1024 1015
f 1021 1026 1025 1018
f 911 942 1026 1021
f 1025 1028 1027 1024
f 1026 1029 1028 1025
f 942 943 1029 1026
f 1028 904 899 1027
f 1029 907 904 1028
f 943 865 907 1029
f 1024 1031 1030 1015
f 1027 1032 1031 1024
f 899 900 1032 1027
f 1031 1034 1033 1030
f 1032 1035 1034 1031
f 900 901 1035 1032
f 1034 635 628 1033
f 1035 639 635 1034
f 901 643 639 1035
f 1030 1036 1016 1015
f 1033 1037 1036 1030
f 628 629 1037 1033
f 1036 1038 1017 1016
f 1037 1039 1038 1036
f 629 630 1039 1037
f 1038 995 989 1017
f 1039 999 995 1038
f 630 631 999 1039
f 1041 1044 1043 1040
f 1042 1045 1044 1041
f 509 510 1045 1042
f 1044 1047 1046 1043
f 1045 1048 1047 1044
f 510 511 1048 1045
f 1047 802 796 1046
f 1048 805 802 1047
f 511 231 805 1048
f 1043 1050 1049 1040
f 1046 1051 1050 1043
f 796 797 1051 1046
f 1050 1053 1052 1049
f 1051 1054 1053 1050
f 797 798 1054 1051
f 1053 1056 1055 1052
f 1054 1057 1056 1053
f 798 799 1057 1054
f 1049 1059 1058 1040
f 1052 1060 1059 1049
f 1055 1061 1060 1052
f 1059 1063 1062 1058
f 1060 1064 1063 1059
f 1061 1065 1064 1060
f 1063 749 743 1062
f 1064 753 749 1063
f 1065 757 753 1064
f 1058 1066 1041 1040
f 1062 1067 1066 1058
f 743 744 1067 1062
f 1066 1068 1042 1041
f 1067 1069 1068 1066
f 744 745 1069 1067
f 1068 514 509 1042
f 1069 517 514 1068
f 745 168 517 1069
f 1071 1075 1074 1070
f 1072 1076 1075 1071
f 1073 1077 1076 1072
f 1075 1079 1078 1074
f 1076 1080 1079 1075
f 1077 1081 1080 1076
f 1079 760 754 1078
f 1080 763 760 1079
f 1081 709 763 1080
f 1074 1083 1082 1070
f 1078 1084 1083 1074
f 754 755 1084 1078
f 1083 1086 1085 1082
f 1084 1087 1086 1083
f 755 756 1087 1084
f 1086 1061 1055 1085
f 1087 1065 1061 1086
f 756 757 1065 1087
f 1082 1089 1088 1070
f 1085 1090 1089 1082
f 1055 1056 1090 1085
f 1089 1092 1091 1088
f 1090 1093 1092 1089
f 1056 1057 1093 1090
f 1092 971 964 1091
f 1093 975 971 1092
f 1057 799 975 1093
f 1088 1094 1071 1070
f 1091 1095 1094 1088
f 964 965 1095 1091
f 1094 1096 1072 1071
f 1095 1097 1096 1094
f 965 966 1097 1095
f 1096 1098 1073 1072
f 1097 1099 1098 1096
f 966 967 1099 1097
f 1101 1104 1103 1100
f 1102 1105 1104 1101
f 1073 1098 1105 1102
f 1104 1107 1106 1103
f 1105 1108 1107 1104
f 1098 1099 1108 1105
f 1107 1011 1006 1106
f 1108 1014 1011 1107
f 1099 967 1014 1108
f 1103 1110 1109 1100
f 1106 1111 1110 1103
f 1006 1007 1111 1106
f 1110 1113 1112 1109
f 1111 1114 1113 1110
f 1007 1008 1114 1111
f 1113 1116 1115 1112
f 1114 1117 1116 1113
f 1008 679 1117 1114
f 1109 1119 1118 1100
f 1112 1120 1119 1109
f 1115 1121 1120 1112
f 1119 1123 1122 1118
f 1120 1124 1123 1119
f 1121 1125 1124 1120
f 1123 713 706 1122
f 1124 717 713 1123
f 1125 721 717 1124
f 1118 1126 1101 1100
f 1122 1127 1126 1118
f 706 707 1127 1122
f 1126 1128 1102 1101
f 1127 1129 1128 1126
f 707 708 1129 1127
f 1128 1077 1073 1102
f 1129 1081 1077 1128
f 708 709 1081 1129
f 1131 1134 1133 1130
f 1132 1135 1134 1131
f 599 600 1135 1132
f 1134 1137 1136 1133
f 1135 1138 1137 1134
f 600 601 1138 1135
f 1137 724 718 1136
f 1138 727 724 1137
f 601 140 727 1138
f 1133 1140 1139 1130
f 1136 1141 1140 1133
f 718 719 1141 1136
f 1140 1143 1142 1139
f 1141 1144 1143 1140
f 719 720 1144 1141
f 1143 1121 1115 1142
f 1144 1125 1121 1143
f 720 721 1125 1144
f 1139 1146 1145 1130
f 1142 1147 1146 1139
f 1115 1116 1147 1142
f 1146 1149 1148 1145
f 1147 1150 1149 1146
f 1116 1117 1150 1147
f 1149 671 665 1148
f 1150 675 671 1149
f 1117 679 675 1150
f 1145 1151 1131 1130
f 1148 1152 1151 1145
f 665 666 1152 1148
f 1151 1153 1132 1131
f 1152 1154 1153 1151
f 666 667 1154 1152
f 1153 604 599 1132
f 1154 607 604 1153
f 667 77 607 1154

#	             End of file
