v -0.055000 -0.092296 0.101445
v -0.056765 -0.092257 0.101475
v -0.060000 -0.092191 0.101526
v -0.051928 -0.092175 0.101539
v -0.051638 -0.092173 0.101540
v -0.050000 -0.092163 0.101547
v -0.061695 -0.092076 0.101615
v -0.063410 -0.092005 0.101669
v -0.049454 -0.091965 0.101700
v -0.047306 -0.090669 0.102694
v -0.046920 -0.090507 0.102819
v -0.055000 -0.090761 0.100000
v -0.046092 -0.090000 0.103207
v -0.060000 -0.090576 0.100000
v -0.050000 -0.090401 0.100000
v -0.063410 -0.090328 0.100000
v -0.045000 -0.089452 0.103628
v -0.063410 -0.090184 0.099898
v -0.044902 -0.089347 0.103709
v -0.049401 -0.090000 0.100000
v -0.063410 -0.090000 0.099774
v -0.050000 -0.090000 0.099717
v -0.060000 -0.090000 0.099610
v -0.055000 -0.090000 0.099484
v -0.044531 -0.088986 0.103986
v -0.044497 -0.088958 0.104007
v -0.042925 -0.087664 0.105000
v -0.063410 -0.088410 0.098887
v -0.041023 -0.086157 0.106157
v -0.040750 -0.085975 0.106296
v -0.040000 -0.085380 0.106752
v -0.039427 -0.085000 0.107044
v -0.045000 -0.086331 0.100000
v -0.040000 -0.085000 0.106387
v -0.041012 -0.085000 0.105000
v -0.038399 -0.084349 0.107543
v -0.044252 -0.085000 0.100000
v -0.036604 -0.083239 0.108396
v -0.045000 -0.084999 0.098975
v -0.040000 -0.083676 0.105000
v -0.063410 -0.085000 0.096929
v -0.060000 -0.085000 0.096819
v -0.035360 -0.082434 0.109013
v -0.055000 -0.085000 0.096528
v -0.050000 -0.084999 0.096496
v -0.035000 -0.082207 0.109188
v -0.033202 -0.081148 0.110000
v -0.063410 -0.083744 0.096350
v -0.031841 -0.080326 0.110631
v -0.031336 -0.080001 0.110881
v -0.032107 -0.080000 0.110000
v -0.030000 -0.079191 0.111502
v -0.035000 -0.080000 0.107015
v -0.050000 -0.082211 0.095000
v -0.029093 -0.078669 0.111902
v -0.036824 -0.080000 0.105000
v -0.055000 -0.081564 0.095000
v -0.040000 -0.080000 0.101521
v -0.027302 -0.077632 0.112698
v -0.045000 -0.081175 0.095000
v -0.060000 -0.081050 0.095000
v -0.041109 -0.080000 0.100000
v -0.030000 -0.077851 0.110000
v -0.063410 -0.080822 0.095000
v -0.025718 -0.076678 0.113430
v -0.063410 -0.080334 0.094775
v -0.025000 -0.076243 0.113763
v -0.044064 -0.080000 0.095000
v -0.035000 -0.077914 0.105000
v -0.063410 -0.080001 0.094626
v -0.060000 -0.080000 0.094531
v -0.055000 -0.080000 0.094324
v -0.045000 -0.080000 0.094262
v -0.050000 -0.080000 0.093898
v -0.040000 -0.078356 0.100000
v -0.022938 -0.075000 0.114718
v -0.022773 -0.074901 0.114794
v -0.022323 -0.074632 0.115000
v -0.025000 -0.075001 0.112485
v -0.063410 -0.078410 0.093968
v -0.027287 -0.075001 0.110000
v -0.030000 -0.075000 0.107285
v -0.020000 -0.073147 0.116139
v -0.019659 -0.072940 0.116298
v -0.032314 -0.075000 0.105000
v -0.035000 -0.075000 0.102354
v -0.017828 -0.071801 0.117172
v -0.020000 -0.072218 0.115000
v -0.037222 -0.075000 0.100000
v -0.025000 -0.072587 0.110000
v -0.016209 -0.070749 0.117979
v -0.040000 -0.075000 0.096607
v -0.041122 -0.075000 0.095000
v -0.015077 -0.070000 0.118554
v -0.015000 -0.069950 0.118593
v -0.030000 -0.072540 0.105000
v -0.063410 -0.075000 0.092465
v -0.060000 -0.075000 0.092462
v -0.055000 -0.075000 0.092253
v -0.050000 -0.075000 0.091883
v -0.014075 -0.069360 0.119045
v -0.045000 -0.075000 0.091400
v -0.017991 -0.070000 0.115000
v -0.063410 -0.068924 0.119380
v -0.013380 -0.068924 0.119381
v -0.020000 -0.070000 0.112807
v -0.035000 -0.072386 0.100000
v -0.040000 -0.073263 0.095000
v -0.022631 -0.070000 0.110000
v -0.063410 -0.073410 0.091724
v -0.011448 -0.067427 0.120000
v -0.025000 -0.070000 0.107561
v -0.027611 -0.070000 0.105000
v -0.030000 -0.070000 0.102707
v -0.010000 -0.066194 0.120510
v -0.010000 -0.065881 0.120000
v -0.032820 -0.070000 0.100000
v -0.045000 -0.072061 0.090000
v -0.009351 -0.065598 0.120757
v -0.015000 -0.066651 0.115000
v -0.035000 -0.070000 0.097907
v -0.008580 -0.065000 0.121005
v -0.020000 -0.067092 0.109999
v -0.008310 -0.064791 0.121092
v -0.009235 -0.065000 0.120000
v -0.037665 -0.070000 0.095000
v -0.010000 -0.065000 0.119102
v -0.050000 -0.070635 0.090000
v -0.025000 -0.067222 0.105000
v -0.040000 -0.070000 0.091431
v -0.013562 -0.065000 0.115000
v -0.055000 -0.070080 0.090001
v -0.063410 -0.070000 0.090141
v -0.060000 -0.070000 0.090130
v -0.056119 -0.070000 0.090000
v -0.055000 -0.069999 0.089966
v -0.042221 -0.070000 0.090000
v -0.063410 -0.069910 0.090100
v -0.050000 -0.070000 0.089729
v -0.015000 -0.065000 0.113427
v -0.045000 -0.070000 0.089132
v -0.060000 -0.069718 0.090000
v -0.063410 -0.069703 0.090000
v -0.018174 -0.065000 0.110000
v -0.030000 -0.066961 0.100000
v -0.020000 -0.065000 0.108094
v -0.040000 -0.068664 0.090000
v -0.005000 -0.061895 0.122292
v -0.004963 -0.061864 0.122304
v -0.023035 -0.065001 0.105000
v -0.025000 -0.065000 0.103083
v -0.035000 -0.066566 0.095000
v -0.028242 -0.065000 0.100000
v -0.002702 -0.060000 0.123076
v -0.030000 -0.065000 0.098381
v -0.005000 -0.060076 0.120000
v -0.063410 -0.066500 0.088490
v -0.004931 -0.060000 0.120000
v -0.005000 -0.060000 0.119928
v -0.033667 -0.065000 0.094999
v -0.010000 -0.060685 0.115000
v -0.035000 -0.065000 0.093554
v -0.001199 -0.058640 0.123640
v -0.015000 -0.061200 0.110000
v -0.009447 -0.060000 0.115000
v -0.010000 -0.060000 0.114412
v -0.037689 -0.065000 0.090000
v -0.063410 -0.065000 0.087803
v -0.060000 -0.065000 0.087838
v -0.055000 -0.065000 0.087753
v -0.020000 -0.061408 0.105000
v -0.050000 -0.065000 0.087535
v -0.040000 -0.065000 0.087447
v -0.045000 -0.065000 0.086973
v -0.014054 -0.060000 0.110000
v -0.015000 -0.060000 0.109004
v -0.025000 -0.061302 0.100000
v -0.018880 -0.060000 0.105000
v -0.020000 -0.060001 0.103894
v -0.000019 -0.055606 0.124896
v -0.063410 -0.063410 0.086998
v -0.000000 -0.055555 0.124918
v 0.000049 -0.055356 0.125000
v 0.000112 -0.055018 0.125140
v 0.000114 -0.055000 0.125148
v 0.000115 -0.055000 0.125000
v 0.000000 -0.055000 0.124198
v -0.023951 -0.060000 0.100000
v -0.025000 -0.060001 0.099007
v -0.030000 -0.060687 0.095000
v -0.000906 -0.055000 0.120000
v -0.029437 -0.060000 0.095000
v -0.030000 -0.060000 0.094482
v -0.040000 -0.061946 0.085000
v -0.035000 -0.060584 0.089999
v -0.005000 -0.055000 0.115684
v -0.005645 -0.055000 0.115000
v -0.034605 -0.060000 0.090000
v -0.035000 -0.060000 0.089442
v -0.045000 -0.060622 0.085000
v -0.005000 -0.054085 0.115000
v -0.010000 -0.055000 0.110373
v 0.000048 -0.051569 0.126569
v -0.010339 -0.055000 0.110000
v -0.063410 -0.060000 0.085275
v -0.060000 -0.060000 0.085308
v -0.055000 -0.060000 0.085247
v -0.050000 -0.060001 0.085062
v -0.049048 -0.060000 0.085000
v -0.038337 -0.060000 0.085000
v -0.045000 -0.060000 0.084706
v -0.063410 -0.059813 0.085177
v -0.050000 -0.059876 0.085000
v -0.040000 -0.060000 0.083853
v -0.010000 -0.054486 0.110000
v -0.055000 -0.059537 0.085000
v -0.063410 -0.059483 0.085000
v -0.060000 -0.059415 0.085000
v -0.015000 -0.055000 0.105120
v -0.015114 -0.054999 0.105000
v -0.015000 -0.054828 0.105000
v 0.000030 -0.050000 0.127219
v 0.000035 -0.050000 0.125000
v -0.020000 -0.055000 0.100215
v -0.020224 -0.055001 0.100000
v -0.000000 -0.050733 0.120000
v -0.020000 -0.054671 0.100000
v 0.000098 -0.050000 0.120000
v -0.025000 -0.055000 0.095513
v 0.000000 -0.050000 0.119529
v -0.025572 -0.055000 0.095000
v 0.000020 -0.048033 0.128033
v -0.030000 -0.055000 0.091032
v -0.025000 -0.054173 0.095000
v -0.001704 -0.050000 0.115000
v -0.063410 -0.056404 0.083328
v -0.031065 -0.055000 0.090000
v -0.005000 -0.050000 0.112098
v -0.007021 -0.050000 0.110000
v -0.035000 -0.055000 0.085311
v -0.035237 -0.055000 0.085000
v -0.035000 -0.054601 0.085000
v -0.010000 -0.050000 0.107012
v -0.060000 -0.055000 0.082627
v -0.063410 -0.055000 0.082575
v -0.055000 -0.055000 0.082567
v -0.050000 -0.055000 0.082382
v -0.045000 -0.055000 0.081747
v -0.030000 -0.053279 0.090000
v 0.000009 -0.044999 0.129290
v -0.011919 -0.050000 0.105000
v -0.040000 -0.055000 0.080614
v 0.000008 -0.044498 0.129498
v -0.015000 -0.050000 0.101966
v 0.000013 -0.045000 0.125000
v -0.040000 -0.054172 0.080000
v -0.016997 -0.050000 0.100000
v -0.063410 -0.053627 0.081738
v 0.000006 -0.043285 0.130000
v -0.020000 -0.050000 0.097184
v 0.000032 -0.045000 0.120001
v -0.022362 -0.050000 0.095000
v -0.005000 -0.046735 0.110000
v 0.000000 -0.045509 0.115000
v -0.025001 -0.050000 0.092600
v -0.045000 -0.052585 0.080000
v 0.000094 -0.045000 0.115001
v 0.000000 -0.045001 0.114750
v -0.027938 -0.050000 0.090000
v -0.010000 -0.046652 0.105000
v -0.030000 -0.050000 0.087907
v -0.050000 -0.051571 0.080000
v 0.000003 -0.040962 0.130962
v -0.003716 -0.045000 0.110000
v -0.032420 -0.050000 0.085000
v -0.005000 -0.045000 0.108974
v -0.055000 -0.050953 0.080000
v -0.063410 -0.050752 0.080000
v -0.060000 -0.050681 0.080000
v 0.000002 -0.040000 0.131361
v -0.015000 -0.046419 0.100000
v 0.000002 -0.040000 0.130000
v -0.063410 -0.050217 0.079641
v -0.009039 -0.045000 0.105000
v -0.035000 -0.050007 0.080000
v -0.034996 -0.050000 0.080000
v -0.035000 -0.050000 0.079994
v -0.010000 -0.045000 0.104097
v -0.060000 -0.050000 0.079560
v -0.063410 -0.050000 0.079501
v -0.055000 -0.050000 0.079321
v -0.050000 -0.050000 0.078696
v -0.045000 -0.050000 0.077729
v 0.000005 -0.040000 0.125001
v -0.040000 -0.050000 0.076621
v -0.014221 -0.045001 0.100000
v -0.015000 -0.045000 0.099282
v -0.020000 -0.045818 0.095000
v 0.000001 -0.037427 0.132427
v 0.000012 -0.040000 0.120000
v -0.019560 -0.045000 0.095000
v -0.063410 -0.048409 0.078199
v -0.020000 -0.045000 0.094592
v 0.000066 -0.040000 0.115000
v -0.000000 -0.040000 0.114350
v -0.025000 -0.044999 0.090018
v -0.025019 -0.045000 0.090000
v -0.025000 -0.044963 0.090000
v -0.063410 -0.035678 0.133151
v -0.000000 -0.035678 0.133151
v -0.030000 -0.045675 0.085000
v -0.000720 -0.040000 0.110000
v -0.000000 -0.035000 0.133240
v -0.040000 -0.047103 0.075000
v -0.045000 -0.047089 0.075000
v -0.029615 -0.045000 0.085000
v -0.030000 -0.045000 0.084261
v -0.005000 -0.040000 0.106267
v -0.000000 -0.035000 0.130000
v -0.006365 -0.040000 0.105000
v -0.050000 -0.046138 0.075000
v -0.032214 -0.045000 0.080000
v 0.000000 -0.033445 0.133445
v -0.010000 -0.040000 0.101639
v 0.000001 -0.035000 0.125000
v -0.035000 -0.045000 0.076181
v -0.011693 -0.040000 0.100000
v -0.063410 -0.045000 0.075510
v -0.060000 -0.045000 0.075468
v -0.055000 -0.045075 0.075000
v -0.055643 -0.045000 0.075000
v -0.055000 -0.044999 0.074915
v -0.037169 -0.045000 0.075000
v -0.063410 -0.044841 0.075361
v -0.040000 -0.045000 0.074214
v -0.050000 -0.045001 0.074026
v -0.045000 -0.045000 0.073671
v -0.015000 -0.040000 0.096990
v -0.060000 -0.044500 0.075000
v -0.063410 -0.044456 0.075000
v 0.000002 -0.035000 0.120000
v -0.017116 -0.040000 0.095000
v -0.020000 -0.040000 0.092339
v -0.005000 -0.037357 0.105000
v 0.000017 -0.035000 0.115000
v -0.022541 -0.040000 0.090000
v 0.000000 -0.035705 0.110000
v -0.025000 -0.040000 0.087158
v 0.000000 -0.030000 0.133899
v 0.000071 -0.035000 0.110000
v -0.030000 -0.041217 0.080000
v 0.000000 -0.035000 0.109791
v -0.026720 -0.040000 0.085000
v -0.010000 -0.036450 0.100000
v -0.000000 -0.030000 0.130000
v -0.000000 -0.029027 0.134027
v -0.003380 -0.035000 0.105000
v -0.029300 -0.040000 0.080000
v -0.040000 -0.040984 0.075001
v -0.005000 -0.035000 0.103878
v -0.030000 -0.040000 0.079159
v -0.063410 -0.041431 0.071853
v -0.000000 -0.030000 0.125000
v -0.035000 -0.040000 0.076015
v -0.009266 -0.035000 0.100000
v -0.040000 -0.040000 0.075207
v -0.010000 -0.035000 0.099367
v -0.040833 -0.040000 0.075000
v -0.045000 -0.040000 0.073820
v -0.015000 -0.035421 0.095000
v -0.050000 -0.040000 0.072392
v -0.000000 -0.030000 0.120000
v -0.055000 -0.040000 0.071123
v -0.025000 -0.037105 0.085000
v -0.014798 -0.035000 0.095000
v -0.060000 -0.040000 0.070512
v -0.015000 -0.035000 0.094809
v -0.063410 -0.040000 0.070426
v -0.020000 -0.035244 0.090000
v 0.000005 -0.030000 0.115000
v -0.019870 -0.035000 0.090000
v -0.020000 -0.035000 0.089842
v -0.063410 -0.038410 0.070553
v 0.000000 -0.025000 0.134557
v 0.000026 -0.030000 0.110000
v 0.000000 -0.030000 0.109494
v -0.023735 -0.035000 0.085000
v -0.000000 -0.024608 0.134608
v -0.025000 -0.035000 0.082429
v 0.000000 -0.025000 0.130000
v -0.000361 -0.030000 0.105000
v -0.026274 -0.035000 0.080000
v 0.000000 -0.025000 0.125001
v -0.030000 -0.035000 0.076859
v -0.005000 -0.030000 0.100950
v -0.035000 -0.035000 0.076571
v -0.040000 -0.035000 0.075878
v -0.006135 -0.030001 0.100000
v -0.044259 -0.035000 0.075000
v -0.045000 -0.035000 0.074840
v -0.050000 -0.035000 0.073635
v -0.055000 -0.035000 0.072381
v -0.010000 -0.030000 0.096688
v 0.000000 -0.025000 0.120000
v -0.025000 -0.033173 0.080000
v -0.060000 -0.035000 0.070911
v -0.011785 -0.030000 0.095000
v -0.000000 -0.021633 0.135000
v -0.063410 -0.035000 0.070028
v -0.005000 -0.028605 0.100000
v -0.015000 -0.030000 0.091687
v 0.000000 -0.025000 0.114999
v -0.016533 -0.030000 0.090000
v 0.000000 -0.020190 0.135190
v 0.000000 -0.020000 0.135215
v -0.000000 -0.020000 0.135000
v 0.000000 -0.019752 0.135248
v 0.000000 -0.025000 0.110000
v -0.020000 -0.030000 0.085392
v -0.020284 -0.030000 0.085000
v -0.063410 -0.032876 0.070290
v -0.010000 -0.027746 0.095000
v -0.020000 -0.029636 0.085000
v -0.000000 -0.020000 0.130000
v -0.000042 -0.025000 0.105000
v -0.015000 -0.028046 0.090000
v -0.022813 -0.030000 0.080000
v -0.063410 -0.031590 0.070460
v -0.063410 -0.031402 0.070480
v -0.025000 -0.030000 0.077531
v -0.000000 -0.020000 0.125000
v -0.030000 -0.030000 0.076296
v -0.035000 -0.030000 0.076223
v -0.001840 -0.025000 0.100000
v -0.040000 -0.030000 0.075631
v -0.043761 -0.030000 0.075000
v -0.045000 -0.030000 0.074781
v -0.050000 -0.030000 0.073750
v -0.005000 -0.025000 0.097239
v -0.055000 -0.030000 0.072640
v -0.000000 -0.020000 0.120000
v -0.060000 -0.030000 0.071457
v -0.063410 -0.030000 0.070633
v -0.007488 -0.025000 0.095000
v -0.010000 -0.025001 0.092564
v -0.000000 -0.020000 0.115000
v -0.012363 -0.025000 0.090001
v 0.000000 -0.015000 0.135873
v 0.000000 -0.015000 0.135000
v -0.063410 -0.028410 0.070343
v -0.020000 -0.026372 0.080000
v -0.015000 -0.025000 0.086588
v -0.000065 -0.020000 0.110000
v -0.016141 -0.025000 0.085001
v -0.040000 -0.027021 0.075000
v -0.000000 -0.013994 0.136006
v 0.000000 -0.015000 0.130000
v -0.000271 -0.020000 0.105000
v -0.063410 -0.027084 0.070104
v -0.018890 -0.025000 0.080000
v -0.005000 -0.021743 0.095000
v -0.020000 -0.025000 0.078537
v -0.063410 -0.026559 0.070000
v -0.015000 -0.023415 0.085000
v -0.000112 -0.015000 0.125000
v -0.000661 -0.020000 0.100000
v -0.025000 -0.025000 0.075616
v -0.030000 -0.025000 0.075152
v -0.035000 -0.025000 0.075071
v -0.035703 -0.025000 0.075000
v -0.010000 -0.021877 0.090000
v -0.040000 -0.025000 0.074552
v -0.045000 -0.025000 0.073673
v -0.035000 -0.024658 0.075000
v -0.050000 -0.025000 0.072702
v -0.000404 -0.015000 0.120000
v -0.055000 -0.025000 0.071652
v -0.003681 -0.020000 0.095000
v -0.060000 -0.025000 0.070544
v -0.062274 -0.025000 0.070000
v -0.030000 -0.024012 0.075000
v -0.063410 -0.025000 0.069689
v -0.005000 -0.020000 0.093497
v -0.000647 -0.015000 0.115000
v -0.063410 -0.024383 0.069491
v -0.008306 -0.020000 0.090000
v -0.000120 -0.010000 0.136532
v -0.010000 -0.020000 0.087830
v -0.000173 -0.010000 0.135000
v -0.001070 -0.015000 0.110000
v -0.063410 -0.023410 0.069215
v -0.060000 -0.023060 0.070000
v -0.012060 -0.020000 0.085000
v -0.000579 -0.010000 0.130000
v -0.001541 -0.015000 0.105000
v -0.000246 -0.008236 0.136764
v -0.015000 -0.020000 0.080421
v -0.015250 -0.020000 0.080000
v -0.001045 -0.010000 0.125000
v -0.002137 -0.015000 0.100000
v -0.020000 -0.020000 0.075856
v -0.025000 -0.020077 0.075000
v -0.024932 -0.020000 0.075000
v -0.025000 -0.020000 0.074991
v -0.025000 -0.019907 0.075000
v -0.030000 -0.020000 0.074408
v -0.035000 -0.020000 0.073966
v -0.040000 -0.020000 0.073388
v -0.045000 -0.020000 0.072562
v -0.002062 -0.010000 0.120000
v -0.050000 -0.020000 0.071572
v -0.003454 -0.015000 0.095000
v -0.055000 -0.020000 0.070407
v -0.056588 -0.020000 0.070000
v -0.060000 -0.020000 0.069130
v -0.020000 -0.011392 0.109999
v -0.015000 -0.011403 0.110000
v -0.031845 -0.011365 0.109999
v -0.030000 -0.011369 0.110000
v -0.025000 -0.011380 0.110000
v -0.050000 -0.011324 0.110000
v -0.045000 -0.011335 0.110000
v -0.043257 -0.011338 0.110000
v -0.060000 -0.011301 0.110000
v -0.055000 -0.011312 0.110000
v -0.031846 -0.011401 0.109768
v -0.063410 -0.020000 0.068379
v -0.043243 -0.010925 0.111756
v -0.043264 -0.011478 0.109110
v -0.031852 -0.011518 0.109027
v -0.043241 -0.010867 0.112003
v -0.043235 -0.010697 0.112734
v -0.031823 -0.010739 0.112652
v -0.032045 -0.010667 0.112955
v -0.042827 -0.011574 0.108504
v -0.032260 -0.010597 0.113248
v -0.005000 -0.015000 0.092450
v -0.060000 -0.010138 0.115000
v -0.055000 -0.010147 0.115000
v -0.042269 -0.011696 0.107731
v -0.050000 -0.010155 0.115000
v -0.045000 -0.010163 0.115000
v -0.041518 -0.010168 0.115000
v -0.033546 -0.010182 0.115001
v -0.041481 -0.010153 0.115047
v -0.030000 -0.010188 0.115000
v -0.025000 -0.010196 0.115000
v -0.020000 -0.010205 0.114999
v -0.015000 -0.010214 0.115000
v -0.033668 -0.010132 0.115163
v -0.060000 -0.010000 0.115451
v -0.055000 -0.010000 0.115480
v -0.041190 -0.010038 0.115426
v -0.050000 -0.010000 0.115506
v -0.033605 -0.011885 0.106678
v -0.045000 -0.010000 0.115532
v -0.041093 -0.009999 0.115553
v -0.033979 -0.010003 0.115580
v -0.034002 -0.010000 0.115588
v -0.041032 -0.009975 0.115631
v -0.030000 -0.010000 0.115609
v -0.025000 -0.010000 0.115635
v -0.020000 -0.010000 0.115663
v -0.034054 -0.011979 0.106076
v -0.010000 -0.011208 0.110000
v -0.041108 -0.011952 0.106126
v -0.015000 -0.010000 0.115688
v -0.040323 -0.009908 0.115846
v -0.034699 -0.009927 0.115810
v -0.040388 -0.011991 0.105889
v -0.035000 -0.012023 0.105780
v -0.040000 -0.012012 0.105761
v -0.035000 -0.009896 0.115907
v -0.040000 -0.009877 0.115944
v -0.039427 -0.012044 0.105572
v -0.035572 -0.009838 0.116089
v -0.015000 -0.012202 0.105000
v -0.020000 -0.012190 0.105000
v -0.062030 -0.010000 0.115000
v -0.036864 -0.012110 0.105195
v -0.025000 -0.012175 0.105000
v -0.030000 -0.012160 0.105000
v -0.035000 -0.012146 0.105000
v -0.037488 -0.012139 0.105000
v -0.037687 -0.012138 0.105000
v -0.040000 -0.012132 0.105000
v -0.045000 -0.012118 0.105000
v -0.037590 -0.012141 0.104967
v -0.050000 -0.012104 0.105000
v -0.055000 -0.012090 0.105000
v -0.038223 -0.009707 0.116482
v -0.010000 -0.010078 0.115001
v -0.063410 -0.011010 0.110000
v -0.060000 -0.012054 0.105000
v -0.037496 -0.009638 0.116703
v -0.010000 -0.010000 0.115255
v -0.063410 -0.010640 0.111590
v -0.063410 -0.010406 0.112677
v -0.063410 -0.010000 0.114513
v -0.009056 -0.010000 0.115000
v -0.004041 -0.010000 0.115000
v -0.063410 -0.009870 0.115000
v -0.063410 -0.009809 0.115143
v -0.010000 -0.012005 0.105000
v -0.005000 -0.010941 0.110000
v -0.063410 -0.011495 0.106590
v -0.063410 -0.009330 0.116590
v -0.005000 -0.011868 0.105000
v -0.063410 -0.011735 0.105000
v -0.007429 -0.015000 0.090000
v -0.055000 -0.008567 0.120000
v -0.050000 -0.008572 0.120000
v -0.045000 -0.008578 0.120000
v -0.040000 -0.008583 0.120000
v -0.035000 -0.008589 0.120000
v -0.030000 -0.008595 0.120000
v -0.025000 -0.008599 0.120000
v -0.020000 -0.008604 0.120000
v -0.015000 -0.008610 0.120000
v -0.005000 -0.010000 0.113415
v -0.060000 -0.008494 0.120000
v -0.000698 -0.005000 0.137190
v -0.005000 -0.012782 0.100000
v -0.005000 -0.009587 0.115000
v -0.005000 -0.013720 0.095000
v -0.015000 -0.012625 0.100000
v -0.020000 -0.012609 0.100000
v -0.010000 -0.008434 0.120000
v -0.025000 -0.012592 0.100000
v -0.030000 -0.012575 0.100000
v -0.035000 -0.012559 0.100000
v -0.040000 -0.012542 0.100001
v -0.045000 -0.012525 0.100000
v -0.050000 -0.012507 0.100000
v -0.055000 -0.012491 0.100000
v -0.060000 -0.012439 0.100000
v -0.063410 -0.008193 0.120000
v -0.010000 -0.012477 0.100000
v -0.063410 -0.011999 0.101590
v -0.000945 -0.005000 0.135000
v -0.010000 -0.015000 0.086848
v -0.063410 -0.012121 0.100000
v -0.063410 -0.007559 0.121590
v -0.005000 -0.007933 0.120000
v -0.010000 -0.013103 0.095000
v -0.063410 -0.018410 0.068398
v -0.055000 -0.006546 0.125000
v -0.050000 -0.006548 0.125000
v -0.045000 -0.006551 0.125000
v -0.011507 -0.015000 0.085000
v -0.040000 -0.006553 0.125000
v -0.035000 -0.006555 0.125000
v -0.060000 -0.006499 0.125000
v -0.030000 -0.006557 0.125000
v -0.025000 -0.006559 0.125000
v -0.020000 -0.006561 0.125000
v -0.015000 -0.006563 0.125000
v -0.015000 -0.012791 0.095000
v -0.010000 -0.013750 0.090000
v -0.020000 -0.012659 0.095000
v -0.025000 -0.012640 0.095000
v -0.030000 -0.012620 0.095000
v -0.035000 -0.012601 0.095000
v -0.040000 -0.012581 0.095000
v -0.045000 -0.012562 0.095000
v -0.050000 -0.012543 0.095000
v -0.010000 -0.006339 0.125000
v -0.055000 -0.012523 0.095000
v -0.063410 -0.012140 0.096590
v -0.060000 -0.012468 0.095000
v -0.063410 -0.006147 0.125000
v -0.002489 -0.005000 0.130000
v -0.063410 -0.005670 0.125984
v -0.063410 -0.012149 0.095000
v -0.005000 -0.005878 0.125000
v -0.060000 -0.005000 0.128094
v -0.055000 -0.005000 0.128144
v -0.050000 -0.005000 0.128144
v -0.045000 -0.005000 0.128145
v -0.040000 -0.005000 0.128144
v -0.035000 -0.005000 0.128144
v -0.030000 -0.005000 0.128144
v -0.025000 -0.005000 0.128143
v -0.020000 -0.005000 0.128142
v -0.015000 -0.005000 0.128142
v -0.015000 -0.015000 0.080395
v -0.015000 -0.012984 0.090000
v -0.063410 -0.005000 0.127498
v -0.010000 -0.005000 0.127772
v -0.015361 -0.015000 0.080000
v -0.005000 -0.005000 0.126760
v -0.055000 -0.004041 0.130001
v -0.050000 -0.004039 0.130000
v -0.063410 -0.011952 0.092056
v -0.045000 -0.004038 0.130000
v -0.060000 -0.003997 0.130000
v -0.040000 -0.004036 0.130000
v -0.020000 -0.012457 0.090000
v -0.035000 -0.004035 0.130000
v -0.030000 -0.004033 0.130000
v -0.025000 -0.004031 0.130001
v -0.020000 -0.004029 0.130000
v -0.015000 -0.004028 0.130000
v -0.001548 -0.002478 0.137522
v -0.063410 -0.004032 0.129394
v -0.063410 -0.011920 0.091590
v -0.025000 -0.012318 0.090000
v -0.030000 -0.012296 0.090000
v -0.035000 -0.012274 0.090000
v -0.040000 -0.012252 0.090000
v -0.045000 -0.012230 0.090000
v -0.050000 -0.012208 0.090000
v -0.015000 -0.013323 0.085000
v -0.055000 -0.012186 0.090000
v -0.020000 -0.015000 0.076890
v -0.060000 -0.012140 0.090000
v -0.063410 -0.003713 0.130000
v -0.010000 -0.003823 0.130000
v -0.030000 -0.015302 0.075000
v -0.025000 -0.015000 0.075967
v -0.063410 -0.011816 0.090000
v -0.030000 -0.015000 0.075086
v -0.030465 -0.015000 0.075000
v -0.035000 -0.015000 0.074571
v -0.005000 -0.003387 0.130000
v -0.040000 -0.015000 0.073962
v -0.063410 -0.002756 0.131590
v -0.045000 -0.015000 0.073111
v -0.020000 -0.012428 0.085000
v -0.035000 -0.014478 0.075000
v -0.002473 -0.001391 0.137666
v -0.050000 -0.015000 0.071994
v -0.020000 -0.013167 0.080000
v -0.055000 -0.015000 0.070711
v -0.025000 -0.011963 0.085000
v -0.057202 -0.015000 0.070000
v -0.063410 -0.011371 0.086590
v -0.030000 -0.011754 0.085000
v -0.060000 -0.015000 0.069190
v -0.035000 -0.011649 0.085000
v -0.040000 -0.013728 0.075000
v -0.025000 -0.012708 0.080000
v -0.040000 -0.011586 0.085000
v -0.063410 -0.015001 0.068330
v -0.045000 -0.011526 0.084999
v -0.050000 -0.011499 0.085000
v -0.060000 -0.000988 0.135000
v -0.055000 -0.011474 0.085000
v -0.055000 -0.000983 0.135000
v -0.060000 -0.011447 0.085000
v -0.050000 -0.000977 0.135000
v -0.045000 -0.000971 0.135000
v -0.040000 -0.000965 0.135000
v -0.035000 -0.000959 0.135000
v -0.030000 -0.000953 0.134999
v -0.063410 -0.000868 0.135000
v -0.025000 -0.000948 0.135000
v -0.020000 -0.000941 0.135000
v -0.015000 -0.000935 0.135000
v -0.030000 -0.012421 0.080000
v -0.003395 -0.000308 0.137807
v -0.010000 -0.000822 0.135000
v -0.063410 -0.000554 0.135592
v -0.063410 -0.011151 0.085000
v -0.035000 -0.012193 0.080000
v -0.063410 -0.000000 0.137848
v -0.005000 -0.000702 0.135000
v -0.003806 -0.000000 0.137849
v -0.060000 0.000000 0.136862
v -0.055000 -0.000001 0.136808
v -0.063410 0.000000 0.136685
v -0.050000 -0.000000 0.136792
v -0.040000 -0.011915 0.080000
v -0.045000 0.000000 0.136782
v -0.040000 0.000000 0.136771
v -0.045000 -0.012925 0.075000
v -0.035000 -0.000000 0.136762
v -0.030000 0.000000 0.136752
v -0.025000 0.000000 0.136741
v -0.020000 -0.000000 0.136726
v -0.015000 -0.000000 0.136715
v -0.010000 0.000000 0.136554
v -0.063410 0.000299 0.137126
v -0.005000 0.000000 0.136304
v -0.045000 -0.011551 0.080000
v -0.060000 0.000634 0.137765
v -0.061432 0.000661 0.137761
v -0.056493 0.000658 0.137761
v -0.062191 0.000686 0.137758
v -0.055000 0.000673 0.137759
v -0.051506 0.000680 0.137758
v -0.050000 0.000682 0.137758
v -0.046516 0.000687 0.137758
v -0.063410 0.000725 0.137753
v -0.045000 0.000688 0.137757
v -0.041526 0.000693 0.137756
v -0.040000 0.000694 0.137757
v -0.036535 0.000698 0.137756
v -0.035000 0.000699 0.137756
v -0.031545 0.000703 0.137755
v -0.030000 0.000705 0.137755
v -0.026555 0.000710 0.137755
v -0.025000 0.000712 0.137754
v -0.021569 0.000719 0.137753
v -0.020000 0.000723 0.137753
v -0.016579 0.000727 0.137752
v -0.015000 0.000735 0.137751
v -0.011724 0.000803 0.137742
v -0.010000 0.000808 0.137742
v -0.005000 0.000816 0.137741
v -0.050000 -0.011136 0.080000
v -0.006928 0.000904 0.137729
v -0.050000 -0.012013 0.075000
v -0.063410 -0.010472 0.081590
v -0.055000 -0.010716 0.080000
v -0.060000 -0.010366 0.080000
v -0.060000 -0.012444 0.070000
v -0.063410 -0.010129 0.080000
v -0.063410 -0.010116 0.079927
v -0.055000 -0.011035 0.075000
v -0.063410 -0.010000 0.078619
v -0.063410 -0.009973 0.078337
v -0.063410 -0.011590 0.069359
v -0.060000 -0.010000 0.075886
v -0.059578 -0.010000 0.075000
v -0.060000 -0.009916 0.075000
v -0.060000 -0.010000 0.074466
v -0.063410 -0.009310 0.075000
v -0.063269 -0.010000 0.070000
v -0.063410 -0.010000 0.069954
v -0.063410 -0.009629 0.071590
v -0.063410 -0.009959 0.070000
v -0.063410 -0.009656 0.071420
v -0.043764 0.037881 0.110880
v -0.043920 0.033779 0.091306
v -0.043133 0.036208 0.102902
v -0.043134 0.036196 0.102845
v -0.043134 0.036181 0.102775
v -0.043158 0.035552 0.099773
v -0.043159 0.035547 0.099749
v -0.043159 0.035543 0.099730
v -0.043160 0.035508 0.099563
v -0.043161 0.035479 0.099426
v -0.043162 0.035462 0.099343
v -0.043162 0.035447 0.099273
v -0.043128 0.035437 0.099226
v -0.043087 0.035425 0.099170
v -0.042999 0.036245 0.103081
v -0.042837 0.036290 0.103296
v -0.042834 0.036290 0.103299
v -0.042830 0.036291 0.103304
v -0.041485 0.036662 0.105088
v -0.041304 0.034909 0.096727
v -0.041251 0.034894 0.096655
v -0.041207 0.034882 0.096596
v -0.041097 0.034850 0.096445
v -0.041008 0.036794 0.105720
v -0.040981 0.036801 0.105756
v -0.040958 0.036808 0.105786
v -0.040949 0.036810 0.105799
v -0.040941 0.036812 0.105809
v -0.040936 0.036814 0.105817
v -0.040931 0.036815 0.105823
v -0.041007 0.034824 0.096322
v -0.040876 0.036819 0.105840
v -0.040951 0.034820 0.096303
v -0.040809 0.036823 0.105861
v -0.040883 0.034815 0.096281
v -0.040783 0.036824 0.105869
v -0.040753 0.036826 0.105878
v -0.040613 0.036835 0.105922
v -0.040582 0.036837 0.105931
v -0.040444 0.036846 0.105974
v -0.037973 0.034610 0.095333
v -0.037937 0.034607 0.095321
v -0.037906 0.034605 0.095311
v -0.037852 0.034601 0.095293
v -0.037807 0.034598 0.095278
v -0.037642 0.034586 0.095225
v -0.037521 0.037029 0.106880
v -0.037452 0.037034 0.106902
v -0.037505 0.034577 0.095180
v -0.037496 0.034576 0.095177
v -0.037395 0.037037 0.106919
v -0.037489 0.034576 0.095175
v -0.037481 0.034576 0.095177
v -0.037471 0.034577 0.095180
v -0.037422 0.034580 0.095195
v -0.037363 0.034583 0.095213
v -0.037245 0.037027 0.106870
v -0.037062 0.037014 0.106811
v -0.037017 0.037011 0.106796
v -0.036963 0.037007 0.106779
v -0.036939 0.037005 0.106770
v -0.036911 0.037003 0.106761
v -0.034440 0.034767 0.096120
v -0.034302 0.034776 0.096163
v -0.034263 0.034778 0.096175
v -0.034117 0.034788 0.096221
v -0.034002 0.036798 0.105812
v -0.034027 0.034793 0.096248
v -0.033936 0.036793 0.105791
v -0.033881 0.036790 0.105774
v -0.033879 0.036789 0.105773
v -0.033877 0.036789 0.105772
v -0.033953 0.034798 0.096271
v -0.033853 0.036782 0.105739
v -0.033918 0.034808 0.096318
v -0.033824 0.036774 0.105699
v -0.033814 0.036771 0.105685
v -0.033802 0.036768 0.105670
v -0.033876 0.034819 0.096374
v -0.033702 0.036739 0.105533
v -0.033581 0.036704 0.105366
v -0.033399 0.034951 0.097006
v -0.032054 0.035322 0.098790
v -0.031888 0.035367 0.099010
v -0.031797 0.036188 0.102924
v -0.031777 0.036182 0.102896
v -0.031760 0.036177 0.102873
v -0.031739 0.036171 0.102844
v -0.031722 0.036166 0.102820
v -0.031723 0.036122 0.102612
v -0.031725 0.036069 0.102360
v -0.031726 0.036066 0.102343
v -0.031726 0.036061 0.102321
v -0.031750 0.035432 0.099318
v -0.031750 0.035417 0.099249
v -0.031751 0.035405 0.099191
v -0.030964 0.037834 0.110788
v -0.031120 0.033732 0.091214
v -0.043809 0.051000 0.097913
v -0.031009 0.050953 0.097821
v -0.043805 0.051171 0.098361
v -0.043813 0.050977 0.097435
v -0.031002 0.051284 0.098689
v -0.031016 0.050908 0.096892
v -0.043798 0.051501 0.099229
v -0.043819 0.050930 0.096506
v -0.030998 0.051454 0.099137
v -0.031020 0.050883 0.096414
v -0.043787 0.052385 0.100325
v -0.043828 0.051299 0.095148
v -0.030987 0.052338 0.100233
v -0.031028 0.051252 0.095056
v -0.043777 0.053563 0.101096
v -0.043834 0.052069 0.093969
v -0.030977 0.053516 0.101004
v -0.031034 0.052022 0.093877
v -0.043769 0.054922 0.101464
v -0.043836 0.053166 0.093086
v -0.030970 0.054875 0.101372
v -0.031036 0.053119 0.092994
v -0.043722 0.057456 0.106777
v -0.043764 0.056328 0.101394
v -0.043835 0.054481 0.092586
v -0.043878 0.053353 0.087203
v -0.030922 0.057409 0.106685
v -0.030965 0.056281 0.101302
v -0.031035 0.054434 0.092493
v -0.031078 0.053306 0.087111
v -0.043763 0.057644 0.100893
v -0.043830 0.055888 0.092516
v -0.030964 0.057597 0.100801
v -0.031030 0.055841 0.092423
v -0.043766 0.058740 0.100011
v -0.043822 0.057246 0.092884
v -0.030966 0.058693 0.099918
v -0.031023 0.057199 0.092792
v -0.043719 0.060380 0.105664
v -0.043867 0.056478 0.087047
v -0.030919 0.060333 0.105572
v -0.031068 0.056431 0.086955
v -0.043771 0.059511 0.098831
v -0.043812 0.058425 0.093654
v -0.030972 0.059464 0.098739
v -0.031013 0.058378 0.093562
v -0.043780 0.059879 0.097473
v -0.043801 0.059308 0.094750
v -0.030980 0.059832 0.097381
v -0.031002 0.059261 0.094658
v -0.043783 0.059855 0.096995
v -0.043797 0.059479 0.095198
v -0.030987 0.059785 0.096453
v -0.030994 0.059591 0.095527
v -0.043790 0.059809 0.096067
v -0.030990 0.059762 0.095974
v -0.043724 0.062817 0.103702
v -0.043850 0.059498 0.087866
v -0.030924 0.062770 0.103609
v -0.031051 0.059451 0.087774
v -0.043737 0.064528 0.101083
v -0.043828 0.062117 0.089577
v -0.030937 0.064481 0.100991
v -0.031029 0.062070 0.089485
v -0.043755 0.065347 0.098063
v -0.043804 0.064079 0.092014
v -0.030956 0.065300 0.097971
v -0.031004 0.064032 0.091922
v -0.043778 0.065192 0.094938
v -0.030979 0.065145 0.094846

f 2 1 4 
f 1 2 12 
f 15 4 1 
f 15 1 12 
f 2 4 3 
f 2 3 14 
f 12 2 14 
f 3 4 5 
f 3 5 7 
f 3 7 14 
f 5 4 15 
f 9 5 6 
f 6 5 15 
f 7 5 8 
f 5 26 8 
f 9 10 5 
f 13 5 10 
f 25 5 13 
f 26 5 25 
f 15 9 6 
f 16 7 8 
f 14 7 16 
f 8 28 16 
f 26 27 8 
f 27 29 8 
f 104 28 8 
f 8 29 30 
f 30 31 8 
f 31 32 8 
f 32 36 8 
f 36 104 8 
f 15 10 9 
f 11 13 10 
f 10 20 11 
f 15 20 10 
f 20 13 11 
f 14 23 12 
f 12 24 15 
f 23 24 12 
f 17 19 13 
f 13 33 17 
f 19 25 13 
f 20 33 13 
f 16 18 14 
f 18 21 14 
f 21 23 14 
f 15 22 20 
f 24 22 15 
f 18 16 28 
f 19 17 37 
f 17 33 37 
f 21 18 28 
f 19 37 25 
f 33 20 22 
f 23 21 28 
f 22 24 45 
f 33 22 39 
f 39 22 45 
f 24 23 44 
f 23 28 42 
f 44 23 42 
f 45 24 44 
f 26 25 35 
f 25 37 35 
f 27 26 35 
f 29 27 35 
f 42 28 41 
f 28 48 41 
f 28 104 48 
f 30 29 35 
f 31 30 34 
f 30 35 34 
f 31 34 32 
f 36 32 34 
f 33 39 37 
f 35 40 34 
f 40 36 34 
f 35 37 62 
f 40 35 62 
f 40 38 36 
f 38 104 36 
f 39 68 37 
f 37 68 62 
f 40 56 38 
f 38 56 43 
f 38 43 104 
f 39 45 60 
f 39 60 68 
f 40 58 56 
f 40 62 58 
f 42 41 48 
f 44 42 57 
f 42 48 61 
f 57 42 61 
f 43 53 46 
f 46 104 43 
f 56 53 43 
f 45 44 54 
f 54 44 57 
f 60 45 54 
f 47 46 51 
f 47 104 46 
f 46 53 51 
f 47 51 49 
f 49 104 47 
f 61 48 64 
f 104 64 48 
f 51 50 49 
f 50 104 49 
f 51 63 50 
f 50 63 52 
f 52 104 50 
f 69 51 53 
f 69 63 51 
f 63 55 52 
f 55 104 52 
f 56 69 53 
f 57 72 54 
f 54 74 60 
f 72 74 54 
f 63 59 55 
f 55 59 104 
f 75 56 58 
f 75 69 56 
f 61 71 57 
f 71 72 57 
f 62 75 58 
f 63 81 59 
f 59 81 65 
f 59 65 104 
f 60 73 68 
f 74 73 60 
f 64 66 61 
f 66 71 61 
f 62 68 93 
f 75 62 93 
f 69 85 63 
f 63 82 81 
f 85 82 63 
f 64 80 66 
f 104 80 64 
f 65 79 67 
f 67 104 65 
f 81 79 65 
f 70 71 66 
f 66 80 70 
f 67 79 76 
f 76 104 67 
f 93 68 73 
f 75 89 69 
f 69 86 85 
f 89 86 69 
f 71 70 80 
f 72 71 99 
f 71 80 98 
f 99 71 98 
f 74 72 100 
f 100 72 99 
f 73 74 102 
f 102 93 73 
f 102 74 100 
f 75 92 89 
f 75 93 92 
f 77 76 79 
f 77 104 76 
f 77 88 78 
f 78 104 77 
f 90 77 79 
f 90 88 77 
f 78 88 83 
f 83 104 78 
f 81 90 79 
f 98 80 97 
f 104 97 80 
f 96 81 82 
f 96 90 81 
f 85 96 82 
f 88 84 83 
f 84 104 83 
f 88 87 84 
f 84 87 104 
f 107 85 86 
f 107 96 85 
f 89 107 86 
f 88 103 87 
f 87 103 91 
f 87 91 104 
f 90 109 88 
f 88 106 103 
f 109 106 88 
f 108 89 92 
f 108 107 89 
f 96 113 90 
f 90 112 109 
f 113 112 90 
f 103 94 91 
f 94 104 91 
f 93 108 92 
f 118 93 102 
f 118 108 93 
f 95 104 94 
f 94 120 95 
f 103 120 94 
f 101 104 95 
f 120 101 95 
f 107 117 96 
f 96 114 113 
f 117 114 96 
f 98 97 110 
f 104 110 97 
f 99 98 134 
f 98 110 134 
f 100 99 128 
f 128 99 132 
f 132 99 134 
f 102 100 118 
f 118 100 128 
f 105 104 101 
f 101 116 105 
f 120 116 101 
f 123 103 106 
f 123 120 103 
f 111 104 105 
f 104 133 110 
f 115 104 111 
f 119 104 115 
f 122 104 119 
f 124 104 122 
f 148 104 124 
f 133 104 138 
f 138 104 143 
f 104 157 143 
f 149 104 148 
f 154 104 149 
f 163 104 154 
f 104 168 157 
f 180 104 163 
f 104 181 168 
f 182 104 180 
f 104 205 181 
f 310 104 182 
f 104 212 205 
f 104 217 212 
f 104 236 217 
f 104 245 236 
f 104 258 245 
f 104 429 258 
f 310 309 104 
f 309 694 104 
f 721 429 104 
f 104 694 706 
f 104 706 721 
f 105 116 111 
f 109 123 106 
f 108 126 107 
f 107 121 117 
f 126 121 107 
f 118 137 108 
f 108 130 126 
f 137 130 108 
f 129 109 112 
f 129 123 109 
f 134 110 133 
f 116 115 111 
f 113 129 112 
f 145 113 114 
f 145 129 113 
f 117 145 114 
f 115 116 125 
f 119 115 125 
f 120 131 116 
f 116 127 125 
f 131 127 116 
f 152 117 121 
f 152 145 117 
f 128 139 118 
f 118 141 137 
f 139 141 118 
f 122 119 125 
f 123 144 120 
f 120 140 131 
f 144 140 120 
f 126 152 121 
f 125 124 122 
f 129 150 123 
f 123 146 144 
f 150 146 123 
f 156 124 125 
f 156 148 124 
f 161 125 127 
f 161 156 125 
f 147 126 130 
f 147 152 126 
f 131 161 127 
f 132 136 128 
f 136 139 128 
f 145 153 129 
f 129 151 150 
f 153 151 129 
f 137 147 130 
f 164 131 140 
f 164 161 131 
f 132 134 135 
f 136 132 135 
f 134 133 138 
f 135 134 142 
f 134 138 142 
f 135 169 136 
f 135 142 169 
f 139 136 172 
f 136 169 170 
f 172 136 170 
f 147 137 141 
f 142 138 143 
f 141 139 174 
f 174 139 172 
f 144 164 140 
f 147 141 173 
f 173 141 174 
f 143 157 142 
f 157 169 142 
f 171 144 146 
f 171 164 144 
f 152 160 145 
f 145 155 153 
f 160 155 145 
f 150 171 146 
f 147 167 152 
f 147 173 167 
f 149 148 158 
f 148 156 158 
f 154 149 158 
f 177 150 151 
f 177 171 150 
f 153 177 151 
f 152 162 160 
f 167 162 152 
f 190 153 155 
f 190 177 153 
f 154 158 191 
f 163 154 191 
f 160 190 155 
f 156 159 158 
f 165 159 156 
f 161 165 156 
f 168 169 157 
f 191 158 159 
f 165 197 159 
f 196 191 159 
f 159 197 196 
f 195 160 162 
f 195 190 160 
f 164 175 161 
f 161 166 165 
f 175 166 161 
f 167 195 162 
f 180 163 191 
f 171 178 164 
f 164 176 175 
f 178 176 164 
f 197 165 166 
f 175 204 166 
f 202 197 166 
f 166 204 202 
f 194 167 173 
f 194 195 167 
f 169 168 181 
f 170 169 207 
f 169 181 206 
f 207 169 206 
f 172 170 208 
f 208 170 207 
f 177 188 171 
f 171 179 178 
f 188 179 171 
f 174 172 208 
f 173 174 194 
f 194 174 200 
f 200 174 208 
f 204 175 176 
f 178 220 176 
f 219 204 176 
f 176 220 219 
f 177 189 188 
f 192 189 177 
f 190 192 177 
f 220 178 179 
f 188 225 179 
f 224 220 179 
f 179 225 224 
f 182 180 187 
f 180 191 187 
f 206 181 205 
f 183 185 182 
f 183 182 186 
f 185 203 182 
f 182 187 186 
f 203 222 182 
f 222 232 182 
f 232 250 182 
f 250 253 182 
f 253 259 182 
f 259 273 182 
f 182 273 280 
f 280 310 182 
f 183 184 185 
f 184 183 186 
f 185 184 186 
f 186 223 185 
f 185 223 203 
f 187 228 186 
f 186 228 223 
f 191 226 187 
f 187 226 228 
f 225 188 189 
f 192 231 189 
f 229 225 189 
f 189 231 229 
f 190 193 192 
f 198 193 190 
f 195 198 190 
f 201 191 196 
f 201 226 191 
f 231 192 193 
f 198 237 193 
f 233 231 193 
f 193 237 233 
f 194 210 195 
f 200 211 194 
f 194 214 210 
f 211 214 194 
f 195 199 198 
f 210 199 195 
f 197 201 196 
f 215 201 197 
f 215 197 202 
f 237 198 199 
f 210 241 199 
f 240 237 199 
f 199 241 240 
f 200 208 209 
f 211 200 209 
f 215 239 201 
f 201 235 226 
f 201 238 235 
f 239 238 201 
f 204 215 202 
f 203 223 222 
f 221 215 204 
f 221 204 219 
f 206 205 212 
f 207 206 216 
f 206 212 218 
f 216 206 218 
f 208 207 213 
f 213 207 216 
f 209 208 213 
f 209 247 211 
f 209 213 247 
f 241 210 214 
f 214 211 252 
f 211 247 248 
f 252 211 248 
f 218 212 217 
f 216 246 213 
f 246 247 213 
f 252 241 214 
f 221 251 215 
f 215 243 239 
f 251 243 215 
f 218 244 216 
f 244 246 216 
f 217 236 218 
f 236 244 218 
f 220 221 219 
f 227 221 220 
f 227 220 224 
f 227 257 221 
f 221 254 251 
f 257 254 221 
f 223 255 222 
f 222 255 232 
f 228 261 223 
f 223 261 255 
f 225 227 224 
f 234 227 225 
f 234 225 229 
f 226 230 228 
f 235 230 226 
f 234 262 227 
f 227 260 257 
f 262 260 227 
f 230 267 228 
f 228 267 261 
f 231 234 229 
f 235 264 230 
f 230 264 267 
f 249 231 233 
f 249 234 231 
f 232 255 250 
f 237 249 233 
f 249 269 234 
f 234 265 262 
f 269 265 234 
f 263 235 238 
f 263 264 235 
f 245 244 236 
f 242 237 240 
f 242 249 237 
f 239 263 238 
f 270 239 243 
f 270 263 239 
f 241 242 240 
f 252 242 241 
f 242 275 249 
f 252 256 242 
f 256 285 242 
f 275 242 286 
f 242 285 286 
f 251 270 243 
f 244 245 258 
f 246 244 277 
f 244 258 279 
f 277 244 279 
f 247 246 272 
f 272 246 277 
f 248 247 266 
f 266 247 272 
f 252 248 256 
f 256 248 266 
f 249 271 269 
f 275 271 249 
f 250 294 253 
f 255 294 250 
f 281 251 254 
f 281 270 251 
f 259 253 282 
f 253 294 282 
f 257 281 254 
f 261 300 255 
f 255 300 294 
f 266 293 256 
f 256 295 285 
f 293 295 256 
f 298 257 260 
f 298 281 257 
f 279 258 278 
f 258 429 278 
f 259 282 273 
f 262 298 260 
f 267 304 261 
f 261 304 300 
f 298 262 265 
f 263 274 264 
f 270 284 263 
f 263 276 274 
f 284 276 263 
f 264 268 267 
f 274 268 264 
f 269 307 265 
f 298 265 303 
f 303 265 306 
f 265 307 306 
f 272 292 266 
f 292 293 266 
f 304 267 268 
f 274 312 268 
f 305 304 268 
f 268 312 305 
f 271 316 269 
f 269 316 307 
f 281 296 270 
f 270 288 284 
f 296 288 270 
f 275 311 271 
f 271 311 316 
f 277 291 272 
f 291 292 272 
f 273 282 280 
f 312 274 276 
f 275 286 322 
f 311 275 322 
f 284 320 276 
f 318 312 276 
f 276 320 318 
f 279 289 277 
f 289 291 277 
f 278 283 279 
f 278 290 283 
f 278 429 290 
f 283 289 279 
f 282 319 280 
f 280 299 310 
f 280 319 299 
f 281 297 296 
f 301 297 281 
f 298 301 281 
f 294 325 282 
f 282 325 319 
f 290 289 283 
f 320 284 288 
f 285 287 286 
f 295 287 285 
f 322 286 287 
f 326 287 295 
f 326 322 287 
f 296 327 288 
f 324 320 288 
f 288 327 324 
f 289 290 302 
f 291 289 329 
f 289 302 329 
f 290 429 302 
f 292 291 321 
f 321 291 330 
f 330 291 329 
f 293 292 315 
f 315 292 321 
f 295 293 314 
f 314 293 315 
f 300 341 294 
f 294 341 325 
f 333 295 314 
f 333 326 295 
f 327 296 297 
f 301 342 297 
f 338 327 297 
f 297 342 338 
f 298 303 301 
f 299 319 310 
f 304 345 300 
f 300 345 341 
f 342 301 303 
f 329 302 328 
f 302 429 328 
f 343 303 306 
f 343 342 303 
f 305 350 304 
f 304 350 345 
f 312 347 305 
f 305 347 350 
f 307 308 306 
f 346 306 308 
f 346 343 306 
f 308 307 353 
f 307 316 353 
f 308 348 346 
f 308 353 348 
f 313 309 310 
f 323 309 313 
f 349 309 323 
f 356 309 349 
f 384 309 356 
f 388 309 384 
f 408 309 388 
f 414 309 408 
f 415 309 414 
f 417 309 415 
f 448 309 417 
f 456 309 448 
f 456 487 309 
f 487 496 309 
f 496 622 309 
f 309 597 593 
f 593 606 309 
f 598 597 309 
f 599 598 309 
f 602 599 309 
f 603 602 309 
f 607 603 309 
f 606 609 309 
f 637 607 309 
f 609 639 309 
f 622 731 309 
f 643 637 309 
f 639 642 309 
f 642 669 309 
f 671 643 309 
f 669 674 309 
f 309 673 671 
f 688 673 309 
f 674 694 309 
f 309 705 688 
f 309 717 705 
f 309 727 717 
f 309 756 727 
f 731 766 309 
f 309 763 756 
f 309 771 763 
f 766 783 309 
f 309 783 771 
f 310 319 313 
f 311 317 316 
f 311 322 317 
f 344 312 318 
f 344 347 312 
f 319 355 313 
f 313 355 323 
f 315 337 314 
f 314 335 333 
f 337 335 314 
f 321 336 315 
f 336 337 315 
f 317 358 316 
f 316 358 353 
f 322 351 317 
f 317 351 358 
f 320 344 318 
f 325 363 319 
f 319 363 355 
f 354 320 324 
f 354 344 320 
f 330 332 321 
f 332 336 321 
f 351 322 326 
f 323 355 349 
f 327 354 324 
f 341 372 325 
f 325 372 363 
f 359 326 333 
f 351 326 361 
f 359 366 326 
f 361 326 364 
f 366 364 326 
f 370 327 338 
f 370 354 327 
f 329 328 334 
f 328 429 334 
f 330 329 331 
f 331 329 339 
f 329 334 339 
f 332 330 331 
f 331 376 332 
f 331 339 376 
f 336 332 371 
f 371 332 373 
f 332 376 373 
f 333 335 359 
f 339 334 340 
f 334 429 340 
f 369 335 337 
f 368 359 335 
f 368 335 369 
f 337 336 369 
f 369 336 371 
f 342 370 338 
f 340 362 339 
f 362 376 339 
f 340 429 362 
f 345 380 341 
f 341 380 372 
f 379 342 343 
f 379 370 342 
f 346 379 343 
f 344 357 347 
f 354 365 344 
f 344 360 357 
f 365 360 344 
f 350 385 345 
f 345 385 380 
f 374 346 348 
f 374 379 346 
f 347 352 350 
f 357 352 347 
f 353 374 348 
f 355 390 349 
f 349 390 356 
f 385 350 352 
f 351 361 358 
f 357 391 352 
f 386 385 352 
f 352 391 386 
f 353 358 392 
f 374 353 392 
f 354 367 365 
f 375 367 354 
f 370 375 354 
f 363 393 355 
f 355 393 390 
f 356 390 384 
f 391 357 360 
f 392 358 361 
f 359 368 366 
f 365 398 360 
f 395 391 360 
f 360 398 395 
f 361 364 394 
f 394 392 361 
f 378 376 362 
f 362 383 378 
f 362 429 383 
f 372 404 363 
f 363 404 393 
f 364 366 396 
f 394 364 396 
f 398 365 367 
f 368 399 366 
f 396 366 397 
f 366 399 397 
f 375 407 367 
f 403 398 367 
f 367 407 403 
f 399 368 369 
f 369 371 400 
f 400 399 369 
f 370 377 375 
f 381 377 370 
f 379 381 370 
f 371 373 401 
f 400 371 401 
f 380 412 372 
f 372 412 404 
f 373 376 402 
f 401 373 402 
f 374 387 379 
f 374 389 387 
f 374 392 389 
f 407 375 377 
f 383 376 378 
f 406 376 383 
f 402 376 406 
f 381 413 377 
f 411 407 377 
f 377 413 411 
f 379 382 381 
f 387 382 379 
f 385 418 380 
f 380 418 412 
f 413 381 382 
f 387 420 382 
f 419 413 382 
f 382 420 419 
f 409 406 383 
f 383 421 409 
f 383 428 421 
f 383 429 428 
f 384 424 388 
f 390 424 384 
f 418 385 386 
f 391 425 386 
f 386 425 418 
f 389 427 387 
f 387 427 420 
f 408 388 416 
f 388 424 416 
f 392 405 389 
f 389 405 427 
f 393 431 390 
f 390 431 424 
f 395 434 391 
f 391 434 425 
f 405 392 394 
f 404 441 393 
f 393 441 431 
f 394 396 432 
f 405 394 430 
f 430 394 432 
f 398 410 395 
f 395 410 434 
f 396 397 433 
f 432 396 433 
f 399 436 397 
f 433 397 435 
f 397 436 435 
f 422 398 403 
f 422 410 398 
f 436 399 400 
f 400 401 437 
f 437 436 400 
f 401 402 438 
f 437 401 438 
f 402 406 440 
f 438 402 440 
f 407 422 403 
f 412 446 404 
f 404 446 441 
f 405 430 427 
f 421 406 409 
f 421 428 406 
f 428 429 406 
f 429 443 406 
f 440 406 442 
f 443 442 406 
f 426 407 411 
f 426 422 407 
f 416 414 408 
f 422 444 410 
f 410 439 434 
f 444 439 410 
f 413 426 411 
f 418 446 412 
f 423 413 419 
f 423 426 413 
f 415 414 416 
f 416 417 415 
f 417 416 449 
f 424 457 416 
f 416 457 449 
f 448 417 449 
f 418 425 453 
f 418 453 446 
f 420 423 419 
f 427 423 420 
f 426 447 422 
f 422 445 444 
f 447 445 422 
f 423 454 426 
f 451 423 427 
f 423 451 460 
f 454 423 460 
f 431 457 424 
f 434 466 425 
f 425 458 453 
f 425 466 458 
f 426 452 447 
f 454 452 426 
f 451 427 430 
f 443 429 828 
f 721 737 429 
f 737 764 429 
f 429 764 814 
f 429 814 818 
f 429 818 819 
f 429 819 821 
f 822 429 821 
f 828 429 822 
f 430 432 467 
f 451 430 462 
f 462 430 467 
f 441 465 431 
f 431 465 457 
f 432 433 468 
f 467 432 468 
f 469 433 435 
f 468 433 469 
f 439 478 434 
f 434 478 466 
f 436 455 435 
f 470 435 455 
f 470 469 435 
f 455 436 437 
f 437 438 473 
f 455 437 472 
f 472 437 473 
f 438 440 475 
f 473 438 475 
f 444 461 439 
f 439 461 478 
f 440 442 477 
f 475 440 477 
f 446 476 441 
f 476 465 441 
f 479 442 443 
f 477 442 479 
f 479 443 450 
f 450 443 832 
f 443 828 831 
f 443 831 833 
f 443 833 832 
f 471 444 445 
f 471 461 444 
f 447 471 445 
f 446 453 484 
f 484 476 446 
f 464 447 452 
f 464 471 447 
f 449 456 448 
f 449 489 456 
f 457 489 449 
f 459 479 450 
f 450 832 459 
f 451 462 460 
f 454 464 452 
f 458 495 453 
f 453 490 484 
f 453 495 490 
f 454 460 498 
f 464 454 498 
f 455 472 470 
f 456 489 487 
f 457 465 494 
f 494 489 457 
f 466 500 458 
f 458 500 495 
f 480 459 463 
f 459 832 463 
f 480 479 459 
f 498 460 462 
f 471 486 461 
f 461 483 478 
f 486 483 461 
f 501 462 467 
f 501 498 462 
f 463 482 480 
f 463 830 482 
f 463 832 830 
f 464 493 471 
f 464 497 493 
f 464 498 497 
f 476 510 465 
f 465 499 494 
f 465 510 499 
f 478 512 466 
f 466 512 500 
f 467 468 502 
f 503 501 467 
f 503 467 502 
f 468 469 481 
f 502 468 481 
f 470 474 469 
f 481 469 474 
f 474 470 472 
f 471 488 486 
f 493 488 471 
f 472 473 508 
f 474 472 507 
f 507 472 508 
f 473 475 509 
f 508 473 509 
f 474 507 481 
f 475 477 511 
f 509 475 511 
f 484 601 476 
f 476 601 510 
f 513 477 479 
f 511 477 513 
f 512 478 483 
f 480 492 479 
f 514 479 492 
f 514 513 479 
f 492 480 482 
f 481 506 502 
f 507 506 481 
f 492 482 485 
f 482 823 485 
f 482 830 823 
f 486 610 483 
f 537 512 483 
f 483 610 537 
f 490 601 484 
f 485 491 515 
f 485 823 491 
f 492 485 515 
f 610 486 488 
f 487 489 496 
f 493 650 488 
f 641 610 488 
f 488 650 641 
f 494 672 489 
f 489 640 496 
f 489 672 640 
f 490 495 608 
f 605 601 490 
f 605 490 608 
f 515 491 527 
f 491 646 527 
f 491 823 646 
f 492 515 514 
f 650 493 497 
f 499 672 494 
f 495 500 623 
f 608 495 623 
f 496 640 622 
f 498 690 497 
f 686 650 497 
f 497 690 686 
f 690 498 501 
f 499 510 644 
f 675 499 644 
f 675 672 499 
f 500 512 625 
f 623 500 625 
f 505 501 503 
f 505 720 501 
f 715 690 501 
f 720 715 501 
f 502 504 503 
f 506 504 502 
f 503 504 505 
f 505 504 719 
f 504 506 719 
f 719 720 505 
f 724 506 507 
f 723 719 506 
f 723 506 724 
f 507 508 724 
f 508 509 726 
f 724 508 726 
f 509 511 728 
f 726 509 728 
f 510 601 624 
f 644 510 624 
f 511 513 732 
f 728 511 732 
f 512 537 625 
f 514 736 513 
f 732 513 734 
f 513 736 734 
f 736 514 515 
f 515 527 646 
f 515 646 739 
f 739 736 515 
f 517 516 549 
f 578 516 517 
f 516 520 548 
f 581 520 516 
f 516 548 549 
f 578 581 516 
f 517 549 592 
f 577 517 565 
f 565 517 592 
f 577 578 517 
f 526 518 519 
f 519 518 533 
f 926 518 526 
f 924 533 518 
f 925 924 518 
f 926 925 518 
f 520 519 547 
f 582 519 520 
f 530 526 519 
f 519 555 530 
f 519 533 546 
f 519 546 547 
f 564 555 519 
f 583 564 519 
f 582 583 519 
f 520 547 548 
f 581 582 520 
f 522 521 542 
f 589 521 522 
f 521 525 541 
f 590 525 521 
f 521 541 542 
f 589 590 521 
f 523 522 528 
f 529 522 523 
f 522 531 528 
f 535 522 529 
f 522 532 531 
f 522 542 532 
f 587 522 535 
f 587 589 522 
f 841 523 528 
f 843 529 523 
f 841 842 523 
f 842 843 523 
f 525 524 539 
f 594 524 525 
f 524 538 539 
f 538 524 597 
f 597 524 593 
f 606 593 524 
f 594 606 524 
f 525 539 541 
f 590 594 525 
f 526 530 927 
f 926 526 927 
f 839 528 531 
f 839 840 528 
f 840 841 528 
f 847 535 529 
f 843 844 529 
f 844 845 529 
f 845 846 529 
f 846 847 529 
f 916 530 555 
f 916 917 530 
f 917 929 530 
f 927 530 928 
f 928 530 929 
f 838 531 532 
f 839 531 838 
f 532 542 543 
f 849 532 543 
f 836 837 532 
f 848 836 532 
f 837 838 532 
f 849 848 532 
f 533 534 546 
f 534 533 920 
f 920 533 921 
f 921 533 922 
f 923 922 533 
f 924 923 533 
f 534 536 546 
f 536 534 918 
f 918 534 919 
f 919 534 920 
f 540 587 535 
f 853 540 535 
f 853 535 847 
f 536 544 546 
f 914 544 536 
f 914 536 918 
f 537 610 659 
f 537 659 625 
f 538 552 539 
f 551 552 538 
f 538 579 551 
f 579 538 598 
f 598 538 597 
f 539 554 541 
f 552 554 539 
f 566 587 540 
f 855 566 540 
f 853 854 540 
f 854 855 540 
f 541 556 542 
f 554 556 541 
f 542 545 543 
f 542 553 545 
f 556 553 542 
f 851 543 545 
f 850 849 543 
f 851 850 543 
f 544 550 546 
f 911 550 544 
f 913 911 544 
f 914 913 544 
f 857 545 553 
f 851 545 852 
f 852 545 857 
f 546 562 547 
f 550 561 546 
f 561 562 546 
f 547 563 548 
f 562 563 547 
f 548 567 549 
f 563 567 548 
f 567 596 549 
f 549 596 592 
f 558 561 550 
f 909 558 550 
f 910 909 550 
f 911 910 550 
f 552 551 621 
f 551 579 603 
f 551 603 607 
f 551 607 621 
f 554 552 611 
f 611 552 621 
f 556 557 553 
f 859 553 557 
f 858 857 553 
f 859 858 553 
f 556 554 612 
f 612 554 611 
f 912 555 564 
f 915 555 912 
f 916 555 915 
f 560 557 556 
f 568 560 556 
f 568 556 613 
f 613 556 612 
f 557 560 861 
f 860 859 557 
f 861 860 557 
f 559 561 558 
f 903 559 558 
f 904 903 558 
f 905 904 558 
f 907 905 558 
f 909 907 558 
f 561 559 569 
f 900 569 559 
f 902 900 559 
f 903 902 559 
f 867 560 568 
f 861 560 862 
f 862 560 863 
f 865 863 560 
f 867 865 560 
f 562 561 616 
f 561 569 573 
f 561 573 615 
f 616 561 615 
f 563 562 617 
f 617 562 616 
f 567 563 618 
f 618 563 617 
f 583 571 564 
f 899 564 571 
f 899 901 564 
f 901 906 564 
f 906 908 564 
f 908 912 564 
f 604 577 565 
f 605 565 592 
f 604 565 605 
f 570 587 566 
f 868 570 566 
f 855 856 566 
f 856 864 566 
f 864 866 566 
f 866 868 566 
f 596 567 619 
f 619 567 618 
f 574 568 613 
f 870 568 574 
f 869 867 568 
f 870 869 568 
f 895 573 569 
f 895 569 900 
f 572 587 570 
f 874 572 570 
f 874 570 868 
f 583 580 571 
f 896 571 580 
f 896 897 571 
f 898 571 897 
f 898 899 571 
f 586 572 575 
f 876 575 572 
f 586 587 572 
f 874 875 572 
f 875 876 572 
f 615 573 576 
f 893 576 573 
f 894 893 573 
f 895 894 573 
f 591 574 614 
f 873 574 591 
f 614 574 613 
f 871 870 574 
f 871 574 872 
f 873 872 574 
f 575 585 586 
f 878 585 575 
f 876 877 575 
f 877 878 575 
f 576 595 614 
f 891 595 576 
f 615 576 614 
f 892 891 576 
f 893 892 576 
f 627 578 577 
f 626 577 604 
f 626 627 577 
f 629 581 578 
f 627 629 578 
f 579 598 599 
f 579 599 602 
f 603 579 602 
f 583 584 580 
f 889 580 584 
f 896 580 889 
f 630 582 581 
f 629 630 581 
f 631 583 582 
f 630 631 582 
f 588 584 583 
f 632 588 583 
f 631 632 583 
f 584 588 887 
f 887 888 584 
f 888 889 584 
f 588 586 585 
f 882 588 585 
f 878 879 585 
f 879 882 585 
f 633 587 586 
f 632 586 588 
f 632 633 586 
f 634 589 587 
f 633 634 587 
f 882 883 588 
f 883 885 588 
f 886 588 885 
f 887 588 886 
f 635 590 589 
f 634 635 589 
f 636 594 590 
f 635 636 590 
f 595 591 614 
f 880 591 595 
f 873 591 880 
f 592 596 600 
f 620 592 600 
f 620 605 592 
f 594 609 606 
f 639 609 594 
f 636 639 594 
f 881 880 595 
f 884 881 595 
f 890 884 595 
f 891 890 595 
f 600 596 628 
f 628 596 619 
f 620 600 624 
f 600 628 624 
f 605 620 601 
f 601 620 624 
f 608 604 605 
f 638 604 608 
f 638 626 604 
f 621 607 637 
f 623 638 608 
f 610 641 659 
f 612 611 648 
f 611 621 647 
f 611 647 648 
f 613 612 649 
f 612 648 649 
f 614 613 651 
f 613 649 651 
f 615 614 652 
f 614 651 652 
f 616 615 654 
f 615 652 654 
f 617 616 655 
f 616 654 655 
f 618 617 656 
f 617 655 656 
f 619 618 657 
f 618 656 657 
f 628 619 667 
f 619 657 667 
f 621 637 643 
f 621 643 653 
f 621 653 647 
f 640 704 622 
f 622 704 731 
f 625 645 623 
f 645 638 623 
f 624 628 644 
f 625 659 645 
f 660 627 626 
f 658 626 638 
f 658 660 626 
f 661 629 627 
f 660 661 627 
f 644 628 675 
f 628 667 675 
f 662 630 629 
f 661 662 629 
f 663 631 630 
f 662 663 630 
f 664 632 631 
f 663 664 631 
f 665 633 632 
f 664 665 632 
f 666 634 633 
f 665 666 633 
f 668 635 634 
f 666 668 634 
f 670 636 635 
f 668 670 635 
f 636 642 639 
f 669 642 636 
f 670 669 636 
f 645 658 638 
f 640 672 725 
f 767 704 640 
f 767 640 725 
f 641 650 713 
f 641 713 659 
f 643 671 653 
f 687 658 645 
f 659 687 645 
f 739 646 744 
f 646 823 744 
f 647 678 648 
f 653 677 647 
f 677 678 647 
f 648 679 649 
f 678 679 648 
f 649 680 651 
f 679 680 649 
f 650 686 713 
f 651 681 652 
f 680 681 651 
f 652 682 654 
f 681 682 652 
f 671 673 653 
f 673 676 653 
f 676 677 653 
f 654 683 655 
f 682 683 654 
f 655 684 656 
f 683 684 655 
f 656 685 657 
f 684 685 656 
f 657 689 667 
f 685 689 657 
f 698 660 658 
f 687 698 658 
f 659 713 687 
f 707 661 660 
f 698 707 660 
f 708 662 661 
f 707 708 661 
f 709 663 662 
f 708 709 662 
f 710 664 663 
f 709 710 663 
f 711 665 664 
f 710 711 664 
f 712 666 665 
f 711 712 665 
f 714 668 666 
f 712 714 666 
f 667 691 675 
f 689 691 667 
f 716 670 668 
f 714 716 668 
f 670 674 669 
f 694 674 670 
f 706 694 670 
f 716 706 670 
f 675 691 672 
f 672 691 725 
f 688 676 673 
f 677 676 696 
f 676 688 705 
f 696 676 705 
f 678 677 692 
f 692 677 696 
f 679 678 693 
f 693 678 692 
f 680 679 695 
f 695 679 693 
f 681 680 697 
f 697 680 695 
f 682 681 699 
f 699 681 697 
f 683 682 700 
f 700 682 699 
f 684 683 701 
f 701 683 700 
f 685 684 702 
f 702 684 701 
f 689 685 703 
f 703 685 702 
f 686 690 733 
f 686 733 713 
f 729 698 687 
f 713 729 687 
f 691 689 718 
f 718 689 703 
f 690 715 733 
f 725 691 718 
f 693 692 751 
f 692 696 749 
f 692 749 751 
f 695 693 752 
f 693 751 752 
f 697 695 753 
f 695 752 753 
f 696 705 717 
f 696 717 727 
f 696 727 747 
f 696 747 749 
f 699 697 754 
f 697 753 754 
f 735 707 698 
f 729 735 698 
f 700 699 755 
f 699 754 755 
f 701 700 757 
f 700 755 757 
f 702 701 758 
f 701 757 758 
f 703 702 759 
f 702 758 759 
f 718 703 762 
f 703 759 762 
f 767 731 704 
f 716 721 706 
f 738 708 707 
f 735 738 707 
f 740 709 708 
f 738 740 708 
f 743 710 709 
f 740 743 709 
f 745 711 710 
f 743 745 710 
f 746 712 711 
f 745 746 711 
f 748 714 712 
f 746 748 712 
f 713 733 729 
f 750 716 714 
f 748 750 714 
f 715 720 742 
f 733 715 742 
f 737 721 716 
f 750 737 716 
f 725 718 767 
f 718 762 767 
f 722 720 719 
f 719 723 722 
f 720 722 760 
f 742 720 760 
f 722 723 730 
f 722 730 760 
f 723 724 730 
f 724 726 741 
f 730 724 741 
f 726 728 776 
f 741 726 776 
f 727 756 747 
f 728 732 813 
f 776 728 813 
f 733 742 729 
f 742 735 729 
f 730 741 765 
f 760 730 765 
f 731 761 766 
f 767 761 731 
f 732 734 820 
f 813 732 820 
f 736 820 734 
f 760 738 735 
f 742 760 735 
f 736 739 817 
f 736 817 825 
f 736 825 820 
f 750 764 737 
f 765 740 738 
f 760 765 738 
f 823 739 744 
f 829 817 739 
f 830 739 823 
f 829 739 830 
f 773 743 740 
f 765 773 740 
f 741 773 765 
f 741 776 773 
f 785 745 743 
f 773 785 743 
f 811 746 745 
f 785 811 745 
f 815 748 746 
f 811 815 746 
f 747 770 749 
f 756 763 747 
f 763 769 747 
f 769 770 747 
f 816 750 748 
f 815 816 748 
f 749 772 751 
f 770 772 749 
f 814 764 750 
f 816 814 750 
f 751 774 752 
f 772 774 751 
f 752 775 753 
f 774 775 752 
f 753 777 754 
f 775 777 753 
f 754 778 755 
f 777 778 754 
f 755 779 757 
f 778 779 755 
f 757 780 758 
f 779 780 757 
f 758 781 759 
f 780 781 758 
f 759 782 762 
f 781 782 759 
f 761 768 766 
f 767 784 761 
f 761 784 768 
f 762 784 767 
f 782 784 762 
f 771 769 763 
f 786 766 768 
f 794 783 766 
f 787 766 786 
f 789 766 787 
f 789 794 766 
f 768 784 810 
f 768 803 786 
f 768 806 803 
f 768 807 806 
f 768 810 807 
f 770 769 788 
f 769 771 783 
f 769 783 787 
f 786 769 787 
f 788 769 786 
f 772 770 791 
f 790 770 788 
f 791 770 790 
f 774 772 793 
f 792 772 791 
f 793 772 792 
f 776 785 773 
f 775 774 796 
f 795 774 793 
f 796 774 795 
f 777 775 798 
f 797 775 796 
f 798 775 797 
f 776 813 785 
f 778 777 800 
f 799 777 798 
f 800 777 799 
f 779 778 802 
f 801 778 800 
f 802 778 801 
f 780 779 804 
f 803 779 802 
f 804 779 803 
f 781 780 806 
f 805 780 804 
f 806 780 805 
f 782 781 808 
f 807 781 806 
f 808 781 807 
f 784 782 812 
f 809 782 808 
f 812 782 809 
f 789 787 783 
f 789 783 794 
f 810 784 812 
f 813 811 785 
f 797 788 786 
f 799 797 786 
f 801 799 786 
f 802 801 786 
f 803 802 786 
f 791 790 788 
f 792 791 788 
f 795 792 788 
f 797 795 788 
f 795 793 792 
f 797 796 795 
f 799 798 797 
f 801 800 799 
f 806 804 803 
f 806 805 804 
f 810 808 807 
f 810 809 808 
f 810 812 809 
f 813 820 811 
f 820 815 811 
f 816 818 814 
f 816 815 820 
f 818 816 819 
f 819 816 821 
f 824 816 820 
f 821 816 824 
f 817 827 825 
f 817 829 827 
f 824 820 825 
f 824 822 821 
f 824 826 822 
f 826 828 822 
f 825 826 824 
f 825 827 826 
f 827 831 826 
f 826 831 828 
f 827 829 833 
f 827 833 831 
f 829 830 832 
f 833 829 832 
f 839 834 835 
f 834 932 835 
f 836 834 837 
f 848 834 836 
f 837 834 838 
f 838 834 839 
f 849 834 848 
f 851 834 849 
f 852 834 851 
f 857 834 852 
f 858 834 857 
f 861 834 858 
f 863 834 861 
f 865 834 863 
f 867 834 865 
f 870 834 867 
f 871 834 870 
f 872 834 871 
f 834 872 873 
f 834 873 880 
f 834 880 881 
f 884 834 881 
f 930 834 884 
f 958 834 930 
f 932 834 934 
f 934 834 938 
f 938 834 942 
f 942 834 946 
f 946 834 954 
f 834 958 954 
f 840 839 835 
f 841 840 835 
f 842 841 835 
f 843 842 835 
f 844 843 835 
f 845 844 835 
f 846 845 835 
f 847 846 835 
f 853 847 835 
f 854 853 835 
f 854 835 855 
f 856 855 835 
f 864 856 835 
f 866 864 835 
f 868 866 835 
f 868 835 874 
f 874 835 875 
f 875 835 876 
f 835 877 876 
f 877 835 878 
f 835 879 878 
f 879 835 885 
f 931 885 835 
f 957 931 835 
f 835 932 935 
f 835 935 939 
f 835 939 943 
f 835 943 947 
f 947 957 835 
f 850 851 849 
f 859 861 858 
f 859 860 861 
f 862 863 861 
f 869 870 867 
f 879 885 882 
f 882 885 883 
f 930 884 890 
f 885 887 886 
f 885 888 887 
f 931 888 885 
f 931 889 888 
f 931 896 889 
f 930 890 891 
f 930 891 892 
f 892 893 930 
f 893 894 895 
f 893 895 930 
f 895 900 930 
f 931 897 896 
f 897 931 898 
f 899 898 906 
f 898 931 906 
f 901 899 906 
f 903 900 902 
f 930 900 903 
f 903 904 930 
f 904 905 930 
f 905 907 930 
f 906 931 908 
f 907 909 930 
f 908 931 912 
f 910 930 909 
f 910 911 930 
f 911 913 930 
f 912 931 915 
f 913 914 930 
f 918 930 914 
f 915 931 916 
f 916 931 917 
f 917 931 929 
f 918 919 930 
f 919 920 930 
f 920 921 930 
f 921 922 930 
f 922 923 930 
f 923 924 930 
f 924 925 930 
f 925 926 930 
f 927 931 926 
f 926 931 930 
f 928 931 927 
f 929 931 928 
f 933 930 931 
f 930 933 936 
f 930 936 940 
f 930 940 944 
f 930 944 948 
f 930 948 958 
f 933 931 937 
f 937 931 941 
f 941 931 945 
f 945 931 949 
f 961 949 931 
f 931 957 961 
f 934 933 932 
f 933 935 932 
f 933 934 936 
f 935 933 937 
f 938 936 934 
f 937 939 935 
f 936 938 940 
f 939 937 941 
f 938 944 940 
f 944 938 942 
f 941 943 939 
f 943 941 945 
f 946 944 942 
f 949 943 945 
f 943 949 947 
f 944 946 948 
f 950 948 946 
f 954 950 946 
f 953 947 949 
f 947 953 951 
f 951 957 947 
f 948 950 952 
f 952 958 948 
f 961 953 949 
f 955 952 950 
f 954 955 950 
f 960 951 953 
f 956 957 951 
f 951 960 956 
f 952 955 959 
f 959 958 952 
f 961 960 953 
f 955 954 970 
f 972 954 958 
f 954 972 970 
f 962 959 955 
f 992 962 955 
f 955 970 988 
f 955 988 992 
f 957 956 971 
f 965 956 960 
f 956 965 963 
f 963 971 956 
f 971 961 957 
f 958 959 972 
f 959 962 964 
f 964 972 959 
f 960 961 973 
f 973 965 960 
f 961 971 973 
f 966 964 962 
f 992 966 962 
f 969 963 965 
f 963 969 967 
f 967 989 963 
f 971 963 989 
f 964 966 968 
f 968 990 964 
f 972 964 990 
f 991 969 965 
f 965 973 991 
f 974 968 966 
f 992 974 966 
f 977 967 969 
f 967 977 975 
f 975 993 967 
f 989 967 993 
f 968 974 976 
f 976 994 968 
f 990 968 994 
f 995 977 969 
f 969 991 995 
f 990 970 972 
f 970 990 988 
f 989 973 971 
f 973 989 991 
f 974 980 976 
f 980 974 978 
f 996 978 974 
f 974 992 996 
f 977 979 975 
f 979 997 975 
f 993 975 997 
f 980 998 976 
f 994 976 998 
f 979 977 981 
f 999 981 977 
f 977 995 999 
f 982 980 978 
f 996 982 978 
f 981 983 979 
f 983 997 979 
f 980 982 984 
f 984 998 980 
f 983 981 985 
f 999 985 981 
f 986 984 982 
f 982 1000 986 
f 982 996 1000 
f 985 986 983 
f 1000 983 986 
f 983 1000 997 
f 984 986 987 
f 1001 984 987 
f 998 984 1001 
f 986 985 987 
f 1001 987 985 
f 1001 985 999 
f 994 988 990 
f 988 994 992 
f 993 991 989 
f 991 993 995 
f 994 996 992 
f 993 999 995 
f 999 993 997 
f 996 994 998 
f 998 1000 996 
f 997 1001 999 
f 1001 997 1000 
f 1000 998 1001 


