# Blender v2.76 (sub 0) OBJ File: ''
# www.blender.org
mtllib LINK500MM.mtl
o LINK,_500_mm
v 0.015289 -0.092520 0.008145
v 0.019041 -0.092520 0.010311
v 0.017087 -0.092520 0.002851
v 0.020776 -0.092520 0.006101
v 0.017313 -0.092520 0.000591
v 0.021645 -0.092520 0.000591
v 0.017313 -0.092520 -0.000591
v 0.021645 -0.092520 -0.000591
v 0.017087 -0.092520 -0.002851
v 0.020776 -0.092520 -0.006101
v 0.015289 -0.092520 -0.008145
v 0.019041 -0.092520 -0.010311
v 0.011334 -0.092520 -0.018450
v 0.009168 -0.092520 -0.014698
v 0.014180 -0.092520 -0.016365
v 0.011732 -0.092520 -0.012745
v 0.018216 -0.092520 -0.011707
v 0.014698 -0.092520 -0.009168
v 0.018450 -0.092520 -0.011334
v -0.000591 -0.092520 -0.017313
v -0.000591 -0.092520 -0.021645
v -0.004253 -0.092520 -0.016793
v -0.003082 -0.092520 -0.021433
v -0.008145 -0.092520 -0.015289
v -0.008995 -0.092520 -0.019697
v -0.010311 -0.092520 -0.019041
v 0.008145 -0.092520 -0.015289
v 0.010311 -0.092520 -0.019041
v 0.006958 -0.092520 -0.015864
v 0.008995 -0.092520 -0.019697
v 0.001431 -0.092520 -0.017264
v 0.003082 -0.092520 -0.021433
v 0.000591 -0.092520 -0.017313
v 0.000591 -0.092520 -0.021645
v -0.018450 -0.092520 -0.011334
v -0.014698 -0.092520 -0.009168
v -0.018216 -0.092520 -0.011707
v -0.013670 -0.092520 -0.010640
v -0.014180 -0.092520 -0.016365
v -0.009475 -0.092520 -0.014502
v -0.011334 -0.092520 -0.018450
v -0.009168 -0.092520 -0.014698
v -0.015289 -0.092520 -0.008145
v -0.019041 -0.092520 -0.010311
v -0.016384 -0.092520 -0.005625
v -0.020776 -0.092520 -0.006101
v -0.017313 -0.092520 -0.000591
v -0.021645 -0.092520 -0.000591
v -0.017313 -0.092520 0.000591
v -0.021645 -0.092520 0.000591
v -0.016384 -0.092520 0.005625
v -0.020776 -0.092520 0.006101
v -0.015289 -0.092520 0.008145
v -0.019041 -0.092520 0.010311
v -0.011334 -0.092520 0.018450
v -0.009168 -0.092520 0.014698
v -0.009475 -0.092520 0.014502
v -0.014698 -0.092520 0.009168
v -0.018450 -0.092520 0.011334
v -0.013670 -0.092520 0.010640
v -0.018216 -0.092520 0.011707
v -0.014180 -0.092520 0.016365
v -0.000591 -0.092520 0.021645
v -0.000591 -0.092520 0.017313
v -0.003082 -0.092520 0.021433
v -0.004253 -0.092520 0.016793
v -0.008995 -0.092520 0.019697
v -0.008145 -0.092520 0.015289
v -0.010311 -0.092520 0.019041
v 0.000591 -0.092520 0.017313
v 0.000591 -0.092520 0.021645
v 0.001431 -0.092520 0.017264
v 0.003082 -0.092520 0.021433
v 0.006958 -0.092520 0.015864
v 0.008995 -0.092520 0.019697
v 0.008145 -0.092520 0.015289
v 0.010311 -0.092520 0.019041
v 0.000591 0.092520 0.021645
v 0.000591 0.092520 0.017313
v 0.003082 0.092520 0.021433
v 0.004253 0.092520 0.016793
v 0.008995 0.092520 0.019697
v 0.008145 0.092520 0.015289
v 0.010311 0.092520 0.019041
v 0.000591 0.092520 -0.017313
v 0.000591 0.092520 -0.021645
v 0.004253 0.092520 -0.016793
v 0.003082 0.092520 -0.021433
v 0.008145 0.092520 -0.015289
v 0.008995 0.092520 -0.019697
v 0.010311 0.092520 -0.019041
v -0.017313 0.092520 -0.000591
v -0.021645 0.092520 -0.000591
v -0.017087 0.092520 -0.002851
v -0.020776 0.092520 -0.006101
v -0.015289 0.092520 -0.008145
v -0.019041 0.092520 -0.010311
v 0.011334 0.092520 0.018450
v 0.009168 0.092520 0.014698
v 0.009475 0.092520 0.014502
v 0.014698 0.092520 0.009168
v 0.018450 0.092520 0.011334
v 0.013670 0.092520 0.010640
v 0.018216 0.092520 0.011707
v 0.014180 0.092520 0.016365
v 0.018450 0.092520 -0.011334
v 0.014698 0.092520 -0.009168
v 0.018216 0.092520 -0.011707
v 0.013670 0.092520 -0.010640
v 0.014180 0.092520 -0.016365
v 0.009475 0.092520 -0.014502
v 0.011334 0.092520 -0.018450
v 0.009168 0.092520 -0.014698
v -0.011732 0.092520 0.012745
v -0.009168 0.092520 0.014698
v -0.011334 0.092520 0.018450
v -0.018450 0.092520 0.011334
v -0.014698 0.092520 0.009168
v -0.018216 0.092520 0.011707
v -0.014180 0.092520 0.016365
v -0.011334 0.092520 -0.018450
v -0.009168 0.092520 -0.014698
v -0.014180 0.092520 -0.016365
v -0.011732 0.092520 -0.012745
v -0.018216 0.092520 -0.011707
v -0.014698 0.092520 -0.009168
v -0.018450 0.092520 -0.011334
v 0.017313 0.092520 0.000591
v 0.021645 0.092520 0.000591
v 0.016384 0.092520 0.005625
v 0.020776 0.092520 0.006101
v 0.015289 0.092520 0.008145
v 0.019041 0.092520 0.010311
v 0.015289 0.092520 -0.008145
v 0.019041 0.092520 -0.010311
v 0.016384 0.092520 -0.005625
v 0.020776 0.092520 -0.006101
v 0.017313 0.092520 -0.000591
v 0.021645 0.092520 -0.000591
v -0.000591 0.092520 0.017313
v -0.000591 0.092520 0.021645
v -0.001431 0.092520 0.017264
v -0.003082 0.092520 0.021433
v -0.006958 0.092520 0.015864
v -0.008995 0.092520 0.019697
v -0.008145 0.092520 0.015289
v -0.010311 0.092520 0.019041
v -0.008145 0.092520 -0.015289
v -0.010311 0.092520 -0.019041
v -0.006958 0.092520 -0.015864
v -0.008995 0.092520 -0.019697
v -0.001431 0.092520 -0.017264
v -0.003082 0.092520 -0.021433
v -0.000591 0.092520 -0.017313
v -0.000591 0.092520 -0.021645
v -0.015748 -0.084646 0.000000
v -0.014798 0.084646 -0.005386
v -0.014798 -0.084646 -0.005386
v -0.012064 0.084646 -0.010123
v -0.012064 -0.084646 -0.010123
v -0.007874 0.084646 -0.013638
v -0.007874 -0.084646 -0.013638
v -0.002735 0.084646 -0.015509
v -0.002735 -0.084646 -0.015509
v 0.002735 0.084646 -0.015509
v 0.002735 -0.084646 -0.015509
v 0.007874 0.084646 -0.013638
v 0.007874 -0.084646 -0.013638
v 0.012064 0.084646 -0.010123
v 0.012064 -0.084646 -0.010123
v 0.014798 0.084646 -0.005386
v 0.014798 -0.084646 -0.005386
v 0.015748 0.084646 -0.000000
v 0.015748 -0.084646 -0.000000
v 0.014798 0.084646 0.005386
v 0.014798 -0.084646 0.005386
v 0.012064 0.084646 0.010123
v 0.012064 -0.084646 0.010123
v 0.007874 0.084646 0.013638
v 0.007874 -0.084646 0.013638
v 0.002735 0.084646 0.015509
v 0.002735 -0.084646 0.015509
v -0.002735 0.084646 0.015509
v -0.002735 -0.084646 0.015509
v -0.007874 0.084646 0.013638
v -0.007874 -0.084646 0.013638
v -0.012064 0.084646 0.010123
v -0.012064 -0.084646 0.010123
v -0.014798 0.084646 0.005386
v -0.014798 -0.084646 0.005386
v -0.015748 0.084646 0.000000
v 0.017313 -0.088189 -0.000591
v 0.017087 -0.084646 -0.002851
v 0.017323 -0.088189 -0.000000
v 0.017323 -0.084646 -0.000000
v 0.017313 -0.088189 0.000591
v 0.017087 -0.084646 0.002851
v 0.015289 -0.088189 0.008145
v 0.015232 -0.088189 0.008243
v 0.015235 -0.084646 0.008245
v 0.014698 -0.088189 0.009168
v 0.011732 -0.084646 0.012745
v 0.014698 -0.092520 0.009168
v 0.011732 -0.092520 0.012745
v 0.009168 -0.092520 0.014698
v 0.009168 -0.088189 0.014698
v 0.008145 -0.088189 0.015289
v 0.006958 -0.084646 0.015864
v 0.000591 -0.088189 0.017313
v 0.001431 -0.084646 0.017264
v -0.000591 -0.088189 0.017313
v -0.004253 -0.084646 0.016793
v -0.009168 -0.088189 0.014698
v -0.016384 -0.084646 0.005625
v -0.015289 -0.088189 0.008145
v -0.013670 -0.084646 0.010640
v -0.014698 -0.088189 0.009168
v -0.017313 -0.088189 0.000591
v -0.017323 -0.088189 0.000000
v -0.017323 -0.084646 0.000000
v -0.017313 -0.088189 -0.000591
v -0.016384 -0.084646 -0.005625
v -0.015289 -0.088189 -0.008145
v -0.014698 -0.088189 -0.009168
v -0.013670 -0.084646 -0.010640
v -0.004253 -0.084646 -0.016793
v -0.008145 -0.088189 -0.015289
v -0.009475 -0.084646 -0.014502
v -0.009168 -0.088189 -0.014698
v 0.000591 -0.088189 -0.017313
v 0.008145 -0.088189 -0.015289
v 0.006958 -0.084646 -0.015864
v 0.009168 -0.088189 -0.014698
v 0.011732 -0.084646 -0.012745
v 0.014698 -0.088189 -0.009168
v 0.015232 -0.088189 -0.008243
v 0.015235 -0.084646 -0.008245
v 0.015289 -0.088189 -0.008145
v -0.008145 -0.088189 0.015289
v -0.009475 -0.084646 0.014502
v -0.000591 -0.088189 -0.017313
v 0.001431 -0.084646 -0.017264
v 0.017323 -0.084646 -0.000000
v 0.015748 -0.084646 -0.000000
v 0.002530 -0.095275 -0.014346
v 0.005110 -0.095275 -0.015726
v 0.007283 -0.095275 -0.012615
v 0.009719 -0.095275 -0.013377
v 0.011159 -0.095275 -0.009363
v 0.013377 -0.095275 -0.009719
v 0.013688 -0.095275 -0.004982
v 0.015726 -0.095275 -0.005110
v 0.014567 -0.095275 -0.000000
v 0.016535 -0.095275 -0.000000
v 0.013688 -0.095275 0.004982
v 0.015726 -0.095275 0.005110
v 0.011159 -0.095275 0.009363
v 0.013377 -0.095275 0.009719
v 0.007283 -0.095275 0.012615
v 0.009719 -0.095275 0.013377
v 0.002530 -0.095275 0.014346
v 0.005110 -0.095275 0.015726
v -0.002530 -0.095275 0.014346
v 0.000000 -0.095275 0.016535
v -0.005110 -0.095275 0.015726
v -0.007283 -0.095275 0.012615
v -0.009719 -0.095275 0.013377
v -0.011159 -0.095275 0.009363
v -0.013377 -0.095275 0.009719
v -0.013688 -0.095275 0.004982
v -0.015726 -0.095275 0.005110
v -0.014567 -0.095275 0.000000
v -0.016535 -0.095275 0.000000
v -0.013688 -0.095275 -0.004982
v -0.015726 -0.095275 -0.005110
v -0.011159 -0.095275 -0.009363
v -0.013377 -0.095275 -0.009719
v -0.007283 -0.095275 -0.012615
v -0.009719 -0.095275 -0.013377
v -0.002530 -0.095275 -0.014346
v -0.005110 -0.095275 -0.015726
v -0.000000 -0.095275 -0.016535
v -0.009376 -0.098425 0.017044
v 0.009376 -0.098425 0.017044
v 0.006083 -0.098425 0.018722
v 0.000000 -0.095275 0.016535
v 0.000000 -0.098425 0.019685
v -0.006083 -0.098425 0.018722
v 0.011650 -0.098425 0.015846
v 0.011571 -0.098425 0.015926
v 0.011650 -0.098425 -0.015846
v 0.015926 -0.098425 -0.011571
v 0.018722 -0.098425 -0.006083
v 0.016535 -0.095275 -0.000000
v 0.019685 -0.098425 -0.000000
v 0.018722 -0.098425 0.006083
v 0.015926 -0.098425 0.011571
v 0.009376 -0.098425 -0.017044
v 0.011571 -0.098425 -0.015926
v -0.009376 -0.098425 -0.017044
v -0.006083 -0.098425 -0.018722
v -0.000000 -0.095275 -0.016535
v -0.000000 -0.098425 -0.019685
v 0.006083 -0.098425 -0.018722
v -0.011650 -0.098425 -0.015846
v -0.011571 -0.098425 -0.015926
v -0.011571 -0.098425 0.015926
v -0.011650 -0.098425 0.015846
v -0.015926 -0.098425 0.011571
v -0.018722 -0.098425 0.006083
v -0.016535 -0.095275 0.000000
v -0.019685 -0.098425 0.000000
v -0.018722 -0.098425 -0.006083
v -0.015926 -0.098425 -0.011571
v 0.011571 -0.098425 0.015926
v 0.017207 -0.098425 0.015846
v -0.011571 -0.098425 -0.015926
v -0.017207 -0.098425 -0.015846
v 0.019809 -0.098425 -0.012844
v 0.019872 -0.098425 -0.012771
v 0.019809 -0.098425 -0.011291
v 0.022665 -0.098425 -0.006655
v 0.019934 -0.098425 -0.010827
v 0.018753 -0.098425 -0.012008
v 0.017207 -0.098425 -0.015846
v 0.019343 -0.098425 -0.011850
v 0.019775 -0.098425 -0.011417
v 0.019809 -0.098425 -0.010363
v 0.019809 -0.098425 -0.000000
v 0.019775 -0.098425 -0.010236
v 0.019343 -0.098425 -0.009804
v 0.018162 -0.098425 -0.011850
v 0.017730 -0.098425 -0.011417
v 0.015926 -0.098425 -0.011571
v 0.018162 -0.098425 -0.009804
v 0.018722 -0.098425 -0.006083
v 0.017730 -0.098425 -0.010236
v 0.017571 -0.098425 -0.010827
v 0.012005 -0.098425 -0.020079
v 0.009376 -0.098425 -0.020079
v 0.009813 -0.098425 -0.021487
v 0.009376 -0.098425 -0.021616
v -0.001181 -0.098425 -0.021654
v -0.001023 -0.098425 -0.021063
v -0.009376 -0.098425 -0.020079
v -0.000591 -0.098425 -0.020631
v -0.000591 -0.098425 -0.022676
v -0.001023 -0.098425 -0.022244
v -0.003362 -0.098425 -0.023382
v -0.009376 -0.098425 -0.021616
v -0.000000 -0.098425 -0.022835
v 0.003362 -0.098425 -0.023382
v 0.000591 -0.098425 -0.022676
v 0.000000 -0.098425 -0.020472
v 0.000591 -0.098425 -0.020631
v 0.001023 -0.098425 -0.021063
v 0.001181 -0.098425 -0.021654
v 0.001023 -0.098425 -0.022244
v -0.009813 -0.098425 -0.021487
v -0.012005 -0.098425 -0.020079
v -0.019685 -0.098425 0.000000
v -0.019775 -0.098425 -0.010236
v -0.018722 -0.098425 -0.006083
v -0.019343 -0.098425 -0.009804
v -0.018753 -0.098425 -0.009646
v -0.018753 -0.098425 -0.012008
v -0.019809 -0.098425 -0.012844
v -0.019343 -0.098425 -0.011850
v -0.018162 -0.098425 -0.009804
v -0.017730 -0.098425 -0.010236
v -0.015926 -0.098425 -0.011571
v -0.017571 -0.098425 -0.010827
v -0.017730 -0.098425 -0.011417
v -0.018162 -0.098425 -0.011850
v -0.019775 -0.098425 -0.011417
v -0.019809 -0.098425 -0.011291
v -0.019872 -0.098425 -0.012771
v -0.022665 -0.098425 -0.006655
v -0.019934 -0.098425 -0.010827
v -0.019809 -0.098425 -0.010363
v -0.023622 -0.098425 0.000000
v -0.019809 -0.098425 -0.000000
v -0.022665 -0.098425 0.006655
v -0.019809 -0.098425 0.011291
v -0.019872 -0.098425 0.012771
v -0.019809 -0.098425 0.012844
v -0.019343 -0.098425 0.009804
v -0.019775 -0.098425 0.010236
v -0.019809 -0.098425 0.010363
v -0.019934 -0.098425 0.010827
v -0.018162 -0.098425 0.011850
v -0.017730 -0.098425 0.011417
v -0.015926 -0.098425 0.011571
v -0.019775 -0.098425 0.011417
v -0.019343 -0.098425 0.011850
v -0.017207 -0.098425 0.015846
v -0.018753 -0.098425 0.012008
v -0.018162 -0.098425 0.009804
v -0.018722 -0.098425 0.006083
v -0.017730 -0.098425 0.010236
v -0.017571 -0.098425 0.010827
v -0.018753 -0.098425 0.009646
v -0.012005 -0.098425 0.020079
v -0.009376 -0.098425 0.020079
v -0.009813 -0.098425 0.021487
v -0.009376 -0.098425 0.021616
v 0.001181 -0.098425 0.021654
v 0.001023 -0.098425 0.021063
v 0.009376 -0.098425 0.020079
v 0.000591 -0.098425 0.020631
v -0.001023 -0.098425 0.022244
v -0.003362 -0.098425 0.023382
v -0.001181 -0.098425 0.021654
v -0.001023 -0.098425 0.021063
v -0.000591 -0.098425 0.020631
v -0.000000 -0.098425 0.020472
v 0.009376 -0.098425 0.021616
v 0.003362 -0.098425 0.023382
v 0.001023 -0.098425 0.022244
v -0.000591 -0.098425 0.022676
v 0.000000 -0.098425 0.022835
v 0.000591 -0.098425 0.022676
v 0.009813 -0.098425 0.021487
v 0.012005 -0.098425 0.020079
v 0.019343 -0.098425 0.009804
v 0.019775 -0.098425 0.010236
v 0.019809 -0.098425 0.010363
v 0.018753 -0.098425 0.012008
v 0.019809 -0.098425 0.012844
v 0.019343 -0.098425 0.011850
v 0.018753 -0.098425 -0.009646
v 0.019685 -0.098425 -0.000000
v 0.018722 -0.098425 0.006083
v 0.018753 -0.098425 0.009646
v 0.018162 -0.098425 0.009804
v 0.017730 -0.098425 0.010236
v 0.015926 -0.098425 0.011571
v 0.017571 -0.098425 0.010827
v 0.017730 -0.098425 0.011417
v 0.018162 -0.098425 0.011850
v 0.019775 -0.098425 0.011417
v 0.019809 -0.098425 0.011291
v 0.019872 -0.098425 0.012771
v 0.022665 -0.098425 0.006655
v 0.019934 -0.098425 0.010827
v 0.023622 -0.098425 -0.000000
v -0.000000 -0.098425 -0.019685
v 0.015469 -0.098425 -0.017852
v 0.011571 -0.098425 -0.015926
v 0.006083 -0.098425 -0.018722
v -0.015469 -0.098425 -0.017852
v -0.006083 -0.098425 -0.018722
v 0.000000 -0.098425 0.019685
v -0.015469 -0.098425 0.017852
v -0.011571 -0.098425 0.015926
v -0.006083 -0.098425 0.018722
v 0.015469 -0.098425 0.017852
v 0.006083 -0.098425 0.018722
v -0.015469 -0.094488 0.017852
v -0.009813 -0.094488 0.021487
v -0.003362 -0.094488 0.023382
v 0.003362 -0.094488 0.023382
v 0.009813 -0.094488 0.021487
v 0.015469 -0.094488 0.017852
v 0.019872 -0.094488 0.012771
v 0.022665 -0.094488 0.006655
v 0.023622 -0.098425 -0.000000
v 0.023622 -0.094488 -0.000000
v 0.022665 -0.094488 -0.006655
v 0.019872 -0.094488 -0.012771
v 0.015469 -0.094488 -0.017852
v 0.009813 -0.094488 -0.021487
v 0.003362 -0.094488 -0.023382
v -0.003362 -0.094488 -0.023382
v -0.009813 -0.094488 -0.021487
v -0.015469 -0.094488 -0.017852
v -0.019872 -0.094488 -0.012771
v -0.022665 -0.094488 -0.006655
v -0.023622 -0.094488 0.000000
v -0.022665 -0.094488 0.006655
v -0.019872 -0.094488 0.012771
v 0.011334 -0.092520 0.018450
v 0.018450 -0.092520 0.011334
v 0.018216 -0.092520 0.011707
v 0.014180 -0.092520 0.016365
v 0.016384 0.084646 0.005625
v 0.015289 0.088189 0.008145
v 0.013670 0.084646 0.010640
v 0.014698 0.088189 0.009168
v 0.017313 0.088189 0.000591
v 0.017323 0.088189 0.000000
v 0.017323 0.084646 0.000000
v 0.017313 0.088189 -0.000591
v 0.016384 0.084646 -0.005625
v 0.015289 0.088189 -0.008145
v 0.014698 0.088189 -0.009168
v 0.013670 0.084646 -0.010640
v 0.004253 0.084646 -0.016793
v 0.008145 0.088189 -0.015289
v 0.009475 0.084646 -0.014502
v 0.009168 0.088189 -0.014698
v -0.000591 0.088189 -0.017313
v -0.011732 0.084646 -0.012745
v -0.009168 0.088189 -0.014698
v -0.006958 0.084646 -0.015864
v -0.008145 0.088189 -0.015289
v -0.014698 0.088189 -0.009168
v -0.015232 0.088189 -0.008243
v -0.015235 0.084646 -0.008245
v -0.015289 0.088189 -0.008145
v -0.017087 0.084646 -0.002851
v -0.017087 0.092520 0.002851
v -0.017313 0.092520 0.000591
v -0.017087 0.084646 0.002851
v -0.017313 0.088189 0.000591
v -0.017313 0.088189 -0.000591
v -0.017323 0.088189 -0.000000
v -0.015289 0.092520 0.008145
v -0.015289 0.088189 0.008145
v -0.015232 0.088189 0.008243
v -0.015235 0.084646 0.008245
v -0.014698 0.088189 0.009168
v -0.011732 0.084646 0.012745
v -0.009168 0.088189 0.014698
v -0.008145 0.088189 0.015289
v -0.006958 0.084646 0.015864
v 0.004253 0.084646 0.016793
v 0.000591 0.088189 0.017313
v -0.001431 0.084646 0.017264
v -0.000591 0.088189 0.017313
v 0.009168 0.088189 0.014698
v 0.008145 0.088189 0.015289
v 0.009475 0.084646 0.014502
v 0.000591 0.088189 -0.017313
v -0.001431 0.084646 -0.017264
v 0.002530 0.095275 -0.014346
v 0.000000 0.095275 -0.016535
v -0.002530 0.095275 -0.014346
v -0.005110 0.095275 -0.015726
v -0.007283 0.095275 -0.012615
v -0.009719 0.095275 -0.013377
v -0.011159 0.095275 -0.009363
v -0.013377 0.095275 -0.009719
v -0.013688 0.095275 -0.004982
v -0.015726 0.095275 -0.005110
v -0.014567 0.095275 0.000000
v -0.016535 0.095275 -0.000000
v -0.013688 0.095275 0.004982
v -0.015726 0.095275 0.005110
v -0.011159 0.095275 0.009363
v -0.013377 0.095275 0.009719
v -0.007283 0.095275 0.012615
v -0.009719 0.095275 0.013377
v -0.002530 0.095275 0.014346
v -0.005110 0.095275 0.015726
v -0.000000 0.095275 0.016535
v 0.002530 0.095275 0.014346
v 0.005110 0.095275 0.015726
v 0.007283 0.095275 0.012615
v 0.009719 0.095275 0.013377
v 0.011159 0.095275 0.009363
v 0.013377 0.095275 0.009719
v 0.013688 0.095275 0.004982
v 0.015726 0.095275 0.005110
v 0.014567 0.095275 -0.000000
v 0.016535 0.095275 0.000000
v 0.013688 0.095275 -0.004982
v 0.015726 0.095275 -0.005110
v 0.011159 0.095275 -0.009363
v 0.013377 0.095275 -0.009719
v 0.007283 0.095275 -0.012615
v 0.009719 0.095275 -0.013377
v 0.005110 0.095275 -0.015726
v 0.009376 0.098425 0.017044
v -0.009376 0.098425 0.017044
v -0.006083 0.098425 0.018722
v -0.000000 0.095275 0.016535
v -0.000000 0.098425 0.019685
v 0.006083 0.098425 0.018722
v -0.011650 0.098425 0.015846
v -0.011571 0.098425 0.015926
v -0.011650 0.098425 -0.015846
v -0.015926 0.098425 -0.011571
v -0.018722 0.098425 -0.006083
v -0.016535 0.095275 -0.000000
v -0.019685 0.098425 -0.000000
v -0.018722 0.098425 0.006083
v -0.015926 0.098425 0.011571
v -0.009376 0.098425 -0.017044
v -0.011571 0.098425 -0.015926
v 0.009376 0.098425 -0.017044
v 0.006083 0.098425 -0.018722
v 0.000000 0.095275 -0.016535
v 0.000000 0.098425 -0.019685
v -0.006083 0.098425 -0.018722
v 0.011650 0.098425 -0.015846
v 0.011571 0.098425 -0.015926
v 0.011571 0.098425 0.015926
v 0.011650 0.098425 0.015846
v 0.015926 0.098425 0.011571
v 0.018722 0.098425 0.006083
v 0.016535 0.095275 0.000000
v 0.019685 0.098425 0.000000
v 0.018722 0.098425 -0.006083
v 0.015926 0.098425 -0.011571
v 0.017207 0.098425 -0.015846
v -0.017207 0.098425 0.015846
v 0.019809 0.098425 0.012844
v 0.019872 0.098425 0.012771
v 0.019809 0.098425 0.011291
v 0.022665 0.098425 0.006655
v 0.019934 0.098425 0.010827
v 0.018753 0.098425 0.012008
v 0.017207 0.098425 0.015846
v 0.019343 0.098425 0.011850
v 0.019775 0.098425 0.011417
v 0.018162 0.098425 0.011850
v 0.017730 0.098425 0.011417
v 0.019809 0.098425 0.010363
v 0.019809 0.098425 -0.000000
v 0.019775 0.098425 0.010236
v 0.019343 0.098425 0.009804
v 0.018162 0.098425 0.009804
v 0.017730 0.098425 0.010236
v 0.017571 0.098425 0.010827
v 0.012005 0.098425 0.020079
v 0.009376 0.098425 0.020079
v 0.009813 0.098425 0.021487
v 0.009376 0.098425 0.021616
v 0.001023 0.098425 0.022244
v 0.003362 0.098425 0.023382
v 0.001181 0.098425 0.021654
v 0.001023 0.098425 0.021063
v 0.000591 0.098425 0.020631
v 0.000000 0.098425 0.020472
v 0.000591 0.098425 0.022676
v -0.000000 0.098425 0.022835
v -0.003362 0.098425 0.023382
v -0.001181 0.098425 0.021654
v -0.001023 0.098425 0.021063
v -0.009376 0.098425 0.020079
v -0.000591 0.098425 0.020631
v -0.000591 0.098425 0.022676
v -0.001023 0.098425 0.022244
v -0.009376 0.098425 0.021616
v -0.009813 0.098425 0.021487
v -0.012005 0.098425 0.020079
v -0.015469 0.098425 0.017852
v -0.019343 0.098425 0.009804
v -0.019809 0.098425 -0.000000
v -0.019775 0.098425 0.010236
v -0.019809 0.098425 0.010363
v -0.018753 0.098425 0.009646
v -0.018162 0.098425 0.009804
v -0.017730 0.098425 0.010236
v -0.017571 0.098425 0.010827
v -0.017730 0.098425 0.011417
v -0.018162 0.098425 0.011850
v -0.018753 0.098425 0.012008
v -0.019809 0.098425 0.012844
v -0.019343 0.098425 0.011850
v -0.019775 0.098425 0.011417
v -0.019809 0.098425 0.011291
v -0.019872 0.098425 0.012771
v -0.022665 0.098425 0.006655
v -0.019934 0.098425 0.010827
v -0.023622 0.098425 -0.000000
v -0.022665 0.098425 -0.006655
v -0.019809 0.098425 -0.011291
v -0.019872 0.098425 -0.012771
v -0.019809 0.098425 -0.012844
v -0.018753 0.098425 -0.012008
v -0.017207 0.098425 -0.015846
v -0.019343 0.098425 -0.011850
v -0.019775 0.098425 -0.011417
v -0.018162 0.098425 -0.009804
v -0.017730 0.098425 -0.010236
v -0.017571 0.098425 -0.010827
v -0.019343 0.098425 -0.009804
v -0.019775 0.098425 -0.010236
v -0.019809 0.098425 -0.010363
v -0.019934 0.098425 -0.010827
v -0.017730 0.098425 -0.011417
v -0.018162 0.098425 -0.011850
v -0.018753 0.098425 -0.009646
v -0.019685 0.098425 -0.000000
v -0.012005 0.098425 -0.020079
v -0.009376 0.098425 -0.020079
v -0.009813 0.098425 -0.021487
v -0.009376 0.098425 -0.021616
v 0.000591 0.098425 -0.022676
v 0.001023 0.098425 -0.022244
v 0.003362 0.098425 -0.023382
v 0.009376 0.098425 -0.021616
v 0.001181 0.098425 -0.021654
v 0.001023 0.098425 -0.021063
v 0.009376 0.098425 -0.020079
v 0.000591 0.098425 -0.020631
v 0.000000 0.098425 -0.022835
v -0.003362 0.098425 -0.023382
v -0.000591 0.098425 -0.022676
v -0.000000 0.098425 -0.020472
v -0.000591 0.098425 -0.020631
v -0.001023 0.098425 -0.021063
v -0.001181 0.098425 -0.021654
v -0.001023 0.098425 -0.022244
v 0.009813 0.098425 -0.021487
v 0.012005 0.098425 -0.020079
v 0.019343 0.098425 -0.009804
v 0.019775 0.098425 -0.010236
v 0.019809 0.098425 -0.010363
v 0.018753 0.098425 -0.012008
v 0.019809 0.098425 -0.012844
v 0.019343 0.098425 -0.011850
v 0.018753 0.098425 0.009646
v 0.018753 0.098425 -0.009646
v 0.018162 0.098425 -0.009804
v 0.017730 0.098425 -0.010236
v 0.017571 0.098425 -0.010827
v 0.017730 0.098425 -0.011417
v 0.018162 0.098425 -0.011850
v 0.019775 0.098425 -0.011417
v 0.019809 0.098425 -0.011291
v 0.019872 0.098425 -0.012771
v 0.022665 0.098425 -0.006655
v 0.019934 0.098425 -0.010827
v 0.023622 0.098425 0.000000
v -0.000000 0.098425 0.019685
v 0.015469 0.098425 0.017852
v 0.000000 0.098425 -0.019685
v -0.015469 0.098425 -0.017852
v 0.015469 0.098425 -0.017852
v 0.015469 0.094488 0.017852
v 0.009813 0.094488 0.021487
v 0.003362 0.094488 0.023382
v -0.003362 0.094488 0.023382
v -0.009813 0.094488 0.021487
v -0.015469 0.094488 0.017852
v -0.019872 0.094488 0.012771
v -0.022665 0.094488 0.006655
v -0.023622 0.094488 -0.000000
v -0.022665 0.094488 -0.006655
v -0.019872 0.094488 -0.012771
v -0.015469 0.094488 -0.017852
v -0.009813 0.094488 -0.021487
v -0.003362 0.094488 -0.023382
v 0.003362 0.094488 -0.023382
v 0.009813 0.094488 -0.021487
v 0.015469 0.094488 -0.017852
v 0.019872 0.094488 -0.012771
v 0.022665 0.094488 -0.006655
v 0.023622 0.098425 0.000000
v 0.023622 0.094488 0.000000
v 0.022665 0.094488 0.006655
v 0.019872 0.094488 0.012771
v -0.019041 0.092520 0.010311
v -0.020776 0.092520 0.006101
v -0.021645 0.092520 0.000591
v -0.014567 0.095275 0.000000
v -0.014567 -0.095275 0.000000
v 0.014567 0.095275 -0.000000
v -0.001181 -0.095275 -0.021654
v -0.001023 -0.095275 -0.022244
v -0.000591 -0.095275 -0.022676
v -0.000000 -0.095275 -0.022835
v 0.000591 -0.095275 -0.022676
v 0.001023 -0.095275 -0.022244
v 0.001181 -0.095275 -0.021654
v 0.001023 -0.095275 -0.021063
v 0.000591 -0.095275 -0.020631
v 0.000000 -0.095275 -0.020472
v -0.000591 -0.095275 -0.020631
v -0.001023 -0.095275 -0.021063
v 0.000000 -0.095275 -0.021654
v 0.019934 -0.095275 -0.010827
v 0.019775 -0.095275 -0.011417
v 0.019775 -0.095275 -0.010236
v 0.019343 -0.095275 -0.009804
v 0.018753 -0.095275 -0.009646
v 0.018162 -0.095275 -0.009804
v 0.017730 -0.095275 -0.010236
v 0.017571 -0.095275 -0.010827
v 0.017730 -0.095275 -0.011417
v 0.018162 -0.095275 -0.011850
v 0.018753 -0.095275 -0.012008
v 0.019343 -0.095275 -0.011850
v 0.018753 -0.095275 -0.010827
v 0.019934 -0.095275 0.010827
v 0.019775 -0.095275 0.010236
v 0.019775 -0.095275 0.011417
v 0.019343 -0.095275 0.011850
v 0.018753 -0.095275 0.012008
v 0.018162 -0.095275 0.011850
v 0.017730 -0.095275 0.011417
v 0.017571 -0.095275 0.010827
v 0.017730 -0.095275 0.010236
v 0.018162 -0.095275 0.009804
v 0.018753 -0.095275 0.009646
v 0.019343 -0.095275 0.009804
v 0.018753 -0.095275 0.010827
v 0.001181 -0.095275 0.021654
v 0.001023 -0.095275 0.022244
v 0.000591 -0.095275 0.022676
v 0.000000 -0.095275 0.022835
v -0.000591 -0.095275 0.022676
v -0.001023 -0.095275 0.022244
v -0.001181 -0.095275 0.021654
v -0.001023 -0.095275 0.021063
v -0.000591 -0.095275 0.020631
v -0.000000 -0.095275 0.020472
v 0.000591 -0.095275 0.020631
v 0.001023 -0.095275 0.021063
v 0.000000 -0.095275 0.021654
v -0.019934 -0.095275 0.010827
v -0.019775 -0.095275 0.011417
v -0.019775 -0.095275 0.010236
v -0.019343 -0.095275 0.009804
v -0.018753 -0.095275 0.009646
v -0.018162 -0.095275 0.009804
v -0.017730 -0.095275 0.010236
v -0.017571 -0.095275 0.010827
v -0.017730 -0.095275 0.011417
v -0.018162 -0.095275 0.011850
v -0.018753 -0.095275 0.012008
v -0.019343 -0.095275 0.011850
v -0.018753 -0.095275 0.010827
v -0.019934 -0.095275 -0.010827
v -0.019775 -0.095275 -0.010236
v -0.019775 -0.095275 -0.011417
v -0.019343 -0.095275 -0.011850
v -0.018753 -0.095275 -0.012008
v -0.018162 -0.095275 -0.011850
v -0.017730 -0.095275 -0.011417
v -0.017571 -0.095275 -0.010827
v -0.017730 -0.095275 -0.010236
v -0.018162 -0.095275 -0.009804
v -0.018753 -0.095275 -0.009646
v -0.019343 -0.095275 -0.009804
v -0.018753 -0.095275 -0.010827
v 0.001181 0.095275 -0.021654
v 0.001023 0.095275 -0.022244
v 0.000591 0.095275 -0.022676
v 0.000000 0.095275 -0.022835
v -0.000591 0.095275 -0.022676
v -0.001023 0.095275 -0.022244
v -0.001181 0.095275 -0.021654
v -0.001023 0.095275 -0.021063
v -0.000591 0.095275 -0.020631
v -0.000000 0.095275 -0.020472
v 0.000591 0.095275 -0.020631
v 0.001023 0.095275 -0.021063
v 0.000000 0.095275 -0.021654
v 0.019934 0.095275 -0.010827
v 0.019775 0.095275 -0.010236
v 0.019775 0.095275 -0.011417
v 0.019343 0.095275 -0.011850
v 0.018753 0.095275 -0.012008
v 0.018162 0.095275 -0.011850
v 0.017730 0.095275 -0.011417
v 0.017571 0.095275 -0.010827
v 0.017730 0.095275 -0.010236
v 0.018162 0.095275 -0.009804
v 0.018753 0.095275 -0.009646
v 0.019343 0.095275 -0.009804
v 0.018753 0.095275 -0.010827
v 0.019934 0.095275 0.010827
v 0.019775 0.095275 0.011417
v 0.019775 0.095275 0.010236
v 0.019343 0.095275 0.009804
v 0.018753 0.095275 0.009646
v 0.018162 0.095275 0.009804
v 0.017730 0.095275 0.010236
v 0.017571 0.095275 0.010827
v 0.017730 0.095275 0.011417
v 0.018162 0.095275 0.011850
v 0.018753 0.095275 0.012008
v 0.019343 0.095275 0.011850
v 0.018753 0.095275 0.010827
v 0.001181 0.095275 0.021654
v 0.001023 0.095275 0.021063
v 0.000591 0.095275 0.020631
v 0.000000 0.095275 0.020472
v -0.000591 0.095275 0.020631
v -0.001023 0.095275 0.021063
v -0.001181 0.095275 0.021654
v -0.001023 0.095275 0.022244
v -0.000591 0.095275 0.022676
v -0.000000 0.095275 0.022835
v 0.000591 0.095275 0.022676
v 0.001023 0.095275 0.022244
v 0.000000 0.095275 0.021654
v -0.019934 0.095275 0.010827
v -0.019775 0.095275 0.010236
v -0.019775 0.095275 0.011417
v -0.019343 0.095275 0.011850
v -0.018753 0.095275 0.012008
v -0.018162 0.095275 0.011850
v -0.017730 0.095275 0.011417
v -0.017571 0.095275 0.010827
v -0.017730 0.095275 0.010236
v -0.018162 0.095275 0.009804
v -0.018753 0.095275 0.009646
v -0.019343 0.095275 0.009804
v -0.018753 0.095275 0.010827
v -0.019934 0.095275 -0.010827
v -0.019775 0.095275 -0.011417
v -0.019775 0.095275 -0.010236
v -0.019343 0.095275 -0.009804
v -0.018753 0.095275 -0.009646
v -0.018162 0.095275 -0.009804
v -0.017730 0.095275 -0.010236
v -0.017571 0.095275 -0.010827
v -0.017730 0.095275 -0.011417
v -0.018162 0.095275 -0.011850
v -0.018753 0.095275 -0.012008
v -0.019343 0.095275 -0.011850
v -0.018753 0.095275 -0.010827
v -0.017323 0.088189 -0.000000
v -0.023622 0.094488 -0.000000
v 0.017323 -0.088189 -0.000000
v 0.023622 -0.094488 -0.000000
vn 0.000000 1.000000 0.000000
vn 0.000000 -1.000000 0.000000
vn -0.984800 0.000000 -0.173600
vn -0.866000 0.000000 -0.500000
vn -0.642800 0.000000 -0.766000
vn -0.342000 0.000000 -0.939700
vn 0.000000 0.000000 -1.000000
vn 0.342000 0.000000 -0.939700
vn 0.642800 0.000000 -0.766000
vn 0.866000 0.000000 -0.500000
vn 0.984800 0.000000 -0.173600
vn 0.984800 0.000000 0.173600
vn 0.866000 0.000000 0.500000
vn 0.642800 0.000000 0.766000
vn 0.342000 0.000000 0.939700
vn 0.000000 0.000000 1.000000
vn -0.342000 0.000000 0.939700
vn -0.642800 0.000000 0.766000
vn -0.866000 0.000000 0.500000
vn -0.984800 0.000000 0.173600
vn 0.995000 0.000000 -0.099600
vn 0.998500 0.052900 -0.017000
vn 0.996600 0.000000 -0.082600
vn 0.999900 0.000000 0.017000
vn 0.996500 0.010900 0.082600
vn 0.995000 0.000000 0.099600
vn 0.946900 0.000000 0.321600
vn 0.827700 0.294000 0.477900
vn 0.945800 -0.001000 0.324700
vn 0.866000 -0.001000 0.500000
vn 0.788500 0.040400 0.613700
vn 0.769800 0.000000 0.638200
vn 0.605900 0.000000 0.795600
vn 0.496700 0.114700 0.860300
vn 0.546300 0.047200 0.836200
vn 0.436300 0.000000 0.899800
vn 0.000000 0.013900 0.999900
vn -0.082400 0.060800 0.994700
vn -0.140600 0.000000 0.990100
vn -0.538100 0.000000 0.842900
vn -0.917100 0.000000 0.398700
vn -0.877500 0.066400 0.474900
vn -0.865200 0.043500 0.499500
vn -0.983400 0.000000 0.181400
vn -0.972700 0.231300 0.016600
vn -0.986400 0.000000 0.164600
vn -0.999900 0.000000 -0.017000
vn -0.986100 0.024600 -0.164500
vn -0.983400 0.000000 -0.181400
vn -0.917100 0.000000 -0.398700
vn -0.862700 0.087500 -0.498100
vn -0.878000 0.057300 -0.475200
vn -0.819900 0.000000 -0.572500
vn -0.360500 0.000000 -0.932800
vn -0.401100 0.052400 -0.914500
vn -0.500000 0.004600 -0.866000
vn 0.058400 0.000000 -0.998300
vn 0.499800 0.026800 -0.865700
vn 0.545800 0.065500 -0.835400
vn 0.605900 0.000000 -0.795600
vn 0.769800 0.000000 -0.638200
vn 0.845800 0.214900 -0.488300
vn 0.789100 -0.001000 -0.614200
vn 0.866000 -0.001000 -0.500000
vn 0.945800 0.005200 -0.324700
vn 0.946900 0.000000 -0.321600
vn -0.360500 0.000000 0.932800
vn -0.492000 0.178700 0.852100
vn -0.401600 0.015800 0.915700
vn -0.677300 0.000000 0.735700
vn -0.819900 0.000000 0.572500
vn 0.245500 0.000000 0.969400
vn 0.058400 0.000000 0.998300
vn -0.140600 0.000000 -0.990100
vn 0.000000 0.145200 -0.989400
vn -0.082500 0.033400 -0.996000
vn 0.245500 0.000000 -0.969400
vn 0.436300 0.000000 -0.899800
vn -0.677300 0.000000 -0.735700
vn -0.538100 0.000000 -0.842900
vn 0.323000 -0.702700 -0.633900
vn -0.323000 -0.702700 -0.633900
vn -0.111300 -0.702700 -0.702700
vn 0.111300 -0.702700 -0.702700
vn -0.503100 -0.702700 -0.503100
vn -0.503100 -0.702700 0.503100
vn -0.633900 -0.702700 0.323000
vn -0.702700 -0.702700 0.111300
vn -0.702700 -0.702700 -0.111300
vn -0.633900 -0.702700 -0.323000
vn -0.323000 -0.702700 0.633900
vn 0.323000 -0.702700 0.633900
vn 0.111300 -0.702700 0.702700
vn -0.111300 -0.702700 0.702700
vn 0.503100 -0.702700 0.503100
vn 0.503100 -0.702700 -0.503100
vn 0.633900 -0.702700 -0.323000
vn 0.702700 -0.702700 -0.111300
vn 0.702700 -0.702700 0.111300
vn 0.633900 -0.702700 0.323000
vn 0.000000 -1.000000 0.000100
vn 0.000000 -1.000000 -0.000100
vn -0.540600 0.000000 0.841300
vn -0.281700 0.000000 0.959500
vn 0.281700 0.000000 0.959500
vn 0.540600 0.000000 0.841300
vn 0.755700 0.000000 0.654900
vn 0.755800 0.000000 0.654900
vn 0.909600 0.000000 0.415400
vn 0.989800 0.000000 0.142300
vn 0.989800 0.000000 -0.142300
vn 0.909600 0.000000 -0.415400
vn 0.755800 0.000000 -0.654900
vn 0.755700 0.000000 -0.654900
vn 0.540600 0.000000 -0.841300
vn 0.281700 0.000000 -0.959500
vn -0.281700 0.000000 -0.959500
vn -0.540600 0.000000 -0.841300
vn -0.755700 0.000000 -0.654900
vn -0.755800 0.000000 -0.654900
vn -0.909600 0.000000 -0.415400
vn -0.989800 0.000000 -0.142300
vn -0.989800 0.000000 0.142300
vn -0.909600 0.000000 0.415400
vn -0.755800 0.000000 0.654900
vn -0.755700 0.000000 0.654900
vn 0.917100 0.000000 0.398700
vn 0.877500 -0.066400 0.474900
vn 0.865200 -0.043500 0.499500
vn 0.983400 0.000000 0.181400
vn 0.972700 -0.231300 0.016600
vn 0.986400 0.000000 0.164600
vn 0.999900 0.000000 -0.017000
vn 0.986100 -0.024600 -0.164500
vn 0.983400 0.000000 -0.181400
vn 0.917100 0.000000 -0.398700
vn 0.862700 -0.087500 -0.498100
vn 0.878000 -0.057300 -0.475200
vn 0.819900 0.000000 -0.572500
vn 0.360500 0.000000 -0.932800
vn 0.401100 -0.052400 -0.914500
vn 0.500000 -0.004600 -0.866000
vn -0.058400 0.000000 -0.998300
vn -0.605900 0.000000 -0.795600
vn -0.545800 -0.065500 -0.835400
vn -0.499800 -0.026800 -0.865700
vn -0.769800 0.000000 -0.638200
vn -0.845800 -0.214900 -0.488300
vn -0.789100 0.001000 -0.614200
vn -0.866000 0.001000 -0.500000
vn -0.945800 -0.005200 -0.324700
vn -0.946900 0.000000 -0.321600
vn -0.995000 0.000000 0.099600
vn -0.998000 -0.063700 0.000000
vn -0.995000 0.000000 -0.099600
vn -0.998500 -0.052900 -0.017000
vn -0.996600 -0.080100 0.017000
vn -0.946900 0.000000 0.321600
vn -0.827700 -0.294000 0.477900
vn -0.945800 0.001000 0.324700
vn -0.866000 0.001000 0.500000
vn -0.788500 -0.040400 0.613700
vn -0.769800 0.000000 0.638200
vn -0.605900 0.000000 0.795600
vn -0.496700 -0.114700 0.860300
vn -0.546300 -0.047200 0.836200
vn -0.436300 0.000000 0.899800
vn 0.140600 0.000000 0.990100
vn 0.082400 -0.060800 0.994700
vn 0.000000 -0.013900 0.999900
vn 0.538100 0.000000 0.842900
vn 0.360500 0.000000 0.932800
vn 0.492000 -0.178700 0.852100
vn 0.401600 -0.015800 0.915700
vn 0.677300 0.000000 0.735700
vn 0.819900 0.000000 0.572500
vn -0.245500 0.000000 0.969400
vn -0.058400 0.000000 0.998300
vn 0.140600 0.000000 -0.990100
vn 0.000000 -0.145200 -0.989400
vn 0.082500 -0.033400 -0.996000
vn -0.245500 0.000000 -0.969400
vn -0.436300 0.000000 -0.899800
vn 0.677300 0.000000 -0.735700
vn 0.538100 0.000000 -0.842900
vn -0.323000 0.702700 -0.633900
vn 0.323000 0.702700 -0.633900
vn 0.111300 0.702700 -0.702700
vn -0.111300 0.702700 -0.702700
vn 0.503100 0.702700 -0.503100
vn 0.503100 0.702700 0.503100
vn 0.633900 0.702700 0.323000
vn 0.702700 0.702700 0.111300
vn 0.702700 0.702700 -0.111300
vn 0.633900 0.702700 -0.323000
vn 0.323000 0.702700 0.633900
vn -0.323000 0.702700 0.633900
vn -0.111300 0.702700 0.702700
vn 0.111300 0.702700 0.702700
vn -0.503100 0.702700 0.503100
vn -0.503100 0.702700 -0.503100
vn -0.633900 0.702700 -0.323000
vn -0.702700 0.702700 -0.111300
vn -0.702700 0.702700 0.111300
vn -0.633900 0.702700 0.323000
vn 0.000000 1.000000 -0.000100
vn 0.000000 1.000000 0.000100
vn 0.965900 0.000000 0.258800
vn 0.707100 0.000000 0.707100
vn 0.258800 0.000000 0.965900
vn -0.258800 0.000000 0.965900
vn -0.707100 0.000000 0.707100
vn -0.965900 0.000000 0.258800
vn -0.965900 0.000000 -0.258800
vn -0.707100 0.000000 -0.707100
vn -0.258800 0.000000 -0.965900
vn 0.258800 0.000000 -0.965900
vn 0.707100 0.000000 -0.707100
vn 0.965900 0.000000 -0.258800
vn 0.537100 -0.703500 0.465400
vn -0.200200 -0.703500 -0.681900
vn -0.537100 -0.703500 -0.465400
vn -0.200200 -0.703500 0.681900
vn -0.060100 -0.706500 0.705100
vn 0.000000 -0.707300 0.706900
vn 0.000000 -0.661400 0.750000
vn -0.464400 -0.618800 0.633600
vn -0.353500 -0.707300 0.612200
vn -0.362500 -0.688700 0.627900
vn -0.315500 -0.706900 0.633000
vn -0.598700 -0.707100 0.376300
vn -0.537100 -0.703500 0.465400
vn -0.384200 -0.703500 0.597900
vn -0.612200 -0.707300 0.353500
vn -0.706900 -0.707200 0.012100
vn -0.615300 -0.703700 0.355200
vn -0.698700 -0.654900 0.288000
vn -0.646500 -0.703500 0.295200
vn -0.701400 -0.704100 0.110600
vn -0.717200 -0.689200 0.103100
vn -0.707100 -0.707100 0.009600
vn -0.612200 -0.707300 -0.353400
vn -0.612200 -0.707300 -0.353500
vn -0.706900 -0.707200 -0.012100
vn -0.707100 -0.707100 -0.009600
vn -0.717900 -0.686900 -0.113200
vn -0.703500 -0.703500 -0.101100
vn -0.655600 -0.705100 -0.270200
vn -0.675000 -0.670300 -0.308300
vn -0.615300 -0.703700 -0.355200
vn -0.598700 -0.707100 -0.376300
vn -0.353500 -0.707300 -0.612200
vn -0.315500 -0.706900 -0.633000
vn -0.362500 -0.688700 -0.628000
vn -0.405800 -0.660700 -0.631500
vn -0.418700 -0.705900 -0.571300
vn 0.069300 -0.578000 -0.813100
vn 0.000000 -0.703500 -0.710700
vn 0.200200 -0.703500 -0.681900
vn 0.000000 -0.707300 -0.706900
vn 0.000000 -0.661400 -0.750000
vn -0.060100 -0.706500 -0.705100
vn 0.464400 -0.618800 -0.633600
vn 0.353500 -0.707300 -0.612200
vn 0.362500 -0.688700 -0.627900
vn 0.315500 -0.706900 -0.633000
vn 0.598700 -0.707100 -0.376300
vn 0.537100 -0.703500 -0.465400
vn 0.384200 -0.703500 -0.597900
vn 0.612200 -0.707300 -0.353500
vn 0.706900 -0.707200 -0.012100
vn 0.615300 -0.703700 -0.355200
vn 0.698700 -0.654900 -0.288000
vn 0.646500 -0.703500 -0.295200
vn 0.701400 -0.704100 -0.110600
vn 0.717200 -0.689200 -0.103100
vn 0.707100 -0.707100 -0.009600
vn 0.612200 -0.707300 0.353500
vn 0.706900 -0.707200 0.012100
vn 0.707100 -0.707100 0.009600
vn 0.717900 -0.686900 0.113200
vn 0.703500 -0.703500 0.101100
vn 0.655600 -0.705100 0.270200
vn 0.675000 -0.670300 0.308300
vn 0.615300 -0.703700 0.355200
vn 0.598700 -0.707100 0.376300
vn 0.353500 -0.707300 0.612200
vn 0.405800 -0.660700 0.631500
vn 0.418700 -0.705900 0.571300
vn 0.060100 -0.706500 0.705100
vn 0.200200 -0.703500 0.681900
vn 0.315500 -0.706900 0.633000
vn 0.362500 -0.688700 0.628000
vn -0.200200 0.703500 0.681900
vn -0.537100 0.703500 0.465400
vn 0.200200 0.703500 -0.681900
vn 0.537100 0.703500 -0.465400
vn 0.612200 0.707300 -0.353400
vn 0.612200 0.707300 -0.353500
vn 0.353500 0.707300 -0.612200
vn 0.315500 0.706900 -0.633000
vn 0.362500 0.688700 -0.627900
vn 0.405800 0.660700 -0.631500
vn 0.418700 0.705900 -0.571300
vn -0.069300 0.578000 -0.813100
vn 0.000000 0.703500 -0.710700
vn -0.200200 0.703500 -0.681900
vn 0.000000 0.707300 -0.706900
vn 0.000000 0.661400 -0.750000
vn 0.060100 0.706500 -0.705100
vn -0.464400 0.618800 -0.633600
vn -0.353500 0.707300 -0.612200
vn -0.362500 0.688700 -0.627900
vn -0.315500 0.706900 -0.633000
vn -0.598700 0.707100 -0.376200
vn -0.537100 0.703500 -0.465400
vn -0.384200 0.703500 -0.597900
vn -0.612200 0.707300 -0.353500
vn -0.706900 0.707200 -0.012100
vn -0.615300 0.703700 -0.355200
vn -0.698700 0.654900 -0.288000
vn -0.646500 0.703500 -0.295200
vn -0.701400 0.704100 -0.110600
vn -0.717200 0.689200 -0.103100
vn -0.707100 0.707100 -0.009600
vn -0.612200 0.707300 0.353500
vn -0.706900 0.707200 0.012100
vn -0.707100 0.707100 0.009600
vn -0.717900 0.686900 0.113200
vn -0.703500 0.703500 0.101100
vn -0.655600 0.705100 0.270200
vn -0.675000 0.670300 0.308300
vn -0.615300 0.703700 0.355200
vn -0.598700 0.707100 0.376200
vn -0.353500 0.707300 0.612200
vn -0.315500 0.706900 0.633000
vn -0.362500 0.688700 0.627900
vn -0.405800 0.660700 0.631500
vn -0.418700 0.705900 0.571300
vn 0.069300 0.578000 0.813100
vn 0.000000 0.703500 0.710700
vn 0.200200 0.703500 0.681900
vn 0.000000 0.707300 0.706900
vn 0.000000 0.661400 0.750000
vn -0.060100 0.706500 0.705100
vn 0.464400 0.618800 0.633600
vn 0.353500 0.707300 0.612200
vn 0.362500 0.688700 0.627900
vn 0.315500 0.706900 0.633000
vn 0.598700 0.707100 0.376200
vn 0.537100 0.703500 0.465400
vn 0.384200 0.703500 0.597900
vn 0.612200 0.707300 0.353500
vn 0.706900 0.707200 0.012100
vn 0.598700 0.707100 -0.376200
vn 0.615300 0.703700 -0.355200
vn 0.675000 0.670300 -0.308300
vn 0.655600 0.705100 -0.270200
vn 0.703500 0.703500 -0.101100
vn 0.717900 0.686900 -0.113200
vn 0.615300 0.703700 0.355200
vn 0.698700 0.654900 0.288000
vn 0.646500 0.703500 0.295200
vn 0.701400 0.704100 0.110600
vn 0.717200 0.689200 0.103100
vn 0.707100 0.707100 0.009600
vn 0.707100 0.707100 -0.009600
vn 0.706900 0.707200 -0.012100
vn 0.500000 0.000000 0.866000
vn -0.500000 0.000000 -0.866000
vn 1.000000 0.000000 0.000000
vn -1.000000 0.000000 0.000000
vn -0.500000 0.000000 0.866000
vn 0.500000 0.000000 -0.866000
usemtl None
s off
f 1//1 2//1 3//1
f 3//1 2//1 4//1
f 3//1 4//1 5//1
f 5//1 4//1 6//1
f 7//1 8//1 9//1
f 9//1 8//1 10//1
f 9//1 10//1 11//1
f 11//1 10//1 12//1
f 13//1 14//1 15//1
f 15//1 14//1 16//1
f 15//1 16//1 17//1
f 17//1 16//1 18//1
f 17//1 18//1 19//1
f 20//1 21//1 22//1
f 22//1 21//1 23//1
f 22//1 23//1 24//1
f 24//1 23//1 25//1
f 24//1 25//1 26//1
f 27//1 28//1 29//1
f 29//1 28//1 30//1
f 29//1 30//1 31//1
f 31//1 30//1 32//1
f 31//1 32//1 33//1
f 33//1 32//1 34//1
f 35//1 36//1 37//1
f 37//1 36//1 38//1
f 37//1 38//1 39//1
f 39//1 38//1 40//1
f 39//1 40//1 41//1
f 41//1 40//1 42//1
f 43//1 44//1 45//1
f 45//1 44//1 46//1
f 45//1 46//1 47//1
f 47//1 46//1 48//1
f 49//1 50//1 51//1
f 51//1 50//1 52//1
f 51//1 52//1 53//1
f 53//1 52//1 54//1
f 55//1 56//1 57//1
f 58//1 59//1 60//1
f 60//1 59//1 61//1
f 60//1 61//1 57//1
f 57//1 61//1 62//1
f 57//1 62//1 55//1
f 63//1 64//1 65//1
f 65//1 64//1 66//1
f 65//1 66//1 67//1
f 67//1 66//1 68//1
f 67//1 68//1 69//1
f 70//1 71//1 72//1
f 72//1 71//1 73//1
f 72//1 73//1 74//1
f 74//1 73//1 75//1
f 74//1 75//1 76//1
f 76//1 75//1 77//1
f 78//2 79//2 80//2
f 80//2 79//2 81//2
f 80//2 81//2 82//2
f 82//2 81//2 83//2
f 82//2 83//2 84//2
f 85//2 86//2 87//2
f 87//2 86//2 88//2
f 87//2 88//2 89//2
f 89//2 88//2 90//2
f 89//2 90//2 91//2
f 92//2 93//2 94//2
f 94//2 93//2 95//2
f 94//2 95//2 96//2
f 96//2 95//2 97//2
f 98//2 99//2 100//2
f 101//2 102//2 103//2
f 103//2 102//2 104//2
f 103//2 104//2 100//2
f 100//2 104//2 105//2
f 100//2 105//2 98//2
f 106//2 107//2 108//2
f 108//2 107//2 109//2
f 108//2 109//2 110//2
f 110//2 109//2 111//2
f 110//2 111//2 112//2
f 112//2 111//2 113//2
f 114//2 115//2 116//2
f 117//2 118//2 119//2
f 119//2 118//2 114//2
f 119//2 114//2 120//2
f 120//2 114//2 116//2
f 121//2 122//2 123//2
f 123//2 122//2 124//2
f 123//2 124//2 125//2
f 125//2 124//2 126//2
f 125//2 126//2 127//2
f 128//2 129//2 130//2
f 130//2 129//2 131//2
f 130//2 131//2 132//2
f 132//2 131//2 133//2
f 134//2 135//2 136//2
f 136//2 135//2 137//2
f 136//2 137//2 138//2
f 138//2 137//2 139//2
f 140//2 141//2 142//2
f 142//2 141//2 143//2
f 142//2 143//2 144//2
f 144//2 143//2 145//2
f 144//2 145//2 146//2
f 146//2 145//2 147//2
f 148//2 149//2 150//2
f 150//2 149//2 151//2
f 150//2 151//2 152//2
f 152//2 151//2 153//2
f 152//2 153//2 154//2
f 154//2 153//2 155//2
f 156//3 157//3 158//3
f 158//4 157//4 159//4
f 158//4 159//4 160//4
f 160//5 159//5 161//5
f 160//5 161//5 162//5
f 162//6 161//6 163//6
f 162//6 163//6 164//6
f 164//7 163//7 165//7
f 164//7 165//7 166//7
f 166//8 165//8 167//8
f 166//8 167//8 168//8
f 168//9 167//9 169//9
f 168//9 169//9 170//9
f 170//10 169//10 171//10
f 170//10 171//10 172//10
f 172//11 171//11 173//11
f 172//11 173//11 174//11
f 174//12 173//12 175//12
f 174//12 175//12 176//12
f 176//13 175//13 177//13
f 176//13 177//13 178//13
f 178//14 177//14 179//14
f 178//14 179//14 180//14
f 180//15 179//15 181//15
f 180//15 181//15 182//15
f 182//16 181//16 183//16
f 182//16 183//16 184//16
f 184//17 183//17 185//17
f 184//17 185//17 186//17
f 186//18 185//18 187//18
f 186//18 187//18 188//18
f 188//19 187//19 189//19
f 188//19 189//19 190//19
f 190//20 189//20 191//20
f 190//20 191//20 156//20
f 156//3 191//3 157//3
f 7//21 9//21 192//21
f 192//21 9//21 193//21
f 192//22 193//22 194//22
f 194//23 193//23 195//23
f 194//24 195//24 196//24
f 196//25 195//25 197//25
f 196//26 197//26 5//26
f 5//26 197//26 3//26
f 1//27 3//27 198//27
f 198//27 3//27 197//27
f 198//28 197//28 199//28
f 199//29 197//29 200//29
f 199//30 200//30 201//30
f 201//31 200//31 202//31
f 201//32 202//32 203//32
f 203//32 202//32 204//32
f 205//33 204//33 206//33
f 206//33 204//33 202//33
f 206//34 202//34 207//34
f 207//35 202//35 208//35
f 207//36 208//36 76//36
f 209//37 210//37 211//37
f 211//38 210//38 212//38
f 211//39 212//39 64//39
f 64//39 212//39 66//39
f 57//40 56//40 213//40
f 51//41 53//41 214//41
f 214//41 53//41 215//41
f 214//42 215//42 216//42
f 216//43 215//43 217//43
f 49//44 51//44 218//44
f 218//44 51//44 214//44
f 218//45 214//45 219//45
f 219//46 214//46 220//46
f 219//47 220//47 221//47
f 221//48 220//48 222//48
f 221//49 222//49 47//49
f 47//49 222//49 45//49
f 43//50 45//50 223//50
f 223//50 45//50 222//50
f 223//51 222//51 224//51
f 224//52 222//52 225//52
f 224//53 225//53 36//53
f 22//54 24//54 226//54
f 226//54 24//54 227//54
f 226//55 227//55 228//55
f 228//56 227//56 229//56
f 31//57 33//57 230//57
f 231//58 232//58 233//58
f 233//59 232//59 234//59
f 233//60 234//60 14//60
f 14//60 234//60 16//60
f 18//61 16//61 235//61
f 235//61 16//61 234//61
f 235//62 234//62 236//62
f 236//63 234//63 237//63
f 236//64 237//64 238//64
f 238//65 237//65 193//65
f 238//66 193//66 11//66
f 11//66 193//66 9//66
f 68//67 66//67 239//67
f 239//67 66//67 212//67
f 239//68 212//68 213//68
f 213//69 212//69 240//69
f 213//40 240//40 57//40
f 57//70 240//70 216//70
f 57//70 216//70 60//70
f 60//71 216//71 217//71
f 60//71 217//71 58//71
f 76//36 208//36 74//36
f 74//72 208//72 210//72
f 74//72 210//72 72//72
f 72//73 210//73 209//73
f 72//73 209//73 70//73
f 20//74 22//74 241//74
f 241//74 22//74 226//74
f 241//75 226//75 230//75
f 230//76 226//76 242//76
f 230//57 242//57 31//57
f 31//77 242//77 232//77
f 31//77 232//77 29//77
f 29//78 232//78 231//78
f 29//78 231//78 27//78
f 36//53 225//53 38//53
f 38//79 225//79 228//79
f 38//79 228//79 40//79
f 40//80 228//80 229//80
f 40//80 229//80 42//80
f 197//1 243//1 244//1
f 244//1 243//1 193//1
f 244//1 193//1 172//1
f 172//1 193//1 237//1
f 172//1 237//1 170//1
f 170//1 237//1 234//1
f 170//1 234//1 168//1
f 168//1 234//1 232//1
f 168//1 232//1 166//1
f 166//1 232//1 242//1
f 166//1 242//1 164//1
f 164//1 242//1 226//1
f 164//1 226//1 162//1
f 162//1 226//1 228//1
f 162//1 228//1 160//1
f 160//1 228//1 225//1
f 160//1 225//1 158//1
f 158//1 225//1 222//1
f 158//1 222//1 156//1
f 156//1 222//1 220//1
f 156//1 220//1 190//1
f 190//1 220//1 214//1
f 190//1 214//1 188//1
f 188//1 214//1 216//1
f 188//1 216//1 186//1
f 186//1 216//1 240//1
f 186//1 240//1 184//1
f 184//1 240//1 212//1
f 184//1 212//1 182//1
f 182//1 212//1 210//1
f 182//1 210//1 180//1
f 180//1 210//1 208//1
f 180//1 208//1 178//1
f 178//1 208//1 202//1
f 178//1 202//1 176//1
f 176//1 202//1 200//1
f 176//1 200//1 244//1
f 244//1 200//1 197//1
f 245//2 246//2 247//2
f 247//2 246//2 248//2
f 247//2 248//2 249//2
f 249//2 248//2 250//2
f 249//2 250//2 251//2
f 251//2 250//2 252//2
f 251//2 252//2 253//2
f 253//2 252//2 254//2
f 253//2 254//2 255//2
f 255//2 254//2 256//2
f 255//2 256//2 257//2
f 257//2 256//2 258//2
f 257//2 258//2 259//2
f 259//2 258//2 260//2
f 259//2 260//2 261//2
f 261//2 260//2 262//2
f 261//2 262//2 263//2
f 262//2 264//2 263//2
f 263//2 264//2 265//2
f 263//2 265//2 266//2
f 266//2 265//2 267//2
f 266//2 267//2 268//2
f 268//2 267//2 269//2
f 268//2 269//2 270//2
f 270//2 269//2 271//2
f 270//2 271//2 272//2
f 272//2 271//2 273//2
f 272//2 273//2 274//2
f 274//2 273//2 275//2
f 274//2 275//2 276//2
f 276//2 275//2 277//2
f 276//2 277//2 278//2
f 278//2 277//2 279//2
f 278//2 279//2 280//2
f 280//2 279//2 281//2
f 280//2 281//2 245//2
f 245//2 281//2 282//2
f 245//2 282//2 246//2
f 283//81 267//81 265//81
f 260//82 284//82 262//82
f 262//82 284//82 285//82
f 262//83 285//83 286//83
f 286//83 285//83 287//83
f 286//84 287//84 265//84
f 265//84 287//84 288//84
f 265//81 288//81 283//81
f 258//85 289//85 260//85
f 260//85 289//85 290//85
f 260//82 290//82 284//82
f 248//86 291//86 250//86
f 250//86 291//86 292//86
f 250//87 292//87 252//87
f 252//87 292//87 293//87
f 252//88 293//88 294//88
f 294//88 293//88 295//88
f 294//89 295//89 256//89
f 256//89 295//89 296//89
f 256//90 296//90 258//90
f 258//90 296//90 297//90
f 258//85 297//85 289//85
f 246//91 298//91 248//91
f 248//91 298//91 299//91
f 248//86 299//86 291//86
f 279//92 300//92 281//92
f 281//92 300//92 301//92
f 281//93 301//93 302//93
f 302//93 301//93 303//93
f 302//94 303//94 246//94
f 246//94 303//94 304//94
f 246//91 304//91 298//91
f 277//95 305//95 279//95
f 279//95 305//95 306//95
f 279//92 306//92 300//92
f 283//81 307//81 267//81
f 267//96 307//96 308//96
f 267//96 308//96 269//96
f 269//96 308//96 309//96
f 269//97 309//97 271//97
f 271//97 309//97 310//97
f 271//98 310//98 311//98
f 311//98 310//98 312//98
f 311//99 312//99 275//99
f 275//99 312//99 313//99
f 275//100 313//100 277//100
f 277//100 313//100 314//100
f 277//95 314//95 305//95
f 315//2 289//2 316//2
f 317//2 305//2 318//2
f 319//2 320//2 321//2
f 321//2 320//2 322//2
f 321//101 322//101 323//101
f 324//2 325//2 326//2
f 326//2 325//2 319//2
f 326//2 319//2 327//2
f 327//2 319//2 321//2
f 328//2 329//2 330//2
f 330//2 329//2 331//2
f 332//2 333//2 291//2
f 291//2 333//2 334//2
f 335//2 336//2 337//2
f 337//2 336//2 334//2
f 337//2 334//2 338//2
f 338//2 334//2 333//2
f 339//2 340//2 341//2
f 341//2 340//2 342//2
f 343//2 344//2 345//2
f 345//2 344//2 346//2
f 347//2 348//2 349//2
f 349//2 348//2 350//2
f 347//2 349//2 351//2
f 351//2 349//2 352//2
f 351//2 352//2 353//2
f 354//2 355//2 340//2
f 340//2 355//2 356//2
f 340//2 356//2 342//2
f 342//2 356//2 357//2
f 342//2 357//2 352//2
f 352//2 357//2 358//2
f 352//2 358//2 353//2
f 348//2 343//2 350//2
f 350//2 343//2 345//2
f 350//2 345//2 359//2
f 359//2 345//2 360//2
f 361//2 362//2 363//2
f 363//2 362//2 364//2
f 363//2 364//2 365//2
f 318//2 366//2 367//2
f 367//2 366//2 368//2
f 365//2 369//2 363//2
f 363//2 369//2 370//2
f 363//2 370//2 371//2
f 371//2 370//2 372//2
f 371//2 372//2 305//2
f 305//2 372//2 373//2
f 305//2 373//2 318//2
f 318//2 373//2 374//2
f 318//2 374//2 366//2
f 368//2 375//2 367//2
f 367//2 375//2 376//2
f 367//2 376//2 377//2
f 377//2 376//2 378//2
f 376//101 379//101 378//101
f 378//2 379//2 380//2
f 378//2 380//2 381//2
f 381//2 380//2 382//2
f 381//2 382//2 383//2
f 383//2 384//2 385//2
f 385//2 384//2 386//2
f 387//2 388//2 382//2
f 382//2 388//2 389//2
f 382//2 389//2 383//2
f 383//2 389//2 390//2
f 383//2 390//2 384//2
f 391//2 392//2 308//2
f 308//2 392//2 393//2
f 384//2 394//2 386//2
f 386//2 394//2 395//2
f 386//2 395//2 396//2
f 396//2 395//2 397//2
f 398//2 399//2 400//2
f 400//2 399//2 393//2
f 400//2 393//2 401//2
f 401//2 393//2 392//2
f 380//2 362//2 382//2
f 382//2 362//2 361//2
f 382//2 361//2 387//2
f 387//2 361//2 399//2
f 387//2 399//2 402//2
f 402//2 399//2 398//2
f 403//2 404//2 405//2
f 405//2 404//2 406//2
f 407//2 408//2 409//2
f 409//2 408//2 410//2
f 411//2 412//2 413//2
f 413//2 412//2 406//2
f 413//2 406//2 414//2
f 414//2 406//2 404//2
f 414//2 404//2 415//2
f 415//2 404//2 416//2
f 417//2 418//2 419//2
f 411//2 420//2 412//2
f 412//2 420//2 421//2
f 412//2 421//2 418//2
f 418//2 421//2 422//2
f 418//2 422//2 419//2
f 419//2 407//2 417//2
f 417//2 407//2 409//2
f 417//2 409//2 423//2
f 423//2 409//2 424//2
f 425//2 329//2 426//2
f 426//2 329//2 427//2
f 316//2 428//2 429//2
f 429//2 428//2 430//2
f 335//2 431//2 336//2
f 336//2 431//2 331//2
f 336//2 331//2 432//2
f 432//2 331//2 329//2
f 432//2 329//2 433//2
f 433//2 329//2 425//2
f 433//2 425//2 434//2
f 434//2 435//2 433//2
f 433//2 435//2 436//2
f 433//2 436//2 437//2
f 437//2 436//2 438//2
f 437//2 438//2 289//2
f 289//2 438//2 439//2
f 289//2 439//2 316//2
f 316//2 439//2 440//2
f 316//2 440//2 428//2
f 430//2 441//2 429//2
f 429//2 441//2 442//2
f 429//2 442//2 443//2
f 443//2 442//2 444//2
f 442//102 445//102 444//102
f 444//2 445//2 427//2
f 444//2 427//2 446//2
f 446//2 427//2 329//2
f 446//2 329//2 322//2
f 322//2 329//2 328//2
f 322//2 328//2 323//2
f 346//2 354//2 345//2
f 345//2 354//2 340//2
f 345//2 340//2 447//2
f 324//2 332//2 325//2
f 325//2 332//2 291//2
f 325//2 291//2 448//2
f 448//101 291//101 449//101
f 448//2 449//2 339//2
f 339//2 449//2 298//2
f 339//2 298//2 340//2
f 340//2 298//2 450//2
f 340//2 450//2 447//2
f 318//2 451//2 317//2
f 317//2 451//2 360//2
f 317//2 360//2 300//2
f 300//2 360//2 345//2
f 300//2 345//2 452//2
f 452//2 345//2 447//2
f 410//2 416//2 409//2
f 409//2 416//2 404//2
f 409//2 404//2 453//2
f 397//2 391//2 396//2
f 396//2 391//2 308//2
f 396//2 308//2 454//2
f 454//102 308//102 455//102
f 454//2 455//2 403//2
f 403//2 455//2 283//2
f 403//2 283//2 404//2
f 404//2 283//2 456//2
f 404//2 456//2 453//2
f 316//2 457//2 315//2
f 315//2 457//2 424//2
f 315//2 424//2 284//2
f 284//2 424//2 409//2
f 284//2 409//2 458//2
f 458//2 409//2 453//2
f 459//103 454//103 460//103
f 460//103 454//103 403//103
f 403//103 405//103 460//103
f 460//104 405//104 406//104
f 460//104 406//104 461//104
f 406//104 412//104 461//104
f 461//16 412//16 418//16
f 461//16 418//16 462//16
f 462//105 418//105 417//105
f 462//105 417//105 463//105
f 417//105 423//105 463//105
f 463//106 423//106 424//106
f 463//106 424//106 464//106
f 424//106 457//106 464//106
f 464//107 457//107 316//107
f 464//107 316//107 465//107
f 465//107 316//107 429//107
f 429//108 443//108 465//108
f 465//109 443//109 444//109
f 465//109 444//109 466//109
f 466//110 444//110 467//110
f 466//110 467//110 468//110
f 468//111 467//111 322//111
f 468//111 322//111 469//111
f 469//112 322//112 320//112
f 469//112 320//112 470//112
f 470//113 320//113 319//113
f 470//114 319//114 471//114
f 319//114 325//114 471//114
f 471//114 325//114 448//114
f 471//115 448//115 472//115
f 472//115 448//115 339//115
f 339//115 341//115 472//115
f 472//116 341//116 342//116
f 472//116 342//116 473//116
f 342//116 352//116 473//116
f 473//7 352//7 349//7
f 473//7 349//7 474//7
f 474//117 349//117 350//117
f 474//117 350//117 475//117
f 350//117 359//117 475//117
f 475//118 359//118 360//118
f 475//118 360//118 476//118
f 360//118 451//118 476//118
f 476//119 451//119 318//119
f 476//119 318//119 477//119
f 477//119 318//119 367//119
f 367//120 377//120 477//120
f 477//121 377//121 378//121
f 477//121 378//121 478//121
f 478//122 378//122 381//122
f 478//122 381//122 479//122
f 479//123 381//123 383//123
f 479//123 383//123 480//123
f 480//124 383//124 385//124
f 480//124 385//124 481//124
f 481//125 385//125 386//125
f 481//126 386//126 459//126
f 459//126 386//126 396//126
f 459//126 396//126 454//126
f 204//1 205//1 482//1
f 483//1 203//1 484//1
f 484//1 203//1 204//1
f 484//1 204//1 485//1
f 485//1 204//1 482//1
f 130//127 132//127 486//127
f 486//127 132//127 487//127
f 486//128 487//128 488//128
f 488//129 487//129 489//129
f 128//130 130//130 490//130
f 490//130 130//130 486//130
f 490//131 486//131 491//131
f 491//132 486//132 492//132
f 491//133 492//133 493//133
f 493//134 492//134 494//134
f 493//135 494//135 138//135
f 138//135 494//135 136//135
f 134//136 136//136 495//136
f 495//136 136//136 494//136
f 495//137 494//137 496//137
f 496//138 494//138 497//138
f 496//139 497//139 107//139
f 87//140 89//140 498//140
f 498//140 89//140 499//140
f 498//141 499//141 500//141
f 500//142 499//142 501//142
f 152//143 154//143 502//143
f 124//144 122//144 503//144
f 503//144 122//144 504//144
f 503//145 504//145 505//145
f 505//146 504//146 506//146
f 126//147 124//147 507//147
f 507//147 124//147 503//147
f 507//148 503//148 508//148
f 508//149 503//149 509//149
f 508//150 509//150 510//150
f 510//151 509//151 511//151
f 510//152 511//152 96//152
f 96//152 511//152 94//152
f 512//153 513//153 514//153
f 514//153 513//153 515//153
f 514//154 515//154 511//154
f 92//155 94//155 516//155
f 516//155 94//155 511//155
f 516//156 511//156 517//156
f 517//157 511//157 515//157
f 518//158 512//158 519//158
f 519//158 512//158 514//158
f 519//159 514//159 520//159
f 520//160 514//160 521//160
f 520//161 521//161 522//161
f 522//162 521//162 523//162
f 522//163 523//163 118//163
f 118//163 523//163 114//163
f 115//164 114//164 524//164
f 524//164 114//164 523//164
f 524//165 523//165 525//165
f 525//166 523//166 526//166
f 525//167 526//167 146//167
f 81//168 79//168 527//168
f 527//168 79//168 528//168
f 527//169 528//169 529//169
f 529//170 528//170 530//170
f 100//171 99//171 531//171
f 83//172 81//172 532//172
f 532//172 81//172 527//172
f 532//173 527//173 531//173
f 531//174 527//174 533//174
f 531//171 533//171 100//171
f 100//175 533//175 488//175
f 100//175 488//175 103//175
f 103//176 488//176 489//176
f 103//176 489//176 101//176
f 146//167 526//167 144//167
f 144//177 526//177 529//177
f 144//177 529//177 142//177
f 142//178 529//178 530//178
f 142//178 530//178 140//178
f 85//179 87//179 534//179
f 534//179 87//179 498//179
f 534//180 498//180 502//180
f 502//181 498//181 535//181
f 502//143 535//143 152//143
f 152//182 535//182 505//182
f 152//182 505//182 150//182
f 150//183 505//183 506//183
f 150//183 506//183 148//183
f 107//139 497//139 109//139
f 109//184 497//184 500//184
f 109//184 500//184 111//184
f 111//185 500//185 501//185
f 111//185 501//185 113//185
f 521//2 514//2 191//2
f 191//2 514//2 511//2
f 191//2 511//2 157//2
f 157//2 511//2 509//2
f 157//2 509//2 159//2
f 159//2 509//2 503//2
f 159//2 503//2 161//2
f 161//2 503//2 505//2
f 161//2 505//2 163//2
f 163//2 505//2 535//2
f 163//2 535//2 165//2
f 165//2 535//2 498//2
f 165//2 498//2 167//2
f 167//2 498//2 500//2
f 167//2 500//2 169//2
f 169//2 500//2 497//2
f 169//2 497//2 171//2
f 171//2 497//2 494//2
f 171//2 494//2 173//2
f 173//2 494//2 492//2
f 173//2 492//2 175//2
f 175//2 492//2 486//2
f 175//2 486//2 177//2
f 177//2 486//2 488//2
f 177//2 488//2 179//2
f 179//2 488//2 533//2
f 179//2 533//2 181//2
f 181//2 533//2 527//2
f 181//2 527//2 183//2
f 183//2 527//2 529//2
f 183//2 529//2 185//2
f 185//2 529//2 526//2
f 185//2 526//2 187//2
f 187//2 526//2 523//2
f 187//2 523//2 189//2
f 189//2 523//2 521//2
f 189//2 521//2 191//2
f 536//1 537//1 538//1
f 538//1 537//1 539//1
f 538//1 539//1 540//1
f 540//1 539//1 541//1
f 540//1 541//1 542//1
f 542//1 541//1 543//1
f 542//1 543//1 544//1
f 544//1 543//1 545//1
f 544//1 545//1 546//1
f 546//1 545//1 547//1
f 546//1 547//1 548//1
f 548//1 547//1 549//1
f 548//1 549//1 550//1
f 550//1 549//1 551//1
f 550//1 551//1 552//1
f 552//1 551//1 553//1
f 552//1 553//1 554//1
f 553//1 555//1 554//1
f 554//1 555//1 556//1
f 554//1 556//1 557//1
f 557//1 556//1 558//1
f 557//1 558//1 559//1
f 559//1 558//1 560//1
f 559//1 560//1 561//1
f 561//1 560//1 562//1
f 561//1 562//1 563//1
f 563//1 562//1 564//1
f 563//1 564//1 565//1
f 565//1 564//1 566//1
f 565//1 566//1 567//1
f 567//1 566//1 568//1
f 567//1 568//1 569//1
f 569//1 568//1 570//1
f 569//1 570//1 571//1
f 571//1 570//1 572//1
f 571//1 572//1 536//1
f 536//1 572//1 573//1
f 536//1 573//1 537//1
f 574//186 560//186 558//186
f 553//187 575//187 555//187
f 555//187 575//187 576//187
f 555//188 576//188 577//188
f 577//188 576//188 578//188
f 577//189 578//189 558//189
f 558//189 578//189 579//189
f 558//186 579//186 574//186
f 551//190 580//190 553//190
f 553//190 580//190 581//190
f 553//187 581//187 575//187
f 541//191 582//191 543//191
f 543//191 582//191 583//191
f 543//192 583//192 545//192
f 545//192 583//192 584//192
f 545//193 584//193 585//193
f 585//193 584//193 586//193
f 585//194 586//194 549//194
f 549//194 586//194 587//194
f 549//195 587//195 551//195
f 551//195 587//195 588//195
f 551//190 588//190 580//190
f 539//196 589//196 541//196
f 541//196 589//196 590//196
f 541//191 590//191 582//191
f 572//197 591//197 573//197
f 573//197 591//197 592//197
f 573//198 592//198 593//198
f 593//198 592//198 594//198
f 593//199 594//199 539//199
f 539//199 594//199 595//199
f 539//196 595//196 589//196
f 570//200 596//200 572//200
f 572//200 596//200 597//200
f 572//197 597//197 591//197
f 574//186 598//186 560//186
f 560//201 598//201 599//201
f 560//201 599//201 562//201
f 562//201 599//201 600//201
f 562//202 600//202 564//202
f 564//202 600//202 601//202
f 564//203 601//203 602//203
f 602//203 601//203 603//203
f 602//204 603//204 568//204
f 568//204 603//204 604//204
f 568//205 604//205 570//205
f 570//205 604//205 605//205
f 570//200 605//200 596//200
f 597//1 596//1 606//1
f 581//1 580//1 607//1
f 608//1 609//1 610//1
f 610//1 609//1 611//1
f 610//206 611//206 612//206
f 613//1 614//1 615//1
f 615//1 614//1 608//1
f 615//1 608//1 616//1
f 616//1 608//1 610//1
f 617//1 618//1 599//1
f 599//1 618//1 600//1
f 619//1 620//1 621//1
f 621//1 620//1 622//1
f 623//1 601//1 624//1
f 624//1 601//1 600//1
f 624//1 600//1 625//1
f 625//1 600//1 618//1
f 626//1 627//1 628//1
f 628//1 627//1 629//1
f 630//1 631//1 632//1
f 632//1 631//1 629//1
f 632//1 629//1 633//1
f 633//1 629//1 627//1
f 633//1 627//1 634//1
f 634//1 627//1 635//1
f 630//1 636//1 631//1
f 631//1 636//1 637//1
f 631//1 637//1 638//1
f 639//1 640//1 641//1
f 641//1 640//1 642//1
f 641//1 642//1 635//1
f 637//1 643//1 638//1
f 638//1 643//1 644//1
f 638//1 644//1 645//1
f 644//1 639//1 645//1
f 645//1 639//1 641//1
f 645//1 641//1 646//1
f 646//1 641//1 647//1
f 607//1 648//1 581//1
f 581//1 648//1 647//1
f 581//1 647//1 575//1
f 575//1 647//1 641//1
f 575//1 641//1 576//1
f 649//1 650//1 651//1
f 651//1 650//1 652//1
f 653//1 654//1 587//1
f 587//1 654//1 655//1
f 587//1 655//1 588//1
f 588//1 655//1 656//1
f 588//1 656//1 580//1
f 580//1 656//1 657//1
f 580//1 657//1 607//1
f 657//1 658//1 607//1
f 607//1 658//1 659//1
f 607//1 659//1 660//1
f 660//1 659//1 661//1
f 661//1 662//1 660//1
f 660//1 662//1 663//1
f 660//1 663//1 664//1
f 664//1 663//1 665//1
f 663//206 666//206 665//206
f 665//1 666//1 652//1
f 665//1 652//1 667//1
f 667//1 652//1 650//1
f 667//1 650//1 668//1
f 668//1 669//1 670//1
f 670//1 669//1 671//1
f 672//1 673//1 674//1
f 674//1 673//1 671//1
f 674//1 671//1 675//1
f 675//1 671//1 669//1
f 676//1 584//1 677//1
f 677//1 584//1 583//1
f 677//1 583//1 678//1
f 679//1 680//1 650//1
f 650//1 680//1 681//1
f 650//1 681//1 668//1
f 668//1 681//1 682//1
f 668//1 682//1 669//1
f 678//1 583//1 683//1
f 683//1 583//1 582//1
f 683//1 582//1 684//1
f 676//1 685//1 584//1
f 584//1 685//1 679//1
f 584//1 679//1 686//1
f 686//1 679//1 650//1
f 686//1 650//1 587//1
f 587//1 650//1 649//1
f 587//1 649//1 653//1
f 687//1 688//1 689//1
f 689//1 688//1 690//1
f 691//1 692//1 693//1
f 693//1 692//1 694//1
f 695//1 696//1 697//1
f 697//1 696//1 698//1
f 691//1 693//1 699//1
f 699//1 693//1 700//1
f 699//1 700//1 701//1
f 702//1 703//1 688//1
f 688//1 703//1 704//1
f 688//1 704//1 690//1
f 690//1 704//1 705//1
f 690//1 705//1 700//1
f 700//1 705//1 706//1
f 700//1 706//1 701//1
f 692//1 695//1 694//1
f 694//1 695//1 697//1
f 694//1 697//1 707//1
f 707//1 697//1 708//1
f 709//1 620//1 710//1
f 710//1 620//1 711//1
f 606//1 712//1 713//1
f 713//1 712//1 714//1
f 623//1 715//1 601//1
f 601//1 715//1 622//1
f 601//1 622//1 603//1
f 603//1 622//1 620//1
f 603//1 620//1 604//1
f 604//1 620//1 709//1
f 604//1 709//1 716//1
f 716//1 717//1 604//1
f 604//1 717//1 718//1
f 604//1 718//1 605//1
f 605//1 718//1 719//1
f 605//1 719//1 596//1
f 596//1 719//1 720//1
f 596//1 720//1 606//1
f 606//1 720//1 721//1
f 606//1 721//1 712//1
f 714//1 722//1 713//1
f 713//1 722//1 723//1
f 713//1 723//1 724//1
f 724//1 723//1 725//1
f 723//207 726//207 725//207
f 725//1 726//1 711//1
f 725//1 711//1 727//1
f 727//1 711//1 620//1
f 727//1 620//1 611//1
f 611//1 620//1 619//1
f 611//1 619//1 612//1
f 635//1 627//1 641//1
f 641//1 627//1 728//1
f 641//1 728//1 576//1
f 613//1 617//1 614//1
f 614//1 617//1 599//1
f 614//1 599//1 729//1
f 729//206 599//206 598//206
f 729//1 598//1 626//1
f 626//1 598//1 574//1
f 626//1 574//1 627//1
f 627//1 574//1 579//1
f 627//1 579//1 728//1
f 698//1 702//1 697//1
f 697//1 702//1 688//1
f 697//1 688//1 730//1
f 672//1 684//1 673//1
f 673//1 684//1 582//1
f 673//1 582//1 731//1
f 731//207 582//207 590//207
f 731//1 590//1 687//1
f 687//1 590//1 589//1
f 687//1 589//1 688//1
f 688//1 589//1 595//1
f 688//1 595//1 730//1
f 606//1 732//1 597//1
f 597//1 732//1 708//1
f 597//1 708//1 591//1
f 591//1 708//1 697//1
f 591//1 697//1 592//1
f 592//1 697//1 730//1
f 733//106 729//106 734//106
f 734//106 729//106 626//106
f 626//106 628//106 734//106
f 734//105 628//105 629//105
f 734//105 629//105 735//105
f 629//105 631//105 735//105
f 735//16 631//16 638//16
f 735//16 638//16 736//16
f 736//104 638//104 645//104
f 736//104 645//104 737//104
f 645//104 646//104 737//104
f 737//103 646//103 647//103
f 737//103 647//103 738//103
f 647//103 648//103 738//103
f 738//126 648//126 607//126
f 738//126 607//126 739//126
f 739//125 607//125 660//125
f 660//126 664//126 739//126
f 739//124 664//124 665//124
f 739//124 665//124 740//124
f 740//123 665//123 667//123
f 740//123 667//123 741//123
f 741//122 667//122 668//122
f 741//122 668//122 742//122
f 742//121 668//121 670//121
f 742//121 670//121 743//121
f 743//119 670//119 671//119
f 743//120 671//120 744//120
f 671//119 673//119 744//119
f 744//119 673//119 731//119
f 744//118 731//118 745//118
f 745//118 731//118 687//118
f 687//118 689//118 745//118
f 745//117 689//117 690//117
f 745//117 690//117 746//117
f 690//117 700//117 746//117
f 746//7 700//7 693//7
f 746//7 693//7 747//7
f 747//116 693//116 694//116
f 747//116 694//116 748//116
f 694//116 707//116 748//116
f 748//115 707//115 708//115
f 748//115 708//115 749//115
f 708//115 732//115 749//115
f 749//114 732//114 606//114
f 749//114 606//114 750//114
f 750//113 606//113 713//113
f 713//114 724//114 750//114
f 750//112 724//112 725//112
f 750//112 725//112 751//112
f 751//111 725//111 752//111
f 751//111 752//111 753//111
f 753//110 752//110 611//110
f 753//110 611//110 754//110
f 754//109 611//109 609//109
f 754//109 609//109 755//109
f 755//107 609//107 608//107
f 755//108 608//108 733//108
f 733//107 608//107 614//107
f 733//107 614//107 729//107
f 518//2 756//2 512//2
f 512//2 756//2 757//2
f 512//2 757//2 513//2
f 513//2 757//2 758//2
f 759//12 760//12 544//12
f 544//12 760//12 274//12
f 544//13 274//13 542//13
f 542//13 274//13 276//13
f 542//14 276//14 540//14
f 540//14 276//14 278//14
f 540//15 278//15 538//15
f 538//15 278//15 280//15
f 538//16 280//16 536//16
f 536//16 280//16 245//16
f 536//17 245//17 571//17
f 571//17 245//17 247//17
f 571//18 247//18 569//18
f 569//18 247//18 249//18
f 569//19 249//19 567//19
f 567//19 249//19 251//19
f 567//20 251//20 761//20
f 761//20 251//20 253//20
f 761//3 253//3 563//3
f 563//3 253//3 255//3
f 563//4 255//4 561//4
f 561//4 255//4 257//4
f 561//5 257//5 559//5
f 559//5 257//5 259//5
f 559//6 259//6 557//6
f 557//6 259//6 261//6
f 557//7 261//7 554//7
f 554//7 261//7 263//7
f 554//8 263//8 552//8
f 552//8 263//8 266//8
f 552//9 266//9 550//9
f 550//9 266//9 268//9
f 550//10 268//10 548//10
f 548//10 268//10 270//10
f 548//11 270//11 759//11
f 759//11 270//11 760//11
f 762//208 343//208 763//208
f 763//208 343//208 348//208
f 763//209 348//209 764//209
f 764//209 348//209 347//209
f 764//210 347//210 765//210
f 765//210 347//210 351//210
f 765//211 351//211 766//211
f 766//211 351//211 353//211
f 766//212 353//212 767//212
f 767//212 353//212 358//212
f 767//213 358//213 768//213
f 768//213 358//213 357//213
f 768//214 357//214 769//214
f 769//214 357//214 356//214
f 769//215 356//215 770//215
f 770//215 356//215 355//215
f 770//216 355//216 771//216
f 771//216 355//216 354//216
f 771//217 354//217 772//217
f 772//217 354//217 346//217
f 772//218 346//218 773//218
f 773//218 346//218 344//218
f 773//219 344//219 762//219
f 762//219 344//219 343//219
f 772//2 773//2 774//2
f 774//2 773//2 762//2
f 774//2 762//2 763//2
f 769//2 770//2 774//2
f 774//2 770//2 771//2
f 774//2 771//2 772//2
f 766//2 767//2 774//2
f 774//2 767//2 768//2
f 774//2 768//2 769//2
f 763//2 764//2 774//2
f 774//2 764//2 765//2
f 774//2 765//2 766//2
f 775//213 776//213 321//213
f 321//213 323//213 775//213
f 775//214 323//214 328//214
f 775//214 328//214 777//214
f 777//214 328//214 330//214
f 777//215 330//215 778//215
f 778//215 330//215 331//215
f 778//216 331//216 779//216
f 779//216 331//216 431//216
f 779//217 431//217 780//217
f 780//217 431//217 335//217
f 780//218 335//218 781//218
f 781//218 335//218 337//218
f 781//219 337//219 782//219
f 782//219 337//219 338//219
f 782//208 338//208 783//208
f 783//208 338//208 333//208
f 783//209 333//209 784//209
f 784//209 333//209 332//209
f 784//210 332//210 785//210
f 785//210 332//210 324//210
f 785//211 324//211 786//211
f 786//211 324//211 326//211
f 786//212 326//212 776//212
f 776//212 326//212 327//212
f 776//213 327//213 321//213
f 782//2 783//2 787//2
f 787//2 783//2 784//2
f 787//2 784//2 785//2
f 779//2 780//2 787//2
f 787//2 780//2 781//2
f 787//2 781//2 782//2
f 775//2 777//2 787//2
f 787//2 777//2 778//2
f 787//2 778//2 779//2
f 785//2 786//2 787//2
f 787//2 786//2 776//2
f 787//2 776//2 775//2
f 788//213 789//213 427//213
f 427//213 445//213 788//213
f 788//214 445//214 442//214
f 788//214 442//214 790//214
f 790//214 442//214 441//214
f 790//215 441//215 791//215
f 791//215 441//215 430//215
f 791//216 430//216 792//216
f 792//216 430//216 428//216
f 792//217 428//217 793//217
f 793//217 428//217 440//217
f 793//218 440//218 794//218
f 794//218 440//218 439//218
f 794//219 439//219 795//219
f 795//219 439//219 438//219
f 795//208 438//208 796//208
f 796//208 438//208 436//208
f 796//209 436//209 797//209
f 797//209 436//209 435//209
f 797//210 435//210 798//210
f 798//210 435//210 434//210
f 798//211 434//211 799//211
f 799//211 434//211 425//211
f 799//212 425//212 789//212
f 789//212 425//212 426//212
f 789//213 426//213 427//213
f 797//2 798//2 800//2
f 800//2 798//2 799//2
f 800//2 799//2 789//2
f 794//2 795//2 800//2
f 800//2 795//2 796//2
f 800//2 796//2 797//2
f 791//2 792//2 800//2
f 800//2 792//2 793//2
f 800//2 793//2 794//2
f 789//2 788//2 800//2
f 800//2 788//2 790//2
f 800//2 790//2 791//2
f 801//214 407//214 802//214
f 802//214 407//214 419//214
f 802//215 419//215 803//215
f 803//215 419//215 422//215
f 803//216 422//216 804//216
f 804//216 422//216 421//216
f 804//217 421//217 805//217
f 805//217 421//217 420//217
f 805//218 420//218 806//218
f 806//218 420//218 411//218
f 806//219 411//219 807//219
f 807//219 411//219 413//219
f 807//208 413//208 808//208
f 808//208 413//208 414//208
f 808//209 414//209 809//209
f 809//209 414//209 415//209
f 809//210 415//210 810//210
f 810//210 415//210 416//210
f 810//211 416//211 811//211
f 811//211 416//211 410//211
f 811//212 410//212 812//212
f 812//212 410//212 408//212
f 812//213 408//213 801//213
f 801//213 408//213 407//213
f 811//2 812//2 813//2
f 813//2 812//2 801//2
f 813//2 801//2 802//2
f 808//2 809//2 813//2
f 813//2 809//2 810//2
f 813//2 810//2 811//2
f 805//2 806//2 813//2
f 813//2 806//2 807//2
f 813//2 807//2 808//2
f 802//2 803//2 813//2
f 813//2 803//2 804//2
f 813//2 804//2 805//2
f 814//219 815//219 384//219
f 384//219 390//219 814//219
f 814//208 390//208 389//208
f 814//208 389//208 816//208
f 816//208 389//208 388//208
f 816//209 388//209 817//209
f 817//209 388//209 387//209
f 817//210 387//210 818//210
f 818//210 387//210 402//210
f 818//211 402//211 819//211
f 819//211 402//211 398//211
f 819//212 398//212 820//212
f 820//212 398//212 400//212
f 820//213 400//213 821//213
f 821//213 400//213 401//213
f 821//214 401//214 822//214
f 822//214 401//214 392//214
f 822//215 392//215 823//215
f 823//215 392//215 391//215
f 823//216 391//216 824//216
f 824//216 391//216 397//216
f 824//217 397//217 825//217
f 825//217 397//217 395//217
f 825//218 395//218 815//218
f 815//218 395//218 394//218
f 815//219 394//219 384//219
f 821//2 822//2 826//2
f 826//2 822//2 823//2
f 826//2 823//2 824//2
f 818//2 819//2 826//2
f 826//2 819//2 820//2
f 826//2 820//2 821//2
f 814//2 816//2 826//2
f 826//2 816//2 817//2
f 826//2 817//2 818//2
f 824//2 825//2 826//2
f 826//2 825//2 815//2
f 826//2 815//2 814//2
f 827//219 828//219 380//219
f 380//219 379//219 827//219
f 827//208 379//208 376//208
f 827//208 376//208 829//208
f 829//208 376//208 375//208
f 829//209 375//209 830//209
f 830//209 375//209 368//209
f 830//210 368//210 831//210
f 831//210 368//210 366//210
f 831//211 366//211 832//211
f 832//211 366//211 374//211
f 832//212 374//212 833//212
f 833//212 374//212 373//212
f 833//213 373//213 834//213
f 834//213 373//213 372//213
f 834//214 372//214 835//214
f 835//214 372//214 370//214
f 835//215 370//215 836//215
f 836//215 370//215 369//215
f 836//216 369//216 837//216
f 837//216 369//216 365//216
f 837//217 365//217 838//217
f 838//217 365//217 364//217
f 838//218 364//218 828//218
f 828//218 364//218 362//218
f 828//219 362//219 380//219
f 836//2 837//2 839//2
f 839//2 837//2 838//2
f 839//2 838//2 828//2
f 833//2 834//2 839//2
f 839//2 834//2 835//2
f 839//2 835//2 836//2
f 830//2 831//2 839//2
f 839//2 831//2 832//2
f 839//2 832//2 833//2
f 828//2 827//2 839//2
f 839//2 827//2 829//2
f 839//2 829//2 830//2
f 840//213 695//213 841//213
f 841//213 695//213 692//213
f 841//212 692//212 842//212
f 842//212 692//212 691//212
f 842//211 691//211 843//211
f 843//211 691//211 699//211
f 843//210 699//210 844//210
f 844//210 699//210 701//210
f 844//209 701//209 845//209
f 845//209 701//209 706//209
f 845//208 706//208 846//208
f 846//208 706//208 705//208
f 846//219 705//219 847//219
f 847//219 705//219 704//219
f 847//218 704//218 848//218
f 848//218 704//218 703//218
f 848//217 703//217 849//217
f 849//217 703//217 702//217
f 849//216 702//216 850//216
f 850//216 702//216 698//216
f 850//215 698//215 851//215
f 851//215 698//215 696//215
f 851//214 696//214 840//214
f 840//214 696//214 695//214
f 844//1 845//1 852//1
f 852//1 845//1 846//1
f 852//1 846//1 847//1
f 841//1 842//1 852//1
f 852//1 842//1 843//1
f 852//1 843//1 844//1
f 850//1 851//1 852//1
f 852//1 851//1 840//1
f 852//1 840//1 841//1
f 847//1 848//1 852//1
f 852//1 848//1 849//1
f 852//1 849//1 850//1
f 853//214 854//214 711//214
f 711//214 726//214 853//214
f 853//213 726//213 723//213
f 853//213 723//213 855//213
f 855//213 723//213 722//213
f 855//212 722//212 856//212
f 856//212 722//212 714//212
f 856//211 714//211 857//211
f 857//211 714//211 712//211
f 857//210 712//210 858//210
f 858//210 712//210 721//210
f 858//209 721//209 859//209
f 859//209 721//209 720//209
f 859//208 720//208 860//208
f 860//208 720//208 719//208
f 860//219 719//219 861//219
f 861//219 719//219 718//219
f 861//218 718//218 862//218
f 862//218 718//218 717//218
f 862//217 717//217 863//217
f 863//217 717//217 716//217
f 863//216 716//216 864//216
f 864//216 716//216 709//216
f 864//215 709//215 854//215
f 854//215 709//215 710//215
f 854//214 710//214 711//214
f 856//1 857//1 865//1
f 865//1 857//1 858//1
f 865//1 858//1 859//1
f 854//1 853//1 865//1
f 865//1 853//1 855//1
f 865//1 855//1 856//1
f 862//1 863//1 865//1
f 865//1 863//1 864//1
f 865//1 864//1 854//1
f 859//1 860//1 865//1
f 865//1 860//1 861//1
f 865//1 861//1 862//1
f 866//214 867//214 610//214
f 610//214 612//214 866//214
f 866//213 612//213 619//213
f 866//213 619//213 868//213
f 868//213 619//213 621//213
f 868//212 621//212 869//212
f 869//212 621//212 622//212
f 869//211 622//211 870//211
f 870//211 622//211 715//211
f 870//210 715//210 871//210
f 871//210 715//210 623//210
f 871//209 623//209 872//209
f 872//209 623//209 624//209
f 872//208 624//208 873//208
f 873//208 624//208 625//208
f 873//219 625//219 874//219
f 874//219 625//219 618//219
f 874//218 618//218 875//218
f 875//218 618//218 617//218
f 875//217 617//217 876//217
f 876//217 617//217 613//217
f 876//216 613//216 877//216
f 877//216 613//216 615//216
f 877//215 615//215 867//215
f 867//215 615//215 616//215
f 867//214 616//214 610//214
f 866//1 868//1 878//1
f 878//1 868//1 869//1
f 878//1 869//1 870//1
f 876//1 877//1 878//1
f 878//1 877//1 867//1
f 878//1 867//1 866//1
f 873//1 874//1 878//1
f 878//1 874//1 875//1
f 878//1 875//1 876//1
f 870//1 871//1 878//1
f 878//1 871//1 872//1
f 878//1 872//1 873//1
f 879//213 632//213 880//213
f 880//213 632//213 633//213
f 880//212 633//212 881//212
f 881//212 633//212 634//212
f 881//211 634//211 882//211
f 882//211 634//211 635//211
f 882//210 635//210 883//210
f 883//210 635//210 642//210
f 883//209 642//209 884//209
f 884//209 642//209 640//209
f 884//208 640//208 885//208
f 885//208 640//208 639//208
f 885//219 639//219 886//219
f 886//219 639//219 644//219
f 886//218 644//218 887//218
f 887//218 644//218 643//218
f 887//217 643//217 888//217
f 888//217 643//217 637//217
f 888//216 637//216 889//216
f 889//216 637//216 636//216
f 889//215 636//215 890//215
f 890//215 636//215 630//215
f 890//214 630//214 879//214
f 879//214 630//214 632//214
f 889//1 890//1 891//1
f 891//1 890//1 879//1
f 891//1 879//1 880//1
f 886//1 887//1 891//1
f 891//1 887//1 888//1
f 891//1 888//1 889//1
f 883//1 884//1 891//1
f 891//1 884//1 885//1
f 891//1 885//1 886//1
f 880//1 881//1 891//1
f 891//1 881//1 882//1
f 891//1 882//1 883//1
f 892//208 893//208 652//208
f 652//208 666//208 892//208
f 892//219 666//219 663//219
f 892//219 663//219 894//219
f 894//219 663//219 662//219
f 894//218 662//218 895//218
f 895//218 662//218 661//218
f 895//217 661//217 896//217
f 896//217 661//217 659//217
f 896//216 659//216 897//216
f 897//216 659//216 658//216
f 897//215 658//215 898//215
f 898//215 658//215 657//215
f 898//214 657//214 899//214
f 899//214 657//214 656//214
f 899//213 656//213 900//213
f 900//213 656//213 655//213
f 900//212 655//212 901//212
f 901//212 655//212 654//212
f 901//211 654//211 902//211
f 902//211 654//211 653//211
f 902//210 653//210 903//210
f 903//210 653//210 649//210
f 903//209 649//209 893//209
f 893//209 649//209 651//209
f 893//208 651//208 652//208
f 895//1 896//1 904//1
f 904//1 896//1 897//1
f 904//1 897//1 898//1
f 893//1 892//1 904//1
f 904//1 892//1 894//1
f 904//1 894//1 895//1
f 901//1 902//1 904//1
f 904//1 902//1 903//1
f 904//1 903//1 893//1
f 898//1 899//1 904//1
f 904//1 899//1 900//1
f 904//1 900//1 901//1
f 905//208 906//208 669//208
f 669//208 682//208 905//208
f 905//219 682//219 681//219
f 905//219 681//219 907//219
f 907//219 681//219 680//219
f 907//218 680//218 908//218
f 908//218 680//218 679//218
f 908//217 679//217 909//217
f 909//217 679//217 685//217
f 909//216 685//216 910//216
f 910//216 685//216 676//216
f 910//215 676//215 911//215
f 911//215 676//215 677//215
f 911//214 677//214 912//214
f 912//214 677//214 678//214
f 912//213 678//213 913//213
f 913//213 678//213 683//213
f 913//212 683//212 914//212
f 914//212 683//212 684//212
f 914//211 684//211 915//211
f 915//211 684//211 672//211
f 915//210 672//210 916//210
f 916//210 672//210 674//210
f 916//209 674//209 906//209
f 906//209 674//209 675//209
f 906//208 675//208 669//208
f 905//1 907//1 917//1
f 917//1 907//1 908//1
f 917//1 908//1 909//1
f 915//1 916//1 917//1
f 917//1 916//1 906//1
f 917//1 906//1 905//1
f 912//1 913//1 917//1
f 917//1 913//1 914//1
f 917//1 914//1 915//1
f 909//1 910//1 917//1
f 917//1 910//1 911//1
f 917//1 911//1 912//1
f 104//220 755//220 733//220
f 151//221 745//221 746//221
f 125//222 743//222 744//222
f 737//223 143//223 736//223
f 736//224 143//224 141//224
f 530//225 528//225 141//225
f 141//225 528//225 78//225
f 141//226 78//226 736//226
f 736//226 78//226 735//226
f 120//227 116//227 737//227
f 524//228 525//228 116//228
f 116//228 525//228 147//228
f 116//229 147//229 737//229
f 737//230 147//230 145//230
f 737//223 145//223 143//223
f 117//231 119//231 739//231
f 739//232 119//232 120//232
f 739//232 120//232 738//232
f 738//233 120//233 737//233
f 520//234 522//234 117//234
f 756//234 519//234 520//234
f 918//235 515//235 758//235
f 520//234 117//234 756//234
f 756//236 117//236 739//236
f 756//237 739//237 757//237
f 757//238 739//238 740//238
f 757//239 740//239 758//239
f 758//240 740//240 919//240
f 758//241 919//241 918//241
f 510//242 97//242 508//242
f 508//243 97//243 127//243
f 508//243 127//243 507//243
f 516//244 918//244 93//244
f 93//245 918//245 919//245
f 93//246 919//246 95//246
f 95//247 919//247 742//247
f 95//248 742//248 97//248
f 97//249 742//249 743//249
f 97//250 743//250 127//250
f 127//251 743//251 125//251
f 506//252 504//252 149//252
f 149//252 504//252 121//252
f 151//253 149//253 745//253
f 745//254 149//254 121//254
f 745//255 121//255 744//255
f 744//256 121//256 123//256
f 744//222 123//222 125//222
f 86//257 746//257 88//257
f 88//258 746//258 747//258
f 88//259 747//259 748//259
f 534//260 502//260 86//260
f 86//260 502//260 155//260
f 86//261 155//261 746//261
f 746//262 155//262 153//262
f 746//221 153//221 151//221
f 110//263 112//263 748//263
f 501//264 499//264 112//264
f 112//264 499//264 91//264
f 112//265 91//265 748//265
f 748//266 91//266 90//266
f 748//259 90//259 88//259
f 106//267 108//267 750//267
f 750//268 108//268 110//268
f 750//268 110//268 749//268
f 749//269 110//269 748//269
f 135//270 495//270 496//270
f 491//271 493//271 139//271
f 496//270 106//270 135//270
f 135//272 106//272 750//272
f 135//273 750//273 137//273
f 137//274 750//274 751//274
f 137//275 751//275 139//275
f 139//276 751//276 753//276
f 139//277 753//277 491//277
f 489//278 487//278 102//278
f 102//278 487//278 133//278
f 490//279 491//279 129//279
f 129//280 491//280 753//280
f 129//281 753//281 131//281
f 131//282 753//282 754//282
f 131//283 754//283 133//283
f 133//284 754//284 755//284
f 133//285 755//285 102//285
f 102//286 755//286 104//286
f 84//287 532//287 531//287
f 734//288 98//288 733//288
f 733//289 98//289 105//289
f 733//220 105//220 104//220
f 78//290 80//290 735//290
f 735//291 80//291 82//291
f 735//291 82//291 734//291
f 734//292 82//292 84//292
f 734//293 84//293 98//293
f 98//287 84//287 531//287
f 67//294 460//294 461//294
f 61//295 481//295 459//295
f 30//296 472//296 473//296
f 17//297 470//297 471//297
f 238//298 12//298 236//298
f 236//299 12//299 19//299
f 236//299 19//299 235//299
f 231//300 233//300 28//300
f 28//300 233//300 13//300
f 30//301 28//301 472//301
f 472//302 28//302 13//302
f 472//303 13//303 471//303
f 471//304 13//304 15//304
f 471//297 15//297 17//297
f 21//305 473//305 23//305
f 23//306 473//306 474//306
f 23//307 474//307 475//307
f 241//308 230//308 21//308
f 21//308 230//308 34//308
f 21//309 34//309 473//309
f 473//310 34//310 32//310
f 473//296 32//296 30//296
f 39//311 41//311 475//311
f 229//312 227//312 41//312
f 41//312 227//312 26//312
f 41//313 26//313 475//313
f 475//314 26//314 25//314
f 475//307 25//307 23//307
f 35//315 37//315 477//315
f 477//316 37//316 39//316
f 477//316 39//316 476//316
f 476//317 39//317 475//317
f 44//318 223//318 224//318
f 219//319 221//319 48//319
f 224//318 35//318 44//318
f 44//320 35//320 477//320
f 44//321 477//321 46//321
f 46//322 477//322 478//322
f 46//323 478//323 48//323
f 48//324 478//324 479//324
f 48//325 479//325 219//325
f 217//326 215//326 59//326
f 59//326 215//326 54//326
f 218//327 219//327 50//327
f 50//328 219//328 479//328
f 50//329 479//329 52//329
f 52//330 479//330 480//330
f 52//331 480//331 54//331
f 54//332 480//332 481//332
f 54//333 481//333 59//333
f 59//334 481//334 61//334
f 239//335 213//335 69//335
f 69//335 213//335 55//335
f 67//336 69//336 460//336
f 460//337 69//337 55//337
f 460//338 55//338 459//338
f 459//339 55//339 62//339
f 459//295 62//295 61//295
f 71//340 461//340 73//340
f 73//341 461//341 462//341
f 73//342 462//342 463//342
f 209//343 211//343 71//343
f 71//343 211//343 63//343
f 71//344 63//344 461//344
f 461//345 63//345 65//345
f 461//294 65//294 67//294
f 485//346 482//346 463//346
f 206//347 207//347 482//347
f 482//347 207//347 77//347
f 482//348 77//348 463//348
f 463//349 77//349 75//349
f 463//342 75//342 73//342
f 483//350 484//350 465//350
f 465//351 484//351 485//351
f 465//351 485//351 464//351
f 464//352 485//352 463//352
f 199//353 201//353 483//353
f 2//353 198//353 199//353
f 920//354 196//354 6//354
f 17//355 19//355 470//355
f 470//356 19//356 12//356
f 470//357 12//357 469//357
f 469//358 12//358 10//358
f 469//359 10//359 921//359
f 921//360 10//360 8//360
f 199//353 483//353 2//353
f 2//361 483//361 465//361
f 2//362 465//362 4//362
f 4//363 465//363 466//363
f 4//364 466//364 6//364
f 6//365 466//365 921//365
f 6//366 921//366 920//366
f 920//367 921//367 8//367
f 920//368 8//368 192//368
f 522//369 118//369 117//369
f 519//370 756//370 518//370
f 504//19 122//19 121//19
f 506//10 149//10 148//10
f 79//371 78//371 528//371
f 140//372 530//372 141//372
f 107//370 106//370 496//370
f 134//369 495//369 135//369
f 138//7 139//7 493//7
f 128//16 490//16 129//16
f 510//373 96//373 97//373
f 507//374 127//374 126//374
f 146//13 147//13 525//13
f 115//4 524//4 116//4
f 89//4 91//4 499//4
f 113//13 501//13 112//13
f 132//374 133//374 487//374
f 101//373 489//373 102//373
f 515//16 513//16 758//16
f 516//7 93//7 92//7
f 154//372 155//372 502//372
f 85//371 534//371 86//371
f 99//10 98//10 531//10
f 83//19 532//19 84//19
f 198//374 2//374 1//374
f 201//373 203//373 483//373
f 206//10 482//10 205//10
f 207//19 76//19 77//19
f 71//371 70//371 209//371
f 63//372 211//372 64//372
f 69//13 68//13 239//13
f 55//4 213//4 56//4
f 59//369 58//369 217//369
f 54//370 215//370 53//370
f 50//16 49//16 218//16
f 48//7 221//7 47//7
f 44//373 43//373 223//373
f 35//374 224//374 36//374
f 21//372 20//372 241//372
f 34//371 230//371 33//371
f 41//19 42//19 229//19
f 26//10 227//10 24//10
f 28//4 27//4 231//4
f 13//13 233//13 14//13
f 19//370 18//370 235//370
f 12//369 238//369 11//369
f 8//7 7//7 192//7
f 6//16 196//16 5//16
