v -0.050556 -0.001200 0.048845
v -0.050556 0.001200 0.048845
v -0.048845 -0.001200 0.050556
v -0.048845 0.001200 0.050556
v -0.037036 -0.012000 0.019924
v -0.037036 0.012000 0.019924
v -0.036861 0.001877 0.020099
v -0.036860 0.001878 0.020100
v -0.036852 0.001804 0.020108
v -0.036852 0.001803 0.020108
v -0.036041 -0.005448 0.020920
v -0.036022 -0.005474 0.020938
v -0.036004 -0.005500 0.020956
v -0.036003 -0.005501 0.020957
v -0.034504 0.008419 0.022456
v -0.034497 0.008439 0.022463
v -0.034480 0.008485 0.022480
v -0.034479 0.008485 0.022481
v -0.032332 -0.010692 0.024628
v -0.032281 -0.010704 0.024679
v -0.032280 -0.010704 0.024680
v -0.029854 0.011818 0.027106
v -0.029807 0.011852 0.027153
v -0.029807 0.011852 0.027153
v -0.027153 -0.011852 0.029807
v -0.027106 -0.011818 0.029854
v -0.027105 -0.011818 0.029855
v -0.024679 0.010704 0.032281
v -0.024628 0.010692 0.032332
v -0.024627 0.010691 0.032333
v -0.022480 -0.008485 0.034480
v -0.022463 -0.008439 0.034497
v -0.022456 -0.008419 0.034504
v -0.022456 -0.008418 0.034504
v -0.020956 0.005500 0.036004
v -0.020938 0.005474 0.036022
v -0.020920 0.005448 0.036041
v -0.020919 0.005447 0.036041
v -0.020108 -0.001804 0.036852
v -0.020099 -0.001877 0.036861
v -0.019924 -0.012000 0.037036
v -0.019924 0.012000 0.037036
v -0.017877 -0.015000 -0.003337
v -0.017877 0.015000 -0.003337
v -0.016844 -0.013500 -0.002248
v -0.016844 0.013500 -0.002248
v -0.016816 -0.013500 -0.002276
v -0.016816 0.001500 -0.002276
v -0.016816 0.013129 -0.002276
v -0.016816 0.013500 -0.002276
v -0.016553 -0.013500 -0.002013
v -0.015679 0.001877 -0.001083
v -0.015653 0.001950 -0.001057
v -0.015473 -0.006000 -0.005741
v -0.015473 0.000000 -0.005741
v -0.015473 0.006000 -0.005741
v -0.015410 -0.006673 -0.005804
v -0.015410 -0.005327 -0.005804
v -0.015410 -0.000673 -0.005804
v -0.015410 0.000673 -0.005804
v -0.015410 0.005327 -0.005804
v -0.015410 0.006673 -0.005804
v -0.015226 -0.007300 -0.005987
v -0.015226 -0.004700 -0.005987
v -0.015226 -0.001300 -0.005987
v -0.015226 0.001300 -0.005987
v -0.015226 0.004700 -0.005987
v -0.015226 0.007300 -0.005987
v -0.015118 -0.006000 -0.005386
v -0.015118 0.000000 -0.005386
v -0.015118 0.006000 -0.005386
v -0.015055 -0.006673 -0.005449
v -0.015055 -0.005327 -0.005449
v -0.015055 -0.000673 -0.005449
v -0.015055 0.000673 -0.005449
v -0.015055 0.005327 -0.005449
v -0.015055 0.006673 -0.005449
v -0.014934 -0.007838 -0.006280
v -0.014934 -0.004162 -0.006280
v -0.014934 -0.001838 -0.006280
v -0.014934 0.001838 -0.006280
v -0.014934 0.004162 -0.006280
v -0.014934 0.007838 -0.006280
v -0.014871 -0.007300 -0.005632
v -0.014871 -0.004700 -0.005632
v -0.014871 -0.001300 -0.005632
v -0.014871 0.001300 -0.005632
v -0.014871 0.004700 -0.005632
v -0.014871 0.007300 -0.005632
v -0.014868 -0.005367 -0.000272
v -0.014859 -0.005448 -0.000262
v -0.014764 -0.006000 -0.005739
v -0.014764 0.000000 -0.005739
v -0.014764 0.006000 -0.005739
v -0.014713 -0.006544 -0.005790
v -0.014713 -0.005456 -0.005790
v -0.014713 -0.000544 -0.005790
v -0.014713 0.000544 -0.005790
v -0.014713 0.005456 -0.005790
v -0.014713 0.006544 -0.005790
v -0.014579 -0.007838 -0.005925
v -0.014579 -0.004162 -0.005925
v -0.014579 -0.001838 -0.005925
v -0.014579 0.001838 -0.005925
v -0.014579 0.004162 -0.005925
v -0.014579 0.007838 -0.005925
v -0.014565 -0.007050 -0.005938
v -0.014565 -0.004950 -0.005938
v -0.014565 -0.001050 -0.005938
v -0.014565 0.001050 -0.005938
v -0.014565 0.004950 -0.005938
v -0.014565 0.007050 -0.005938
v -0.014553 -0.008252 -0.006660
v -0.014553 -0.003748 -0.006660
v -0.014553 -0.002252 -0.006660
v -0.014553 0.002252 -0.006660
v -0.014553 0.003748 -0.006660
v -0.014553 0.008252 -0.006660
v -0.014329 -0.007485 -0.006174
v -0.014329 -0.004515 -0.006174
v -0.014329 -0.001485 -0.006174
v -0.014329 0.001485 -0.006174
v -0.014329 0.004515 -0.006174
v -0.014329 0.007485 -0.006174
v -0.014198 -0.008252 -0.006305
v -0.014198 -0.003748 -0.006305
v -0.014198 -0.002252 -0.006305
v -0.014198 0.002252 -0.006305
v -0.014198 0.003748 -0.006305
v -0.014198 0.008252 -0.006305
v -0.014110 -0.008511 -0.007103
v -0.014110 -0.003489 -0.007103
v -0.014110 -0.002511 -0.007103
v -0.014110 0.002511 -0.007103
v -0.014110 0.003489 -0.007103
v -0.014110 0.008511 -0.007103
v -0.014022 -0.007819 -0.006482
v -0.014022 -0.004181 -0.006482
v -0.014022 -0.001819 -0.006482
v -0.014022 0.001819 -0.006482
v -0.014022 0.004181 -0.006482
v -0.014022 0.007819 -0.006482
v -0.013755 -0.008511 -0.006748
v -0.013755 -0.003489 -0.006748
v -0.013755 -0.002511 -0.006748
v -0.013755 0.002511 -0.006748
v -0.013755 0.003489 -0.006748
v -0.013755 0.008511 -0.006748
v -0.013747 -0.012000 -0.003223
v -0.013747 -0.010316 -0.003223
v -0.013747 -0.010276 -0.003223
v -0.013747 -0.010154 -0.003223
v -0.013747 -0.009932 -0.003223
v -0.013747 -0.009601 -0.003223
v -0.013747 -0.009160 -0.003223
v -0.013747 -0.008638 -0.003223
v -0.013747 -0.008099 -0.003223
v -0.013747 -0.007631 -0.003223
v -0.013747 -0.003262 -0.003223
v -0.013747 0.001108 -0.003223
v -0.013747 0.001259 -0.003223
v -0.013747 0.008099 -0.003223
v -0.013747 0.008638 -0.003223
v -0.013747 0.009160 -0.003223
v -0.013747 0.009601 -0.003223
v -0.013747 0.009932 -0.003223
v -0.013747 0.010154 -0.003223
v -0.013747 0.010276 -0.003223
v -0.013747 0.010316 -0.003223
v -0.013747 0.012000 -0.003223
v -0.013664 -0.008028 -0.006840
v -0.013664 -0.003972 -0.006840
v -0.013664 -0.002028 -0.006840
v -0.013664 0.002028 -0.006840
v -0.013664 0.003972 -0.006840
v -0.013664 0.008028 -0.006840
v -0.013634 -0.008600 -0.007579
v -0.013634 -0.003400 -0.007579
v -0.013634 -0.002600 -0.007579
v -0.013634 0.002600 -0.007579
v -0.013634 0.003400 -0.007579
v -0.013634 0.008600 -0.007579
v -0.013298 0.008485 0.001298
v -0.013279 -0.008600 -0.007224
v -0.013279 -0.008100 -0.007224
v -0.013279 -0.003900 -0.007224
v -0.013279 -0.003400 -0.007224
v -0.013279 -0.002600 -0.007224
v -0.013279 -0.002100 -0.007224
v -0.013279 0.002100 -0.007224
v -0.013279 0.002600 -0.007224
v -0.013279 0.003400 -0.007224
v -0.013279 0.003900 -0.007224
v -0.013279 0.008100 -0.007224
v -0.013279 0.008600 -0.007224
v -0.013246 0.008522 0.001350
v -0.013158 -0.008511 -0.008055
v -0.013158 -0.003489 -0.008055
v -0.013158 -0.002511 -0.008055
v -0.013158 0.002511 -0.008055
v -0.013158 0.003489 -0.008055
v -0.013158 0.008511 -0.008055
v -0.013004 -0.008070 0.001592
v -0.012998 -0.006000 -0.003973
v -0.012998 0.000000 -0.003973
v -0.012998 0.006000 -0.003973
v -0.012947 -0.006544 -0.004024
v -0.012947 -0.005456 -0.004024
v -0.012947 -0.000544 -0.004024
v -0.012947 0.000544 -0.004024
v -0.012947 0.005456 -0.004024
v -0.012947 0.006544 -0.004024
v -0.012894 -0.008028 -0.007609
v -0.012894 -0.003972 -0.007609
v -0.012894 -0.002028 -0.007609
v -0.012894 0.002028 -0.007609
v -0.012894 0.003972 -0.007609
v -0.012894 0.008028 -0.007609
v -0.012803 -0.008511 -0.007700
v -0.012803 -0.003489 -0.007700
v -0.012803 -0.002511 -0.007700
v -0.012803 0.002511 -0.007700
v -0.012803 0.003489 -0.007700
v -0.012803 0.008511 -0.007700
v -0.012799 -0.007050 -0.004172
v -0.012799 -0.004950 -0.004172
v -0.012799 -0.001050 -0.004172
v -0.012799 0.001050 -0.004172
v -0.012799 0.004950 -0.004172
v -0.012799 0.007050 -0.004172
v -0.012715 -0.008252 -0.008498
v -0.012715 -0.003748 -0.008498
v -0.012715 -0.002252 -0.008498
v -0.012715 0.002252 -0.008498
v -0.012715 0.003748 -0.008498
v -0.012715 0.008252 -0.008498
v -0.012563 -0.007485 -0.004408
v -0.012563 -0.004515 -0.004408
v -0.012563 -0.001485 -0.004408
v -0.012563 0.001485 -0.004408
v -0.012563 0.004515 -0.004408
v -0.012563 0.007485 -0.004408
v -0.012537 -0.007819 -0.007967
v -0.012537 -0.004181 -0.007967
v -0.012537 -0.001819 -0.007967
v -0.012537 0.001819 -0.007967
v -0.012537 0.004181 -0.007967
v -0.012537 0.007819 -0.007967
v -0.012360 -0.008252 -0.008143
v -0.012360 -0.003748 -0.008143
v -0.012360 -0.002252 -0.008143
v -0.012360 0.002252 -0.008143
v -0.012360 0.003748 -0.008143
v -0.012360 0.008252 -0.008143
v -0.012334 -0.007838 -0.008879
v -0.012334 -0.004162 -0.008879
v -0.012334 -0.001838 -0.008879
v -0.012334 0.001838 -0.008879
v -0.012334 0.004162 -0.008879
v -0.012334 0.007838 -0.008879
v -0.012255 -0.007819 -0.004715
v -0.012255 -0.004181 -0.004715
v -0.012255 -0.001819 -0.004715
v -0.012255 0.001819 -0.004715
v -0.012255 0.004181 -0.004715
v -0.012255 0.007819 -0.004715
v -0.012229 -0.007485 -0.008274
v -0.012229 -0.004515 -0.008274
v -0.012229 -0.001485 -0.008274
v -0.012229 0.001485 -0.008274
v -0.012229 0.004515 -0.008274
v -0.012229 0.007485 -0.008274
v -0.012042 -0.007300 -0.009172
v -0.012042 -0.004700 -0.009172
v -0.012042 -0.001300 -0.009172
v -0.012042 0.001300 -0.009172
v -0.012042 0.004700 -0.009172
v -0.012042 0.007300 -0.009172
v -0.011993 -0.007050 -0.008510
v -0.011993 -0.004950 -0.008510
v -0.011993 -0.001050 -0.008510
v -0.011993 0.001050 -0.008510
v -0.011993 0.004950 -0.008510
v -0.011993 0.007050 -0.008510
v -0.011979 -0.007838 -0.008524
v -0.011979 -0.004162 -0.008524
v -0.011979 -0.001838 -0.008524
v -0.011979 0.001838 -0.008524
v -0.011979 0.004162 -0.008524
v -0.011979 0.007838 -0.008524
v -0.011897 -0.008028 -0.005073
v -0.011897 -0.003972 -0.005073
v -0.011897 -0.002028 -0.005073
v -0.011897 0.002028 -0.005073
v -0.011897 0.003972 -0.005073
v -0.011897 0.008028 -0.005073
v -0.011858 -0.006673 -0.009355
v -0.011858 -0.005327 -0.009355
v -0.011858 -0.000673 -0.009355
v -0.011858 0.000673 -0.009355
v -0.011858 0.005327 -0.009355
v -0.011858 0.006673 -0.009355
v -0.011845 -0.006544 -0.008658
v -0.011845 -0.005456 -0.008658
v -0.011845 -0.000544 -0.008658
v -0.011845 0.000544 -0.008658
v -0.011845 0.005456 -0.008658
v -0.011845 0.006544 -0.008658
v -0.011796 -0.006000 -0.009418
v -0.011796 0.000000 -0.009418
v -0.011796 0.006000 -0.009418
v -0.011794 -0.006000 -0.008709
v -0.011794 0.000000 -0.008709
v -0.011794 0.006000 -0.008709
v -0.011687 -0.007300 -0.008817
v -0.011687 -0.004700 -0.008817
v -0.011687 -0.001300 -0.008817
v -0.011687 0.001300 -0.008817
v -0.011687 0.004700 -0.008817
v -0.011687 0.007300 -0.008817
v -0.011513 -0.013500 0.003027
v -0.011513 -0.008100 -0.005458
v -0.011513 -0.003900 -0.005458
v -0.011513 -0.002100 -0.005458
v -0.011513 0.002100 -0.005458
v -0.011513 0.003900 -0.005458
v -0.011513 0.008100 -0.005458
v -0.011513 0.013500 0.003027
v -0.011504 -0.006673 -0.009000
v -0.011504 -0.005327 -0.009000
v -0.011504 -0.000673 -0.009000
v -0.011504 0.000673 -0.009000
v -0.011504 0.005327 -0.009000
v -0.011504 0.006673 -0.009000
v -0.011441 -0.006000 -0.009063
v -0.011441 0.000000 -0.009063
v -0.011441 0.006000 -0.009063
v -0.011191 -0.010634 0.003405
v -0.011150 -0.010692 0.003446
v -0.011128 -0.008028 -0.005843
v -0.011128 -0.003972 -0.005843
v -0.011128 -0.002028 -0.005843
v -0.011128 0.002028 -0.005843
v -0.011128 0.003972 -0.005843
v -0.011128 0.008028 -0.005843
v -0.010770 -0.007819 -0.006200
v -0.010770 -0.004181 -0.006200
v -0.010770 -0.001819 -0.006200
v -0.010770 0.001819 -0.006200
v -0.010770 0.004181 -0.006200
v -0.010770 0.007819 -0.006200
v -0.010463 -0.007485 -0.006508
v -0.010463 -0.004515 -0.006508
v -0.010463 -0.001485 -0.006508
v -0.010463 0.001485 -0.006508
v -0.010463 0.004515 -0.006508
v -0.010463 0.007485 -0.006508
v -0.010226 -0.007050 -0.006744
v -0.010226 -0.004950 -0.006744
v -0.010226 -0.001050 -0.006744
v -0.010226 0.001050 -0.006744
v -0.010226 0.004950 -0.006744
v -0.010226 0.007050 -0.006744
v -0.010079 -0.006544 -0.006892
v -0.010079 -0.005456 -0.006892
v -0.010079 -0.000544 -0.006892
v -0.010079 0.000544 -0.006892
v -0.010079 0.005456 -0.006892
v -0.010079 0.006544 -0.006892
v -0.010028 -0.006000 -0.006943
v -0.010028 0.000000 -0.006943
v -0.010028 0.006000 -0.006943
v -0.009653 -0.006210 0.000871
v -0.009616 -0.006157 0.000908
v -0.009543 -0.006054 0.000981
v -0.009293 -0.005701 0.001231
v -0.009067 -0.005380 0.001457
v -0.009008 -0.005297 0.001516
v -0.008979 -0.005257 0.001545
v -0.008684 -0.012000 -0.012529
v -0.008684 0.012000 -0.012529
v -0.008660 -0.015000 -0.012553
v -0.008660 -0.012000 -0.012553
v -0.008660 0.012000 -0.012553
v -0.008660 0.015000 -0.012553
v -0.008625 0.011852 0.005971
v -0.008568 0.011839 0.006028
v -0.007708 -0.003459 0.002816
v -0.007422 -0.003055 0.003102
v -0.007415 -0.003045 0.003109
v -0.007393 -0.003014 0.003131
v -0.007353 -0.002957 0.003171
v -0.007293 -0.002872 0.003231
v -0.007270 -0.015000 0.007270
v -0.007270 -0.013500 0.007270
v -0.007270 0.013500 0.007270
v -0.007270 0.015000 0.007270
v -0.007210 -0.002755 0.003314
v -0.007116 -0.012000 0.003408
v -0.007116 0.012000 0.003408
v -0.007109 -0.002612 0.003415
v -0.007002 -0.002461 0.003522
v -0.006696 -0.012000 0.003828
v -0.006696 0.012000 0.003828
v -0.006692 -0.012000 0.003832
v -0.006692 0.012000 0.003832
v -0.006653 -0.012000 0.003871
v -0.006653 0.012000 0.003871
v -0.006580 -0.012000 0.003944
v -0.006580 0.012000 0.003944
v -0.006563 -0.012000 -0.010408
v -0.006563 0.012000 -0.010408
v -0.006479 -0.012000 0.004045
v -0.006479 0.012000 0.004045
v -0.006361 -0.012000 0.004163
v -0.006361 0.012000 0.004163
v -0.006238 -0.012000 0.004285
v -0.006238 0.012000 0.004285
v -0.006124 -0.012000 0.004400
v -0.006124 0.012000 0.004400
v -0.006028 -0.012000 0.004495
v -0.006028 -0.011839 0.008568
v -0.006028 0.012000 0.004495
v -0.005971 -0.011852 0.008625
v -0.005627 -0.015000 -0.005458
v -0.005627 -0.014498 -0.005458
v -0.005627 0.014498 -0.005458
v -0.005627 0.015000 -0.005458
v -0.005626 -0.015000 -0.005454
v -0.005626 0.015000 -0.005454
v -0.005539 -0.015000 -0.006131
v -0.005539 -0.015000 -0.004785
v -0.005539 -0.014498 -0.006131
v -0.005539 -0.014498 -0.004785
v -0.005539 0.014498 -0.006131
v -0.005539 0.014498 -0.004785
v -0.005539 0.015000 -0.006131
v -0.005539 0.015000 -0.004785
v -0.005279 -0.015000 -0.006758
v -0.005279 -0.015000 -0.004158
v -0.005279 -0.014498 -0.006758
v -0.005279 -0.014498 -0.004158
v -0.005279 0.014498 -0.006758
v -0.005279 0.014498 -0.004158
v -0.005279 0.015000 -0.006758
v -0.005279 0.015000 -0.004158
v -0.005262 -0.012000 0.005262
v -0.005262 0.000000 0.005262
v -0.005262 0.012000 0.005262
v -0.005213 0.000069 0.005311
v -0.005128 -0.014498 -0.005458
v -0.005128 -0.012000 -0.005458
v -0.005128 0.012000 -0.005458
v -0.005128 0.014498 -0.005458
v -0.005056 -0.014498 -0.006002
v -0.005056 -0.014498 -0.004914
v -0.005056 -0.012000 -0.006002
v -0.005056 -0.012000 -0.004914
v -0.005056 0.012000 -0.006002
v -0.005056 0.012000 -0.004914
v -0.005056 0.014498 -0.006002
v -0.005056 0.014498 -0.004914
v -0.004866 -0.015000 -0.007296
v -0.004866 -0.015000 -0.003619
v -0.004866 -0.014498 -0.007296
v -0.004866 -0.014498 -0.003619
v -0.004866 0.014498 -0.007296
v -0.004866 0.014498 -0.003619
v -0.004866 0.015000 -0.007296
v -0.004866 0.015000 -0.003619
v -0.004846 -0.014498 -0.006507
v -0.004846 -0.014498 -0.004409
v -0.004846 -0.012000 -0.006507
v -0.004846 -0.012000 -0.004409
v -0.004846 0.012000 -0.006507
v -0.004846 0.012000 -0.004409
v -0.004846 0.014498 -0.006507
v -0.004846 0.014498 -0.004409
v -0.004512 -0.014498 -0.006943
v -0.004512 -0.014498 -0.003973
v -0.004512 -0.012000 -0.006943
v -0.004512 -0.012000 -0.003973
v -0.004512 0.012000 -0.006943
v -0.004512 0.012000 -0.003973
v -0.004512 0.014498 -0.006943
v -0.004512 0.014498 -0.003973
v -0.004495 -0.012000 0.006028
v -0.004495 0.012000 0.006028
v -0.004400 -0.012000 0.006124
v -0.004400 0.012000 0.006124
v -0.004327 -0.015000 -0.007709
v -0.004327 -0.015000 -0.003206
v -0.004327 -0.014498 -0.007709
v -0.004327 -0.014498 -0.003206
v -0.004327 0.014498 -0.007709
v -0.004327 0.014498 -0.003206
v -0.004327 0.015000 -0.007709
v -0.004327 0.015000 -0.003206
v -0.004285 -0.012000 0.006238
v -0.004285 0.012000 0.006238
v -0.004163 -0.012000 0.006361
v -0.004163 0.012000 0.006361
v -0.004077 -0.014498 -0.007277
v -0.004077 -0.014498 -0.003639
v -0.004077 -0.012000 -0.007277
v -0.004077 -0.012000 -0.003639
v -0.004077 0.012000 -0.007277
v -0.004077 0.012000 -0.003639
v -0.004077 0.014498 -0.007277
v -0.004077 0.014498 -0.003639
v -0.004045 -0.012000 0.006479
v -0.004045 0.012000 0.006479
v -0.003944 -0.012000 0.006580
v -0.003944 0.012000 0.006580
v -0.003871 -0.012000 0.006653
v -0.003871 0.012000 0.006653
v -0.003832 -0.012000 0.006692
v -0.003832 0.012000 0.006692
v -0.003828 -0.012000 0.006696
v -0.003828 0.012000 0.006696
v -0.003701 -0.015000 -0.007970
v -0.003701 -0.015000 -0.002946
v -0.003701 -0.014498 -0.007970
v -0.003701 -0.014498 -0.002946
v -0.003701 0.014498 -0.007969
v -0.003701 0.014498 -0.002946
v -0.003701 0.015000 -0.007969
v -0.003701 0.015000 -0.002946
v -0.003571 -0.014498 -0.007487
v -0.003571 -0.014498 -0.003429
v -0.003571 -0.012000 -0.007487
v -0.003571 -0.012000 -0.003429
v -0.003571 0.012000 -0.007487
v -0.003571 0.012000 -0.003429
v -0.003571 0.014498 -0.007487
v -0.003571 0.014498 -0.003429
v -0.003518 0.002466 0.007006
v -0.003446 0.010692 0.011150
v -0.003408 -0.012000 0.007116
v -0.003408 0.012000 0.007116
v -0.003405 0.010634 0.011191
v -0.003027 -0.015000 -0.008057
v -0.003027 -0.015000 -0.002859
v -0.003027 -0.014498 -0.008057
v -0.003027 -0.014498 -0.007558
v -0.003027 -0.014498 -0.003358
v -0.003027 -0.014498 -0.002859
v -0.003027 -0.013500 0.011513
v -0.003027 -0.012000 -0.007558
v -0.003027 -0.012000 -0.003358
v -0.003027 0.012000 -0.007558
v -0.003027 0.012000 -0.003358
v -0.003027 0.013500 0.011513
v -0.003027 0.014498 -0.008057
v -0.003027 0.014498 -0.007558
v -0.003027 0.014498 -0.003358
v -0.003027 0.014498 -0.002859
v -0.003027 0.015000 -0.008057
v -0.003027 0.015000 -0.002859
v -0.002484 -0.014498 -0.007487
v -0.002484 -0.014498 -0.003429
v -0.002484 -0.012000 -0.007487
v -0.002484 -0.012000 -0.003429
v -0.002484 0.012000 -0.007487
v -0.002484 0.012000 -0.003429
v -0.002484 0.014498 -0.007487
v -0.002484 0.014498 -0.003429
v -0.002354 -0.015000 -0.007970
v -0.002354 -0.015000 -0.002946
v -0.002354 -0.014498 -0.007970
v -0.002354 -0.014498 -0.002946
v -0.002354 0.014498 -0.007969
v -0.002354 0.014498 -0.002946
v -0.002354 0.015000 -0.007969
v -0.002354 0.015000 -0.002946
v -0.001978 -0.014498 -0.007277
v -0.001978 -0.014498 -0.003639
v -0.001978 -0.012000 -0.007277
v -0.001978 -0.012000 -0.003639
v -0.001978 0.012000 -0.007277
v -0.001978 0.012000 -0.003639
v -0.001978 0.014498 -0.007277
v -0.001978 0.014498 -0.003639
v -0.001839 -0.015000 -0.012048
v -0.001839 -0.012000 -0.012048
v -0.001839 0.012000 -0.012048
v -0.001839 0.015000 -0.012048
v -0.001728 -0.015000 -0.007709
v -0.001728 -0.015000 -0.003206
v -0.001728 -0.014498 -0.007709
v -0.001728 -0.014498 -0.003206
v -0.001728 0.014498 -0.007709
v -0.001728 0.014498 -0.003206
v -0.001728 0.015000 -0.007709
v -0.001728 0.015000 -0.003206
v -0.001592 0.008070 0.013004
v -0.001542 -0.014498 -0.006943
v -0.001542 -0.014498 -0.003973
v -0.001542 -0.012000 -0.006943
v -0.001542 -0.012000 -0.003973
v -0.001542 0.012000 -0.006943
v -0.001542 0.012000 -0.003973
v -0.001542 0.014498 -0.006943
v -0.001542 0.014498 -0.003973
v -0.001350 -0.008522 0.013246
v -0.001298 -0.008485 0.013298
v -0.001209 -0.014498 -0.006507
v -0.001209 -0.014498 -0.004409
v -0.001209 -0.012000 -0.006507
v -0.001209 -0.012000 -0.004409
v -0.001209 0.012000 -0.006507
v -0.001209 0.012000 -0.004409
v -0.001209 0.014498 -0.006507
v -0.001209 0.014498 -0.004408
v -0.001189 -0.015000 -0.007296
v -0.001189 -0.015000 -0.003619
v -0.001189 -0.014498 -0.007296
v -0.001189 -0.014498 -0.003619
v -0.001189 0.014498 -0.007296
v -0.001189 0.014498 -0.003619
v -0.001189 0.015000 -0.007296
v -0.001189 0.015000 -0.003619
v -0.000999 -0.014498 -0.006002
v -0.000999 -0.014498 -0.004914
v -0.000999 -0.012000 -0.006002
v -0.000999 -0.012000 -0.004914
v -0.000999 0.012000 -0.006002
v -0.000999 0.012000 -0.004914
v -0.000999 0.014498 -0.006002
v -0.000999 0.014498 -0.004914
v -0.000983 0.006052 0.009541
v -0.000927 -0.014498 -0.005458
v -0.000927 -0.012000 -0.005458
v -0.000927 0.012000 -0.005458
v -0.000927 0.014498 -0.005458
v -0.000776 -0.015000 -0.006758
v -0.000776 -0.015000 -0.004158
v -0.000776 -0.014498 -0.006758
v -0.000776 -0.014498 -0.004158
v -0.000776 0.014498 -0.006758
v -0.000776 0.014498 -0.004158
v -0.000776 0.015000 -0.006758
v -0.000776 0.015000 -0.004158
v -0.000635 0.006544 0.009889
v -0.000516 -0.015000 -0.006131
v -0.000516 -0.015000 -0.004785
v -0.000516 -0.014498 -0.006131
v -0.000516 -0.014498 -0.004785
v -0.000516 0.014498 -0.006131
v -0.000516 0.014498 -0.004785
v -0.000516 0.015000 -0.006131
v -0.000516 0.015000 -0.004785
v -0.000428 -0.015000 -0.005458
v -0.000428 -0.014498 -0.005458
v -0.000428 0.014498 -0.005458
v -0.000428 0.015000 -0.005458
v -0.000209 0.007146 0.010315
v 0.000230 0.007766 0.010754
v 0.000262 0.005448 0.014859
v 0.000272 0.005367 0.014868
v 0.000623 0.008323 0.011147
v 0.000934 0.008762 0.011458
v 0.001057 -0.001950 0.015653
v 0.001083 -0.001877 0.015679
v 0.001149 0.009067 0.011673
v 0.001271 0.009239 0.011795
v 0.001311 0.009296 0.011835
v 0.002013 0.013500 0.016553
v 0.002248 -0.013500 0.016844
v 0.002248 0.013500 0.016844
v 0.002276 -0.013500 0.016816
v 0.002276 -0.013129 0.016816
v 0.002276 -0.001500 0.016816
v 0.002276 0.013500 0.016816
v 0.002859 -0.015000 0.003027
v 0.002859 -0.014498 0.003027
v 0.002859 0.014498 0.003027
v 0.002859 0.015000 0.003027
v 0.002946 -0.015000 0.002354
v 0.002946 -0.015000 0.003701
v 0.002946 -0.014498 0.002354
v 0.002946 -0.014498 0.003701
v 0.002946 0.014498 0.002354
v 0.002946 0.014498 0.003701
v 0.002946 0.015000 0.002354
v 0.002946 0.015000 0.003701
v 0.003206 -0.015000 0.001728
v 0.003206 -0.015000 0.004327
v 0.003206 -0.014498 0.001728
v 0.003206 -0.014498 0.004327
v 0.003206 0.014498 0.001728
v 0.003206 0.014498 0.004327
v 0.003206 0.015000 0.001728
v 0.003206 0.015000 0.004327
v 0.003223 -0.012000 0.013747
v 0.003223 -0.010316 0.013747
v 0.003223 -0.010276 0.013747
v 0.003223 -0.010154 0.013747
v 0.003223 -0.009932 0.013747
v 0.003223 -0.009601 0.013747
v 0.003223 -0.009160 0.013747
v 0.003223 -0.008638 0.013747
v 0.003223 -0.008099 0.013747
v 0.003223 -0.001259 0.013747
v 0.003223 -0.001108 0.013747
v 0.003223 0.003262 0.013747
v 0.003223 0.007631 0.013747
v 0.003223 0.008099 0.013747
v 0.003223 0.008638 0.013747
v 0.003223 0.009160 0.013747
v 0.003223 0.009601 0.013747
v 0.003223 0.009932 0.013747
v 0.003223 0.010154 0.013747
v 0.003223 0.010276 0.013747
v 0.003223 0.010316 0.013747
v 0.003223 0.012000 0.013747
v 0.003336 0.015000 0.017877
v 0.003337 -0.015000 0.017877
v 0.003358 -0.014498 0.003027
v 0.003358 -0.012000 0.003027
v 0.003358 0.012000 0.003027
v 0.003358 0.014498 0.003027
v 0.003429 -0.014498 0.002484
v 0.003429 -0.014498 0.003571
v 0.003429 -0.012000 0.002484
v 0.003429 -0.012000 0.003571
v 0.003429 0.012000 0.002484
v 0.003429 0.012000 0.003571
v 0.003429 0.014498 0.002484
v 0.003429 0.014498 0.003571
v 0.003619 -0.015000 0.001189
v 0.003619 -0.015000 0.004866
v 0.003619 -0.014498 0.001189
v 0.003619 -0.014498 0.004866
v 0.003619 0.014498 0.001189
v 0.003619 0.014498 0.004866
v 0.003619 0.015000 0.001189
v 0.003619 0.015000 0.004866
v 0.003639 -0.014498 0.001978
v 0.003639 -0.014498 0.004077
v 0.003639 -0.012000 0.001978
v 0.003639 -0.012000 0.004077
v 0.003639 0.012000 0.001978
v 0.003639 0.012000 0.004077
v 0.003639 0.014498 0.001978
v 0.003639 0.014498 0.004077
v 0.003973 -0.014498 0.001542
v 0.003973 -0.014498 0.004512
v 0.003973 -0.012000 0.001542
v 0.003973 -0.012000 0.004512
v 0.003973 -0.006000 0.012998
v 0.003973 0.000000 0.012998
v 0.003973 0.006000 0.012998
v 0.003973 0.012000 0.001543
v 0.003973 0.012000 0.004512
v 0.003973 0.014498 0.001543
v 0.003973 0.014498 0.004512
v 0.004024 -0.006544 0.012947
v 0.004024 -0.005456 0.012947
v 0.004024 -0.000544 0.012947
v 0.004024 0.000544 0.012947
v 0.004024 0.005456 0.012947
v 0.004024 0.006544 0.012947
v 0.004158 -0.015000 0.000776
v 0.004158 -0.015000 0.005279
v 0.004158 -0.014498 0.000776
v 0.004158 -0.014498 0.005279
v 0.004158 0.014498 0.000776
v 0.004158 0.014498 0.005279
v 0.004158 0.015000 0.000776
v 0.004158 0.015000 0.005279
v 0.004172 -0.007050 0.012799
v 0.004172 -0.004950 0.012799
v 0.004172 -0.001050 0.012799
v 0.004172 0.001050 0.012799
v 0.004172 0.004950 0.012799
v 0.004172 0.007050 0.012799
v 0.004408 -0.007485 0.012563
v 0.004408 -0.004515 0.012563
v 0.004408 -0.001485 0.012563
v 0.004408 0.001485 0.012563
v 0.004408 0.004515 0.012563
v 0.004408 0.007485 0.012563
v 0.004408 0.012000 0.004846
v 0.004408 0.014498 0.004846
v 0.004409 -0.014498 0.001209
v 0.004409 -0.014498 0.004846
v 0.004409 -0.012000 0.001209
v 0.004409 -0.012000 0.004846
v 0.004409 0.012000 0.001209
v 0.004409 0.014498 0.001209
v 0.004715 -0.007819 0.012255
v 0.004715 -0.004181 0.012255
v 0.004715 -0.001819 0.012255
v 0.004715 0.001819 0.012255
v 0.004715 0.004181 0.012255
v 0.004715 0.007819 0.012255
v 0.004785 -0.015000 0.000516
v 0.004785 -0.015000 0.005539
v 0.004785 -0.014498 0.000516
v 0.004785 -0.014498 0.005539
v 0.004785 0.014498 0.000516
v 0.004785 0.014498 0.005539
v 0.004785 0.015000 0.000516
v 0.004785 0.015000 0.005539
v 0.004914 -0.014498 0.000999
v 0.004914 -0.014498 0.005056
v 0.004914 -0.012000 0.000999
v 0.004914 -0.012000 0.005056
v 0.004914 0.012000 0.000999
v 0.004914 0.012000 0.005056
v 0.004914 0.014498 0.000999
v 0.004914 0.014498 0.005056
v 0.005073 -0.008028 0.011897
v 0.005073 -0.003972 0.011897
v 0.005073 -0.002028 0.011897
v 0.005073 0.002028 0.011897
v 0.005073 0.003972 0.011897
v 0.005073 0.008028 0.011897
v 0.005104 -0.015000 -0.005104
v 0.005104 -0.012000 -0.005104
v 0.005104 0.012000 -0.005104
v 0.005104 0.015000 -0.005104
v 0.005386 -0.006000 0.015118
v 0.005386 0.000000 0.015118
v 0.005386 0.006000 0.015118
v 0.005449 -0.006673 0.015055
v 0.005449 -0.005327 0.015055
v 0.005449 -0.000673 0.015055
v 0.005449 0.000673 0.015055
v 0.005449 0.005327 0.015055
v 0.005449 0.006673 0.015055
v 0.005454 -0.015000 0.005626
v 0.005454 0.015000 0.005626
v 0.005458 -0.015000 0.000428
v 0.005458 -0.015000 0.005627
v 0.005458 -0.014498 0.000428
v 0.005458 -0.014498 0.000927
v 0.005458 -0.014498 0.005128
v 0.005458 -0.014498 0.005627
v 0.005458 -0.012000 0.000927
v 0.005458 -0.012000 0.005128
v 0.005458 -0.008100 0.011513
v 0.005458 -0.003900 0.011513
v 0.005458 -0.002100 0.011513
v 0.005458 0.002100 0.011513
v 0.005458 0.003900 0.011513
v 0.005458 0.008100 0.011513
v 0.005458 0.012000 0.000927
v 0.005458 0.012000 0.005128
v 0.005458 0.014498 0.000428
v 0.005458 0.014498 0.000927
v 0.005458 0.014498 0.005128
v 0.005458 0.014498 0.005627
v 0.005458 0.015000 0.000428
v 0.005458 0.015000 0.005627
v 0.005632 -0.007300 0.014871
v 0.005632 -0.004700 0.014871
v 0.005632 -0.001300 0.014871
v 0.005632 0.001300 0.014872
v 0.005632 0.004700 0.014872
v 0.005632 0.007300 0.014872
v 0.005739 -0.006000 0.014764
v 0.005739 0.000000 0.014764
v 0.005739 0.006000 0.014764
v 0.005741 -0.006000 0.015473
v 0.005741 0.000000 0.015473
v 0.005741 0.006000 0.015473
v 0.005790 -0.006544 0.014713
v 0.005790 -0.005456 0.014713
v 0.005790 -0.000544 0.014713
v 0.005790 0.000544 0.014713
v 0.005790 0.005456 0.014713
v 0.005790 0.006544 0.014713
v 0.005804 -0.006673 0.015410
v 0.005804 -0.005327 0.015410
v 0.005804 -0.000673 0.015410
v 0.005804 0.000673 0.015410
v 0.005804 0.005327 0.015410
v 0.005804 0.006673 0.015410
v 0.005843 -0.008028 0.011128
v 0.005843 -0.003972 0.011128
v 0.005843 -0.002028 0.011128
v 0.005843 0.002028 0.011128
v 0.005843 0.003972 0.011128
v 0.005843 0.008028 0.011128
v 0.005925 -0.007838 0.014579
v 0.005925 -0.004162 0.014579
v 0.005925 -0.001838 0.014579
v 0.005925 0.001838 0.014579
v 0.005925 0.004162 0.014579
v 0.005925 0.007838 0.014579
v 0.005938 -0.007050 0.014565
v 0.005938 -0.004950 0.014565
v 0.005938 -0.001050 0.014565
v 0.005938 0.001050 0.014565
v 0.005938 0.004950 0.014565
v 0.005938 0.007050 0.014565
v 0.005987 -0.007300 0.015226
v 0.005987 -0.004700 0.015226
v 0.005987 -0.001300 0.015226
v 0.005987 0.001300 0.015226
v 0.005987 0.004700 0.015226
v 0.005987 0.007300 0.015226
v 0.006002 -0.014498 0.000999
v 0.006002 -0.014498 0.005056
v 0.006002 -0.012000 0.000999
v 0.006002 -0.012000 0.005056
v 0.006002 0.012000 0.000999
v 0.006002 0.012000 0.005056
v 0.006002 0.014498 0.000999
v 0.006002 0.014498 0.005056
v 0.006131 -0.015000 0.000516
v 0.006131 -0.015000 0.005539
v 0.006131 -0.014498 0.000516
v 0.006131 -0.014498 0.005539
v 0.006131 0.014498 0.000516
v 0.006131 0.014498 0.005539
v 0.006131 0.015000 0.000516
v 0.006131 0.015000 0.005539
v 0.006174 -0.007485 0.014329
v 0.006174 -0.004515 0.014329
v 0.006174 -0.001485 0.014329
v 0.006174 0.001485 0.014329
v 0.006174 0.004515 0.014329
v 0.006174 0.007485 0.014329
v 0.006200 -0.007819 0.010770
v 0.006200 -0.004181 0.010770
v 0.006200 -0.001819 0.010770
v 0.006200 0.001819 0.010770
v 0.006200 0.004181 0.010770
v 0.006200 0.007819 0.010770
v 0.006279 -0.007838 0.014934
v 0.006279 -0.004162 0.014934
v 0.006279 -0.001838 0.014934
v 0.006279 0.001838 0.014934
v 0.006279 0.004162 0.014934
v 0.006279 0.007838 0.014934
v 0.006305 -0.008252 0.014198
v 0.006305 -0.003748 0.014198
v 0.006305 -0.002252 0.014198
v 0.006305 0.002252 0.014198
v 0.006305 0.003748 0.014198
v 0.006305 0.008252 0.014198
v 0.006482 -0.007819 0.014022
v 0.006482 -0.004181 0.014022
v 0.006482 -0.001819 0.014022
v 0.006482 0.001819 0.014022
v 0.006482 0.004181 0.014022
v 0.006482 0.007819 0.014022
v 0.006507 -0.014498 0.001209
v 0.006507 -0.014498 0.004846
v 0.006507 -0.012000 0.001209
v 0.006507 -0.012000 0.004846
v 0.006507 0.012000 0.001209
v 0.006507 0.012000 0.004846
v 0.006507 0.014498 0.001209
v 0.006507 0.014498 0.004846
v 0.006508 -0.007485 0.010463
v 0.006508 -0.004515 0.010463
v 0.006508 -0.001485 0.010463
v 0.006508 0.001485 0.010463
v 0.006508 0.004515 0.010463
v 0.006508 0.007485 0.010463
v 0.006660 -0.008252 0.014553
v 0.006660 -0.003748 0.014553
v 0.006660 -0.002252 0.014553
v 0.006660 0.002252 0.014553
v 0.006660 0.003748 0.014553
v 0.006660 0.008252 0.014553
v 0.006744 -0.007050 0.010227
v 0.006744 -0.004950 0.010227
v 0.006744 -0.001050 0.010227
v 0.006744 0.001050 0.010227
v 0.006744 0.004950 0.010227
v 0.006744 0.007050 0.010227
v 0.006748 -0.008511 0.013755
v 0.006748 -0.003489 0.013755
v 0.006748 -0.002511 0.013755
v 0.006748 0.002511 0.013755
v 0.006748 0.003489 0.013755
v 0.006748 0.008511 0.013755
v 0.006758 -0.015000 0.000776
v 0.006758 -0.015000 0.005279
v 0.006758 -0.014498 0.000776
v 0.006758 -0.014498 0.005279
v 0.006758 0.014498 0.000776
v 0.006758 0.014498 0.005279
v 0.006758 0.015000 0.000776
v 0.006758 0.015000 0.005279
v 0.006840 -0.008028 0.013664
v 0.006840 -0.003972 0.013664
v 0.006840 -0.002028 0.013664
v 0.006840 0.002028 0.013664
v 0.006840 0.003972 0.013664
v 0.006840 0.008028 0.013664
v 0.006892 -0.006544 0.010079
v 0.006892 -0.005456 0.010079
v 0.006892 -0.000544 0.010079
v 0.006892 0.000544 0.010079
v 0.006892 0.005456 0.010079
v 0.006892 0.006544 0.010079
v 0.006943 -0.014498 0.001543
v 0.006943 -0.014498 0.004512
v 0.006943 -0.012000 0.001543
v 0.006943 -0.012000 0.004512
v 0.006943 -0.006000 0.010028
v 0.006943 0.000000 0.010028
v 0.006943 0.006000 0.010028
v 0.006943 0.012000 0.001543
v 0.006943 0.012000 0.004512
v 0.006943 0.014498 0.001543
v 0.006943 0.014498 0.004512
v 0.007103 -0.008511 0.014110
v 0.007103 -0.003489 0.014110
v 0.007103 -0.002511 0.014110
v 0.007103 0.002511 0.014110
v 0.007103 0.003489 0.014110
v 0.007103 0.008511 0.014110
v 0.007224 -0.008600 0.013279
v 0.007224 -0.008100 0.013279
v 0.007224 -0.003900 0.013279
v 0.007224 -0.003400 0.013279
v 0.007224 -0.002600 0.013279
v 0.007224 -0.002100 0.013279
v 0.007224 0.002100 0.013279
v 0.007224 0.002600 0.013279
v 0.007224 0.003400 0.013279
v 0.007224 0.003900 0.013279
v 0.007224 0.008100 0.013279
v 0.007224 0.008600 0.013279
v 0.007277 -0.014498 0.001978
v 0.007277 -0.014498 0.004077
v 0.007277 -0.012000 0.001978
v 0.007277 -0.012000 0.004077
v 0.007277 0.012000 0.001978
v 0.007277 0.012000 0.004077
v 0.007277 0.014498 0.001978
v 0.007277 0.014498 0.004077
v 0.007296 -0.015000 0.001189
v 0.007296 -0.015000 0.004866
v 0.007296 -0.014498 0.001189
v 0.007296 -0.014498 0.004866
v 0.007296 0.014498 0.001189
v 0.007296 0.014498 0.004866
v 0.007296 0.015000 0.001189
v 0.007296 0.015000 0.004866
v 0.007487 -0.014498 0.002484
v 0.007487 -0.014498 0.003571
v 0.007487 -0.012000 0.002484
v 0.007487 -0.012000 0.003571
v 0.007487 0.012000 0.002484
v 0.007487 0.012000 0.003571
v 0.007487 0.014498 0.002484
v 0.007487 0.014498 0.003571
v 0.007558 -0.014498 0.003027
v 0.007558 -0.012000 0.003027
v 0.007558 0.012000 0.003027
v 0.007558 0.014498 0.003027
v 0.007579 -0.008600 0.013634
v 0.007579 -0.003400 0.013634
v 0.007579 -0.002600 0.013634
v 0.007579 0.002600 0.013634
v 0.007579 0.003400 0.013634
v 0.007579 0.008600 0.013634
v 0.007609 -0.008028 0.012894
v 0.007609 -0.003972 0.012894
v 0.007609 -0.002028 0.012894
v 0.007609 0.002028 0.012894
v 0.007609 0.003972 0.012894
v 0.007609 0.008028 0.012894
v 0.007700 -0.008511 0.012803
v 0.007700 -0.003489 0.012803
v 0.007700 -0.002511 0.012803
v 0.007700 0.002511 0.012803
v 0.007700 0.003489 0.012803
v 0.007700 0.008511 0.012803
v 0.007709 -0.015000 0.001728
v 0.007709 -0.015000 0.004327
v 0.007709 -0.014498 0.001728
v 0.007709 -0.014498 0.004327
v 0.007709 0.014498 0.001728
v 0.007709 0.014498 0.004327
v 0.007709 0.015000 0.001728
v 0.007709 0.015000 0.004327
v 0.007967 -0.007819 0.012537
v 0.007967 -0.004181 0.012537
v 0.007967 -0.001819 0.012537
v 0.007967 0.001819 0.012537
v 0.007967 0.004181 0.012537
v 0.007967 0.007819 0.012537
v 0.007969 -0.015000 0.003701
v 0.007969 -0.014498 0.003701
v 0.007969 0.014498 0.002354
v 0.007969 0.014498 0.003701
v 0.007969 0.015000 0.002354
v 0.007969 0.015000 0.003701
v 0.007970 -0.015000 0.002354
v 0.007970 -0.014498 0.002354
v 0.008055 -0.008511 0.013158
v 0.008055 -0.003489 0.013158
v 0.008055 -0.002511 0.013158
v 0.008055 0.002511 0.013158
v 0.008055 0.003489 0.013158
v 0.008055 0.008511 0.013158
v 0.008057 -0.015000 0.003027
v 0.008057 -0.014498 0.003027
v 0.008057 0.014498 0.003027
v 0.008057 0.015000 0.003027
v 0.008143 -0.008252 0.012360
v 0.008143 -0.003748 0.012360
v 0.008143 -0.002252 0.012360
v 0.008143 0.002252 0.012360
v 0.008143 0.003748 0.012360
v 0.008143 0.008252 0.012360
v 0.008274 -0.007485 0.012229
v 0.008274 -0.004515 0.012229
v 0.008274 -0.001485 0.012229
v 0.008274 0.001485 0.012229
v 0.008274 0.004515 0.012229
v 0.008274 0.007485 0.012229
v 0.008498 -0.008252 0.012715
v 0.008498 -0.003748 0.012715
v 0.008498 -0.002252 0.012715
v 0.008498 0.002252 0.012715
v 0.008498 0.003748 0.012715
v 0.008498 0.008252 0.012715
v 0.008510 -0.007050 0.011993
v 0.008510 -0.004950 0.011993
v 0.008510 -0.001050 0.011993
v 0.008510 0.001050 0.011993
v 0.008510 0.004950 0.011993
v 0.008510 0.007050 0.011993
v 0.008524 -0.007838 0.011979
v 0.008524 -0.004162 0.011979
v 0.008524 -0.001838 0.011979
v 0.008524 0.001838 0.011979
v 0.008524 0.004162 0.011979
v 0.008524 0.007838 0.011979
v 0.008658 -0.006544 0.011845
v 0.008658 -0.005456 0.011845
v 0.008658 -0.000544 0.011845
v 0.008658 0.000544 0.011845
v 0.008658 0.005456 0.011845
v 0.008658 0.006544 0.011845
v 0.008709 -0.006000 0.011794
v 0.008709 0.000000 0.011794
v 0.008709 0.006000 0.011794
v 0.008817 -0.007300 0.011687
v 0.008817 -0.004700 0.011687
v 0.008817 -0.001300 0.011687
v 0.008817 0.001300 0.011687
v 0.008817 0.004700 0.011687
v 0.008817 0.007300 0.011687
v 0.008879 -0.007838 0.012334
v 0.008879 -0.004162 0.012334
v 0.008879 -0.001838 0.012334
v 0.008879 0.001838 0.012334
v 0.008879 0.004162 0.012334
v 0.008879 0.007838 0.012334
v 0.009000 -0.006673 0.011504
v 0.009000 -0.005327 0.011504
v 0.009000 -0.000673 0.011504
v 0.009000 0.000673 0.011504
v 0.009000 0.005327 0.011504
v 0.009000 0.006673 0.011504
v 0.009063 -0.006000 0.011441
v 0.009063 0.000000 0.011441
v 0.009063 0.006000 0.011441
v 0.009172 -0.007300 0.012042
v 0.009172 -0.004700 0.012042
v 0.009172 -0.001300 0.012042
v 0.009172 0.001300 0.012042
v 0.009172 0.004700 0.012042
v 0.009172 0.007300 0.012042
v 0.009355 -0.006673 0.011859
v 0.009355 -0.005327 0.011859
v 0.009355 -0.000673 0.011859
v 0.009355 0.000673 0.011859
v 0.009355 0.005327 0.011859
v 0.009355 0.006673 0.011859
v 0.009418 -0.006000 0.011796
v 0.009418 0.000000 0.011796
v 0.009418 0.006000 0.011796
v 0.010408 -0.012000 0.006563
v 0.010408 0.012000 0.006563
v 0.012048 -0.015000 0.001840
v 0.012048 -0.012000 0.001840
v 0.012048 0.012000 0.001840
v 0.012048 0.015000 0.001840
v 0.012529 -0.012000 0.008684
v 0.012529 0.012000 0.008684
v 0.012553 -0.015000 0.008660
v 0.012553 -0.012000 0.008660
v 0.012553 0.012000 0.008660
v 0.012553 0.015000 0.008660

f 3 2 1 
f 2 5 1 
f 5 3 1 
f 3 4 2 
f 4 6 2 
f 2 6 5 
f 41 4 3 
f 5 41 3 
f 4 42 6 
f 41 42 4 
f 6 7 5 
f 7 9 5 
f 9 10 5 
f 10 11 5 
f 11 12 5 
f 12 13 5 
f 13 14 5 
f 14 19 5 
f 19 20 5 
f 5 20 21 
f 21 25 5 
f 25 41 5 
f 6 8 7 
f 15 8 6 
f 6 16 15 
f 6 17 16 
f 6 18 17 
f 6 22 18 
f 6 23 22 
f 6 42 23 
f 53 7 8 
f 90 9 7 
f 53 52 7 
f 90 7 52 
f 53 8 15 
f 9 91 10 
f 90 91 9 
f 91 11 10 
f 203 12 11 
f 203 11 91 
f 338 13 12 
f 338 12 203 
f 13 339 14 
f 338 339 13 
f 339 19 14 
f 183 15 16 
f 53 15 183 
f 183 16 17 
f 196 17 18 
f 196 183 17 
f 196 18 22 
f 422 20 19 
f 422 19 339 
f 20 424 21 
f 422 424 20 
f 424 25 21 
f 22 23 386 
f 196 22 386 
f 23 42 24 
f 387 23 24 
f 387 386 23 
f 24 42 28 
f 387 24 28 
f 26 27 25 
f 605 26 25 
f 27 41 25 
f 605 25 424 
f 26 606 27 
f 605 606 26 
f 31 41 27 
f 606 31 27 
f 28 42 29 
f 28 29 538 
f 387 28 538 
f 29 42 30 
f 541 29 30 
f 541 538 29 
f 35 30 42 
f 541 30 35 
f 32 41 31 
f 663 32 31 
f 663 31 606 
f 32 33 41 
f 663 33 32 
f 33 34 41 
f 33 664 34 
f 663 664 33 
f 34 40 41 
f 664 40 34 
f 36 35 42 
f 35 36 596 
f 541 35 596 
f 36 42 37 
f 36 37 659 
f 596 36 659 
f 38 37 42 
f 660 37 38 
f 660 659 37 
f 39 38 42 
f 660 38 39 
f 40 39 42 
f 39 40 664 
f 660 39 664 
f 40 42 41 
f 48 44 43 
f 57 43 44 
f 48 43 47 
f 47 43 394 
f 57 63 43 
f 63 78 43 
f 78 113 43 
f 113 380 43 
f 380 383 43 
f 383 382 43 
f 43 382 394 
f 49 44 48 
f 50 44 49 
f 328 44 50 
f 55 54 44 
f 54 57 44 
f 56 55 44 
f 62 56 44 
f 68 62 44 
f 83 68 44 
f 118 83 44 
f 381 118 44 
f 328 397 44 
f 384 381 44 
f 385 384 44 
f 385 44 397 
f 46 48 45 
f 52 46 45 
f 48 47 45 
f 45 47 51 
f 321 45 51 
f 90 52 45 
f 91 90 45 
f 203 91 45 
f 203 45 338 
f 395 45 321 
f 338 45 339 
f 339 45 422 
f 548 45 395 
f 422 45 424 
f 424 45 669 
f 671 45 548 
f 45 671 669 
f 46 49 48 
f 46 50 49 
f 670 50 46 
f 53 46 52 
f 183 46 53 
f 196 46 183 
f 386 46 196 
f 670 46 386 
f 47 394 51 
f 50 670 328 
f 51 394 321 
f 59 54 55 
f 69 57 54 
f 59 58 54 
f 58 69 54 
f 56 60 55 
f 70 59 55 
f 60 70 55 
f 61 60 56 
f 71 61 56 
f 62 71 56 
f 72 63 57 
f 72 57 69 
f 64 58 59 
f 64 73 58 
f 58 73 69 
f 65 64 59 
f 74 65 59 
f 74 59 70 
f 61 67 60 
f 67 66 60 
f 66 75 60 
f 60 75 70 
f 76 67 61 
f 76 61 71 
f 68 77 62 
f 62 77 71 
f 84 63 72 
f 84 78 63 
f 79 64 65 
f 64 85 73 
f 79 85 64 
f 86 65 74 
f 80 79 65 
f 86 80 65 
f 67 82 66 
f 66 87 75 
f 82 81 66 
f 81 87 66 
f 88 67 76 
f 88 82 67 
f 68 89 77 
f 83 89 68 
f 92 72 69 
f 73 92 69 
f 93 74 70 
f 75 93 70 
f 94 76 71 
f 77 94 71 
f 95 84 72 
f 92 95 72 
f 85 96 73 
f 96 92 73 
f 97 86 74 
f 93 97 74 
f 87 98 75 
f 98 93 75 
f 99 88 76 
f 94 99 76 
f 89 100 77 
f 100 94 77 
f 101 78 84 
f 101 113 78 
f 115 79 80 
f 79 102 85 
f 114 102 79 
f 115 114 79 
f 103 80 86 
f 103 115 80 
f 82 116 81 
f 81 104 87 
f 116 104 81 
f 105 82 88 
f 105 117 82 
f 117 116 82 
f 83 106 89 
f 118 106 83 
f 95 107 84 
f 107 101 84 
f 108 96 85 
f 102 108 85 
f 97 109 86 
f 109 103 86 
f 110 98 87 
f 104 110 87 
f 99 111 88 
f 111 105 88 
f 112 100 89 
f 106 112 89 
f 204 95 92 
f 96 204 92 
f 209 97 93 
f 98 205 93 
f 205 209 93 
f 206 99 94 
f 100 206 94 
f 207 107 95 
f 207 95 204 
f 108 208 96 
f 96 208 204 
f 209 109 97 
f 110 210 98 
f 98 210 205 
f 211 111 99 
f 211 99 206 
f 112 212 100 
f 100 212 206 
f 107 119 101 
f 125 113 101 
f 119 125 101 
f 120 108 102 
f 114 126 102 
f 138 120 102 
f 126 138 102 
f 109 121 103 
f 127 115 103 
f 121 139 103 
f 139 127 103 
f 122 110 104 
f 116 128 104 
f 128 122 104 
f 111 123 105 
f 129 117 105 
f 123 141 105 
f 141 129 105 
f 124 112 106 
f 118 130 106 
f 130 124 106 
f 225 119 107 
f 225 107 207 
f 120 226 108 
f 108 226 208 
f 227 121 109 
f 227 109 209 
f 122 228 110 
f 110 228 210 
f 229 123 111 
f 229 111 211 
f 124 230 112 
f 112 230 212 
f 125 131 113 
f 131 380 113 
f 133 114 115 
f 132 126 114 
f 133 132 114 
f 127 133 115 
f 117 135 116 
f 134 128 116 
f 135 134 116 
f 129 135 117 
f 136 130 118 
f 381 136 118 
f 137 125 119 
f 237 137 119 
f 237 119 225 
f 138 238 120 
f 120 238 226 
f 239 139 121 
f 239 121 227 
f 128 140 122 
f 140 240 122 
f 122 240 228 
f 241 141 123 
f 241 123 229 
f 130 142 124 
f 142 242 124 
f 124 242 230 
f 143 131 125 
f 137 143 125 
f 132 144 126 
f 172 138 126 
f 144 172 126 
f 145 133 127 
f 139 173 127 
f 173 145 127 
f 134 146 128 
f 146 140 128 
f 147 135 129 
f 141 175 129 
f 175 147 129 
f 136 148 130 
f 148 142 130 
f 143 177 131 
f 177 380 131 
f 179 132 133 
f 178 144 132 
f 179 178 132 
f 145 179 133 
f 135 181 134 
f 180 146 134 
f 181 180 134 
f 147 181 135 
f 182 148 136 
f 381 182 136 
f 171 143 137 
f 261 171 137 
f 261 137 237 
f 172 262 138 
f 138 262 238 
f 263 173 139 
f 263 139 239 
f 146 174 140 
f 174 264 140 
f 140 264 240 
f 265 175 141 
f 265 141 241 
f 148 176 142 
f 176 266 142 
f 142 266 242 
f 171 184 143 
f 184 177 143 
f 186 172 144 
f 178 187 144 
f 187 186 144 
f 173 189 145 
f 188 179 145 
f 189 188 145 
f 191 174 146 
f 180 191 146 
f 175 193 147 
f 192 181 147 
f 193 192 147 
f 195 176 148 
f 182 195 148 
f 149 346 150 
f 150 399 149 
f 149 411 346 
f 399 411 149 
f 150 340 151 
f 151 399 150 
f 150 346 340 
f 151 322 152 
f 152 399 151 
f 151 340 322 
f 152 291 153 
f 153 399 152 
f 152 322 291 
f 153 261 154 
f 154 399 153 
f 153 291 261 
f 154 237 155 
f 155 399 154 
f 154 261 237 
f 155 225 156 
f 156 399 155 
f 155 237 225 
f 156 207 157 
f 157 399 156 
f 156 225 207 
f 157 204 158 
f 158 399 157 
f 157 207 204 
f 158 205 159 
f 159 399 158 
f 158 204 205 
f 159 206 160 
f 160 399 159 
f 159 205 206 
f 160 212 161 
f 161 399 160 
f 160 206 212 
f 161 212 162 
f 161 162 400 
f 161 374 373 
f 161 373 409 
f 161 417 374 
f 161 375 417 
f 161 421 375 
f 161 376 421 
f 161 487 376 
f 161 377 487 
f 161 499 377 
f 161 379 378 
f 161 378 499 
f 161 513 379 
f 389 388 161 
f 161 388 539 
f 390 389 161 
f 391 390 161 
f 392 391 161 
f 393 392 161 
f 398 393 161 
f 401 398 161 
f 161 403 399 
f 161 400 404 
f 401 161 402 
f 402 161 448 
f 161 405 403 
f 161 404 406 
f 161 407 405 
f 161 406 408 
f 161 409 407 
f 161 408 410 
f 161 410 414 
f 416 161 414 
f 161 416 418 
f 161 418 420 
f 161 420 423 
f 161 423 449 
f 450 448 161 
f 161 449 488 
f 537 450 161 
f 161 488 490 
f 161 490 500 
f 161 500 502 
f 512 161 502 
f 161 512 514 
f 161 515 513 
f 161 514 516 
f 161 517 515 
f 161 516 518 
f 161 519 517 
f 161 518 520 
f 161 539 519 
f 161 520 540 
f 631 537 161 
f 161 540 716 
f 644 631 161 
f 657 644 161 
f 658 657 161 
f 661 658 161 
f 662 661 161 
f 665 662 161 
f 666 665 161 
f 666 161 667 
f 667 161 716 
f 162 230 163 
f 162 163 400 
f 162 212 230 
f 163 242 164 
f 163 164 400 
f 163 230 242 
f 164 266 165 
f 164 165 400 
f 164 242 266 
f 165 296 166 
f 165 166 400 
f 165 266 296 
f 166 327 167 
f 166 167 400 
f 166 296 327 
f 167 345 168 
f 167 168 400 
f 167 327 345 
f 168 351 169 
f 168 169 400 
f 168 345 351 
f 169 170 400 
f 169 412 170 
f 169 351 412 
f 170 412 400 
f 185 184 171 
f 291 185 171 
f 291 171 261 
f 186 292 172 
f 172 292 262 
f 293 189 173 
f 293 173 263 
f 191 190 174 
f 190 294 174 
f 174 294 264 
f 295 193 175 
f 295 175 265 
f 195 194 176 
f 194 296 176 
f 176 296 266 
f 184 197 177 
f 197 380 177 
f 199 178 179 
f 198 187 178 
f 199 198 178 
f 188 199 179 
f 181 201 180 
f 200 191 180 
f 201 200 180 
f 192 201 181 
f 202 195 182 
f 381 202 182 
f 219 184 185 
f 219 197 184 
f 213 219 185 
f 322 213 185 
f 322 185 291 
f 214 186 187 
f 214 323 186 
f 186 323 292 
f 198 220 187 
f 220 214 187 
f 215 188 189 
f 221 199 188 
f 215 221 188 
f 324 215 189 
f 324 189 293 
f 191 222 190 
f 222 216 190 
f 216 325 190 
f 190 325 294 
f 200 222 191 
f 193 217 192 
f 223 201 192 
f 217 223 192 
f 326 217 193 
f 326 193 295 
f 195 224 194 
f 224 218 194 
f 218 327 194 
f 194 327 296 
f 202 224 195 
f 219 231 197 
f 231 380 197 
f 233 198 199 
f 232 220 198 
f 233 232 198 
f 221 233 199 
f 201 235 200 
f 234 222 200 
f 235 234 200 
f 223 235 201 
f 236 224 202 
f 381 236 202 
f 204 209 205 
f 208 209 204 
f 210 206 205 
f 210 211 206 
f 208 226 209 
f 226 227 209 
f 229 211 210 
f 228 229 210 
f 249 219 213 
f 243 249 213 
f 340 243 213 
f 340 213 322 
f 220 244 214 
f 244 341 214 
f 214 341 323 
f 245 221 215 
f 342 245 215 
f 342 215 324 
f 222 252 216 
f 252 246 216 
f 246 343 216 
f 216 343 325 
f 247 223 217 
f 344 247 217 
f 344 217 326 
f 224 254 218 
f 254 248 218 
f 248 345 218 
f 218 345 327 
f 249 231 219 
f 232 250 220 
f 250 244 220 
f 251 233 221 
f 245 251 221 
f 234 252 222 
f 253 235 223 
f 247 253 223 
f 236 254 224 
f 226 238 227 
f 238 239 227 
f 241 229 228 
f 240 241 228 
f 249 255 231 
f 255 380 231 
f 256 232 233 
f 256 250 232 
f 251 257 233 
f 257 256 233 
f 235 259 234 
f 258 252 234 
f 259 258 234 
f 253 259 235 
f 260 254 236 
f 381 260 236 
f 238 263 239 
f 262 263 238 
f 264 241 240 
f 264 265 241 
f 285 249 243 
f 267 285 243 
f 346 267 243 
f 346 243 340 
f 250 268 244 
f 268 347 244 
f 244 347 341 
f 269 251 245 
f 348 269 245 
f 348 245 342 
f 252 288 246 
f 288 270 246 
f 270 349 246 
f 246 349 343 
f 271 253 247 
f 350 271 247 
f 350 247 344 
f 254 290 248 
f 290 272 248 
f 272 351 248 
f 248 351 345 
f 285 255 249 
f 256 286 250 
f 286 268 250 
f 287 257 251 
f 269 287 251 
f 258 288 252 
f 289 259 253 
f 271 289 253 
f 260 290 254 
f 285 273 255 
f 273 380 255 
f 275 256 257 
f 275 274 256 
f 274 286 256 
f 287 275 257 
f 259 276 258 
f 276 288 258 
f 277 276 259 
f 289 277 259 
f 278 290 260 
f 381 278 260 
f 262 292 263 
f 292 293 263 
f 295 265 264 
f 294 295 264 
f 279 315 267 
f 352 279 267 
f 315 285 267 
f 352 267 346 
f 286 280 268 
f 280 353 268 
f 268 353 347 
f 281 287 269 
f 354 281 269 
f 354 269 348 
f 318 282 270 
f 282 355 270 
f 288 318 270 
f 270 355 349 
f 283 289 271 
f 356 283 271 
f 356 271 350 
f 320 284 272 
f 284 357 272 
f 290 320 272 
f 272 357 351 
f 315 273 285 
f 315 297 273 
f 297 380 273 
f 299 274 275 
f 274 316 286 
f 299 298 274 
f 298 316 274 
f 317 275 287 
f 317 299 275 
f 277 300 276 
f 276 318 288 
f 300 318 276 
f 319 277 289 
f 301 300 277 
f 319 301 277 
f 278 320 290 
f 302 320 278 
f 381 302 278 
f 303 329 279 
f 358 303 279 
f 329 315 279 
f 358 279 352 
f 286 316 280 
f 316 304 280 
f 304 359 280 
f 280 359 353 
f 317 287 281 
f 305 317 281 
f 360 305 281 
f 360 281 354 
f 332 306 282 
f 306 361 282 
f 318 332 282 
f 282 361 355 
f 319 289 283 
f 307 319 283 
f 362 307 283 
f 362 283 356 
f 334 308 284 
f 308 363 284 
f 320 334 284 
f 284 363 357 
f 292 323 293 
f 323 324 293 
f 325 295 294 
f 325 326 295 
f 329 309 297 
f 309 380 297 
f 329 297 315 
f 309 298 299 
f 309 330 298 
f 298 330 316 
f 310 309 299 
f 331 310 299 
f 331 299 317 
f 301 311 300 
f 311 310 300 
f 310 336 300 
f 300 332 318 
f 336 332 300 
f 333 311 301 
f 333 301 319 
f 311 334 302 
f 380 311 302 
f 302 334 320 
f 381 380 302 
f 312 335 303 
f 364 312 303 
f 335 329 303 
f 364 303 358 
f 330 312 304 
f 312 365 304 
f 316 330 304 
f 304 365 359 
f 313 331 305 
f 371 313 305 
f 331 317 305 
f 366 305 360 
f 366 371 305 
f 336 313 306 
f 313 367 306 
f 332 336 306 
f 306 367 361 
f 314 333 307 
f 368 314 307 
f 333 319 307 
f 368 307 362 
f 337 314 308 
f 314 369 308 
f 334 337 308 
f 308 369 363 
f 380 309 310 
f 335 309 329 
f 309 335 330 
f 311 380 310 
f 336 310 331 
f 337 311 333 
f 311 337 334 
f 330 335 312 
f 370 312 364 
f 312 370 365 
f 336 331 313 
f 313 371 367 
f 337 333 314 
f 372 314 368 
f 314 372 369 
f 321 394 395 
f 323 341 324 
f 341 342 324 
f 343 326 325 
f 343 344 326 
f 396 397 328 
f 328 670 396 
f 341 348 342 
f 347 348 341 
f 349 344 343 
f 349 350 344 
f 411 352 346 
f 347 353 348 
f 353 354 348 
f 356 350 349 
f 355 356 349 
f 357 412 351 
f 411 358 352 
f 353 360 354 
f 359 360 353 
f 361 356 355 
f 361 362 356 
f 363 412 357 
f 411 364 358 
f 359 366 360 
f 365 366 359 
f 367 362 361 
f 367 368 362 
f 369 412 363 
f 411 370 364 
f 365 370 366 
f 370 371 366 
f 372 368 367 
f 371 372 367 
f 372 411 369 
f 411 412 369 
f 370 411 371 
f 411 372 371 
f 413 373 374 
f 373 413 409 
f 374 415 413 
f 374 417 415 
f 375 419 417 
f 375 421 419 
f 376 447 421 
f 376 487 447 
f 377 489 487 
f 377 499 489 
f 501 378 379 
f 378 501 499 
f 379 511 501 
f 379 513 511 
f 412 380 381 
f 578 383 380 
f 412 411 380 
f 411 562 380 
f 562 578 380 
f 384 580 381 
f 564 412 381 
f 580 564 381 
f 585 382 383 
f 382 425 394 
f 382 431 425 
f 382 439 431 
f 382 463 439 
f 382 491 463 
f 382 521 491 
f 542 521 382 
f 568 542 382 
f 584 568 382 
f 585 584 382 
f 578 821 383 
f 821 585 383 
f 385 586 384 
f 822 580 384 
f 586 822 384 
f 428 385 397 
f 437 385 428 
f 445 385 437 
f 469 385 445 
f 497 385 469 
f 527 385 497 
f 527 558 385 
f 558 574 385 
f 574 587 385 
f 587 586 385 
f 670 386 387 
f 670 387 538 
f 695 388 389 
f 388 695 539 
f 696 389 390 
f 695 389 696 
f 697 390 391 
f 696 390 697 
f 698 391 392 
f 697 391 698 
f 699 392 393 
f 698 392 699 
f 700 393 398 
f 699 393 700 
f 395 394 548 
f 425 429 394 
f 429 432 394 
f 432 440 394 
f 440 464 394 
f 464 492 394 
f 492 522 394 
f 522 543 394 
f 543 569 394 
f 548 394 718 
f 569 820 394 
f 679 675 394 
f 675 680 394 
f 820 679 394 
f 680 688 394 
f 688 732 394 
f 1193 718 394 
f 732 765 394 
f 765 799 394 
f 799 833 394 
f 833 836 394 
f 836 1193 394 
f 553 397 396 
f 396 670 553 
f 430 428 397 
f 438 430 397 
f 446 438 397 
f 470 446 397 
f 498 470 397 
f 528 498 397 
f 559 528 397 
f 668 397 553 
f 575 559 397 
f 823 575 397 
f 674 397 668 
f 674 717 397 
f 678 685 397 
f 686 678 397 
f 685 823 397 
f 694 686 397 
f 738 694 397 
f 717 1196 397 
f 771 738 397 
f 805 771 397 
f 834 805 397 
f 856 834 397 
f 1196 856 397 
f 701 398 401 
f 700 398 701 
f 403 411 399 
f 400 459 404 
f 400 412 459 
f 702 401 402 
f 701 401 702 
f 703 402 448 
f 702 402 703 
f 405 457 403 
f 403 457 411 
f 404 453 406 
f 404 459 453 
f 407 452 405 
f 405 452 457 
f 406 460 408 
f 406 453 460 
f 409 458 407 
f 407 458 452 
f 408 476 410 
f 408 460 476 
f 413 474 409 
f 409 474 458 
f 410 484 414 
f 410 476 484 
f 473 411 457 
f 481 411 473 
f 505 411 481 
f 531 411 505 
f 531 549 411 
f 549 562 411 
f 412 475 459 
f 412 483 475 
f 412 507 483 
f 412 533 507 
f 551 533 412 
f 564 551 412 
f 415 482 413 
f 413 482 474 
f 414 508 416 
f 414 484 508 
f 417 506 415 
f 415 506 482 
f 416 534 418 
f 416 508 534 
f 419 532 417 
f 417 532 506 
f 418 552 420 
f 418 534 552 
f 421 550 419 
f 419 550 532 
f 420 565 423 
f 420 552 565 
f 447 563 421 
f 421 563 550 
f 423 822 449 
f 423 565 822 
f 605 424 669 
f 425 431 426 
f 425 426 434 
f 429 425 434 
f 431 433 426 
f 433 451 426 
f 426 456 434 
f 451 456 426 
f 427 428 436 
f 437 428 427 
f 435 437 427 
f 454 435 427 
f 462 427 436 
f 462 454 427 
f 428 430 436 
f 432 429 434 
f 430 438 436 
f 431 439 433 
f 432 434 442 
f 440 432 442 
f 439 441 433 
f 441 455 433 
f 433 455 451 
f 434 472 442 
f 456 472 434 
f 445 437 435 
f 443 445 435 
f 461 443 435 
f 461 435 454 
f 436 438 444 
f 478 436 444 
f 478 462 436 
f 438 446 444 
f 439 463 441 
f 440 442 466 
f 464 440 466 
f 441 471 455 
f 463 465 441 
f 465 471 441 
f 442 480 466 
f 472 480 442 
f 469 445 443 
f 477 443 461 
f 467 469 443 
f 477 467 443 
f 444 446 468 
f 486 444 468 
f 486 478 444 
f 446 470 468 
f 487 821 447 
f 447 821 563 
f 704 448 450 
f 703 448 704 
f 449 727 488 
f 449 822 727 
f 705 450 537 
f 450 705 704 
f 451 455 452 
f 451 452 458 
f 456 451 458 
f 455 457 452 
f 453 454 460 
f 461 454 453 
f 459 461 453 
f 454 462 460 
f 455 471 457 
f 456 458 474 
f 472 456 474 
f 471 473 457 
f 477 461 459 
f 475 477 459 
f 460 462 476 
f 462 478 476 
f 463 491 465 
f 492 464 466 
f 465 479 471 
f 493 479 465 
f 491 493 465 
f 480 494 466 
f 494 492 466 
f 497 469 467 
f 485 467 477 
f 485 495 467 
f 495 497 467 
f 470 498 468 
f 496 486 468 
f 498 496 468 
f 471 479 473 
f 472 474 482 
f 480 472 482 
f 479 481 473 
f 485 477 475 
f 483 485 475 
f 476 478 484 
f 478 486 484 
f 479 503 481 
f 493 503 479 
f 504 480 482 
f 480 504 494 
f 503 505 481 
f 506 504 482 
f 509 485 483 
f 507 509 483 
f 486 510 484 
f 510 508 484 
f 509 495 485 
f 510 486 496 
f 489 725 487 
f 487 725 821 
f 488 721 490 
f 488 727 721 
f 499 720 489 
f 489 720 725 
f 490 728 500 
f 490 721 728 
f 491 521 493 
f 522 492 494 
f 493 523 503 
f 521 523 493 
f 504 524 494 
f 524 522 494 
f 527 497 495 
f 525 495 509 
f 525 527 495 
f 498 528 496 
f 526 510 496 
f 528 526 496 
f 501 726 499 
f 499 726 720 
f 500 744 502 
f 500 728 744 
f 511 742 501 
f 501 742 726 
f 502 755 512 
f 502 744 755 
f 503 529 505 
f 523 529 503 
f 530 504 506 
f 504 530 524 
f 529 531 505 
f 532 530 506 
f 535 509 507 
f 533 535 507 
f 510 536 508 
f 536 534 508 
f 535 525 509 
f 536 510 526 
f 513 750 511 
f 511 750 742 
f 512 784 514 
f 512 755 784 
f 515 789 513 
f 513 789 750 
f 514 811 516 
f 514 784 811 
f 517 809 515 
f 515 809 789 
f 516 850 518 
f 516 811 850 
f 519 842 517 
f 517 842 809 
f 518 910 520 
f 518 850 910 
f 539 908 519 
f 519 908 842 
f 520 1186 540 
f 520 910 1186 
f 521 542 523 
f 543 522 524 
f 523 544 529 
f 542 544 523 
f 530 547 524 
f 547 543 524 
f 558 527 525 
f 554 525 535 
f 554 558 525 
f 528 559 526 
f 557 536 526 
f 559 557 526 
f 529 545 531 
f 544 545 529 
f 546 530 532 
f 530 546 547 
f 545 549 531 
f 550 546 532 
f 555 535 533 
f 551 555 533 
f 536 556 534 
f 556 552 534 
f 555 554 535 
f 556 536 557 
f 706 537 631 
f 537 706 705 
f 670 538 541 
f 695 1185 539 
f 539 1185 908 
f 540 1186 716 
f 670 541 596 
f 542 568 544 
f 569 543 547 
f 544 570 545 
f 568 570 544 
f 545 560 549 
f 570 560 545 
f 546 561 547 
f 561 546 550 
f 561 571 547 
f 571 569 547 
f 548 718 671 
f 560 562 549 
f 563 561 550 
f 566 555 551 
f 564 566 551 
f 556 567 552 
f 567 565 552 
f 553 670 668 
f 572 554 555 
f 574 558 554 
f 572 574 554 
f 566 572 555 
f 567 556 557 
f 559 575 557 
f 573 567 557 
f 575 573 557 
f 560 576 562 
f 570 590 560 
f 590 576 560 
f 577 561 563 
f 561 577 571 
f 576 578 562 
f 579 577 563 
f 821 579 563 
f 582 566 564 
f 580 582 564 
f 567 583 565 
f 583 581 565 
f 581 822 565 
f 592 572 566 
f 582 592 566 
f 583 567 573 
f 568 588 570 
f 584 820 568 
f 820 588 568 
f 589 569 571 
f 589 820 569 
f 588 590 570 
f 577 591 571 
f 591 589 571 
f 594 574 572 
f 592 594 572 
f 575 595 573 
f 593 583 573 
f 595 593 573 
f 823 587 574 
f 594 823 574 
f 823 595 575 
f 576 597 578 
f 590 617 576 
f 617 597 576 
f 598 577 579 
f 577 598 591 
f 597 599 578 
f 599 821 578 
f 600 598 579 
f 821 600 579 
f 603 582 580 
f 601 603 580 
f 822 601 580 
f 583 604 581 
f 604 602 581 
f 602 822 581 
f 619 592 582 
f 603 619 582 
f 604 583 593 
f 820 584 585 
f 821 820 585 
f 587 823 586 
f 823 822 586 
f 588 615 590 
f 820 615 588 
f 616 589 591 
f 616 820 589 
f 615 617 590 
f 598 618 591 
f 618 616 591 
f 621 594 592 
f 619 621 592 
f 595 622 593 
f 620 604 593 
f 622 620 593 
f 621 823 594 
f 823 622 595 
f 670 596 659 
f 599 597 609 
f 597 607 609 
f 597 638 607 
f 617 638 597 
f 608 598 600 
f 608 618 598 
f 821 599 609 
f 610 608 600 
f 821 610 600 
f 603 601 611 
f 601 822 611 
f 604 614 602 
f 614 612 602 
f 612 822 602 
f 613 603 611 
f 640 603 613 
f 640 619 603 
f 620 614 604 
f 606 605 669 
f 663 606 669 
f 609 607 625 
f 607 623 625 
f 607 647 623 
f 638 647 607 
f 624 608 610 
f 608 639 618 
f 624 639 608 
f 821 609 625 
f 626 624 610 
f 821 626 610 
f 613 611 627 
f 611 822 627 
f 614 630 612 
f 630 628 612 
f 628 822 612 
f 629 613 627 
f 649 613 629 
f 649 640 613 
f 641 614 620 
f 641 630 614 
f 617 615 638 
f 615 636 638 
f 615 820 636 
f 637 616 618 
f 637 820 616 
f 639 637 618 
f 621 619 640 
f 622 643 620 
f 643 641 620 
f 642 621 640 
f 823 621 642 
f 823 643 622 
f 625 623 633 
f 623 632 633 
f 623 654 632 
f 647 654 623 
f 632 624 626 
f 632 648 624 
f 624 648 639 
f 821 625 633 
f 633 632 626 
f 821 633 626 
f 629 627 634 
f 627 822 634 
f 630 635 628 
f 635 634 628 
f 634 822 628 
f 635 629 634 
f 655 629 635 
f 655 649 629 
f 650 635 630 
f 650 630 641 
f 707 631 644 
f 631 707 706 
f 632 654 648 
f 655 635 650 
f 638 636 647 
f 636 645 647 
f 636 820 645 
f 646 637 639 
f 646 820 637 
f 648 646 639 
f 642 640 649 
f 643 652 641 
f 652 650 641 
f 651 642 649 
f 823 642 651 
f 823 652 643 
f 708 644 657 
f 644 708 707 
f 647 645 654 
f 645 653 654 
f 645 820 653 
f 653 646 648 
f 653 820 646 
f 654 653 648 
f 651 649 655 
f 652 656 650 
f 656 655 650 
f 656 651 655 
f 823 651 656 
f 823 656 652 
f 709 657 658 
f 657 709 708 
f 710 658 661 
f 658 710 709 
f 670 659 660 
f 670 660 664 
f 711 661 662 
f 661 711 710 
f 712 662 665 
f 662 712 711 
f 664 663 669 
f 670 664 669 
f 713 665 666 
f 665 713 712 
f 714 666 667 
f 666 714 713 
f 714 667 715 
f 667 716 715 
f 670 674 668 
f 673 670 669 
f 672 669 671 
f 672 673 669 
f 674 670 673 
f 718 672 671 
f 718 673 672 
f 673 717 674 
f 673 718 717 
f 675 679 676 
f 675 676 682 
f 680 675 682 
f 679 681 676 
f 681 723 676 
f 676 724 682 
f 723 719 676 
f 719 724 676 
f 677 678 684 
f 685 678 677 
f 683 685 677 
f 729 683 677 
f 730 677 684 
f 722 729 677 
f 730 722 677 
f 678 686 684 
f 679 687 681 
f 820 687 679 
f 680 682 690 
f 688 680 690 
f 687 689 681 
f 689 739 681 
f 739 723 681 
f 682 740 690 
f 724 740 682 
f 693 685 683 
f 691 693 683 
f 745 691 683 
f 729 745 683 
f 684 686 692 
f 746 684 692 
f 746 730 684 
f 693 823 685 
f 686 694 692 
f 687 731 689 
f 820 731 687 
f 688 690 734 
f 732 688 734 
f 731 733 689 
f 733 747 689 
f 747 739 689 
f 690 748 734 
f 740 748 690 
f 737 693 691 
f 735 737 691 
f 756 735 691 
f 745 756 691 
f 692 694 736 
f 757 692 736 
f 757 746 692 
f 737 823 693 
f 694 738 736 
f 696 1185 695 
f 697 927 696 
f 696 927 1185 
f 698 881 697 
f 697 881 927 
f 699 843 698 
f 698 843 881 
f 700 814 699 
f 699 814 843 
f 701 792 700 
f 700 792 814 
f 702 778 701 
f 701 778 792 
f 703 772 702 
f 702 772 778 
f 704 758 703 
f 703 758 772 
f 705 758 704 
f 706 751 705 
f 705 751 758 
f 707 752 706 
f 706 752 751 
f 708 753 707 
f 707 753 752 
f 709 763 708 
f 708 763 753 
f 710 777 709 
f 709 777 763 
f 711 783 710 
f 710 783 777 
f 712 797 711 
f 711 797 783 
f 713 819 712 
f 712 819 797 
f 714 848 713 
f 713 848 819 
f 715 886 714 
f 714 886 848 
f 716 932 715 
f 715 932 886 
f 716 1186 932 
f 880 717 718 
f 880 904 717 
f 904 938 717 
f 938 970 717 
f 970 1192 717 
f 1192 1195 717 
f 1195 1196 717 
f 866 867 718 
f 875 866 718 
f 867 868 718 
f 868 880 718 
f 899 875 718 
f 933 899 718 
f 965 933 718 
f 1191 965 718 
f 1194 1191 718 
f 1193 1194 718 
f 719 723 720 
f 719 720 726 
f 724 719 726 
f 723 725 720 
f 721 722 728 
f 729 722 721 
f 727 729 721 
f 722 730 728 
f 723 739 725 
f 724 726 742 
f 740 724 742 
f 739 741 725 
f 741 821 725 
f 745 729 727 
f 743 745 727 
f 822 743 727 
f 728 730 744 
f 730 746 744 
f 731 764 733 
f 820 764 731 
f 765 732 734 
f 786 747 733 
f 764 766 733 
f 766 786 733 
f 748 767 734 
f 767 765 734 
f 770 737 735 
f 756 791 735 
f 768 770 735 
f 791 768 735 
f 738 771 736 
f 769 757 736 
f 771 769 736 
f 770 823 737 
f 739 747 741 
f 740 742 750 
f 748 740 750 
f 747 749 741 
f 749 821 741 
f 756 745 743 
f 754 756 743 
f 822 754 743 
f 744 746 755 
f 746 757 755 
f 747 786 749 
f 787 748 750 
f 748 787 767 
f 786 788 749 
f 788 821 749 
f 789 787 750 
f 760 751 752 
f 869 758 751 
f 760 759 751 
f 759 870 751 
f 863 869 751 
f 870 863 751 
f 753 761 752 
f 864 760 752 
f 761 872 752 
f 872 864 752 
f 762 761 753 
f 873 762 753 
f 763 874 753 
f 865 873 753 
f 874 865 753 
f 791 756 754 
f 790 791 754 
f 822 790 754 
f 757 785 755 
f 785 784 755 
f 785 757 769 
f 893 772 758 
f 869 893 758 
f 773 759 760 
f 773 894 759 
f 894 870 759 
f 774 773 760 
f 895 774 760 
f 871 760 864 
f 871 895 760 
f 762 776 761 
f 776 775 761 
f 775 896 761 
f 896 872 761 
f 897 776 762 
f 873 897 762 
f 777 898 763 
f 898 874 763 
f 764 798 766 
f 820 798 764 
f 799 765 767 
f 766 806 786 
f 798 800 766 
f 800 806 766 
f 787 801 767 
f 801 799 767 
f 804 770 768 
f 812 768 791 
f 802 804 768 
f 812 802 768 
f 771 805 769 
f 803 785 769 
f 805 803 769 
f 804 823 770 
f 921 778 772 
f 893 921 772 
f 779 773 774 
f 779 922 773 
f 922 894 773 
f 780 779 774 
f 923 780 774 
f 895 923 774 
f 776 782 775 
f 782 781 775 
f 781 924 775 
f 924 896 775 
f 925 782 776 
f 897 925 776 
f 783 926 777 
f 926 898 777 
f 945 792 778 
f 921 945 778 
f 794 779 780 
f 794 793 779 
f 793 946 779 
f 946 922 779 
f 947 794 780 
f 923 947 780 
f 782 795 781 
f 795 948 781 
f 948 924 781 
f 796 795 782 
f 949 796 782 
f 925 949 782 
f 797 950 783 
f 950 926 783 
f 785 813 784 
f 813 811 784 
f 813 785 803 
f 786 806 788 
f 807 787 789 
f 787 807 801 
f 806 808 788 
f 808 821 788 
f 809 807 789 
f 812 791 790 
f 810 812 790 
f 822 810 790 
f 991 814 792 
f 945 991 792 
f 815 793 794 
f 815 992 793 
f 992 946 793 
f 816 815 794 
f 993 816 794 
f 947 993 794 
f 796 818 795 
f 818 817 795 
f 817 994 795 
f 994 948 795 
f 995 818 796 
f 949 995 796 
f 819 996 797 
f 996 950 797 
f 798 835 800 
f 820 835 798 
f 833 799 801 
f 800 838 806 
f 835 837 800 
f 837 838 800 
f 807 840 801 
f 836 833 801 
f 840 836 801 
f 855 804 802 
f 852 802 812 
f 852 851 802 
f 851 855 802 
f 805 834 803 
f 854 813 803 
f 834 856 803 
f 856 854 803 
f 855 823 804 
f 806 838 808 
f 839 807 809 
f 807 839 840 
f 841 821 808 
f 838 841 808 
f 842 839 809 
f 852 812 810 
f 822 849 810 
f 849 852 810 
f 813 853 811 
f 853 850 811 
f 853 813 854 
f 1021 843 814 
f 991 1021 814 
f 845 815 816 
f 845 844 815 
f 844 1022 815 
f 1022 992 815 
f 1025 845 816 
f 993 1025 816 
f 818 847 817 
f 847 846 817 
f 846 1026 817 
f 1026 994 817 
f 1029 847 818 
f 995 1029 818 
f 848 1030 819 
f 1030 996 819 
f 1188 820 821 
f 820 913 835 
f 820 983 913 
f 820 1040 983 
f 1040 820 1078 
f 1078 820 1098 
f 820 1187 1098 
f 1188 1187 820 
f 907 821 841 
f 953 821 907 
f 1005 821 953 
f 821 1005 1034 
f 821 1034 1194 
f 1188 821 1194 
f 823 1189 822 
f 822 909 849 
f 822 955 909 
f 822 1010 955 
f 1010 822 1036 
f 1036 822 1195 
f 822 1189 1195 
f 919 823 855 
f 989 823 919 
f 1046 823 989 
f 823 1046 1084 
f 823 1084 1096 
f 1190 823 1096 
f 1190 1189 823 
f 827 863 824 
f 875 827 824 
f 863 828 824 
f 828 876 824 
f 866 875 824 
f 876 866 824 
f 829 864 825 
f 877 829 825 
f 864 830 825 
f 830 867 825 
f 867 877 825 
f 831 865 826 
f 879 831 826 
f 865 832 826 
f 832 880 826 
f 868 879 826 
f 880 868 826 
f 857 869 827 
f 899 857 827 
f 869 863 827 
f 875 899 827 
f 870 858 828 
f 858 900 828 
f 863 870 828 
f 900 876 828 
f 859 871 829 
f 901 859 829 
f 871 864 829 
f 877 901 829 
f 872 860 830 
f 860 902 830 
f 864 872 830 
f 830 878 867 
f 902 878 830 
f 861 873 831 
f 903 861 831 
f 873 865 831 
f 879 903 831 
f 874 862 832 
f 862 904 832 
f 865 874 832 
f 904 880 832 
f 835 913 837 
f 914 836 840 
f 914 1193 836 
f 837 905 838 
f 837 915 905 
f 913 915 837 
f 838 905 841 
f 839 916 840 
f 906 839 842 
f 906 916 839 
f 916 914 840 
f 905 907 841 
f 908 906 842 
f 1066 881 843 
f 1021 1066 843 
f 883 844 845 
f 883 882 844 
f 882 1067 844 
f 1067 1022 844 
f 1068 883 845 
f 1025 1068 845 
f 847 885 846 
f 885 884 846 
f 884 1069 846 
f 1069 1026 846 
f 1070 885 847 
f 1029 1070 847 
f 886 1071 848 
f 1071 1030 848 
f 911 852 849 
f 909 911 849 
f 853 912 850 
f 912 910 850 
f 911 851 852 
f 919 855 851 
f 917 851 911 
f 917 919 851 
f 918 853 854 
f 918 912 853 
f 856 920 854 
f 920 918 854 
f 1196 920 856 
f 893 869 857 
f 887 893 857 
f 933 887 857 
f 899 933 857 
f 870 894 858 
f 894 888 858 
f 888 934 858 
f 934 900 858 
f 895 871 859 
f 889 895 859 
f 935 889 859 
f 901 935 859 
f 872 896 860 
f 896 890 860 
f 890 936 860 
f 936 902 860 
f 897 873 861 
f 891 897 861 
f 937 891 861 
f 903 937 861 
f 874 898 862 
f 898 892 862 
f 892 938 862 
f 938 904 862 
f 866 877 867 
f 876 877 866 
f 878 868 867 
f 878 879 868 
f 876 900 877 
f 900 901 877 
f 903 879 878 
f 902 903 878 
f 1086 927 881 
f 1066 1086 881 
f 929 882 883 
f 929 928 882 
f 928 1087 882 
f 1087 1067 882 
f 1088 929 883 
f 1068 1088 883 
f 885 930 884 
f 930 1089 884 
f 1089 1069 884 
f 931 930 885 
f 1090 931 885 
f 1070 1090 885 
f 932 1091 886 
f 1091 1071 886 
f 921 893 887 
f 939 921 887 
f 933 965 887 
f 965 939 887 
f 894 922 888 
f 922 946 888 
f 966 934 888 
f 946 940 888 
f 940 966 888 
f 923 895 889 
f 941 923 889 
f 935 967 889 
f 967 941 889 
f 896 924 890 
f 924 948 890 
f 968 936 890 
f 948 942 890 
f 942 968 890 
f 925 897 891 
f 949 925 891 
f 937 969 891 
f 943 949 891 
f 969 943 891 
f 898 926 892 
f 926 944 892 
f 970 938 892 
f 944 970 892 
f 900 934 901 
f 934 935 901 
f 937 903 902 
f 936 937 902 
f 905 951 907 
f 915 951 905 
f 952 906 908 
f 906 986 916 
f 952 986 906 
f 951 953 907 
f 954 952 908 
f 1185 954 908 
f 957 911 909 
f 955 957 909 
f 912 958 910 
f 958 956 910 
f 956 1186 910 
f 957 917 911 
f 988 912 918 
f 988 958 912 
f 913 983 915 
f 984 914 916 
f 984 1193 914 
f 915 985 951 
f 983 985 915 
f 986 984 916 
f 989 919 917 
f 987 917 957 
f 987 989 917 
f 920 990 918 
f 990 988 918 
f 1196 990 920 
f 939 945 921 
f 941 947 923 
f 950 944 926 
f 1116 959 927 
f 959 1185 927 
f 1086 1116 927 
f 960 928 929 
f 960 1117 928 
f 1117 1087 928 
f 961 960 929 
f 1118 961 929 
f 1088 1118 929 
f 931 963 930 
f 963 962 930 
f 962 1119 930 
f 1119 1089 930 
f 1120 963 931 
f 1090 1120 931 
f 964 1121 932 
f 1186 964 932 
f 1121 1091 932 
f 934 967 935 
f 966 967 934 
f 968 937 936 
f 968 969 937 
f 977 945 939 
f 965 1014 939 
f 1014 977 939 
f 946 992 940 
f 1015 966 940 
f 992 978 940 
f 978 1015 940 
f 979 947 941 
f 967 1016 941 
f 1016 979 941 
f 948 994 942 
f 1017 968 942 
f 994 980 942 
f 980 1017 942 
f 995 949 943 
f 969 1018 943 
f 981 995 943 
f 1018 981 943 
f 950 982 944 
f 1019 970 944 
f 982 1019 944 
f 977 991 945 
f 979 993 947 
f 996 982 950 
f 951 1003 953 
f 985 1003 951 
f 1004 952 954 
f 952 1043 986 
f 1004 1043 952 
f 1003 1005 953 
f 1006 1004 954 
f 1185 1006 954 
f 1012 957 955 
f 1010 1012 955 
f 958 1013 956 
f 1013 1011 956 
f 1011 1186 956 
f 1012 987 957 
f 1045 958 988 
f 1045 1013 958 
f 1128 971 959 
f 971 1185 959 
f 1116 1128 959 
f 973 960 961 
f 973 972 960 
f 972 1129 960 
f 1129 1117 960 
f 1130 973 961 
f 1118 1130 961 
f 963 974 962 
f 974 1131 962 
f 1131 1119 962 
f 975 974 963 
f 1132 975 963 
f 1120 1132 963 
f 976 1133 964 
f 1186 976 964 
f 1133 1121 964 
f 1191 1014 965 
f 966 1015 967 
f 1015 1016 967 
f 1017 969 968 
f 1017 1018 969 
f 1019 1192 970 
f 1140 997 971 
f 997 1185 971 
f 1128 1140 971 
f 999 972 973 
f 999 998 972 
f 998 1141 972 
f 1141 1129 972 
f 1142 999 973 
f 1130 1142 973 
f 975 1000 974 
f 1000 1143 974 
f 1143 1131 974 
f 1001 1000 975 
f 1144 1001 975 
f 1132 1144 975 
f 1002 1145 976 
f 1186 1002 976 
f 1145 1133 976 
f 1020 991 977 
f 1014 1060 977 
f 1060 1020 977 
f 992 1022 978 
f 1061 1015 978 
f 1022 1023 978 
f 1023 1061 978 
f 1024 993 979 
f 1016 1062 979 
f 1062 1024 979 
f 994 1026 980 
f 1063 1017 980 
f 1026 1027 980 
f 1027 1063 980 
f 1029 995 981 
f 1018 1064 981 
f 1028 1029 981 
f 1064 1028 981 
f 996 1031 982 
f 1065 1019 982 
f 1031 1065 982 
f 983 1040 985 
f 1041 984 986 
f 1041 1193 984 
f 985 1042 1003 
f 1040 1042 985 
f 1043 1041 986 
f 1046 989 987 
f 1044 987 1012 
f 1044 1046 987 
f 990 1047 988 
f 1047 1045 988 
f 1196 1047 990 
f 1020 1021 991 
f 1024 1025 993 
f 1030 1031 996 
f 1146 1007 997 
f 1007 1185 997 
f 1140 1146 997 
f 1007 998 999 
f 1007 1146 998 
f 1146 1141 998 
f 1008 1007 999 
f 1147 1008 999 
f 1142 1147 999 
f 1001 1009 1000 
f 1009 1008 1000 
f 1008 1147 1000 
f 1147 1143 1000 
f 1148 1009 1001 
f 1144 1148 1001 
f 1009 1148 1002 
f 1185 1009 1002 
f 1148 1145 1002 
f 1186 1185 1002 
f 1005 1003 1034 
f 1003 1032 1034 
f 1003 1042 1032 
f 1033 1004 1006 
f 1033 1081 1004 
f 1081 1043 1004 
f 1035 1033 1006 
f 1185 1035 1006 
f 1185 1007 1008 
f 1009 1185 1008 
f 1012 1010 1036 
f 1013 1039 1011 
f 1039 1037 1011 
f 1037 1186 1011 
f 1038 1012 1036 
f 1044 1012 1038 
f 1083 1039 1013 
f 1045 1083 1013 
f 1191 1060 1014 
f 1015 1061 1016 
f 1061 1062 1016 
f 1063 1018 1017 
f 1063 1064 1018 
f 1065 1192 1019 
f 1020 1072 1021 
f 1060 1100 1020 
f 1100 1072 1020 
f 1072 1066 1021 
f 1022 1067 1023 
f 1101 1061 1023 
f 1067 1073 1023 
f 1073 1101 1023 
f 1024 1074 1025 
f 1062 1102 1024 
f 1102 1074 1024 
f 1074 1068 1025 
f 1069 1027 1026 
f 1103 1063 1027 
f 1069 1075 1027 
f 1075 1103 1027 
f 1070 1029 1028 
f 1064 1104 1028 
f 1076 1070 1028 
f 1104 1076 1028 
f 1077 1031 1030 
f 1071 1077 1030 
f 1105 1065 1031 
f 1077 1105 1031 
f 1034 1032 1050 
f 1042 1080 1032 
f 1032 1048 1050 
f 1032 1080 1048 
f 1049 1033 1035 
f 1049 1093 1033 
f 1093 1081 1033 
f 1034 1050 1191 
f 1194 1034 1191 
f 1051 1049 1035 
f 1185 1051 1035 
f 1038 1036 1052 
f 1052 1036 1192 
f 1036 1195 1192 
f 1039 1055 1037 
f 1055 1053 1037 
f 1053 1186 1037 
f 1082 1044 1038 
f 1054 1038 1052 
f 1082 1038 1054 
f 1095 1055 1039 
f 1083 1095 1039 
f 1042 1040 1080 
f 1040 1078 1080 
f 1079 1041 1043 
f 1079 1193 1041 
f 1081 1079 1043 
f 1046 1044 1082 
f 1047 1085 1045 
f 1085 1083 1045 
f 1084 1046 1082 
f 1196 1085 1047 
f 1050 1048 1057 
f 1048 1056 1057 
f 1048 1099 1056 
f 1080 1099 1048 
f 1056 1049 1051 
f 1056 1107 1049 
f 1107 1093 1049 
f 1050 1057 1185 
f 1191 1050 1185 
f 1057 1056 1051 
f 1057 1051 1185 
f 1054 1052 1058 
f 1058 1052 1186 
f 1052 1192 1186 
f 1055 1059 1053 
f 1059 1058 1053 
f 1053 1058 1186 
f 1059 1054 1058 
f 1094 1054 1059 
f 1094 1082 1054 
f 1108 1059 1055 
f 1095 1108 1055 
f 1099 1107 1056 
f 1108 1094 1059 
f 1191 1100 1060 
f 1061 1101 1062 
f 1101 1102 1062 
f 1103 1064 1063 
f 1103 1104 1064 
f 1105 1192 1065 
f 1072 1110 1066 
f 1110 1086 1066 
f 1087 1073 1067 
f 1074 1112 1068 
f 1112 1088 1068 
f 1089 1075 1069 
f 1076 1090 1070 
f 1115 1077 1071 
f 1091 1115 1071 
f 1100 1122 1072 
f 1122 1110 1072 
f 1087 1111 1073 
f 1123 1101 1073 
f 1111 1123 1073 
f 1102 1124 1074 
f 1124 1112 1074 
f 1089 1113 1075 
f 1125 1103 1075 
f 1113 1125 1075 
f 1114 1090 1076 
f 1104 1126 1076 
f 1126 1114 1076 
f 1127 1105 1077 
f 1115 1127 1077 
f 1080 1078 1099 
f 1078 1098 1099 
f 1092 1079 1081 
f 1092 1193 1079 
f 1093 1092 1081 
f 1084 1082 1094 
f 1085 1097 1083 
f 1097 1095 1083 
f 1096 1084 1094 
f 1196 1097 1085 
f 1110 1134 1086 
f 1134 1116 1086 
f 1117 1111 1087 
f 1112 1136 1088 
f 1136 1118 1088 
f 1119 1113 1089 
f 1114 1120 1090 
f 1139 1115 1091 
f 1121 1139 1091 
f 1106 1092 1093 
f 1092 1106 1193 
f 1107 1106 1093 
f 1096 1094 1108 
f 1097 1109 1095 
f 1109 1108 1095 
f 1109 1096 1108 
f 1096 1109 1196 
f 1190 1096 1196 
f 1109 1097 1196 
f 1099 1098 1107 
f 1098 1106 1107 
f 1106 1098 1193 
f 1098 1187 1193 
f 1191 1122 1100 
f 1101 1123 1102 
f 1123 1124 1102 
f 1125 1104 1103 
f 1125 1126 1104 
f 1127 1192 1105 
f 1122 1155 1110 
f 1155 1134 1110 
f 1117 1135 1111 
f 1156 1123 1111 
f 1135 1156 1111 
f 1124 1157 1112 
f 1157 1136 1112 
f 1119 1137 1113 
f 1158 1125 1113 
f 1137 1158 1113 
f 1138 1120 1114 
f 1126 1159 1114 
f 1159 1138 1114 
f 1160 1127 1115 
f 1139 1160 1115 
f 1149 1128 1116 
f 1134 1149 1116 
f 1129 1135 1117 
f 1151 1130 1118 
f 1136 1151 1118 
f 1131 1137 1119 
f 1138 1132 1120 
f 1133 1154 1121 
f 1154 1139 1121 
f 1191 1155 1122 
f 1123 1156 1124 
f 1156 1157 1124 
f 1159 1126 1125 
f 1158 1159 1125 
f 1160 1192 1127 
f 1161 1140 1128 
f 1149 1161 1128 
f 1150 1135 1129 
f 1141 1150 1129 
f 1163 1142 1130 
f 1151 1163 1130 
f 1152 1137 1131 
f 1143 1152 1131 
f 1138 1153 1132 
f 1153 1144 1132 
f 1145 1166 1133 
f 1166 1154 1133 
f 1170 1149 1134 
f 1155 1170 1134 
f 1150 1171 1135 
f 1171 1156 1135 
f 1172 1151 1136 
f 1157 1172 1136 
f 1152 1173 1137 
f 1173 1158 1137 
f 1174 1153 1138 
f 1159 1174 1138 
f 1154 1175 1139 
f 1175 1160 1139 
f 1167 1146 1140 
f 1161 1167 1140 
f 1146 1162 1141 
f 1162 1150 1141 
f 1168 1147 1142 
f 1163 1168 1142 
f 1147 1164 1143 
f 1164 1152 1143 
f 1165 1148 1144 
f 1153 1165 1144 
f 1148 1169 1145 
f 1169 1166 1145 
f 1167 1162 1146 
f 1168 1164 1147 
f 1165 1169 1148 
f 1176 1161 1149 
f 1170 1176 1149 
f 1162 1177 1150 
f 1177 1171 1150 
f 1178 1163 1151 
f 1172 1178 1151 
f 1164 1179 1152 
f 1179 1173 1152 
f 1180 1165 1153 
f 1174 1180 1153 
f 1166 1181 1154 
f 1181 1175 1154 
f 1191 1170 1155 
f 1156 1172 1157 
f 1171 1172 1156 
f 1173 1159 1158 
f 1173 1174 1159 
f 1175 1192 1160 
f 1182 1167 1161 
f 1176 1182 1161 
f 1167 1182 1162 
f 1182 1177 1162 
f 1183 1168 1163 
f 1178 1183 1163 
f 1168 1179 1164 
f 1184 1169 1165 
f 1180 1184 1165 
f 1169 1184 1166 
f 1184 1181 1166 
f 1168 1183 1179 
f 1191 1176 1170 
f 1171 1178 1172 
f 1177 1178 1171 
f 1179 1174 1173 
f 1179 1180 1174 
f 1181 1192 1175 
f 1191 1182 1176 
f 1177 1182 1178 
f 1182 1183 1178 
f 1184 1180 1179 
f 1183 1184 1179 
f 1184 1191 1181 
f 1191 1192 1181 
f 1182 1191 1183 
f 1191 1184 1183 
f 1192 1185 1186 
f 1192 1191 1185 
f 1187 1188 1193 
f 1193 1188 1194 
f 1189 1190 1196 
f 1189 1196 1195 


