v -0.047866 0.027594 -0.012624
v -0.047861 0.027605 -0.012607
v -0.046088 0.023203 -0.022525
v -0.046042 0.029608 -0.010830
v -0.045792 0.025761 -0.018144
v -0.045611 0.016840 -0.016638
v -0.045205 0.025537 -0.010047
v -0.045146 0.022948 -0.023974
v -0.043306 0.018131 -0.022220
v -0.042826 0.012251 -0.007836
v -0.042447 0.011923 -0.007388
v -0.042437 0.011847 -0.007460
v -0.042366 0.011891 -0.007390
v -0.042362 0.011924 -0.007475
v -0.042357 0.015203 -0.021318
v -0.041791 0.034301 -0.006650
v -0.041754 0.034343 -0.006613
v -0.041737 0.034258 -0.006597
v -0.041663 0.034443 -0.006524
v -0.041049 0.016369 -0.020034
v -0.040823 0.023061 -0.028268
v -0.040052 0.036224 -0.004935
v -0.040051 0.036225 -0.004934
v -0.040050 0.036224 -0.004938
v -0.038939 0.020645 -0.003980
v -0.038158 0.023015 -0.031127
v -0.037235 0.037918 -0.002167
v -0.037106 0.010914 -0.030199
v -0.036621 0.018418 -0.029665
v -0.035489 0.029367 -0.000510
v -0.034931 0.008235 -0.034606
v -0.034151 0.039766 0.000840
v -0.034048 0.023043 -0.035354
v -0.033935 0.016321 -0.027065
v -0.032545 0.040730 0.002412
v -0.032117 0.020308 -0.011297
v -0.032002 0.038089 0.002920
v -0.031893 0.008804 -0.039099
v -0.031519 0.007471 -0.038745
v -0.031261 0.020157 -0.010465
v -0.031222 0.023025 -0.038330
v -0.030810 0.007959 -0.038051
v -0.030453 0.041986 0.004462
v -0.029806 0.018604 -0.036986
v -0.029387 0.024474 0.005725
v -0.029333 0.024152 0.005409
v -0.029083 0.024381 0.005655
v -0.027870 0.043541 0.007006
v -0.027207 0.023003 -0.042551
v -0.026862 0.016306 -0.034136
v -0.025875 0.044735 0.008945
v -0.025768 0.033197 0.009020
v -0.025509 0.023011 -0.044305
v -0.025308 0.009169 -0.046642
v -0.025109 0.020437 -0.018431
v -0.024707 0.007109 -0.046073
v -0.024340 0.020260 -0.017683
v -0.024303 0.023016 -0.045551
v -0.024228 0.019497 -0.003616
v -0.023470 0.007735 -0.044863
v -0.023179 0.046353 0.011585
v -0.022871 0.018696 -0.044190
v -0.022268 0.041919 0.012437
v -0.020278 0.022985 -0.049800
v -0.019746 0.016256 -0.041165
v -0.019667 0.028305 0.015256
v -0.019667 0.048462 0.015025
v -0.019651 0.022524 0.000868
v -0.019541 0.028127 0.014984
v -0.019378 0.028234 0.015144
v -0.018497 0.049164 0.016171
v -0.018134 0.020484 -0.025596
v -0.017879 0.022460 -0.053259
v -0.017493 0.020003 -0.052902
v -0.017351 0.020311 -0.024835
v -0.017316 0.008436 -0.052823
v -0.017271 0.008314 -0.052780
v -0.017249 0.019555 -0.010778
v -0.017234 0.049419 0.017403
v -0.017106 0.008382 -0.052897
v -0.016005 0.037028 0.018507
v -0.014845 0.023489 -0.054532
v -0.013445 0.050183 0.021102
v -0.013296 0.026339 0.007092
v -0.012672 0.022581 -0.006293
v -0.012643 0.003475 -0.044980
v -0.012534 0.045750 0.021954
v -0.012125 0.000607 -0.047827
v -0.011375 0.027493 0.008973
v -0.011325 0.023699 -0.057812
v -0.011178 0.020484 -0.032781
v -0.010538 0.050770 0.023940
v -0.010269 0.019612 -0.017939
v -0.010170 0.021454 -0.056704
v -0.009941 0.032135 0.024782
v -0.009790 0.012192 -0.040898
v -0.009789 0.032004 0.024519
v -0.009604 0.032033 0.024699
v -0.009151 0.019474 -0.055727
v -0.008946 0.018174 -0.055538
v -0.008802 0.017536 -0.055402
v -0.008779 0.015953 -0.055393
v -0.008778 0.015987 -0.055392
v -0.008682 0.015756 -0.055300
v -0.008395 0.051202 0.026034
v -0.007755 0.003516 -0.049995
v -0.007539 0.013425 -0.054205
v -0.006962 0.015966 -0.024295
v -0.006823 0.016399 -0.022193
v -0.006555 0.011175 -0.053264
v -0.006317 0.026397 -0.000069
v -0.006272 0.040859 0.028026
v -0.006254 -0.001415 -0.039039
v -0.005924 -0.004448 -0.041824
v -0.005693 0.022639 -0.013455
v -0.005600 0.051766 0.028760
v -0.005261 0.014712 -0.027062
v -0.004414 0.006279 -0.051217
v -0.004396 0.027550 0.001812
v -0.003522 0.014779 -0.020374
v -0.003480 0.007301 -0.034876
v -0.003375 0.030641 0.016796
v -0.003343 0.052221 0.030963
v -0.003193 0.015300 -0.020014
v -0.003157 0.015070 -0.020050
v -0.003100 0.014704 -0.020107
v -0.002868 0.015300 -0.019793
v -0.002800 0.049580 0.031471
v -0.002444 0.014007 -0.020763
v -0.001984 0.013605 -0.021223
v -0.001812 0.002361 -0.048713
v -0.001688 0.015300 -0.018991
v -0.001611 0.052571 0.032654
v -0.001338 0.001648 -0.048256
v -0.001303 0.031059 0.018818
v -0.001275 0.015300 -0.018710
v -0.001028 0.012769 -0.022179
v -0.000785 0.012605 -0.022422
v -0.000785 0.015300 -0.022422
v -0.000339 0.015300 -0.018074
v -0.000322 -0.001366 -0.045126
v -0.000272 0.012362 -0.021909
v -0.000193 0.035966 0.034285
v -0.000094 -0.006307 -0.032863
v -0.000070 0.035796 0.034021
v -0.000042 -0.010305 -0.036139
v -0.000006 0.012261 -0.021643
v 0.000074 0.012263 -0.021563
v 0.000233 0.012090 -0.021729
v 0.000234 0.035783 0.034317
v 0.000319 0.036557 -0.046361
v 0.000662 0.026454 -0.007231
v 0.000805 -0.022644 -0.021449
v 0.001050 -0.000629 -0.045948
v 0.001062 -0.031334 -0.021269
v 0.001600 0.012294 -0.020037
v 0.001648 -0.019929 -0.029162
v 0.001708 0.053241 0.035894
v 0.001716 0.012373 -0.019921
v 0.001911 0.012102 -0.020092
v 0.001935 -0.002274 -0.045098
v 0.001947 0.011096 -0.020940
v 0.001982 0.012735 -0.019655
v 0.002142 -0.018182 -0.034075
v 0.002167 0.012240 -0.019470
v 0.002270 0.015300 -0.017884
v 0.002288 0.010485 -0.019738
v 0.002358 -0.024866 -0.017393
v 0.002413 0.015300 -0.017571
v 0.002522 0.011291 -0.019116
v 0.002583 0.027608 -0.005350
v 0.002754 0.002410 -0.028776
v 0.002774 0.019796 -0.014780
v 0.002877 0.009864 -0.018760
v 0.002984 -0.004397 -0.044093
v 0.003074 -0.035844 -0.019345
v 0.003392 -0.011222 -0.023942
v 0.003466 0.044689 0.037538
v 0.003556 -0.021908 -0.032727
v 0.003597 -0.005604 -0.043506
v 0.003605 0.030698 0.009634
v 0.003903 -0.015300 -0.017734
v 0.003917 -0.013645 -0.018344
v 0.003960 0.015300 -0.014183
v 0.004048 0.007286 -0.017589
v 0.004211 0.006927 -0.017426
v 0.004273 -0.014174 -0.017364
v 0.004545 0.006191 -0.017092
v 0.004670 -0.007717 -0.042477
v 0.004752 0.053855 0.038865
v 0.005031 -0.015300 -0.015278
v 0.005035 -0.012242 -0.016602
v 0.005035 -0.012240 -0.016603
v 0.005036 -0.012240 -0.016601
v 0.005478 -0.015300 -0.014337
v 0.005553 0.032442 0.025510
v 0.005600 -0.016146 -0.013711
v 0.005677 0.031116 0.011657
v 0.005732 -0.015300 -0.013802
v 0.005751 -0.040192 -0.016771
v 0.005860 -0.038474 -0.015498
v 0.005936 -0.015300 -0.013376
v 0.005940 -0.008981 -0.041250
v 0.006062 0.001891 -0.016129
v 0.006120 0.002725 -0.015517
v 0.006259 0.015300 -0.012279
v 0.006273 -0.015300 -0.013048
v 0.006292 0.001857 -0.015345
v 0.006643 0.000090 -0.014994
v 0.006802 0.053514 0.040860
v 0.006820 -0.002500 -0.020452
v 0.006917 0.053495 0.040972
v 0.006934 0.053411 0.040988
v 0.006965 0.053487 0.041018
v 0.006974 -0.007327 -0.014664
v 0.007240 -0.033292 -0.029228
v 0.007352 -0.004897 -0.014927
v 0.007365 -0.019882 -0.035028
v 0.007443 -0.033749 -0.029034
v 0.007725 -0.005446 -0.013913
v 0.007837 0.010346 -0.013800
v 0.008175 0.012240 -0.013462
v 0.008398 -0.029760 -0.011094
v 0.008555 0.007344 -0.013082
v 0.008720 -0.014307 -0.038583
v 0.009183 0.015300 -0.009855
v 0.009595 -0.015983 -0.037744
v 0.009732 0.039798 0.043605
v 0.009806 -0.015300 -0.009605
v 0.009844 -0.012240 -0.011793
v 0.009846 -0.012240 -0.011791
v 0.009846 0.010473 -0.011791
v 0.009846 0.012240 -0.011791
v 0.009847 -0.012240 -0.011791
v 0.009847 -0.012237 -0.011791
v 0.009847 -0.012199 -0.011791
v 0.009882 0.015300 -0.009265
v 0.010066 -0.017683 -0.037299
v 0.010392 -0.018433 -0.036986
v 0.010584 0.030756 0.002472
v 0.010590 0.015300 -0.008553
v 0.010595 0.033200 0.030430
v 0.010616 0.014226 -0.008579
v 0.010619 0.013577 -0.008582
v 0.010631 0.010567 -0.008594
v 0.010687 -0.015300 -0.008747
v 0.010687 -0.003352 -0.008650
v 0.010691 0.002759 -0.008654
v 0.010709 -0.008705 -0.008672
v 0.010736 -0.015300 -0.008699
v 0.010878 -0.047947 -0.011836
v 0.011326 -0.043372 -0.008610
v 0.011799 -0.042476 -0.024858
v 0.011837 -0.015300 -0.009800
v 0.011837 0.015300 -0.009800
v 0.011864 -0.021454 -0.035577
v 0.011866 -0.021038 -0.007644
v 0.012363 0.052591 0.046272
v 0.012532 0.032499 0.018348
v 0.012536 0.001297 -0.006812
v 0.012656 0.031174 0.004495
v 0.012977 0.023631 -0.005744
v 0.013007 -0.024666 -0.034489
v 0.013200 0.048520 0.047055
v 0.013555 0.007273 0.018677
v 0.013676 -0.026368 -0.033850
v 0.014170 -0.027893 -0.033381
v 0.014351 0.033918 0.034096
v 0.014471 -0.028825 -0.033095
v 0.014664 -0.034651 -0.005027
v 0.014667 0.052209 0.048515
v 0.015334 -0.012316 -0.004194
v 0.015803 0.034905 0.049873
v 0.015943 0.034769 0.049618
v 0.016004 0.010019 -0.003362
v 0.016100 -0.055466 -0.006808
v 0.016693 0.034364 0.050345
v 0.016905 -0.050286 -0.019945
v 0.017462 -0.048264 -0.002409
v 0.017574 0.033258 0.023269
v 0.017603 -0.038377 -0.027548
v 0.017756 0.003060 0.019438
v 0.017810 0.051687 0.051573
v 0.018132 -0.025929 -0.001577
v 0.018232 -0.035561 -0.029484
v 0.018276 -0.035660 -0.029442
v 0.018802 -0.003594 -0.000744
v 0.019285 -0.037368 -0.028472
v 0.019466 0.043628 0.053123
v 0.019472 0.018741 0.000088
v 0.019511 0.032557 0.011187
v 0.020359 -0.039172 -0.027440
v 0.020688 -0.002910 0.017496
v 0.020739 -0.039811 -0.027075
v 0.020883 -0.007648 0.013823
v 0.020930 -0.039542 0.001040
v 0.021118 0.033443 0.026723
v 0.021360 -0.041659 -0.026484
v 0.021600 -0.017207 0.001873
v 0.021841 0.032107 0.041381
v 0.021872 0.049497 -0.025253
v 0.022243 0.027457 0.004254
v 0.022270 0.005128 0.002705
v 0.022370 0.050930 0.056011
v 0.022677 -0.056418 -0.014369
v 0.022749 -0.044851 -0.025157
v 0.023229 0.000600 0.022903
v 0.023257 0.050783 0.056874
v 0.023851 -0.046536 -0.024096
v 0.024229 -0.055671 0.001113
v 0.024268 -0.053151 0.003104
v 0.024398 -0.030820 0.004490
v 0.024554 0.033316 0.016107
v 0.025068 -0.008485 0.005323
v 0.025097 -0.047859 -0.022893
v 0.025397 0.050428 0.058957
v 0.025732 0.038737 0.059190
v 0.025739 0.013850 0.006155
v 0.025793 0.017265 0.006440
v 0.026054 -0.050791 -0.021984
v 0.026075 0.014695 0.006489
v 0.026153 0.013526 0.006556
v 0.026323 0.011010 0.006701
v 0.026815 0.003685 0.007123
v 0.026859 0.016666 0.007269
v 0.026965 0.001464 0.007251
v 0.027076 -0.000190 0.007346
v 0.027188 -0.001853 0.007442
v 0.027196 -0.044434 0.007108
v 0.027229 -0.002466 0.007477
v 0.027234 0.001124 0.027337
v 0.027666 -0.001953 0.007907
v 0.027866 -0.022099 0.007940
v 0.027933 0.031095 0.047310
v 0.028000 -0.056752 -0.020135
v 0.028097 0.033500 0.019562
v 0.028112 0.049977 0.061599
v 0.028432 0.011777 0.008763
v 0.028434 0.011746 0.008765
v 0.028521 0.010447 0.008839
v 0.028730 -0.000703 0.008954
v 0.028757 0.049618 0.062224
v 0.028820 0.032164 0.034219
v 0.028845 0.005640 0.009116
v 0.028965 0.003848 0.009219
v 0.029025 0.015129 0.009368
v 0.029134 -0.000229 0.009351
v 0.029183 -0.000171 0.009399
v 0.029201 0.047459 0.062640
v 0.029207 0.022572 0.009605
v 0.029211 0.011224 0.009518
v 0.029520 0.004500 0.009765
v 0.029656 0.031109 0.048988
v 0.029823 0.049024 0.063259
v 0.029828 -0.056610 -0.018352
v 0.030388 0.010388 0.010658
v 0.030447 0.005590 0.010677
v 0.030664 -0.035712 0.010558
v 0.030853 -0.057529 0.007552
v 0.030857 0.006071 0.011080
v 0.030866 0.031279 0.014911
v 0.031029 0.013706 0.011309
v 0.031149 -0.055762 -0.006108
v 0.031335 -0.013377 0.011390
v 0.031722 -0.057476 0.008400
v 0.031937 0.009289 0.012158
v 0.031999 0.033845 0.065257
v 0.032005 0.008958 0.012222
v 0.032093 0.009179 0.012309
v 0.032260 0.007719 0.012460
v 0.032792 0.008344 0.012984
v 0.032968 0.004274 0.013123
v 0.032971 0.008555 0.013161
v 0.033263 0.012121 0.013473
v 0.033480 -0.049325 0.013157
v 0.034133 -0.026990 0.014007
v 0.034697 0.046310 0.067987
v 0.034803 -0.004655 0.014840
v 0.034912 0.031153 0.040148
v 0.034979 0.006637 0.015102
v 0.035314 0.010664 0.015461
v 0.035467 0.042567 0.068707
v 0.035473 0.017680 0.015672
v 0.035698 0.007482 0.015810
v 0.035800 0.032222 0.027058
v 0.036089 -0.057058 -0.012255
v 0.036311 0.009957 0.016427
v 0.036523 0.030885 0.041715
v 0.036546 0.045281 0.069780
v 0.036780 0.028375 0.055909
v 0.036931 -0.040603 0.016625
v 0.037188 0.009334 0.017277
v 0.037205 0.009252 0.017293
v 0.037242 0.009296 0.017329
v 0.037601 -0.018268 0.017457
v 0.037719 -0.057383 0.000281
v 0.038036 -0.051707 0.014599
v 0.038265 0.028954 0.071324
v 0.038271 0.004067 0.018290
v 0.038648 0.026400 0.019423
v 0.038878 -0.056976 0.001414
v 0.039993 0.028860 -0.007760
v 0.039993 0.028859 -0.007760
v 0.039993 0.028860 -0.007760
v 0.040127 -0.057620 -0.008324
v 0.040399 -0.031881 0.020075
v 0.040638 0.043002 0.073750
v 0.040677 -0.057959 -0.001237
v 0.040833 0.016377 -0.007042
v 0.040833 0.016377 -0.007042
v 0.041021 0.013583 -0.006881
v 0.041069 -0.009546 0.020907
v 0.041296 0.009491 -0.006646
v 0.041326 0.009044 -0.006620
v 0.041326 0.009044 -0.006620
v 0.041733 0.037676 0.074774
v 0.041739 0.012789 0.021739
v 0.041892 0.031210 0.032987
v 0.042191 -0.057907 -0.006315
v 0.042307 0.021251 -0.005565
v 0.042529 0.023287 -0.005333
v 0.042529 0.023287 -0.005333
v 0.042704 0.020682 -0.005184
v 0.043040 0.022924 -0.004838
v 0.043268 0.041538 0.076301
v 0.043406 0.024389 0.062334
v 0.043491 -0.044537 0.019974
v 0.043502 0.030943 0.034554
v 0.043508 0.027802 0.048498
v 0.043571 -0.050522 0.006039
v 0.043795 -0.058327 -0.004755
v 0.043867 -0.023159 0.023524
v 0.044236 -0.058153 -0.004324
v 0.044362 -0.057969 -0.004199
v 0.044531 0.024063 0.077391
v 0.044537 -0.000824 0.024357
v 0.044800 0.016572 -0.003174
v 0.045090 0.030203 0.032318
v 0.045121 0.054187 -0.002558
v 0.045207 0.021511 0.025189
v 0.045366 0.022919 -0.002571
v 0.045375 -0.056576 -0.003201
v 0.045554 0.021140 -0.002403
v 0.045779 0.018550 -0.002204
v 0.045792 0.014896 -0.002220
v 0.046289 -0.041493 0.022724
v 0.046579 0.039694 0.079513
v 0.046696 0.024102 -0.001266
v 0.046696 0.024102 -0.001266
v 0.046696 0.024102 -0.001266
v 0.047068 0.020065 -0.000936
v 0.047068 0.020065 -0.000936
v 0.047068 0.020065 -0.000936
v 0.047068 0.020065 -0.000936
v 0.047335 -0.014438 0.026974
v 0.047620 0.016437 -0.000427
v 0.047620 0.016437 -0.000427
v 0.047620 0.016437 -0.000427
v 0.047665 -0.036764 0.025115
v 0.047777 0.023334 -0.000218
v 0.047963 0.021095 -0.000055
v 0.047999 0.032785 0.080841
v 0.048106 0.018401 0.000063
v 0.048333 -0.052693 -0.000287
v 0.048379 0.007901 0.027423
v 0.048928 0.017973 0.000860
v 0.049605 0.015300 0.029239
v 0.049609 -0.003596 0.026264
v 0.049657 -0.050956 0.001017
v 0.049722 0.012140 0.029121
v 0.049738 0.011729 0.029106
v 0.049739 -0.037985 0.026115
v 0.049968 -0.044087 0.012325
v 0.049974 0.020258 0.068702
v 0.049991 0.037794 0.082823
v 0.050231 0.024058 0.055019
v 0.050487 0.027860 0.041336
v 0.050620 -0.015300 0.028224
v 0.050658 -0.028046 0.029053
v 0.050719 0.006693 0.028125
v 0.050797 0.019171 0.083458
v 0.050815 -0.009462 0.027392
v 0.051005 0.015300 0.030676
v 0.051038 -0.049567 0.002373
v 0.051086 0.003111 0.027758
v 0.051143 -0.010747 0.027701
v 0.051409 -0.008648 0.027435
v 0.051473 0.016619 0.031256
v 0.051509 0.015300 0.030900
v 0.051576 -0.001979 0.027268
v 0.051708 0.015300 0.031021
v 0.051835 -0.004776 0.027009
v 0.052058 -0.015300 0.028713
v 0.052304 -0.015300 0.028797
v 0.052404 -0.015300 0.026440
v 0.052404 0.015300 0.026440
v 0.052838 0.034834 0.085574
v 0.052886 -0.017583 0.029346
v 0.053017 -0.015300 0.029009
v 0.053407 -0.041085 0.015701
v 0.053442 -0.023504 0.029840
v 0.053477 0.025329 0.036208
v 0.053546 -0.005683 0.027582
v 0.053552 -0.005712 0.027588
v 0.053562 -0.005756 0.027598
v 0.053566 -0.005693 0.027589
v 0.053636 -0.006077 0.027672
v 0.053778 0.015300 0.032274
v 0.054265 0.027893 0.086908
v 0.054958 0.000801 0.028994
v 0.055075 -0.030720 0.031373
v 0.055206 -0.010814 0.029242
v 0.055317 -0.015300 0.029665
v 0.055694 0.004079 0.029730
v 0.055800 0.031755 0.088436
v 0.055944 0.014622 0.074475
v 0.056047 -0.019309 0.030531
v 0.056295 -0.044708 0.007536
v 0.056693 -0.015300 0.030729
v 0.056953 0.020316 0.061541
v 0.056969 -0.038123 0.019196
v 0.057037 -0.044060 0.008264
v 0.057063 0.014280 0.089526
v 0.057210 0.024116 0.047857
v 0.057675 0.003034 0.030381
v 0.058027 -0.043187 0.009236
v 0.058048 0.015300 0.035937
v 0.059244 0.008641 0.033280
v 0.059528 0.027879 0.092038
v 0.060307 -0.010580 0.033168
v 0.060351 0.020443 0.041651
v 0.060385 0.015300 0.037471
v 0.060531 0.023002 0.092975
v 0.061444 0.006894 0.035480
v 0.061610 0.025716 0.094049
v 0.061848 0.008820 0.080182
v 0.062471 -0.039340 0.013598
v 0.062678 0.010006 0.036714
v 0.062763 0.014276 0.067153
v 0.063240 -0.038700 0.014353
v 0.063329 0.009389 0.095593
v 0.063631 -0.024189 0.035246
v 0.063842 -0.001858 0.036549
v 0.063932 0.020373 0.054379
v 0.064642 -0.032683 0.026717
v 0.064896 -0.037527 0.015976
v 0.064897 0.009562 0.038933
v 0.065053 -0.032447 0.027120
v 0.065478 -0.003718 0.097582
v 0.065516 -0.037070 0.016584
v 0.065955 -0.004226 0.098387
v 0.066076 -0.004353 0.098159
v 0.066110 0.015300 0.043411
v 0.066219 0.020925 0.098502
v 0.066552 -0.015472 0.039258
v 0.066797 0.018111 0.099043
v 0.066812 -0.032856 0.024974
v 0.067254 0.001765 0.085393
v 0.067301 0.006864 0.040008
v 0.067420 0.019676 0.099662
v 0.067692 0.009498 0.041728
v 0.067819 0.009379 0.041855
v 0.068150 -0.000298 0.086250
v 0.068344 0.015566 0.045947
v 0.068347 0.015300 0.045729
v 0.068481 0.050310 0.020175
v 0.068572 0.008237 0.072767
v 0.068590 0.015300 0.046372
v 0.068595 0.015300 0.048475
v 0.068898 0.018139 0.101090
v 0.069363 0.014465 0.047707
v 0.069549 0.004497 0.101707
v 0.069676 0.013130 0.047394
v 0.069699 0.013031 0.047371
v 0.069742 0.014333 0.059992
v 0.069994 -0.033741 0.020974
v 0.070011 -0.006750 0.042717
v 0.070414 0.010933 0.046656
v 0.070600 0.015142 0.102725
v 0.070814 -0.033184 0.021778
v 0.070904 -0.033134 0.021866
v 0.071374 0.006680 0.045696
v 0.071517 0.005901 0.045553
v 0.071517 0.015300 0.045553
v 0.071970 -0.007024 0.089918
v 0.072393 -0.009116 0.104277
v 0.072491 0.011799 0.104556
v 0.072837 -0.032297 0.023757
v 0.072884 0.010660 0.053786
v 0.073223 -0.020360 0.044909
v 0.073305 0.001970 0.046345
v 0.073497 0.006284 0.049624
v 0.073841 0.009436 0.105837
v 0.074012 -0.028568 0.035881
v 0.074120 0.001537 0.078119
v 0.074945 -0.028220 0.036794
v 0.075076 -0.022640 0.106784
v 0.075129 -0.022730 0.106958
v 0.075129 -0.000241 0.079088
v 0.075158 -0.022811 0.106862
v 0.075552 0.008294 0.065605
v 0.075861 -0.000394 0.107727
v 0.076178 -0.011642 0.048885
v 0.077005 -0.015012 0.094761
v 0.077328 0.003295 0.109186
v 0.078542 0.005764 0.060477
v 0.078552 -0.019847 0.096230
v 0.078647 -0.014007 0.110357
v 0.078949 -0.006967 0.082757
v 0.079332 -0.028404 0.030118
v 0.079534 -0.028329 0.030315
v 0.079634 -0.002920 0.052348
v 0.079825 0.001546 0.055752
v 0.080587 -0.027749 0.031346
v 0.080745 -0.026255 0.098316
v 0.081099 0.001595 0.070957
v 0.081401 -0.027761 0.112906
v 0.081428 -0.027621 0.112991
v 0.081526 -0.027674 0.113029
v 0.082085 -0.005082 0.113755
v 0.082109 -0.000183 0.071927
v 0.082122 -0.025230 0.048275
v 0.082127 -0.005285 0.113794
v 0.082158 -0.005209 0.113825
v 0.082260 -0.005389 0.113923
v 0.082314 -0.016535 0.055086
v 0.082557 -0.027251 0.033270
v 0.082686 0.000855 0.068721
v 0.083545 -0.007651 0.115157
v 0.083779 -0.015471 0.087395
v 0.084073 -0.025913 0.045708
v 0.084281 -0.019232 0.059928
v 0.084925 -0.018899 0.116412
v 0.084996 -0.025714 0.046609
v 0.085094 -0.035967 0.102476
v 0.085282 -0.007817 0.059049
v 0.085392 -0.025753 0.060958
v 0.085531 -0.019790 0.089068
v 0.085603 -0.004573 0.061333
v 0.085928 -0.006909 0.075595
v 0.086014 -0.021447 0.063786
v 0.086114 -0.015908 0.117595
v 0.086532 -0.025193 0.043749
v 0.086646 -0.009649 0.062309
v 0.087623 -0.020631 0.066313
v 0.087724 -0.021084 0.119123
v 0.087725 -0.026197 0.091154
v 0.088776 -0.012731 0.067960
v 0.088846 -0.024710 0.120201
v 0.088858 -0.024727 0.120199
v 0.088860 -0.024730 0.120199
v 0.088866 -0.024615 0.039438
v 0.089038 -0.024551 0.039607
v 0.090243 -0.024116 0.040785
v 0.090360 0.038127 0.041399
v 0.090681 -0.021117 0.069388
v 0.090758 -0.015413 0.080234
v 0.091771 -0.026298 0.118188
v 0.091964 -0.025230 0.067367
v 0.092293 -0.035357 0.095533
v 0.092510 -0.019732 0.081907
v 0.092868 -0.031023 0.110092
v 0.092996 -0.024125 0.054417
v 0.093443 -0.023100 0.073691
v 0.093526 -0.017635 0.075583
v 0.093941 -0.024902 0.069296
v 0.094191 -0.025307 0.074102
v 0.094374 -0.027454 0.116238
v 0.094704 -0.026140 0.083993
v 0.095192 -0.025999 0.079268
v 0.095954 -0.026082 0.076500
v 0.095964 -0.029281 0.113123
v 0.096861 -0.023547 0.058189
v 0.097082 -0.028668 0.114217
v 0.098495 -0.021604 0.048847
v 0.098519 -0.028629 0.112726
v 0.099246 -0.035367 0.088345
v 0.099361 -0.021337 0.050091
v 0.099478 -0.021272 0.049808
v 0.099598 -0.021238 0.049925
v 0.100351 -0.031358 0.103417
v 0.100991 -0.027822 0.076143
v 0.101219 -0.020943 0.051507
v 0.101509 -0.020890 0.051790
v 0.101908 -0.022360 0.063117
v 0.102743 -0.029726 0.105762
v 0.104130 -0.028830 0.107121
v 0.105836 -0.028915 0.105431
v 0.107537 -0.022463 0.073704
v 0.107666 -0.020552 0.068743
v 0.107724 -0.031608 0.096637
v 0.108733 -0.018917 0.058845
v 0.109178 -0.018775 0.059280
v 0.109210 -0.027263 0.084157
v 0.109254 -0.027391 0.084439
v 0.109267 0.018472 0.059666
v 0.109366 -0.030565 0.098246
v 0.109427 -0.027256 0.084369
v 0.110420 -0.018385 0.060494
v 0.111051 -0.020017 0.072046
v 0.111151 -0.018269 0.061207
v 0.111268 -0.029284 0.100110
v 0.113331 -0.029481 0.098124
v 0.117243 -0.028250 0.091978
v 0.117699 -0.017016 0.067599
v 0.117719 -0.028143 0.092823
v 0.117893 -0.028089 0.092613
v 0.118417 -0.027255 0.091566
v 0.119551 -0.016816 0.069405
v 0.119630 -0.019091 0.080414
v 0.120555 -0.019184 0.081315
v 0.120582 -0.018605 0.079823
v 0.121400 -0.020807 0.084567
v 0.122150 -0.019282 0.082868
v 0.122422 -0.016459 0.072205
v 0.122558 -0.016430 0.072339
v 0.122576 -0.018892 0.082193
v 0.123913 -0.007319 0.073733
v 0.126318 -0.015990 0.076007
v 0.126619 -0.016013 0.076300

f 1 2 4 
f 7 2 1 
f 4 53 1 
f 7 1 5 
f 1 53 5 
f 4 2 7 
f 6 5 3 
f 5 53 3 
f 6 3 9 
f 3 8 9 
f 21 8 3 
f 33 21 3 
f 53 33 3 
f 16 4 7 
f 16 53 4 
f 6 7 5 
f 6 10 7 
f 6 9 15 
f 10 6 15 
f 7 10 11 
f 7 11 25 
f 18 16 7 
f 18 7 25 
f 8 21 9 
f 28 15 9 
f 9 21 29 
f 29 28 9 
f 11 10 12 
f 10 15 12 
f 13 11 12 
f 11 13 25 
f 14 13 12 
f 14 12 15 
f 14 40 13 
f 13 40 25 
f 20 14 15 
f 20 36 14 
f 14 36 40 
f 34 20 15 
f 28 34 15 
f 17 16 18 
f 17 53 16 
f 19 17 18 
f 19 53 17 
f 19 18 22 
f 22 18 23 
f 27 23 18 
f 30 18 25 
f 27 18 30 
f 19 22 24 
f 24 53 19 
f 20 34 36 
f 21 26 29 
f 33 26 21 
f 24 22 23 
f 24 23 27 
f 24 27 32 
f 151 24 32 
f 53 24 90 
f 90 24 151 
f 25 45 30 
f 25 40 46 
f 25 46 45 
f 26 33 29 
f 37 27 30 
f 37 32 27 
f 31 28 29 
f 28 31 42 
f 28 42 34 
f 31 29 38 
f 29 33 44 
f 38 29 44 
f 37 30 45 
f 31 38 39 
f 42 31 39 
f 35 32 37 
f 151 32 35 
f 33 41 44 
f 53 41 33 
f 36 34 55 
f 34 42 50 
f 34 50 55 
f 43 35 37 
f 151 35 43 
f 57 40 36 
f 55 57 36 
f 48 43 37 
f 52 37 45 
f 48 37 52 
f 56 39 38 
f 54 38 44 
f 54 56 38 
f 60 42 39 
f 56 60 39 
f 46 40 59 
f 40 57 59 
f 41 49 44 
f 41 53 49 
f 60 50 42 
f 43 48 51 
f 151 43 51 
f 44 49 62 
f 62 54 44 
f 47 45 46 
f 47 66 45 
f 45 66 52 
f 68 47 46 
f 59 68 46 
f 47 69 66 
f 47 68 69 
f 63 51 48 
f 63 48 52 
f 62 49 53 
f 55 50 72 
f 65 50 60 
f 50 65 72 
f 61 51 63 
f 151 51 61 
f 63 52 66 
f 53 58 62 
f 82 58 53 
f 90 82 53 
f 77 56 54 
f 76 54 62 
f 76 77 54 
f 75 57 55 
f 72 75 55 
f 86 60 56 
f 88 56 77 
f 86 56 88 
f 59 57 78 
f 57 75 78 
f 58 64 62 
f 82 64 58 
f 85 68 59 
f 78 85 59 
f 65 60 96 
f 96 60 86 
f 67 61 63 
f 151 61 67 
f 62 64 74 
f 74 76 62 
f 81 63 66 
f 67 63 71 
f 71 63 81 
f 64 73 74 
f 82 73 64 
f 72 65 91 
f 91 65 96 
f 70 66 69 
f 70 95 66 
f 66 95 81 
f 151 67 71 
f 69 68 84 
f 68 85 84 
f 89 70 69 
f 84 89 69 
f 70 89 97 
f 70 97 95 
f 87 79 71 
f 301 71 79 
f 87 71 81 
f 151 71 301 
f 108 75 72 
f 117 72 91 
f 108 72 117 
f 74 73 82 
f 74 101 76 
f 74 82 99 
f 74 99 100 
f 74 100 101 
f 78 75 93 
f 93 75 108 
f 80 77 76 
f 103 80 76 
f 101 103 76 
f 77 80 88 
f 115 85 78 
f 93 115 78 
f 83 79 87 
f 301 79 83 
f 80 106 88 
f 102 80 103 
f 104 80 102 
f 107 80 104 
f 106 80 107 
f 87 81 95 
f 82 90 94 
f 82 94 99 
f 92 83 87 
f 301 83 92 
f 84 85 111 
f 119 89 84 
f 111 119 84 
f 85 115 111 
f 113 86 88 
f 96 86 113 
f 105 92 87 
f 112 87 95 
f 105 87 112 
f 88 106 114 
f 114 113 88 
f 97 89 122 
f 89 119 122 
f 94 90 151 
f 96 121 91 
f 91 121 117 
f 92 105 116 
f 301 92 116 
f 109 93 108 
f 93 109 173 
f 93 173 115 
f 94 151 99 
f 98 95 97 
f 98 143 95 
f 95 143 112 
f 121 96 113 
f 135 98 97 
f 122 135 97 
f 98 135 145 
f 98 145 143 
f 99 151 100 
f 100 151 101 
f 101 151 103 
f 103 151 102 
f 102 151 104 
f 107 104 301 
f 104 151 301 
f 128 105 112 
f 128 116 105 
f 110 106 107 
f 118 106 110 
f 106 141 114 
f 131 106 118 
f 134 106 131 
f 141 106 134 
f 110 107 301 
f 108 120 109 
f 138 108 117 
f 130 120 108 
f 137 130 108 
f 138 137 108 
f 109 120 124 
f 109 124 127 
f 109 127 173 
f 118 110 439 
f 110 301 439 
f 111 115 152 
f 171 119 111 
f 152 171 111 
f 128 112 143 
f 144 113 114 
f 121 113 144 
f 141 175 114 
f 146 144 114 
f 114 189 146 
f 114 175 180 
f 180 189 114 
f 152 115 173 
f 123 116 128 
f 301 116 123 
f 117 121 162 
f 149 138 117 
f 117 162 149 
f 131 118 439 
f 122 119 181 
f 119 171 181 
f 124 120 125 
f 120 126 125 
f 126 120 129 
f 130 129 120 
f 172 121 144 
f 121 172 162 
f 198 135 122 
f 181 198 122 
f 133 123 128 
f 301 123 133 
f 125 129 124 
f 124 139 127 
f 124 129 139 
f 126 129 125 
f 127 139 132 
f 127 132 173 
f 158 133 128 
f 178 128 143 
f 158 128 178 
f 129 130 139 
f 137 139 130 
f 439 134 131 
f 136 132 166 
f 132 136 173 
f 166 132 139 
f 301 133 158 
f 141 134 154 
f 154 134 439 
f 145 135 196 
f 135 198 196 
f 140 136 166 
f 136 140 173 
f 138 139 137 
f 139 138 142 
f 149 142 138 
f 139 142 147 
f 147 148 139 
f 148 156 139 
f 163 139 156 
f 222 139 163 
f 255 166 139 
f 139 222 255 
f 166 173 140 
f 161 141 154 
f 141 161 175 
f 149 147 142 
f 150 143 145 
f 150 228 143 
f 143 228 178 
f 146 157 144 
f 144 157 177 
f 172 144 177 
f 242 150 145 
f 196 242 145 
f 146 164 157 
f 164 146 227 
f 189 203 146 
f 146 203 225 
f 146 225 227 
f 148 147 149 
f 160 148 149 
f 160 156 148 
f 160 149 162 
f 150 242 228 
f 152 262 171 
f 152 173 262 
f 168 153 155 
f 153 179 155 
f 153 157 179 
f 153 183 157 
f 183 153 168 
f 161 154 439 
f 155 201 168 
f 155 176 201 
f 155 216 176 
f 155 179 216 
f 160 159 156 
f 163 156 159 
f 157 164 179 
f 157 183 177 
f 190 158 178 
f 301 158 190 
f 160 163 159 
f 160 162 167 
f 160 165 163 
f 160 170 165 
f 160 167 170 
f 175 161 439 
f 167 162 211 
f 162 172 211 
f 222 163 165 
f 218 179 164 
f 164 238 218 
f 164 227 238 
f 165 170 222 
f 166 169 173 
f 255 169 166 
f 170 167 174 
f 185 174 167 
f 185 167 186 
f 186 167 204 
f 167 211 204 
f 182 183 168 
f 168 191 182 
f 197 191 168 
f 197 168 223 
f 168 201 223 
f 169 184 173 
f 184 169 255 
f 174 185 170 
f 185 186 170 
f 170 186 221 
f 233 170 221 
f 222 170 233 
f 181 171 240 
f 240 171 262 
f 211 172 177 
f 173 184 206 
f 173 206 226 
f 173 226 262 
f 180 175 439 
f 201 176 200 
f 253 200 176 
f 176 216 219 
f 219 253 176 
f 183 217 177 
f 177 217 211 
f 178 210 190 
f 213 210 178 
f 213 178 228 
f 179 266 216 
f 218 263 179 
f 263 266 179 
f 439 189 180 
f 261 198 181 
f 240 261 181 
f 187 183 182 
f 230 187 182 
f 254 182 191 
f 230 182 254 
f 193 183 187 
f 217 183 193 
f 206 184 255 
f 188 186 204 
f 188 221 186 
f 192 193 187 
f 192 187 230 
f 205 188 204 
f 188 205 221 
f 203 189 439 
f 439 190 210 
f 301 190 439 
f 195 191 197 
f 254 191 195 
f 194 193 192 
f 194 192 230 
f 234 193 194 
f 217 193 215 
f 234 215 193 
f 230 234 194 
f 199 195 197 
f 254 195 199 
f 196 198 259 
f 280 242 196 
f 259 280 196 
f 202 199 197 
f 202 197 207 
f 207 197 257 
f 257 197 223 
f 198 261 259 
f 199 202 207 
f 254 199 207 
f 252 201 200 
f 251 252 200 
f 251 200 253 
f 223 201 252 
f 225 203 439 
f 204 208 205 
f 204 209 208 
f 204 217 209 
f 204 211 217 
f 205 208 221 
f 255 226 206 
f 254 207 229 
f 229 207 257 
f 224 208 209 
f 221 208 224 
f 209 217 220 
f 220 224 209 
f 212 210 213 
f 439 210 212 
f 214 212 213 
f 439 212 214 
f 214 213 258 
f 264 213 228 
f 258 213 264 
f 439 214 258 
f 220 217 215 
f 234 220 215 
f 219 216 285 
f 216 266 267 
f 267 269 216 
f 216 269 285 
f 238 239 218 
f 256 218 239 
f 218 256 263 
f 281 253 219 
f 219 286 281 
f 219 285 286 
f 220 233 224 
f 236 233 220 
f 234 235 220 
f 235 236 220 
f 224 233 221 
f 222 233 255 
f 270 223 252 
f 257 223 270 
f 225 439 227 
f 255 237 226 
f 262 226 237 
f 227 439 238 
f 228 242 268 
f 264 228 273 
f 274 228 268 
f 274 273 228 
f 254 229 246 
f 246 229 257 
f 234 230 231 
f 254 231 230 
f 254 234 231 
f 236 232 233 
f 233 232 255 
f 255 232 236 
f 254 235 234 
f 255 236 235 
f 255 235 254 
f 255 241 237 
f 262 237 241 
f 238 439 239 
f 239 439 256 
f 240 302 261 
f 240 262 302 
f 241 255 243 
f 262 241 243 
f 242 280 268 
f 243 255 244 
f 260 243 244 
f 275 243 260 
f 262 243 275 
f 245 244 248 
f 244 245 260 
f 248 244 255 
f 245 248 260 
f 254 246 250 
f 250 246 257 
f 249 247 248 
f 248 247 260 
f 260 247 249 
f 249 248 250 
f 250 248 255 
f 249 250 257 
f 272 249 257 
f 260 249 272 
f 254 250 255 
f 279 252 251 
f 278 251 253 
f 276 251 278 
f 276 279 251 
f 270 252 279 
f 253 306 278 
f 281 298 253 
f 298 306 253 
f 256 439 263 
f 284 257 270 
f 272 257 284 
f 271 258 264 
f 439 258 271 
f 259 261 291 
f 313 280 259 
f 291 313 259 
f 287 260 272 
f 275 260 287 
f 291 261 302 
f 290 262 275 
f 262 290 302 
f 266 263 439 
f 271 264 283 
f 289 264 273 
f 283 264 289 
f 282 265 295 
f 265 282 331 
f 319 295 265 
f 325 319 265 
f 346 325 265 
f 331 381 265 
f 362 346 265 
f 374 362 265 
f 381 374 265 
f 267 266 439 
f 269 267 566 
f 267 402 403 
f 267 439 402 
f 267 403 409 
f 267 409 411 
f 267 411 437 
f 267 437 461 
f 267 461 566 
f 300 274 268 
f 268 280 297 
f 300 268 297 
f 285 269 413 
f 413 269 566 
f 296 270 279 
f 284 270 296 
f 439 271 283 
f 299 272 284 
f 287 272 299 
f 277 273 274 
f 277 317 273 
f 273 317 289 
f 334 277 274 
f 300 334 274 
f 303 275 287 
f 290 275 303 
f 305 276 278 
f 311 279 276 
f 310 276 305 
f 310 311 276 
f 277 334 317 
f 305 278 315 
f 306 309 278 
f 315 278 309 
f 296 279 311 
f 280 313 297 
f 286 288 281 
f 292 281 288 
f 294 281 292 
f 281 294 298 
f 282 295 293 
f 340 282 293 
f 307 331 282 
f 282 373 307 
f 282 339 338 
f 351 282 338 
f 282 340 339 
f 282 351 356 
f 282 356 366 
f 282 366 369 
f 282 369 373 
f 304 283 289 
f 439 283 304 
f 312 284 296 
f 299 284 312 
f 286 285 566 
f 414 285 413 
f 456 285 414 
f 285 456 457 
f 285 457 466 
f 285 466 566 
f 288 286 566 
f 314 287 299 
f 303 287 314 
f 292 288 566 
f 308 304 289 
f 308 289 317 
f 302 290 318 
f 318 290 303 
f 291 302 361 
f 291 361 313 
f 294 292 655 
f 292 566 655 
f 295 307 293 
f 373 293 307 
f 344 340 293 
f 345 344 293 
f 293 352 345 
f 352 293 357 
f 360 357 293 
f 370 360 293 
f 371 370 293 
f 373 371 293 
f 298 294 655 
f 331 307 295 
f 319 324 295 
f 326 295 324 
f 327 295 326 
f 295 327 328 
f 295 328 330 
f 330 332 295 
f 295 384 331 
f 332 341 295 
f 295 341 347 
f 347 348 295 
f 348 372 295 
f 295 372 380 
f 295 380 384 
f 329 296 311 
f 312 296 329 
f 343 300 297 
f 297 313 336 
f 343 297 336 
f 655 306 298 
f 333 299 312 
f 314 299 333 
f 379 334 300 
f 343 379 300 
f 319 302 318 
f 325 302 319 
f 350 302 325 
f 302 350 361 
f 326 303 314 
f 318 303 326 
f 439 304 308 
f 363 310 305 
f 320 305 315 
f 335 305 320 
f 355 305 335 
f 363 305 355 
f 309 306 655 
f 317 316 308 
f 439 308 316 
f 315 309 655 
f 359 311 310 
f 396 359 310 
f 363 396 310 
f 311 375 329 
f 359 375 311 
f 358 312 329 
f 333 312 358 
f 336 313 361 
f 327 326 314 
f 328 327 314 
f 330 328 314 
f 332 330 314 
f 332 314 364 
f 364 314 333 
f 320 315 655 
f 349 316 317 
f 337 316 349 
f 439 316 337 
f 317 334 353 
f 349 317 367 
f 367 317 353 
f 321 319 318 
f 321 318 322 
f 322 318 323 
f 318 324 323 
f 324 318 326 
f 319 321 322 
f 319 322 323 
f 319 323 324 
f 335 320 355 
f 386 355 320 
f 518 386 320 
f 522 518 320 
f 522 320 526 
f 320 696 526 
f 696 320 655 
f 325 346 350 
f 358 329 375 
f 381 331 387 
f 331 384 393 
f 387 331 392 
f 392 331 394 
f 331 393 394 
f 341 332 364 
f 376 333 358 
f 364 333 376 
f 334 379 353 
f 385 343 336 
f 361 400 336 
f 336 400 385 
f 342 337 349 
f 566 337 342 
f 439 337 566 
f 351 338 339 
f 352 339 340 
f 351 339 368 
f 357 339 352 
f 360 339 357 
f 368 339 360 
f 352 340 344 
f 364 347 341 
f 354 342 349 
f 566 342 354 
f 418 379 343 
f 385 418 343 
f 352 344 345 
f 350 346 362 
f 348 347 378 
f 378 347 364 
f 372 348 378 
f 354 349 377 
f 382 349 367 
f 377 349 382 
f 361 350 383 
f 374 350 362 
f 383 350 374 
f 356 351 368 
f 390 367 353 
f 353 379 388 
f 390 353 388 
f 566 354 377 
f 386 363 355 
f 366 356 368 
f 391 358 375 
f 376 358 391 
f 359 365 375 
f 359 396 365 
f 368 360 370 
f 400 361 383 
f 405 363 386 
f 408 396 363 
f 419 363 405 
f 408 363 419 
f 395 364 376 
f 378 364 395 
f 397 375 365 
f 365 396 401 
f 430 397 365 
f 401 430 365 
f 369 366 368 
f 382 367 398 
f 398 367 390 
f 369 368 371 
f 371 368 370 
f 373 369 371 
f 378 380 372 
f 374 381 383 
f 375 397 391 
f 406 376 391 
f 395 376 406 
f 389 377 382 
f 566 377 389 
f 399 380 378 
f 412 378 395 
f 399 378 412 
f 379 418 388 
f 384 380 399 
f 381 387 383 
f 389 382 407 
f 416 382 398 
f 407 382 416 
f 383 387 392 
f 394 383 392 
f 417 383 394 
f 400 383 417 
f 393 384 399 
f 385 400 438 
f 385 438 418 
f 469 405 386 
f 484 469 386 
f 484 386 518 
f 429 390 388 
f 388 418 428 
f 429 388 428 
f 566 389 407 
f 426 398 390 
f 426 390 429 
f 397 427 391 
f 391 459 406 
f 427 459 391 
f 394 393 399 
f 417 394 399 
f 432 395 406 
f 412 395 432 
f 401 396 408 
f 430 427 397 
f 416 398 435 
f 435 398 426 
f 436 399 412 
f 417 399 436 
f 440 400 417 
f 400 440 438 
f 401 408 433 
f 401 442 430 
f 401 433 434 
f 401 434 442 
f 404 403 402 
f 450 404 402 
f 448 402 439 
f 448 450 402 
f 410 403 404 
f 410 409 403 
f 410 404 422 
f 404 450 422 
f 419 405 464 
f 405 469 464 
f 432 406 459 
f 425 407 416 
f 566 407 425 
f 408 419 431 
f 433 408 431 
f 409 410 411 
f 420 411 410 
f 420 410 422 
f 423 411 420 
f 437 411 423 
f 455 412 432 
f 436 412 455 
f 414 413 415 
f 415 413 445 
f 463 445 413 
f 463 413 566 
f 415 458 414 
f 414 458 456 
f 415 445 458 
f 425 416 447 
f 462 416 435 
f 447 416 462 
f 465 417 436 
f 440 417 465 
f 428 418 438 
f 442 431 419 
f 442 419 464 
f 420 422 423 
f 421 423 422 
f 424 421 422 
f 423 421 424 
f 424 422 441 
f 422 450 441 
f 437 423 424 
f 424 441 437 
f 566 425 447 
f 476 426 429 
f 474 435 426 
f 474 426 476 
f 473 427 430 
f 427 446 459 
f 427 473 446 
f 477 429 428 
f 438 502 428 
f 428 502 477 
f 476 429 477 
f 430 442 464 
f 430 464 469 
f 469 484 430 
f 484 473 430 
f 434 433 431 
f 442 434 431 
f 479 455 432 
f 479 432 459 
f 462 435 481 
f 481 435 474 
f 482 436 455 
f 436 468 465 
f 482 468 436 
f 437 441 443 
f 444 437 443 
f 437 444 454 
f 437 454 461 
f 438 440 488 
f 502 438 488 
f 448 439 449 
f 449 439 460 
f 460 439 566 
f 467 440 465 
f 488 440 467 
f 450 443 441 
f 451 444 443 
f 454 443 450 
f 451 443 454 
f 452 444 451 
f 444 452 454 
f 458 445 463 
f 472 459 446 
f 521 472 446 
f 446 473 500 
f 500 521 446 
f 475 447 462 
f 566 447 475 
f 449 450 448 
f 450 449 460 
f 450 460 454 
f 453 452 451 
f 451 454 453 
f 454 452 453 
f 454 460 461 
f 478 486 455 
f 498 478 455 
f 501 455 479 
f 486 482 455 
f 501 498 455 
f 458 457 456 
f 457 458 466 
f 466 458 463 
f 459 472 479 
f 461 460 566 
f 497 475 462 
f 509 462 481 
f 497 462 509 
f 466 463 566 
f 470 467 465 
f 468 485 465 
f 471 470 465 
f 465 480 471 
f 485 480 465 
f 467 470 496 
f 483 488 467 
f 467 489 483 
f 467 496 489 
f 492 468 482 
f 485 468 490 
f 490 468 492 
f 480 470 471 
f 480 496 470 
f 472 511 479 
f 521 511 472 
f 518 473 484 
f 473 518 500 
f 520 474 476 
f 516 481 474 
f 516 474 520 
f 497 696 475 
f 566 475 655 
f 475 696 655 
f 524 476 477 
f 520 476 524 
f 502 531 477 
f 477 531 524 
f 495 486 478 
f 478 493 495 
f 498 493 478 
f 511 501 479 
f 485 496 480 
f 509 481 523 
f 523 481 516 
f 486 487 482 
f 487 492 482 
f 483 489 488 
f 485 490 496 
f 486 495 487 
f 495 492 487 
f 489 491 488 
f 491 508 488 
f 488 531 502 
f 508 527 488 
f 527 531 488 
f 489 496 491 
f 490 492 496 
f 508 491 496 
f 495 496 492 
f 498 494 493 
f 499 493 494 
f 499 495 493 
f 498 499 494 
f 496 495 503 
f 513 495 499 
f 503 495 504 
f 504 495 505 
f 505 495 507 
f 507 495 512 
f 519 512 495 
f 519 495 513 
f 496 503 510 
f 527 508 496 
f 496 510 514 
f 496 514 528 
f 532 527 496 
f 528 538 496 
f 584 532 496 
f 496 538 584 
f 515 497 509 
f 515 696 497 
f 499 498 513 
f 517 498 501 
f 498 517 513 
f 518 522 500 
f 537 521 500 
f 500 522 526 
f 526 537 500 
f 501 511 517 
f 506 503 504 
f 510 503 506 
f 505 506 504 
f 505 507 506 
f 507 512 506 
f 525 510 506 
f 512 530 506 
f 525 506 530 
f 515 509 529 
f 533 509 523 
f 529 509 533 
f 514 510 525 
f 548 517 511 
f 545 511 521 
f 548 511 545 
f 512 519 530 
f 517 519 513 
f 528 514 525 
f 529 696 515 
f 539 516 520 
f 536 523 516 
f 536 516 539 
f 517 530 519 
f 530 517 542 
f 548 542 517 
f 544 520 524 
f 539 520 544 
f 540 521 537 
f 546 521 540 
f 545 521 546 
f 533 523 541 
f 541 523 536 
f 531 564 524 
f 524 564 544 
f 528 525 543 
f 543 525 530 
f 526 696 537 
f 527 532 531 
f 528 534 538 
f 534 528 543 
f 535 529 533 
f 535 696 529 
f 555 530 542 
f 543 530 555 
f 553 531 532 
f 564 531 553 
f 584 553 532 
f 535 533 554 
f 556 533 541 
f 554 533 556 
f 543 538 534 
f 554 696 535 
f 567 536 539 
f 558 541 536 
f 558 536 567 
f 537 696 540 
f 559 538 543 
f 538 559 547 
f 547 584 538 
f 575 539 544 
f 567 539 575 
f 540 696 546 
f 541 549 551 
f 541 558 549 
f 541 551 572 
f 556 541 572 
f 594 542 548 
f 542 590 555 
f 594 590 542 
f 577 543 555 
f 559 543 577 
f 564 569 544 
f 569 589 544 
f 544 589 575 
f 550 545 546 
f 548 545 557 
f 557 545 550 
f 546 696 550 
f 547 559 561 
f 547 561 584 
f 548 557 580 
f 548 580 581 
f 548 581 588 
f 548 588 594 
f 551 549 552 
f 585 552 549 
f 549 558 563 
f 563 585 549 
f 557 550 576 
f 576 550 696 
f 586 551 552 
f 572 551 586 
f 586 552 585 
f 565 564 553 
f 584 565 553 
f 560 554 556 
f 560 696 554 
f 577 555 590 
f 560 556 570 
f 570 556 579 
f 587 556 572 
f 587 579 556 
f 580 557 576 
f 558 595 563 
f 595 558 567 
f 559 562 561 
f 559 591 562 
f 591 559 577 
f 570 696 560 
f 561 562 584 
f 583 584 562 
f 562 591 583 
f 609 585 563 
f 563 595 599 
f 599 609 563 
f 565 568 564 
f 564 568 569 
f 584 568 565 
f 601 567 575 
f 595 567 601 
f 584 569 568 
f 569 584 571 
f 571 589 569 
f 579 718 570 
f 570 718 696 
f 571 584 573 
f 589 571 573 
f 602 572 586 
f 587 572 593 
f 593 572 602 
f 574 573 584 
f 589 573 574 
f 578 574 584 
f 592 574 578 
f 592 589 574 
f 589 606 575 
f 575 606 601 
f 580 576 696 
f 603 577 590 
f 591 577 603 
f 582 578 584 
f 582 591 578 
f 578 591 592 
f 587 593 579 
f 593 718 579 
f 696 581 580 
f 581 696 588 
f 583 582 584 
f 583 591 582 
f 604 586 585 
f 604 585 609 
f 586 597 598 
f 586 604 597 
f 586 598 608 
f 602 586 608 
f 594 588 610 
f 610 588 696 
f 606 589 592 
f 594 596 590 
f 622 590 596 
f 603 590 622 
f 591 612 592 
f 612 591 603 
f 613 606 592 
f 592 612 613 
f 605 593 602 
f 605 718 593 
f 594 611 596 
f 594 610 611 
f 595 616 599 
f 616 595 601 
f 596 611 614 
f 614 627 596 
f 631 622 596 
f 627 631 596 
f 598 597 600 
f 615 600 597 
f 597 604 607 
f 607 615 597 
f 618 598 600 
f 608 598 618 
f 640 609 599 
f 599 616 621 
f 621 640 599 
f 617 600 615 
f 617 618 600 
f 606 628 601 
f 601 628 616 
f 605 602 620 
f 623 602 608 
f 620 602 623 
f 612 603 626 
f 626 603 622 
f 604 630 607 
f 630 604 609 
f 620 718 605 
f 628 606 613 
f 647 615 607 
f 607 630 638 
f 638 647 607 
f 633 608 618 
f 623 608 633 
f 630 609 640 
f 611 610 696 
f 614 611 696 
f 612 636 613 
f 636 612 626 
f 639 628 613 
f 613 636 639 
f 627 614 696 
f 635 617 615 
f 635 615 647 
f 616 628 621 
f 619 618 617 
f 662 619 617 
f 635 662 617 
f 619 649 618 
f 618 646 633 
f 618 649 646 
f 619 650 649 
f 619 651 650 
f 619 662 651 
f 624 620 623 
f 624 718 620 
f 640 621 628 
f 632 626 622 
f 634 622 631 
f 632 622 663 
f 622 634 663 
f 624 623 625 
f 625 623 629 
f 629 623 633 
f 625 718 624 
f 629 718 625 
f 632 644 626 
f 626 644 636 
f 652 631 627 
f 652 627 696 
f 640 628 639 
f 642 629 633 
f 642 706 629 
f 629 706 708 
f 629 708 713 
f 629 713 714 
f 629 714 717 
f 629 717 720 
f 629 720 718 
f 630 657 638 
f 657 630 640 
f 643 634 631 
f 653 643 631 
f 652 653 631 
f 641 632 637 
f 632 663 637 
f 644 632 641 
f 642 633 646 
f 663 634 643 
f 660 635 647 
f 660 681 635 
f 681 662 635 
f 639 636 644 
f 659 641 637 
f 673 659 637 
f 663 673 637 
f 669 647 638 
f 638 657 661 
f 661 669 638 
f 640 639 648 
f 648 639 644 
f 648 665 640 
f 640 665 657 
f 648 644 641 
f 641 645 648 
f 659 645 641 
f 646 651 642 
f 642 651 706 
f 654 643 653 
f 675 643 654 
f 678 663 643 
f 678 643 675 
f 648 645 656 
f 659 656 645 
f 649 650 646 
f 646 650 651 
f 660 647 669 
f 665 648 656 
f 651 662 658 
f 651 658 706 
f 653 652 696 
f 654 653 696 
f 696 675 654 
f 659 665 656 
f 657 665 661 
f 658 662 672 
f 668 658 672 
f 658 668 706 
f 659 666 665 
f 659 673 666 
f 677 660 669 
f 677 691 660 
f 691 681 660 
f 661 665 671 
f 661 670 669 
f 670 661 671 
f 662 681 672 
f 678 673 663 
f 664 665 666 
f 665 664 667 
f 664 666 667 
f 665 667 671 
f 667 666 682 
f 666 673 685 
f 685 682 666 
f 671 667 682 
f 672 674 668 
f 668 674 676 
f 668 676 706 
f 669 670 682 
f 682 677 669 
f 670 671 682 
f 676 674 672 
f 686 676 672 
f 672 681 686 
f 678 685 673 
f 678 675 679 
f 679 675 696 
f 686 687 676 
f 676 687 706 
f 694 677 682 
f 695 691 677 
f 694 695 677 
f 680 678 679 
f 678 680 683 
f 678 683 685 
f 680 679 696 
f 683 680 696 
f 681 691 686 
f 690 682 685 
f 690 689 682 
f 689 694 682 
f 683 684 685 
f 718 684 683 
f 718 683 696 
f 684 692 685 
f 692 684 718 
f 699 690 685 
f 692 693 685 
f 693 699 685 
f 688 687 686 
f 697 688 686 
f 686 691 697 
f 687 688 706 
f 697 702 688 
f 688 702 706 
f 700 689 690 
f 689 698 694 
f 689 700 698 
f 690 699 701 
f 690 701 700 
f 695 697 691 
f 693 692 718 
f 699 693 718 
f 698 695 694 
f 695 698 697 
f 698 704 697 
f 703 702 697 
f 706 703 697 
f 704 707 697 
f 697 707 706 
f 700 710 698 
f 710 704 698 
f 701 699 718 
f 700 701 705 
f 705 709 700 
f 709 710 700 
f 705 701 718 
f 702 703 706 
f 708 707 704 
f 713 708 704 
f 711 704 710 
f 711 713 704 
f 709 705 718 
f 708 706 707 
f 715 710 709 
f 715 709 718 
f 712 711 710 
f 716 712 710 
f 715 716 710 
f 712 717 711 
f 714 713 711 
f 717 714 711 
f 719 712 716 
f 712 720 717 
f 712 719 720 
f 716 715 718 
f 719 716 718 
f 720 719 718 


