# order is:
# Heading Axis
# Heading
# Position
# Orientation
# Velocity
# AngularVelocity

# Relative Orientation
# Relative Angular Velocity
#----------------

# Heading Axis
 0.000000 1.000000 0.000000
# Heading
0.000000

-0.000000 -0.012835 0.143394
1.000000 0.000000 0.000000 0.000000
0.000000 0.000000 0.000000
0.000000 0.000000 0.000000

1.000000 0.000000 0.000000 0.000000
0.000000 0.000000 0.000000

1.000000 0.000000 0.000000 0.000000
0.000000 0.000000 0.000000

1.000000 0.000000 0.000000 0.000000
0.000000 0.000000 0.000000

1.000000 0.000000 0.000000 0.000000
0.000000 0.000000 0.000000

1.000000 0.000000 0.000000 0.000000
0.000000 0.000000 0.000000

1.000000 0.000000 0.000000 0.000000
0.000000 0.000000 0.000000

1.000000 0.000000 0.000000 0.000000
0.000000 0.000000 0.000000

1.000000 0.000000 0.000000 0.000000
0.000000 0.000000 0.000000

1.000000 0.000000 0.000000 0.000000
0.000000 0.000000 0.000000

1.000000 0.000000 0.000000 0.000000
0.000000 0.000000 0.000000

1.000000 0.000000 0.000000 0.000000
0.000000 0.000000 0.000000

1.000000 0.000000 0.000000 0.000000
0.000000 0.000000 0.000000

