v -0.011534 -0.052521 -0.055070
v -0.011727 -0.050001 -0.070699
v -0.011534 -0.059842 -0.056250
v -0.011727 -0.057323 -0.071879
v -0.009999 -0.051452 -0.044786
v -0.010243 -0.048269 -0.064530
v -0.010263 -0.048749 -0.066247
v -0.010121 -0.050599 -0.054777
v -0.010182 -0.049806 -0.059695
v -0.010182 -0.049797 -0.059751
v -0.010229 -0.049193 -0.063496
v -0.010243 -0.049007 -0.064649
v -0.010253 -0.048875 -0.065470
v -0.010258 -0.048814 -0.065847
v -0.010314 -0.048079 -0.070406
v -0.010314 -0.051012 -0.070879
v -0.010121 -0.054438 -0.055396
v -0.010121 -0.054464 -0.055400
v -0.010121 -0.056179 -0.055677
v -0.010314 -0.057773 -0.071969
v -0.010121 -0.060852 -0.056430
v -0.010121 -0.061759 -0.056576
v -0.010182 -0.060966 -0.061495
v -0.010184 -0.060942 -0.061642
v -0.010243 -0.060167 -0.066448
v -0.010253 -0.060035 -0.067270
v -0.010314 -0.059239 -0.072205
v -0.010263 -0.059911 -0.068047
v -0.009999 -0.064088 -0.046824
v -0.010243 -0.060906 -0.066567
v -0.010137 -0.048716 -0.065446
v -0.010050 -0.048744 -0.064609
v -0.009989 -0.048515 -0.065416
v -0.009989 -0.060394 -0.067331
v -0.009872 -0.048502 -0.064572
v -0.009473 -0.051943 -0.041741
v -0.009473 -0.064579 -0.043778
v -0.009639 -0.049063 -0.059601
v -0.009682 -0.048504 -0.063073
v -0.009684 -0.048470 -0.063282
v -0.009685 -0.048460 -0.063344
v -0.009688 -0.048426 -0.063557
v -0.009689 -0.048409 -0.063660
v -0.009690 -0.048402 -0.063705
v -0.009700 -0.048268 -0.064537
v -0.009639 -0.061700 -0.061638
v -0.009663 -0.061385 -0.063594
v -0.009665 -0.061366 -0.063714
v -0.009682 -0.061140 -0.065111
v -0.009685 -0.061097 -0.065381
v -0.009688 -0.061062 -0.065594
v -0.009689 -0.061054 -0.065650
v -0.009690 -0.061039 -0.065743
v -0.009700 -0.060905 -0.066574
v -0.009367 -0.047669 -0.065287
v -0.009367 -0.061238 -0.067474
v -0.009107 -0.047315 -0.065233
v -0.009107 -0.061590 -0.067534
v -0.009082 -0.061624 -0.067540
v -0.009067 -0.061644 -0.067544
v -0.009013 -0.061718 -0.067556
v -0.008949 -0.061804 -0.067571
v -0.008612 -0.047666 -0.059388
v -0.008683 -0.062165 -0.067632
v -0.008664 -0.062191 -0.067637
v -0.008425 -0.046387 -0.065092
v -0.008351 -0.047311 -0.059334
v -0.008350 -0.049061 -0.059616
v -0.008350 -0.061698 -0.061653
v -0.008018 -0.052383 -0.039007
v -0.008018 -0.065020 -0.041044
v -0.007934 -0.049060 -0.059621
v -0.007934 -0.061697 -0.061658
v -0.007942 -0.045730 -0.064992
v -0.007821 -0.045566 -0.064967
v -0.007444 -0.049059 -0.059627
v -0.007444 -0.061696 -0.061664
v -0.007280 -0.061696 -0.061666
v -0.007235 -0.045793 -0.059103
v -0.007306 -0.044865 -0.064860
v -0.007235 -0.064961 -0.062193
v -0.007306 -0.064033 -0.067950
v -0.007145 -0.049059 -0.059631
v -0.007124 -0.049059 -0.059631
v -0.006956 -0.049058 -0.059633
v -0.006956 -0.061695 -0.061670
v -0.006891 -0.044731 -0.064844
v -0.006891 -0.064166 -0.067977
v -0.006592 -0.045371 -0.059886
v -0.006836 -0.042188 -0.079630
v -0.006653 -0.044654 -0.064834
v -0.006618 -0.045110 -0.062003
v -0.006595 -0.045415 -0.060114
v -0.006595 -0.045422 -0.060074
v -0.006594 -0.045427 -0.060043
v -0.006594 -0.045429 -0.060028
v -0.006594 -0.045430 -0.060021
v -0.006592 -0.045450 -0.059899
v -0.006653 -0.044728 -0.064846
v -0.006653 -0.044730 -0.064847
v -0.006653 -0.044857 -0.064867
v -0.006653 -0.044864 -0.064868
v -0.006874 -0.042179 -0.082759
v -0.006653 -0.045508 -0.064972
v -0.006653 -0.045652 -0.064995
v -0.006653 -0.045806 -0.065020
v -0.006653 -0.046384 -0.065113
v -0.006653 -0.046419 -0.065119
v -0.006653 -0.046421 -0.065119
v -0.006653 -0.046459 -0.065125
v -0.006908 -0.043138 -0.085736
v -0.006653 -0.046468 -0.065127
v -0.006653 -0.046475 -0.065128
v -0.006653 -0.046479 -0.065129
v -0.006653 -0.046480 -0.065129
v -0.006653 -0.046515 -0.065135
v -0.006653 -0.046594 -0.065147
v -0.006653 -0.046626 -0.065152
v -0.006653 -0.046795 -0.065180
v -0.006653 -0.047278 -0.065258
v -0.006653 -0.047595 -0.065309
v -0.006653 -0.047714 -0.065328
v -0.006653 -0.047739 -0.065332
v -0.006653 -0.047760 -0.065335
v -0.006653 -0.047770 -0.065337
v -0.006653 -0.047906 -0.065359
v -0.006653 -0.047966 -0.065368
v -0.006653 -0.048133 -0.065395
v -0.006935 -0.044970 -0.088273
v -0.006653 -0.049501 -0.065616
v -0.006653 -0.049995 -0.065695
v -0.006836 -0.047618 -0.080505
v -0.006819 -0.048057 -0.079168
v -0.006853 -0.047614 -0.081913
v -0.006804 -0.048887 -0.078030
v -0.006868 -0.048045 -0.083253
v -0.006653 -0.051117 -0.065876
v -0.006653 -0.051372 -0.065918
v -0.006952 -0.047497 -0.090118
v -0.006653 -0.051571 -0.065950
v -0.006792 -0.050029 -0.077207
v -0.006880 -0.048870 -0.084394
v -0.006784 -0.051368 -0.076776
v -0.006888 -0.050006 -0.085225
v -0.006889 -0.050461 -0.085374
v -0.006782 -0.052298 -0.076777
v -0.006781 -0.052777 -0.076779
v -0.006891 -0.051345 -0.085663
v -0.006958 -0.050469 -0.091093
v -0.006782 -0.053232 -0.076928
v -0.006889 -0.052274 -0.085666
v -0.006784 -0.054115 -0.077218
v -0.006888 -0.052753 -0.085668
v -0.006792 -0.055251 -0.078049
v -0.006880 -0.054093 -0.085236
v -0.006952 -0.053598 -0.091102
v -0.006804 -0.056076 -0.079189
v -0.006868 -0.055234 -0.084412
v -0.006819 -0.056507 -0.080530
v -0.006853 -0.056065 -0.083275
v -0.006836 -0.056503 -0.081937
v -0.006935 -0.056576 -0.090144
v -0.006653 -0.060520 -0.067392
v -0.006653 -0.060783 -0.067435
v -0.006653 -0.061136 -0.067491
v -0.006653 -0.061301 -0.067518
v -0.006653 -0.061433 -0.067539
v -0.006653 -0.061617 -0.067569
v -0.006653 -0.061719 -0.067585
v -0.006653 -0.061747 -0.067590
v -0.006653 -0.061763 -0.067593
v -0.006653 -0.061824 -0.067602
v -0.006653 -0.061897 -0.067614
v -0.006653 -0.062101 -0.067647
v -0.006653 -0.062204 -0.067664
v -0.006653 -0.062226 -0.067667
v -0.006653 -0.062310 -0.067681
v -0.006908 -0.059112 -0.088311
v -0.006653 -0.062512 -0.067713
v -0.006874 -0.060959 -0.085786
v -0.006653 -0.063994 -0.067952
v -0.006653 -0.064001 -0.067953
v -0.006653 -0.064032 -0.067958
v -0.006653 -0.064038 -0.067959
v -0.006653 -0.064165 -0.067980
v -0.006592 -0.065037 -0.063056
v -0.006594 -0.065018 -0.063178
v -0.006594 -0.065016 -0.063185
v -0.006594 -0.065014 -0.063200
v -0.006595 -0.065009 -0.063232
v -0.006595 -0.065003 -0.063271
v -0.006618 -0.064698 -0.065161
v -0.006653 -0.064242 -0.067992
v -0.006592 -0.065116 -0.063069
v -0.006836 -0.061933 -0.082813
v -0.006579 -0.049058 -0.059638
v -0.006550 -0.045436 -0.059897
v -0.006510 -0.049057 -0.059638
v -0.006415 -0.045393 -0.059892
v -0.006415 -0.065094 -0.063067
v -0.006349 -0.045371 -0.059889
v -0.006349 -0.065115 -0.063072
v -0.006408 -0.044579 -0.064798
v -0.006444 -0.044100 -0.067770
v -0.006445 -0.044094 -0.067809
v -0.006469 -0.043779 -0.069761
v -0.006408 -0.064318 -0.068020
v -0.006469 -0.063524 -0.072944
v -0.006351 -0.045309 -0.060268
v -0.006347 -0.045371 -0.059889
v -0.006347 -0.065116 -0.063072
v -0.006275 -0.046299 -0.054132
v -0.006336 -0.045503 -0.059068
v -0.006275 -0.066044 -0.057315
v -0.006300 -0.065723 -0.059306
v -0.006336 -0.065248 -0.062251
v -0.005779 -0.052731 -0.036849
v -0.005779 -0.065368 -0.038886
v -0.006023 -0.049056 -0.059644
v -0.004823 -0.061691 -0.061696
v -0.004500 -0.051441 -0.044853
v -0.004500 -0.064078 -0.046890
v -0.004263 -0.051662 -0.043482
v -0.004297 -0.051219 -0.046227
v -0.004263 -0.064299 -0.045519
v -0.004297 -0.063856 -0.048265
v -0.003608 -0.051860 -0.042252
v -0.003673 -0.051018 -0.047474
v -0.003608 -0.064497 -0.044289
v -0.003673 -0.063655 -0.049511
v -0.002974 -0.052952 -0.035481
v -0.002974 -0.065589 -0.037518
v -0.002875 -0.066037 -0.057356
v -0.002600 -0.052017 -0.041281
v -0.002689 -0.050858 -0.048468
v -0.002600 -0.064654 -0.043318
v -0.002689 -0.063495 -0.050505
v -0.001575 -0.066035 -0.057371
v -0.001339 -0.052116 -0.040665
v -0.001443 -0.050754 -0.049114
v -0.001339 -0.064753 -0.042702
v -0.001443 -0.063391 -0.051151
v -0.000865 -0.052127 -0.040597
v -0.000971 -0.063378 -0.051231
v -0.000772 -0.066033 -0.057381
v -0.000527 -0.050729 -0.049269
v -0.000419 -0.064774 -0.042570
v -0.000315 -0.043767 -0.069835
v -0.000122 -0.044312 -0.053887
v -0.000315 -0.041793 -0.069516
v -0.000122 -0.046287 -0.054206
v 0.000122 -0.053024 -0.035035
v 0.000055 -0.052148 -0.040464
v -0.000055 -0.050716 -0.049349
v 0.000122 -0.065660 -0.037072
v 0.000055 -0.064785 -0.042502
v -0.000055 -0.063353 -0.051386
v -0.000122 -0.066032 -0.057389
v -0.000122 -0.068006 -0.057707
v -0.000315 -0.065487 -0.073336
v -0.000315 -0.063512 -0.073018
v 0.000419 -0.050727 -0.049281
v 0.000527 -0.064772 -0.042581
v 0.000335 -0.043766 -0.069843
v 0.000528 -0.066031 -0.057396
v 0.000971 -0.052123 -0.040619
v 0.000865 -0.063374 -0.051253
v 0.001443 -0.052111 -0.040698
v 0.001339 -0.050749 -0.049148
v 0.001443 -0.064747 -0.042736
v 0.001339 -0.063385 -0.051185
v 0.001331 -0.066029 -0.057406
v 0.002689 -0.052006 -0.041344
v 0.002600 -0.050848 -0.048532
v 0.002689 -0.064643 -0.043381
v 0.002600 -0.063485 -0.050569
v 0.002631 -0.066026 -0.057422
v 0.003206 -0.052940 -0.035555
v 0.003206 -0.065577 -0.037592
v 0.003673 -0.051846 -0.042339
v 0.003609 -0.051004 -0.047562
v 0.003673 -0.064483 -0.044377
v 0.003609 -0.063641 -0.049599
v 0.004297 -0.051645 -0.043585
v 0.004263 -0.051203 -0.046330
v 0.004297 -0.064282 -0.045622
v 0.004263 -0.063840 -0.048368
v 0.004500 -0.051423 -0.044961
v 0.004500 -0.064060 -0.046998
v 0.004458 -0.049036 -0.059770
v 0.005658 -0.061671 -0.061822
v 0.005976 -0.052708 -0.036990
v 0.005976 -0.065345 -0.039027
v 0.006032 -0.046275 -0.054280
v 0.006007 -0.045954 -0.056271
v 0.005971 -0.045479 -0.059216
v 0.006032 -0.066020 -0.057463
v 0.005971 -0.065224 -0.062399
v 0.005961 -0.045347 -0.060037
v 0.005961 -0.065092 -0.063220
v 0.005956 -0.065031 -0.063599
v 0.005900 -0.044549 -0.064985
v 0.005839 -0.043755 -0.069909
v 0.005901 -0.064300 -0.068129
v 0.005864 -0.063821 -0.071101
v 0.005864 -0.063815 -0.071140
v 0.005839 -0.063500 -0.073092
v 0.005963 -0.045347 -0.060037
v 0.005963 -0.065091 -0.063220
v 0.006030 -0.045369 -0.060041
v 0.006030 -0.065069 -0.063217
v 0.006145 -0.061670 -0.061828
v 0.006164 -0.065026 -0.063212
v 0.006214 -0.061670 -0.061829
v 0.006207 -0.045346 -0.060040
v 0.005963 -0.042163 -0.079784
v 0.006146 -0.044629 -0.064988
v 0.006181 -0.045086 -0.062157
v 0.006204 -0.045390 -0.060268
v 0.006204 -0.045397 -0.060228
v 0.006205 -0.045402 -0.060197
v 0.006205 -0.045403 -0.060188
v 0.006205 -0.045405 -0.060175
v 0.006207 -0.045425 -0.060053
v 0.006146 -0.044705 -0.065001
v 0.006146 -0.044708 -0.065001
v 0.006146 -0.044839 -0.065022
v 0.006146 -0.044870 -0.065027
v 0.006146 -0.044877 -0.065028
v 0.005925 -0.042154 -0.082913
v 0.006146 -0.046359 -0.065267
v 0.005891 -0.043114 -0.085890
v 0.006146 -0.046561 -0.065300
v 0.006146 -0.046645 -0.065313
v 0.006146 -0.046667 -0.065317
v 0.006146 -0.046770 -0.065334
v 0.006146 -0.046974 -0.065366
v 0.006146 -0.047046 -0.065378
v 0.006146 -0.047108 -0.065388
v 0.006146 -0.047138 -0.065393
v 0.006146 -0.047152 -0.065395
v 0.006146 -0.047254 -0.065412
v 0.006146 -0.047416 -0.065438
v 0.006146 -0.047438 -0.065441
v 0.006146 -0.047735 -0.065489
v 0.006146 -0.048088 -0.065546
v 0.006146 -0.048351 -0.065588
v 0.005864 -0.044945 -0.088427
v 0.005963 -0.047593 -0.080659
v 0.005980 -0.048032 -0.079322
v 0.005946 -0.047589 -0.082067
v 0.005995 -0.048862 -0.078184
v 0.005931 -0.048020 -0.083407
v 0.005847 -0.047472 -0.090272
v 0.006007 -0.050004 -0.077361
v 0.005919 -0.048845 -0.084548
v 0.006015 -0.051344 -0.076929
v 0.005911 -0.049982 -0.085379
v 0.006016 -0.051823 -0.076931
v 0.005909 -0.050865 -0.085668
v 0.006018 -0.052752 -0.076933
v 0.005908 -0.051320 -0.085817
v 0.005841 -0.050445 -0.091247
v 0.005909 -0.051799 -0.085819
v 0.006016 -0.053635 -0.077223
v 0.006015 -0.054090 -0.077372
v 0.005911 -0.052728 -0.085822
v 0.006007 -0.055226 -0.078203
v 0.005919 -0.054068 -0.085390
v 0.006146 -0.057300 -0.067031
v 0.005847 -0.053573 -0.091256
v 0.006146 -0.057499 -0.067063
v 0.006146 -0.057754 -0.067104
v 0.005995 -0.056051 -0.079343
v 0.005931 -0.055210 -0.084566
v 0.005980 -0.056483 -0.080684
v 0.005946 -0.056040 -0.083429
v 0.005963 -0.056479 -0.082091
v 0.006146 -0.058876 -0.067285
v 0.006146 -0.059370 -0.067365
v 0.005864 -0.056551 -0.090298
v 0.006146 -0.060738 -0.067585
v 0.006146 -0.060905 -0.067612
v 0.006146 -0.060965 -0.067622
v 0.006146 -0.061101 -0.067644
v 0.006146 -0.061111 -0.067645
v 0.006146 -0.061132 -0.067649
v 0.006146 -0.061156 -0.067653
v 0.006146 -0.061430 -0.067697
v 0.006146 -0.061592 -0.067723
v 0.006146 -0.062076 -0.067801
v 0.006146 -0.062245 -0.067828
v 0.006146 -0.062277 -0.067833
v 0.006146 -0.062356 -0.067846
v 0.006146 -0.062391 -0.067852
v 0.006146 -0.062394 -0.067852
v 0.006146 -0.062396 -0.067853
v 0.006146 -0.062403 -0.067854
v 0.005891 -0.059087 -0.088465
v 0.006146 -0.062412 -0.067855
v 0.006146 -0.062450 -0.067861
v 0.006146 -0.062452 -0.067862
v 0.006146 -0.062487 -0.067867
v 0.006146 -0.063065 -0.067960
v 0.006146 -0.063219 -0.067985
v 0.006146 -0.063363 -0.068009
v 0.005925 -0.060934 -0.085940
v 0.006146 -0.064007 -0.068112
v 0.006146 -0.064138 -0.068133
v 0.006146 -0.064141 -0.068134
v 0.006146 -0.064143 -0.068134
v 0.006207 -0.065012 -0.063210
v 0.006205 -0.064993 -0.063332
v 0.006205 -0.064991 -0.063346
v 0.006205 -0.064989 -0.063354
v 0.006204 -0.064984 -0.063386
v 0.006204 -0.064978 -0.063425
v 0.006181 -0.064673 -0.065315
v 0.006146 -0.064217 -0.068146
v 0.006207 -0.065091 -0.063223
v 0.005963 -0.061908 -0.082967
v 0.006384 -0.044705 -0.065004
v 0.006384 -0.064140 -0.068137
v 0.006591 -0.049032 -0.059796
v 0.006591 -0.061669 -0.061833
v 0.006759 -0.049032 -0.059798
v 0.006780 -0.061668 -0.061835
v 0.006870 -0.045766 -0.059273
v 0.006799 -0.044837 -0.065030
v 0.006870 -0.064934 -0.062363
v 0.006799 -0.064006 -0.068120
v 0.006915 -0.061668 -0.061837
v 0.007079 -0.049031 -0.059802
v 0.007079 -0.061668 -0.061839
v 0.007314 -0.063305 -0.068014
v 0.007435 -0.063141 -0.067989
v 0.007569 -0.049030 -0.059808
v 0.007569 -0.061667 -0.061845
v 0.008161 -0.052352 -0.039201
v 0.008161 -0.064989 -0.041239
v 0.007985 -0.049029 -0.059813
v 0.007985 -0.061666 -0.061850
v 0.007986 -0.063417 -0.062132
v 0.007918 -0.062483 -0.067889
v 0.008157 -0.046680 -0.065344
v 0.008176 -0.046706 -0.065348
v 0.008247 -0.063061 -0.062078
v 0.008442 -0.047066 -0.065410
v 0.008506 -0.047153 -0.065424
v 0.008560 -0.047227 -0.065437
v 0.008588 -0.047264 -0.065443
v 0.008600 -0.047280 -0.065446
v 0.008600 -0.061556 -0.067747
v 0.008859 -0.047633 -0.065506
v 0.008860 -0.061202 -0.067694
v 0.009274 -0.049027 -0.059828
v 0.009249 -0.048711 -0.061785
v 0.009248 -0.048692 -0.061904
v 0.009231 -0.048467 -0.063301
v 0.009227 -0.048423 -0.063572
v 0.009225 -0.048389 -0.063785
v 0.009223 -0.048372 -0.063888
v 0.009223 -0.048365 -0.063933
v 0.009213 -0.048231 -0.064764
v 0.009274 -0.061664 -0.061865
v 0.009231 -0.061104 -0.065337
v 0.009228 -0.061070 -0.065547
v 0.009227 -0.061060 -0.065609
v 0.009225 -0.061026 -0.065822
v 0.009224 -0.061017 -0.065877
v 0.009223 -0.061002 -0.065970
v 0.009213 -0.060868 -0.066801
v 0.009548 -0.051906 -0.041970
v 0.009548 -0.064542 -0.044007
v 0.009385 -0.060634 -0.066766
v 0.009481 -0.048477 -0.065650
v 0.009481 -0.060356 -0.067565
v 0.009563 -0.060391 -0.066729
v 0.009629 -0.060155 -0.067534
v 0.009999 -0.051413 -0.045027
v 0.009756 -0.048230 -0.064771
v 0.009736 -0.048710 -0.066488
v 0.009877 -0.050560 -0.055018
v 0.009817 -0.049767 -0.059936
v 0.009815 -0.049743 -0.060083
v 0.009756 -0.048968 -0.064890
v 0.009745 -0.048836 -0.065711
v 0.009685 -0.048040 -0.070647
v 0.009877 -0.054399 -0.055637
v 0.009877 -0.054425 -0.055641
v 0.009877 -0.056140 -0.055917
v 0.009685 -0.054252 -0.071648
v 0.009877 -0.060813 -0.056671
v 0.009877 -0.061720 -0.056817
v 0.009817 -0.060927 -0.061735
v 0.009816 -0.060918 -0.061790
v 0.009770 -0.060314 -0.065536
v 0.009756 -0.060128 -0.066689
v 0.009745 -0.059996 -0.067510
v 0.009741 -0.059935 -0.067886
v 0.009685 -0.059200 -0.072446
v 0.009736 -0.059872 -0.068287
v 0.009999 -0.064050 -0.047064
v 0.009756 -0.060867 -0.066808
v 0.011290 -0.052476 -0.055344
v 0.011097 -0.049957 -0.070973
v 0.011290 -0.059798 -0.056525
v 0.011097 -0.057278 -0.072154

f 1 2 4 
f 10 2 1 
f 1 4 3 
f 18 1 3 
f 8 9 1 
f 17 8 1 
f 9 10 1 
f 17 1 18 
f 16 4 2 
f 2 14 7 
f 7 15 2 
f 11 2 10 
f 12 2 11 
f 32 2 12 
f 13 14 2 
f 32 13 2 
f 16 2 15 
f 3 4 25 
f 19 18 3 
f 21 19 3 
f 21 3 22 
f 3 23 22 
f 3 24 23 
f 3 25 24 
f 20 4 16 
f 20 27 4 
f 25 4 26 
f 26 4 28 
f 28 4 27 
f 6 8 5 
f 38 6 5 
f 8 17 5 
f 17 18 5 
f 18 19 5 
f 19 29 5 
f 37 5 29 
f 5 37 36 
f 221 5 36 
f 228 38 5 
f 5 221 224 
f 5 224 228 
f 6 9 8 
f 6 10 9 
f 6 11 10 
f 11 6 12 
f 6 32 12 
f 6 35 32 
f 35 6 45 
f 38 39 6 
f 40 6 39 
f 41 6 40 
f 42 6 41 
f 43 6 42 
f 44 6 43 
f 6 44 45 
f 28 7 14 
f 16 15 7 
f 16 7 28 
f 26 14 13 
f 140 26 13 
f 32 31 13 
f 138 13 31 
f 140 13 138 
f 14 26 28 
f 20 16 28 
f 29 19 21 
f 20 28 27 
f 29 21 22 
f 30 22 23 
f 29 22 30 
f 30 23 24 
f 24 25 30 
f 25 26 34 
f 25 54 30 
f 25 34 54 
f 26 163 34 
f 140 163 26 
f 30 46 29 
f 29 222 37 
f 46 230 29 
f 222 29 226 
f 226 29 230 
f 30 47 46 
f 30 48 47 
f 30 49 48 
f 30 50 49 
f 30 51 50 
f 30 52 51 
f 30 53 52 
f 53 30 54 
f 32 35 31 
f 33 31 35 
f 137 31 33 
f 138 31 137 
f 33 35 45 
f 45 55 33 
f 131 33 55 
f 137 33 131 
f 54 34 56 
f 34 164 56 
f 34 163 164 
f 71 36 37 
f 36 71 70 
f 221 36 70 
f 37 225 71 
f 225 37 222 
f 63 39 38 
f 68 63 38 
f 228 68 38 
f 63 40 39 
f 63 41 40 
f 63 42 41 
f 63 43 42 
f 63 44 43 
f 44 55 45 
f 44 57 55 
f 66 57 44 
f 63 74 44 
f 74 66 44 
f 46 47 81 
f 69 230 46 
f 46 443 69 
f 81 443 46 
f 48 64 47 
f 47 64 65 
f 47 65 81 
f 48 49 62 
f 64 48 62 
f 49 50 61 
f 62 49 61 
f 50 51 60 
f 61 50 60 
f 51 52 59 
f 60 51 59 
f 52 53 58 
f 59 52 58 
f 53 54 56 
f 58 53 56 
f 57 130 55 
f 130 131 55 
f 167 58 56 
f 165 56 164 
f 166 56 165 
f 166 167 56 
f 57 66 128 
f 57 128 130 
f 169 59 58 
f 167 168 58 
f 169 58 168 
f 60 59 170 
f 170 59 169 
f 60 171 61 
f 60 170 171 
f 61 172 62 
f 171 172 61 
f 62 173 64 
f 172 173 62 
f 67 74 63 
f 63 196 67 
f 72 63 68 
f 76 63 72 
f 83 63 76 
f 63 83 84 
f 63 84 85 
f 63 85 196 
f 64 175 65 
f 64 173 174 
f 174 175 64 
f 81 65 82 
f 82 65 179 
f 175 176 65 
f 65 176 177 
f 179 65 177 
f 66 74 106 
f 107 66 106 
f 66 107 108 
f 109 66 108 
f 110 66 109 
f 112 66 110 
f 113 66 112 
f 114 66 113 
f 115 66 114 
f 116 66 115 
f 117 66 116 
f 118 66 117 
f 119 66 118 
f 120 66 119 
f 121 66 120 
f 122 66 121 
f 123 66 122 
f 124 66 123 
f 125 66 124 
f 126 66 125 
f 127 66 126 
f 128 66 127 
f 67 75 74 
f 79 75 67 
f 79 67 428 
f 198 67 196 
f 67 198 219 
f 67 219 290 
f 424 67 290 
f 426 67 424 
f 433 67 426 
f 428 67 456 
f 437 67 433 
f 441 67 437 
f 456 67 441 
f 235 72 68 
f 228 235 68 
f 69 73 237 
f 69 443 73 
f 69 237 230 
f 218 70 71 
f 70 218 217 
f 221 70 217 
f 71 229 218 
f 229 71 225 
f 240 76 72 
f 235 240 72 
f 73 77 242 
f 73 443 77 
f 73 242 237 
f 74 75 105 
f 106 74 105 
f 79 80 75 
f 104 75 80 
f 105 75 104 
f 246 83 76 
f 246 76 240 
f 77 78 244 
f 77 443 78 
f 77 244 242 
f 78 86 257 
f 78 443 86 
f 78 257 244 
f 79 87 80 
f 92 87 79 
f 93 92 79 
f 94 93 79 
f 95 94 79 
f 96 95 79 
f 97 96 79 
f 98 97 79 
f 213 98 79 
f 213 79 296 
f 296 79 428 
f 101 80 87 
f 102 80 101 
f 102 104 80 
f 81 82 88 
f 81 88 192 
f 81 187 186 
f 81 186 216 
f 81 188 187 
f 81 189 188 
f 81 190 189 
f 81 191 190 
f 81 192 191 
f 216 298 81 
f 298 430 81 
f 430 443 81 
f 82 184 88 
f 82 179 181 
f 181 182 82 
f 82 182 183 
f 82 183 184 
f 246 84 83 
f 254 85 84 
f 246 254 84 
f 85 254 196 
f 257 86 220 
f 86 443 220 
f 92 91 87 
f 99 87 91 
f 100 87 99 
f 100 101 87 
f 184 185 88 
f 88 185 193 
f 192 88 193 
f 91 89 90 
f 89 206 90 
f 92 89 91 
f 93 89 92 
f 94 89 93 
f 95 89 94 
f 96 89 95 
f 97 89 96 
f 89 97 98 
f 197 89 98 
f 89 197 199 
f 89 199 201 
f 89 201 210 
f 89 203 204 
f 89 209 203 
f 89 204 205 
f 89 205 206 
f 209 89 210 
f 135 91 90 
f 132 90 103 
f 90 330 103 
f 90 132 133 
f 90 133 135 
f 206 248 90 
f 248 316 90 
f 330 90 316 
f 135 99 91 
f 213 197 98 
f 135 100 99 
f 135 101 100 
f 135 102 101 
f 135 104 102 
f 132 103 111 
f 103 332 111 
f 332 103 330 
f 135 105 104 
f 135 106 105 
f 135 107 106 
f 141 108 107 
f 141 107 135 
f 141 109 108 
f 141 110 109 
f 141 112 110 
f 132 111 129 
f 111 348 129 
f 348 111 332 
f 141 113 112 
f 141 114 113 
f 141 115 114 
f 141 116 115 
f 141 117 116 
f 141 118 117 
f 141 119 118 
f 143 120 119 
f 143 119 141 
f 146 121 120 
f 146 120 143 
f 121 147 122 
f 146 147 121 
f 122 147 123 
f 147 124 123 
f 124 147 125 
f 125 147 126 
f 126 147 127 
f 127 147 128 
f 128 147 130 
f 129 134 132 
f 129 136 134 
f 129 142 136 
f 142 129 139 
f 348 139 129 
f 130 147 131 
f 131 147 137 
f 132 350 133 
f 134 349 132 
f 350 132 349 
f 133 352 135 
f 352 133 350 
f 136 351 134 
f 349 134 351 
f 135 355 141 
f 355 135 352 
f 142 353 136 
f 351 136 353 
f 137 147 138 
f 138 147 140 
f 139 144 142 
f 139 145 144 
f 145 139 149 
f 354 149 139 
f 139 348 354 
f 140 147 163 
f 355 143 141 
f 358 142 144 
f 353 142 356 
f 142 358 356 
f 143 359 146 
f 143 355 357 
f 359 143 357 
f 145 358 144 
f 145 149 148 
f 148 360 145 
f 358 145 360 
f 146 361 147 
f 361 146 359 
f 166 147 150 
f 361 150 147 
f 163 147 164 
f 164 147 165 
f 166 165 147 
f 149 151 148 
f 364 148 151 
f 360 148 362 
f 148 364 362 
f 151 149 156 
f 363 156 149 
f 149 354 363 
f 168 150 152 
f 365 152 150 
f 167 166 150 
f 168 167 150 
f 150 361 365 
f 151 156 153 
f 367 151 153 
f 151 367 364 
f 174 152 154 
f 366 154 152 
f 169 168 152 
f 170 169 152 
f 171 170 152 
f 172 171 152 
f 173 172 152 
f 174 173 152 
f 152 365 366 
f 153 156 155 
f 369 153 155 
f 153 369 367 
f 179 154 157 
f 154 374 157 
f 175 174 154 
f 176 175 154 
f 177 176 154 
f 179 177 154 
f 154 366 368 
f 374 154 368 
f 162 155 156 
f 155 162 158 
f 158 369 155 
f 371 162 156 
f 156 363 371 
f 159 195 157 
f 157 376 159 
f 179 157 181 
f 181 157 182 
f 182 157 183 
f 183 157 184 
f 184 157 185 
f 185 157 193 
f 157 195 193 
f 376 157 374 
f 158 178 160 
f 160 375 158 
f 178 158 162 
f 369 158 375 
f 161 195 159 
f 159 378 161 
f 378 159 376 
f 160 180 161 
f 161 377 160 
f 180 160 178 
f 375 160 377 
f 195 161 180 
f 377 161 378 
f 162 399 178 
f 162 371 381 
f 399 162 381 
f 178 407 180 
f 407 178 399 
f 180 421 195 
f 421 180 407 
f 186 187 194 
f 200 186 194 
f 186 200 216 
f 194 187 188 
f 194 188 189 
f 194 189 190 
f 191 194 190 
f 191 192 194 
f 192 193 194 
f 193 195 194 
f 195 208 194 
f 202 200 194 
f 211 202 194 
f 194 208 207 
f 207 211 194 
f 195 261 208 
f 261 195 421 
f 198 196 254 
f 213 199 197 
f 219 198 254 
f 213 201 199 
f 216 200 202 
f 213 210 201 
f 216 202 211 
f 249 204 203 
f 249 203 209 
f 204 250 205 
f 249 250 204 
f 205 250 206 
f 248 206 250 
f 207 208 260 
f 260 211 207 
f 261 260 208 
f 210 249 209 
f 249 210 213 
f 216 211 260 
f 249 213 212 
f 295 212 213 
f 251 249 212 
f 251 212 295 
f 295 213 296 
f 233 215 214 
f 214 215 259 
f 259 233 214 
f 215 216 260 
f 298 216 215 
f 233 238 215 
f 238 245 215 
f 245 258 215 
f 258 265 215 
f 215 260 259 
f 265 272 215 
f 272 277 215 
f 277 297 215 
f 215 297 298 
f 218 231 217 
f 217 223 221 
f 217 227 223 
f 217 234 227 
f 234 217 231 
f 236 218 229 
f 231 218 232 
f 218 236 232 
f 219 254 290 
f 257 220 291 
f 220 443 291 
f 223 222 221 
f 226 221 222 
f 221 226 224 
f 222 223 225 
f 227 225 223 
f 230 224 226 
f 224 230 228 
f 225 227 229 
f 234 229 227 
f 237 228 230 
f 228 237 235 
f 229 234 236 
f 232 252 231 
f 231 239 234 
f 231 243 239 
f 243 231 252 
f 241 232 236 
f 247 232 241 
f 232 247 255 
f 252 232 255 
f 259 238 233 
f 234 241 236 
f 241 234 239 
f 237 240 235 
f 240 237 242 
f 259 245 238 
f 243 241 239 
f 244 240 242 
f 240 244 246 
f 241 243 247 
f 253 247 243 
f 243 252 253 
f 257 246 244 
f 259 258 245 
f 246 257 254 
f 247 253 256 
f 255 247 256 
f 264 248 250 
f 316 248 264 
f 295 250 249 
f 251 294 249 
f 294 295 249 
f 264 250 303 
f 295 296 250 
f 296 299 250 
f 299 302 250 
f 302 303 250 
f 295 294 251 
f 252 266 253 
f 255 278 252 
f 266 252 278 
f 253 263 256 
f 263 253 266 
f 257 262 254 
f 426 254 262 
f 290 254 424 
f 426 424 254 
f 255 256 263 
f 255 263 279 
f 278 255 279 
f 262 257 267 
f 267 257 432 
f 257 291 312 
f 257 312 314 
f 257 314 425 
f 257 425 427 
f 432 257 427 
f 259 265 258 
f 259 260 305 
f 259 272 265 
f 259 277 272 
f 277 259 297 
f 259 298 297 
f 259 300 298 
f 259 301 300 
f 259 304 301 
f 259 305 304 
f 307 260 261 
f 305 260 306 
f 306 260 307 
f 307 261 421 
f 267 269 262 
f 433 262 269 
f 433 426 262 
f 266 270 263 
f 279 263 270 
f 316 264 303 
f 270 266 268 
f 266 278 268 
f 269 267 271 
f 271 267 434 
f 267 432 434 
f 268 275 270 
f 275 268 273 
f 268 278 273 
f 271 274 269 
f 437 269 274 
f 437 433 269 
f 279 270 275 
f 274 271 276 
f 276 271 438 
f 271 434 438 
f 280 275 273 
f 292 273 278 
f 273 292 280 
f 283 274 276 
f 274 283 281 
f 441 274 281 
f 441 437 274 
f 275 293 279 
f 275 280 282 
f 293 275 282 
f 283 276 442 
f 276 438 442 
f 279 292 278 
f 292 279 293 
f 284 282 280 
f 280 439 284 
f 439 280 292 
f 287 281 283 
f 281 287 285 
f 285 480 281 
f 281 456 441 
f 281 480 456 
f 282 284 286 
f 440 282 286 
f 282 440 293 
f 503 287 283 
f 465 283 442 
f 503 283 465 
f 288 286 284 
f 284 473 288 
f 473 284 439 
f 289 285 287 
f 285 289 288 
f 288 480 285 
f 286 288 289 
f 474 286 289 
f 286 474 440 
f 503 289 287 
f 480 288 473 
f 289 503 474 
f 443 312 291 
f 440 292 293 
f 292 440 439 
f 296 308 299 
f 296 310 308 
f 310 296 324 
f 296 428 324 
f 300 309 298 
f 298 309 311 
f 298 311 313 
f 298 313 412 
f 298 412 430 
f 302 299 315 
f 299 308 315 
f 301 420 300 
f 420 309 300 
f 420 301 304 
f 315 303 302 
f 316 303 315 
f 420 304 305 
f 420 305 306 
f 420 306 307 
f 420 307 421 
f 308 310 315 
f 420 311 309 
f 310 324 315 
f 420 313 311 
f 312 443 314 
f 313 420 412 
f 447 425 314 
f 447 314 443 
f 315 317 316 
f 315 318 317 
f 315 319 318 
f 315 320 319 
f 315 321 320 
f 315 322 321 
f 315 323 322 
f 323 315 324 
f 317 352 316 
f 316 349 330 
f 349 316 350 
f 350 316 352 
f 318 422 317 
f 317 325 352 
f 325 317 422 
f 318 319 428 
f 318 428 422 
f 319 320 428 
f 320 321 428 
f 321 322 428 
f 322 323 428 
f 323 324 428 
f 325 326 352 
f 422 326 325 
f 326 327 352 
f 327 326 429 
f 429 326 422 
f 327 328 352 
f 429 328 327 
f 328 329 352 
f 329 328 429 
f 331 352 329 
f 429 331 329 
f 330 351 332 
f 351 330 349 
f 331 333 355 
f 445 333 331 
f 331 355 352 
f 445 331 429 
f 332 353 348 
f 353 332 351 
f 333 334 355 
f 334 333 445 
f 335 355 334 
f 445 335 334 
f 336 355 335 
f 446 336 335 
f 446 335 445 
f 337 357 336 
f 446 337 336 
f 336 357 355 
f 338 357 337 
f 448 338 337 
f 448 337 446 
f 339 357 338 
f 449 339 338 
f 449 338 448 
f 340 357 339 
f 450 340 339 
f 450 339 449 
f 341 357 340 
f 451 341 340 
f 451 340 450 
f 342 357 341 
f 452 342 341 
f 452 341 451 
f 342 343 359 
f 343 342 452 
f 342 359 357 
f 344 361 343 
f 452 344 343 
f 343 361 359 
f 345 361 344 
f 454 345 344 
f 454 344 452 
f 361 345 346 
f 454 346 345 
f 361 346 347 
f 476 347 346 
f 476 346 454 
f 361 347 370 
f 370 347 487 
f 487 347 476 
f 356 348 353 
f 348 356 354 
f 358 354 356 
f 360 354 358 
f 354 360 363 
f 363 360 362 
f 361 389 365 
f 361 370 372 
f 361 372 373 
f 361 373 379 
f 361 379 380 
f 361 380 382 
f 361 382 383 
f 361 383 384 
f 361 384 385 
f 361 385 386 
f 361 386 387 
f 361 387 388 
f 361 388 389 
f 363 362 364 
f 363 364 371 
f 371 364 367 
f 365 390 366 
f 365 389 390 
f 366 391 368 
f 366 390 391 
f 371 367 369 
f 368 403 374 
f 368 391 392 
f 368 392 393 
f 368 393 394 
f 368 394 395 
f 368 395 396 
f 368 396 397 
f 368 397 398 
f 368 398 400 
f 368 400 401 
f 368 401 402 
f 368 402 403 
f 369 381 371 
f 381 369 375 
f 499 372 370 
f 499 370 487 
f 373 372 479 
f 479 372 499 
f 477 379 373 
f 477 373 479 
f 421 376 374 
f 404 374 403 
f 405 374 404 
f 406 374 405 
f 408 374 406 
f 409 374 408 
f 410 374 409 
f 411 374 410 
f 419 374 411 
f 421 374 419 
f 399 375 377 
f 375 399 381 
f 421 378 376 
f 407 377 378 
f 377 407 399 
f 378 421 407 
f 455 380 379 
f 455 379 477 
f 453 382 380 
f 453 380 455 
f 383 382 444 
f 444 382 453 
f 383 444 384 
f 444 385 384 
f 444 386 385 
f 444 387 386 
f 444 388 387 
f 444 389 388 
f 444 390 389 
f 444 391 390 
f 444 392 391 
f 392 444 393 
f 393 444 394 
f 444 395 394 
f 444 396 395 
f 397 396 444 
f 397 444 398 
f 398 444 400 
f 400 444 401 
f 401 444 402 
f 403 402 444 
f 404 403 444 
f 405 404 436 
f 404 444 436 
f 405 435 406 
f 405 436 435 
f 408 406 431 
f 406 435 431 
f 409 408 431 
f 409 423 410 
f 409 431 423 
f 411 410 423 
f 411 423 419 
f 413 412 420 
f 412 413 430 
f 413 420 414 
f 413 414 430 
f 414 420 415 
f 430 414 415 
f 415 420 416 
f 415 416 430 
f 416 420 417 
f 416 417 430 
f 418 417 420 
f 417 418 430 
f 420 419 418 
f 418 419 423 
f 418 423 430 
f 421 419 420 
f 422 428 429 
f 430 423 431 
f 447 427 425 
f 427 447 432 
f 428 445 429 
f 457 445 428 
f 456 457 428 
f 430 431 435 
f 430 435 443 
f 432 447 434 
f 434 447 438 
f 443 435 436 
f 443 436 447 
f 471 436 444 
f 447 436 471 
f 438 447 442 
f 474 439 440 
f 439 474 473 
f 442 447 465 
f 471 444 453 
f 457 446 445 
f 446 458 448 
f 458 446 457 
f 447 466 465 
f 447 467 466 
f 447 468 467 
f 447 469 468 
f 447 470 469 
f 470 447 471 
f 448 459 449 
f 458 459 448 
f 449 460 450 
f 459 460 449 
f 450 461 451 
f 460 461 450 
f 451 462 452 
f 461 462 451 
f 452 463 454 
f 462 463 452 
f 471 453 455 
f 463 464 454 
f 464 476 454 
f 471 455 472 
f 472 455 477 
f 457 456 481 
f 456 480 481 
f 458 457 481 
f 459 458 481 
f 481 460 459 
f 481 461 460 
f 481 462 461 
f 481 463 462 
f 464 463 481 
f 476 464 486 
f 486 464 481 
f 504 465 466 
f 503 465 504 
f 467 504 466 
f 468 504 467 
f 469 504 468 
f 470 504 469 
f 471 504 470 
f 504 471 472 
f 475 472 477 
f 475 504 472 
f 503 473 474 
f 473 503 480 
f 479 475 477 
f 478 475 479 
f 504 475 478 
f 476 486 487 
f 499 478 479 
f 504 478 498 
f 478 508 498 
f 478 499 508 
f 480 483 481 
f 480 489 483 
f 480 490 489 
f 480 491 490 
f 491 480 503 
f 481 483 484 
f 484 485 481 
f 485 486 481 
f 500 487 482 
f 482 487 506 
f 488 492 482 
f 482 506 488 
f 482 492 502 
f 482 502 500 
f 505 484 483 
f 489 505 483 
f 505 485 484 
f 505 486 485 
f 487 486 506 
f 505 506 486 
f 487 500 499 
f 492 488 506 
f 489 490 505 
f 491 507 490 
f 490 507 505 
f 493 491 503 
f 493 507 491 
f 492 501 502 
f 501 492 508 
f 492 506 508 
f 494 493 503 
f 493 494 507 
f 504 495 494 
f 494 495 507 
f 504 494 503 
f 504 496 495 
f 495 496 507 
f 504 497 496 
f 497 508 496 
f 496 508 507 
f 497 504 498 
f 498 508 497 
f 499 500 508 
f 500 502 508 
f 502 501 508 
f 507 506 505 
f 507 508 506 


