v -0.069884 0.030764 -0.018653
v -0.069251 0.029339 -0.017994
v -0.069250 0.029338 -0.017993
v -0.068621 0.027922 -0.017339
v -0.068548 0.027758 -0.017263
v -0.068284 0.027166 -0.016988
v -0.068282 0.027164 -0.016986
v -0.067801 0.026720 -0.016495
v -0.067569 0.026506 -0.016259
v -0.067416 0.026365 -0.016103
v -0.067329 0.026285 -0.016014
v -0.067326 0.026282 -0.016011
v -0.067306 0.026260 -0.015990
v -0.067003 0.030827 -0.021181
v -0.066830 0.030831 -0.021333
v -0.066803 0.030832 -0.021358
v -0.066612 0.025523 -0.015280
v -0.066539 0.025341 -0.015204
v -0.066292 0.030937 -0.021511
v -0.065690 0.023201 -0.014317
v -0.065252 0.022099 -0.013860
v -0.064879 0.021503 -0.013475
v -0.064878 0.021500 -0.013473
v -0.064606 0.025764 -0.015770
v -0.063887 0.019619 -0.012448
v -0.063350 0.018600 -0.011892
v -0.063349 0.018597 -0.011891
v -0.063319 0.018538 -0.011859
v -0.063290 0.031560 -0.022411
v -0.063187 0.025809 -0.015779
v -0.062816 0.017540 -0.011338
v -0.062757 0.024351 -0.014988
v -0.062723 0.031678 -0.022581
v -0.062503 0.026082 -0.015918
v -0.062399 0.016711 -0.010905
v -0.062399 0.023138 -0.014329
v -0.062393 0.016683 -0.010899
v -0.062344 0.031681 -0.022931
v -0.062228 0.015818 -0.010719
v -0.062112 0.019964 -0.012617
v -0.062075 0.020180 -0.012730
v -0.061913 0.021501 -0.013441
v -0.061522 0.019212 -0.012225
v -0.061482 0.036001 -0.010278
v -0.061134 0.013424 -0.009582
v -0.061024 0.030114 -0.020851
v -0.060991 0.016852 -0.011009
v -0.060979 0.018521 -0.011864
v -0.060952 0.018485 -0.011846
v -0.060892 0.017579 -0.011370
v -0.060849 0.016942 -0.011035
v -0.060227 0.029552 -0.020043
v -0.060224 0.029549 -0.020037
v -0.059610 0.010084 -0.007997
v -0.059266 0.007938 -0.007618
v -0.059121 0.007582 -0.007467
v -0.059119 0.005362 -0.007431
v -0.059119 0.007578 -0.007465
v -0.059116 0.005351 -0.007428
v -0.057891 0.001913 -0.006142
v -0.057795 0.031718 -0.027121
v -0.057342 0.007816 -0.007944
v -0.057022 0.007824 -0.008012
v -0.056917 0.031709 -0.027980
v -0.056857 0.006308 -0.008032
v -0.056845 0.006202 -0.008034
v -0.056584 -0.001428 -0.004776
v -0.056520 0.003287 -0.008074
v -0.056519 0.003287 -0.008073
v -0.056469 -0.001722 -0.004655
v -0.055535 0.027435 -0.015288
v -0.055432 0.031693 -0.029434
v -0.055280 0.029052 -0.023020
v -0.055048 0.029085 -0.023308
v -0.054016 0.030499 -0.027992
v -0.053677 0.018355 -0.010778
v -0.053322 -0.008565 -0.001384
v -0.053289 0.022679 -0.012956
v -0.052881 -0.009024 -0.000933
v -0.052466 0.031596 -0.032542
v -0.052391 -0.009747 -0.000429
v -0.051908 -0.010220 0.000065
v -0.051898 0.018555 -0.011492
v -0.051837 0.029205 -0.025782
v -0.051837 0.029205 -0.025781
v -0.051378 0.031561 -0.033683
v -0.051227 0.008750 -0.009251
v -0.051165 -0.011255 0.000828
v -0.051057 0.031550 -0.034019
v -0.050206 0.008869 -0.009641
v -0.050110 -0.001477 -0.009386
v -0.050031 0.006281 -0.009425
v -0.049311 -0.013995 0.002736
v -0.048474 0.031501 -0.036616
v -0.048066 -0.003608 -0.007296
v -0.047756 0.029036 -0.030053
v -0.047570 -0.016569 0.004528
v -0.047497 0.027718 -0.021392
v -0.047475 0.029011 -0.030294
v -0.047008 0.026656 -0.020883
v -0.046875 0.030075 -0.034987
v -0.046731 -0.017473 0.005386
v -0.046099 -0.018201 0.006032
v -0.044891 0.028841 -0.032973
v -0.044890 0.028841 -0.032974
v -0.044603 0.031379 -0.040657
v -0.044297 0.031369 -0.040977
v -0.043831 -0.000930 -0.012639
v -0.043748 0.018884 -0.017483
v -0.043433 -0.023461 0.008797
v -0.043202 -0.023916 0.009036
v -0.043076 0.022152 0.008457
v -0.043037 0.018958 0.008545
v -0.042993 0.015300 -0.017028
v -0.042963 0.022557 0.008565
v -0.042910 0.020027 0.008657
v -0.042899 0.019485 0.008676
v -0.042897 0.019564 0.008678
v -0.042887 0.018023 0.008711
v -0.042866 0.017891 0.008734
v -0.042866 0.017891 0.008734
v -0.042757 0.018103 0.008840
v -0.042741 -0.008812 -0.001857
v -0.042727 0.018944 0.008858
v -0.042723 0.019663 0.008851
v -0.042691 0.030586 0.008716
v -0.042601 0.030026 0.008815
v -0.042601 0.030026 0.008815
v -0.042601 0.030026 0.008815
v -0.042537 0.019768 0.009036
v -0.042453 0.022453 0.009080
v -0.042434 0.028983 0.008999
v -0.042071 0.022638 0.009461
v -0.042054 0.009200 -0.015630
v -0.041977 -0.026881 0.010314
v -0.041953 0.009543 -0.015988
v -0.041693 0.009480 -0.015728
v -0.041645 0.020274 0.009926
v -0.041489 0.031326 -0.043771
v -0.041471 -0.027739 0.010836
v -0.041220 0.031319 -0.044045
v -0.041210 -0.026760 0.010169
v -0.041096 0.009498 -0.015131
v -0.041021 0.027113 0.010449
v -0.040924 0.027395 -0.028959
v -0.040854 0.028777 -0.037536
v -0.040526 -0.017202 0.005529
v -0.040494 0.028691 -0.037659
v -0.040253 0.015300 -0.021991
v -0.040048 0.029014 0.011400
v -0.040048 0.029014 0.011400
v -0.039972 -0.028441 0.012355
v -0.039896 0.023689 0.011634
v -0.039736 0.029660 -0.041983
v -0.039415 0.018138 -0.024950
v -0.039367 0.031279 -0.045924
v -0.039199 0.025051 0.012315
v -0.039199 0.025051 0.012315
v -0.039199 0.025051 0.012315
v -0.038947 0.017827 -0.026824
v -0.038867 0.031318 0.012552
v -0.038854 -0.013002 0.002118
v -0.038660 0.030411 0.012775
v -0.038195 0.017893 -0.026068
v -0.038102 0.028421 -0.040321
v -0.038100 0.028421 -0.040321
v -0.037626 0.031241 -0.047690
v -0.037359 0.028645 0.014112
v -0.037336 0.031234 -0.047985
v -0.036573 -0.031056 0.015816
v -0.036481 -0.009265 -0.009739
v -0.036358 -0.016556 0.004684
v -0.036290 0.041536 0.014990
v -0.035202 0.001852 -0.007684
v -0.035110 -0.032182 0.017306
v -0.035067 0.003526 -0.008512
v -0.035044 0.004839 -0.009079
v -0.034783 0.026893 -0.036960
v -0.034636 -0.008669 -0.008672
v -0.034224 -0.000719 -0.007598
v -0.034187 0.015300 -0.017769
v -0.034142 0.031376 -0.050567
v -0.034083 -0.033999 0.018367
v -0.034066 0.029063 -0.046462
v -0.033998 -0.034060 0.018454
v -0.033904 0.016871 -0.035922
v -0.033869 0.003970 -0.007904
v -0.033869 0.015300 -0.007904
v -0.033868 -0.009546 -0.007904
v -0.033868 -0.005392 -0.007904
v -0.033820 0.004152 -0.007952
v -0.033663 -0.008354 -0.008109
v -0.033544 0.002337 -0.006961
v -0.033522 0.028560 -0.045657
v -0.032856 0.031096 -0.052654
v -0.032834 -0.034246 0.019628
v -0.032745 -0.034114 0.019715
v -0.032625 0.029421 -0.049011
v -0.032620 0.015300 -0.016122
v -0.032556 0.031032 -0.053139
v -0.032518 0.031024 -0.053201
v -0.032506 0.030995 -0.053158
v -0.032483 -0.025338 0.008718
v -0.032479 0.015300 -0.015974
v -0.032466 0.009454 -0.009307
v -0.032441 0.030838 -0.052909
v -0.032416 0.029683 -0.050111
v -0.032281 0.012463 -0.009492
v -0.032209 -0.033223 0.020242
v -0.032181 0.030210 -0.051916
v -0.032167 0.029171 -0.049383
v -0.031856 0.012928 -0.009917
v -0.031846 -0.007767 -0.007058
v -0.031704 0.028246 -0.048070
v -0.031704 0.028246 -0.048068
v -0.031246 -0.015700 -0.004373
v -0.030964 0.017090 -0.032966
v -0.030849 0.017888 -0.018676
v -0.030470 0.013181 -0.007831
v -0.030291 0.011698 -0.007479
v -0.030187 -0.017045 -0.003285
v -0.029988 0.014977 -0.011785
v -0.029869 0.008187 -0.006647
v -0.029797 0.003543 -0.004818
v -0.029782 0.005127 -0.005501
v -0.029772 0.006167 -0.005949
v -0.029762 0.007298 -0.006436
v -0.029730 0.015300 -0.012043
v -0.029537 0.002493 -0.004769
v -0.029383 0.001891 -0.004749
v -0.029340 0.014884 -0.010230
v -0.029225 0.015056 -0.010473
v -0.029134 0.026187 -0.045453
v -0.028625 0.015961 -0.011748
v -0.028534 0.016136 -0.011957
v -0.028507 0.003198 -0.004147
v -0.028321 0.014032 -0.005861
v -0.028289 0.013763 -0.005797
v -0.028262 -0.027692 0.024129
v -0.028000 0.014515 -0.006542
v -0.027968 0.016284 -0.044127
v -0.027875 0.010324 -0.004982
v -0.027872 0.004131 -0.003721
v -0.027867 0.017411 -0.013485
v -0.027846 0.014220 -0.005425
v -0.027845 0.004171 -0.003702
v -0.027724 -0.033754 0.013636
v -0.027669 0.008611 -0.004576
v -0.027511 0.015253 -0.007581
v -0.027474 0.015308 -0.007659
v -0.027413 0.015307 -0.007534
v -0.027361 0.031246 -0.057387
v -0.027330 -0.034036 0.014038
v -0.027138 0.009473 -0.004168
v -0.027105 -0.026115 0.025269
v -0.027011 0.015300 -0.006707
v -0.027002 0.031295 -0.057573
v -0.026977 0.031302 -0.057573
v -0.026963 0.031168 -0.057532
v -0.026920 -0.033420 0.014441
v -0.026909 0.017270 -0.011840
v -0.026905 0.005021 -0.003404
v -0.026827 0.017258 -0.011699
v -0.026819 0.015276 -0.006366
v -0.026666 -0.025974 0.000394
v -0.026558 0.005584 -0.003138
v -0.026509 0.017252 -0.011047
v -0.026463 0.017251 -0.010952
v -0.026416 0.004631 -0.002885
v -0.026217 0.015202 -0.005295
v -0.025643 -0.026607 0.026748
v -0.025530 0.011966 -0.003005
v -0.025514 0.017234 -0.009005
v -0.025229 0.015232 -0.003143
v -0.025049 0.032379 -0.056044
v -0.024899 0.015090 -0.002821
v -0.024597 0.013414 -0.002329
v -0.024509 -0.004966 -0.000819
v -0.024384 0.008956 -0.001565
v -0.023816 0.014624 -0.001765
v -0.023812 0.019433 -0.011617
v -0.023756 0.017780 -0.025724
v -0.023717 0.016210 -0.039849
v -0.023299 0.016962 -0.005063
v -0.022820 0.016976 -0.004019
v -0.022687 -0.020183 0.029624
v -0.022602 -0.014562 0.001248
v -0.021994 0.012790 0.000245
v -0.021767 -0.007146 -0.012364
v -0.021682 -0.018478 0.030609
v -0.021559 -0.026115 0.019724
v -0.021486 0.017015 -0.001115
v -0.021473 0.017016 -0.001087
v -0.021391 -0.017911 0.030894
v -0.021233 -0.034111 0.005987
v -0.020831 -0.018331 0.030508
v -0.020695 -0.024159 0.003314
v -0.020575 0.017043 0.000871
v -0.020548 0.017035 0.000907
v -0.020547 0.017035 0.000910
v -0.020455 0.035376 -0.051046
v -0.020422 0.015311 0.001435
v -0.020319 0.035374 -0.051181
v -0.020239 0.035393 -0.051096
v -0.020183 -0.034416 0.007048
v -0.020146 0.015488 0.001476
v -0.020091 0.015300 0.001547
v -0.020073 -0.033736 0.006657
v -0.019630 0.007441 0.003902
v -0.019107 0.016154 0.001633
v -0.018868 0.027393 -0.049328
v -0.018166 -0.002666 -0.014079
v -0.018016 -0.002152 0.006259
v -0.017988 -0.032767 0.009232
v -0.017877 -0.016019 0.034401
v -0.017856 0.005531 -0.023496
v -0.017775 0.009767 0.003863
v -0.017116 0.017732 -0.047417
v -0.016977 -0.001190 0.009765
v -0.016947 0.017726 -0.047246
v -0.016892 0.017795 -0.047331
v -0.016760 0.020904 -0.004543
v -0.016719 0.019325 -0.018665
v -0.016663 0.017672 -0.032772
v -0.016601 0.002405 -0.018532
v -0.016004 -0.011750 0.008221
v -0.015919 0.009634 0.010664
v -0.015292 -0.011643 0.036936
v -0.015281 0.036513 -0.045858
v -0.014960 0.010282 0.012790
v -0.014863 -0.010701 0.012039
v -0.014836 0.000713 0.016629
v -0.014809 0.012458 0.011739
v -0.014785 -0.028396 0.026576
v -0.014600 -0.027993 0.028277
v -0.014124 -0.021346 0.010314
v -0.013974 -0.028703 0.013209
v -0.013695 -0.008872 0.019456
v -0.013683 -0.028790 0.027691
v -0.013417 0.036922 -0.043988
v -0.013377 0.019280 -0.043677
v -0.013361 0.015300 0.003771
v -0.013163 -0.015535 0.036418
v -0.012923 0.015208 0.008715
v -0.012860 0.015300 0.008613
v -0.012631 -0.020163 0.014430
v -0.012525 0.001225 -0.013056
v -0.012424 -0.018459 0.022154
v -0.012082 0.030202 -0.042541
v -0.011016 0.037648 0.040484
v -0.010359 0.015106 0.011279
v -0.010293 0.020608 -0.040358
v -0.010153 0.015300 0.011485
v -0.010098 -0.004264 0.042049
v -0.010033 0.015300 0.011246
v -0.009794 0.019771 0.003696
v -0.009756 -0.029359 0.017464
v -0.009704 0.013115 0.021098
v -0.009667 0.020796 -0.011591
v -0.009630 0.019238 -0.025718
v -0.009487 -0.025158 0.036726
v -0.009461 -0.004025 0.042687
v -0.009230 0.019971 0.003049
v -0.009063 0.037879 -0.039620
v -0.008622 0.018285 0.017875
v -0.008543 0.020029 0.003740
v -0.008201 -0.002511 0.043931
v -0.008139 0.003524 0.023504
v -0.007668 0.002580 -0.009806
v -0.007022 -0.026723 0.020174
v -0.006915 -0.006062 0.026248
v -0.006528 -0.029210 0.020710
v -0.006524 -0.027860 0.034882
v -0.006414 -0.012724 0.043242
v -0.006380 0.038469 -0.036930
v -0.006379 -0.028118 0.020108
v -0.005387 -0.015653 0.028692
v -0.005296 0.033012 -0.035755
v -0.003389 0.023416 -0.033689
v -0.003378 0.002323 0.048711
v -0.003217 0.015930 0.028181
v -0.002868 -0.022346 0.043679
v -0.002845 0.039245 -0.033384
v -0.002671 0.021179 -0.018745
v -0.002339 -0.000306 0.048761
v -0.002137 0.019863 -0.003999
v -0.001917 0.020129 0.010407
v -0.001843 0.021131 0.024654
v -0.001411 0.019937 -0.003270
v -0.001368 0.006334 0.030305
v -0.000385 -0.023164 0.026799
v 0.000034 -0.003255 0.032873
v 0.000290 -0.025191 0.041698
v 0.000494 -0.027589 0.027752
v 0.000568 -0.009918 0.049833
v 0.000657 0.040015 -0.029871
v 0.000765 -0.025314 0.026539
v 0.001166 0.011646 0.053141
v 0.001232 0.011781 0.053206
v 0.001294 0.011852 0.053267
v 0.001490 0.035822 -0.028969
v 0.001679 -0.012848 0.035200
v 0.001830 0.013076 0.053787
v 0.001884 0.015398 0.053806
v 0.001943 0.017950 0.053827
v 0.002040 0.022131 0.053860
v 0.002095 0.022525 0.053910
v 0.002203 0.012105 0.053815
v 0.003374 0.040612 -0.027146
v 0.003397 0.026225 -0.026903
v 0.004630 0.029010 0.056362
v 0.004738 0.040912 -0.025778
v 0.004933 0.019870 -0.011072
v 0.004965 -0.019552 0.049425
v 0.004990 0.022330 0.017324
v 0.005153 0.020139 0.003333
v 0.005188 0.002492 0.054811
v 0.005301 0.009145 0.037207
v 0.005612 0.018708 0.032938
v 0.005688 0.019832 -0.010312
v 0.005875 0.019252 0.032449
v 0.006248 -0.019587 0.033420
v 0.006420 0.018883 0.033003
v 0.006787 -0.020921 0.048170
v 0.006814 -0.000445 0.039665
v 0.007400 -0.025384 0.034668
v 0.007791 -0.022508 0.033088
v 0.007921 0.040422 -0.022568
v 0.008074 0.028128 0.056046
v 0.008277 0.038631 -0.022182
v 0.008448 -0.007125 0.055533
v 0.008614 -0.018709 0.049975
v 0.008993 -0.010046 0.041461
v 0.009999 0.027776 0.055342
v 0.010123 0.027749 0.055313
v 0.010184 0.029035 -0.020116
v 0.010965 0.024453 0.054677
v 0.011333 0.039897 -0.019126
v 0.011862 0.014871 0.057748
v 0.012054 0.022371 0.010244
v 0.012242 0.020048 -0.003719
v 0.012355 0.010954 0.039098
v 0.012365 -0.012036 0.053648
v 0.012413 0.027701 0.053087
v 0.012898 0.019495 0.025326
v 0.012915 -0.016173 0.040077
v 0.013202 0.024736 0.053928
v 0.013781 0.018886 0.026224
v 0.014052 -0.021899 0.041309
v 0.014119 0.001298 0.041021
v 0.014259 -0.005985 0.055461
v 0.014490 -0.019697 0.039960
v 0.015488 0.039256 -0.014917
v 0.015609 0.005247 0.057985
v 0.015685 -0.008440 0.042746
v 0.015823 0.015435 0.056708
v 0.016515 0.004039 0.057579
v 0.016611 0.005375 0.057655
v 0.016932 0.031845 -0.013293
v 0.017310 0.027609 0.048284
v 0.018472 0.002290 0.041611
v 0.018495 -0.017662 0.045715
v 0.018685 0.022251 -0.011073
v 0.019149 0.022250 0.003198
v 0.019536 -0.007293 0.044514
v 0.019547 0.027570 0.046081
v 0.019617 0.038620 -0.010735
v 0.019937 -0.014554 0.047119
v 0.019988 0.019401 0.018274
v 0.020331 0.024642 0.046915
v 0.020505 0.011284 0.033106
v 0.020882 0.018781 0.019183
v 0.021681 0.005154 0.051952
v 0.022186 0.009716 0.034822
v 0.022734 -0.005521 0.049795
v 0.022982 0.004968 0.049884
v 0.023030 0.015374 0.049773
v 0.023055 0.038091 -0.007265
v 0.023239 0.005790 0.050130
v 0.023728 0.034655 -0.006515
v 0.024305 0.027534 0.041215
v 0.025507 0.025060 -0.004322
v 0.026555 0.027509 0.038947
v 0.026974 0.019834 0.011110
v 0.027201 0.014056 0.039802
v 0.027210 0.014638 0.042496
v 0.027346 0.024502 0.039789
v 0.027941 0.017716 0.040491
v 0.028526 0.018902 0.012686
v 0.028545 0.011705 0.027640
v 0.028841 0.011810 0.027300
v 0.029177 0.011695 0.027012
v 0.029619 0.037083 -0.000673
v 0.030006 0.037023 -0.000283
v 0.030008 0.037023 -0.000281
v 0.030701 0.036641 0.000425
v 0.031273 0.027469 0.034140
v 0.032393 0.027868 0.002364
v 0.033537 0.027462 0.031786
v 0.034236 0.018875 0.004245
v 0.034335 0.018271 0.004396
v 0.034341 0.018264 0.004359
v 0.034358 0.018261 0.004377
v 0.034360 0.018271 0.004371
v 0.034371 0.024366 0.032673
v 0.034672 0.011060 0.018991
v 0.034921 0.018174 0.033321
v 0.034946 0.034285 0.004777
v 0.035331 0.027709 0.028979
v 0.035421 0.027712 0.028872
v 0.035939 0.027721 0.028295
v 0.036377 0.009473 0.020732
v 0.037451 0.024049 0.028358
v 0.037907 0.027755 0.026096
v 0.038412 0.012609 0.022732
v 0.038952 0.032087 0.008794
v 0.039107 0.031236 0.011812
v 0.039154 0.031312 0.011484
v 0.039232 0.030677 0.009099
v 0.039387 0.029712 0.017222
v 0.039411 0.028027 0.023501
v 0.039465 0.029283 0.018746
v 0.040053 0.023674 0.024213
v 0.040380 0.024919 0.010335
v 0.040688 0.011520 0.015574
v 0.041144 0.021080 0.011159
v 0.041145 0.021082 0.011164
v 0.041148 0.021054 0.011167

f 2 1 14 
f 44 1 2 
f 1 19 14 
f 1 29 19 
f 44 29 1 
f 3 2 14 
f 44 2 3 
f 4 3 15 
f 44 3 4 
f 15 3 14 
f 5 4 15 
f 44 4 5 
f 7 5 6 
f 6 5 16 
f 44 5 7 
f 16 5 15 
f 7 6 46 
f 6 16 46 
f 44 7 8 
f 7 46 8 
f 8 46 9 
f 173 8 9 
f 173 44 8 
f 9 46 10 
f 173 9 10 
f 10 46 11 
f 11 173 10 
f 12 11 24 
f 12 173 11 
f 24 11 46 
f 24 13 12 
f 13 173 12 
f 24 17 13 
f 173 13 17 
f 14 19 15 
f 15 19 16 
f 16 19 46 
f 24 18 17 
f 173 17 18 
f 24 20 18 
f 173 18 20 
f 19 29 46 
f 24 21 20 
f 173 20 21 
f 22 21 24 
f 173 21 22 
f 36 23 22 
f 173 22 23 
f 22 24 32 
f 36 22 32 
f 42 25 23 
f 173 23 25 
f 36 42 23 
f 32 24 30 
f 34 30 24 
f 34 24 53 
f 53 24 46 
f 41 26 25 
f 26 173 25 
f 41 25 42 
f 27 26 43 
f 27 173 26 
f 40 26 41 
f 43 26 40 
f 48 28 27 
f 28 173 27 
f 48 27 43 
f 49 31 28 
f 173 28 31 
f 49 28 48 
f 33 29 44 
f 29 33 46 
f 71 32 30 
f 34 71 30 
f 50 35 31 
f 173 31 35 
f 50 31 49 
f 71 36 32 
f 38 33 44 
f 38 75 33 
f 33 75 46 
f 53 71 34 
f 37 35 51 
f 173 35 37 
f 51 35 50 
f 71 42 36 
f 39 37 47 
f 173 37 39 
f 37 51 47 
f 61 38 44 
f 61 75 38 
f 45 39 76 
f 173 39 45 
f 76 39 47 
f 71 40 41 
f 40 78 43 
f 71 78 40 
f 71 41 42 
f 43 78 48 
f 64 61 44 
f 64 44 72 
f 44 301 72 
f 173 412 44 
f 44 329 301 
f 44 340 329 
f 44 364 340 
f 44 375 364 
f 44 383 375 
f 44 396 383 
f 44 409 396 
f 44 412 409 
f 54 45 76 
f 112 45 54 
f 112 126 45 
f 126 173 45 
f 53 46 52 
f 52 46 75 
f 51 76 47 
f 48 78 49 
f 49 76 50 
f 78 76 49 
f 50 76 51 
f 52 71 53 
f 73 71 52 
f 73 52 74 
f 74 52 75 
f 87 55 54 
f 113 54 55 
f 87 54 76 
f 118 112 54 
f 118 54 113 
f 62 56 55 
f 119 55 56 
f 87 62 55 
f 119 113 55 
f 58 56 62 
f 350 56 58 
f 121 119 56 
f 350 121 56 
f 57 58 65 
f 350 58 57 
f 68 59 57 
f 350 57 59 
f 57 65 66 
f 68 57 66 
f 63 58 62 
f 58 63 65 
f 60 59 68 
f 350 59 60 
f 60 91 67 
f 350 60 67 
f 60 68 69 
f 60 69 91 
f 64 75 61 
f 87 63 62 
f 87 65 63 
f 72 75 64 
f 87 66 65 
f 68 66 69 
f 66 87 69 
f 67 91 70 
f 70 407 67 
f 411 350 67 
f 407 411 67 
f 87 91 69 
f 91 77 70 
f 405 70 77 
f 405 406 70 
f 406 407 70 
f 98 71 73 
f 78 71 100 
f 71 98 100 
f 80 75 72 
f 72 301 80 
f 85 73 74 
f 98 73 85 
f 74 75 85 
f 86 75 80 
f 85 75 84 
f 84 75 101 
f 86 89 75 
f 89 101 75 
f 78 83 76 
f 83 90 76 
f 76 90 87 
f 95 79 77 
f 79 405 77 
f 95 77 91 
f 100 83 78 
f 95 81 79 
f 81 405 79 
f 86 80 94 
f 80 301 94 
f 81 123 82 
f 405 81 82 
f 95 123 81 
f 123 88 82 
f 405 82 88 
f 83 134 90 
f 109 83 100 
f 109 134 83 
f 98 85 84 
f 96 98 84 
f 96 84 101 
f 89 86 94 
f 87 90 92 
f 87 92 91 
f 123 93 88 
f 405 88 93 
f 94 101 89 
f 92 90 134 
f 91 92 108 
f 91 108 95 
f 92 174 108 
f 92 134 174 
f 123 97 93 
f 404 93 97 
f 405 93 404 
f 106 101 94 
f 106 94 139 
f 139 94 156 
f 94 301 156 
f 95 108 174 
f 95 171 123 
f 95 174 171 
f 99 98 96 
f 99 96 101 
f 97 162 102 
f 404 97 102 
f 123 162 97 
f 105 98 99 
f 155 100 98 
f 145 98 105 
f 160 98 145 
f 155 98 160 
f 99 101 104 
f 104 105 99 
f 155 109 100 
f 104 101 154 
f 106 107 101 
f 107 154 101 
f 102 147 103 
f 404 102 103 
f 162 147 102 
f 110 103 147 
f 404 103 110 
f 104 146 105 
f 104 154 146 
f 146 145 105 
f 107 106 139 
f 139 154 107 
f 114 134 109 
f 109 149 114 
f 155 149 109 
f 111 110 147 
f 398 110 111 
f 399 110 398 
f 404 110 399 
f 142 135 111 
f 398 111 135 
f 142 111 147 
f 112 116 115 
f 112 115 126 
f 118 116 112 
f 117 118 113 
f 113 120 117 
f 113 119 120 
f 136 134 114 
f 137 136 114 
f 143 137 114 
f 143 114 188 
f 149 181 114 
f 181 199 114 
f 114 199 188 
f 115 116 126 
f 116 118 126 
f 120 118 117 
f 126 118 120 
f 119 121 120 
f 121 122 120 
f 122 138 120 
f 120 124 125 
f 124 120 130 
f 120 125 127 
f 120 127 126 
f 130 120 150 
f 138 157 120 
f 120 157 150 
f 350 122 121 
f 350 138 122 
f 162 123 216 
f 123 171 216 
f 130 125 124 
f 125 132 127 
f 130 131 125 
f 125 131 132 
f 127 128 126 
f 126 128 144 
f 126 144 151 
f 161 126 151 
f 126 161 173 
f 128 127 129 
f 129 127 132 
f 128 129 144 
f 129 132 144 
f 133 131 130 
f 144 133 130 
f 144 130 150 
f 131 133 132 
f 133 144 132 
f 136 137 134 
f 143 134 137 
f 134 143 176 
f 174 134 176 
f 135 142 140 
f 152 135 140 
f 398 135 152 
f 153 157 138 
f 350 153 138 
f 139 141 154 
f 141 139 156 
f 142 152 140 
f 141 156 154 
f 147 203 142 
f 142 203 152 
f 176 143 177 
f 188 177 143 
f 150 151 144 
f 148 145 146 
f 166 145 148 
f 145 186 160 
f 178 145 166 
f 178 186 145 
f 148 146 154 
f 162 172 147 
f 172 203 147 
f 148 154 165 
f 165 166 148 
f 155 218 149 
f 149 218 181 
f 161 151 150 
f 150 157 161 
f 152 203 170 
f 398 152 170 
f 158 157 153 
f 350 158 153 
f 156 167 154 
f 165 154 184 
f 167 169 154 
f 169 198 154 
f 184 154 198 
f 160 164 155 
f 155 164 218 
f 182 167 156 
f 156 301 182 
f 157 158 159 
f 168 157 159 
f 161 157 163 
f 157 168 163 
f 350 159 158 
f 350 168 159 
f 164 160 217 
f 160 186 217 
f 161 163 173 
f 216 172 162 
f 168 173 163 
f 217 282 164 
f 282 218 164 
f 165 184 166 
f 184 178 166 
f 182 169 167 
f 350 173 168 
f 182 198 169 
f 170 203 175 
f 175 239 170 
f 170 239 255 
f 170 255 286 
f 170 286 290 
f 170 290 294 
f 294 354 170 
f 354 398 170 
f 180 171 174 
f 171 180 179 
f 171 179 189 
f 171 189 216 
f 172 265 203 
f 221 172 216 
f 221 265 172 
f 350 494 173 
f 173 428 412 
f 173 438 428 
f 173 453 438 
f 173 467 453 
f 173 478 467 
f 173 493 478 
f 173 494 493 
f 176 193 174 
f 174 193 180 
f 183 209 175 
f 175 247 183 
f 203 247 175 
f 175 209 239 
f 187 176 177 
f 193 176 187 
f 188 187 177 
f 194 178 184 
f 178 241 186 
f 215 178 194 
f 233 178 215 
f 233 241 178 
f 179 180 190 
f 190 189 179 
f 190 180 213 
f 180 193 229 
f 180 229 213 
f 199 181 218 
f 182 195 202 
f 195 182 257 
f 206 198 182 
f 206 182 202 
f 182 301 257 
f 183 185 209 
f 183 247 185 
f 194 184 198 
f 197 185 196 
f 196 185 253 
f 209 185 197 
f 185 247 253 
f 217 186 283 
f 186 241 283 
f 187 188 191 
f 193 187 191 
f 191 188 205 
f 204 188 199 
f 228 188 204 
f 205 188 208 
f 208 188 212 
f 222 212 188 
f 228 222 188 
f 189 190 192 
f 192 213 189 
f 189 213 216 
f 192 190 213 
f 193 191 205 
f 193 205 227 
f 193 225 224 
f 229 193 224 
f 193 226 225 
f 226 193 227 
f 194 198 215 
f 202 195 200 
f 200 195 257 
f 253 197 196 
f 260 209 197 
f 253 260 197 
f 206 207 198 
f 207 211 198 
f 215 198 211 
f 204 199 218 
f 201 202 200 
f 252 201 200 
f 252 200 257 
f 259 202 201 
f 259 201 252 
f 206 202 259 
f 203 295 247 
f 265 295 203 
f 281 204 218 
f 244 228 204 
f 281 244 204 
f 219 205 208 
f 219 220 205 
f 223 205 220 
f 227 205 223 
f 210 207 206 
f 210 206 259 
f 207 210 259 
f 211 207 311 
f 207 259 311 
f 231 208 212 
f 231 219 208 
f 209 260 239 
f 215 211 214 
f 214 211 311 
f 212 222 232 
f 232 231 212 
f 221 216 213 
f 221 213 287 
f 213 229 230 
f 230 236 213 
f 236 269 213 
f 213 269 278 
f 287 213 278 
f 233 215 214 
f 233 214 311 
f 324 282 217 
f 283 324 217 
f 323 281 218 
f 282 323 218 
f 289 220 219 
f 289 219 231 
f 289 223 220 
f 265 221 287 
f 235 222 228 
f 232 222 234 
f 235 234 222 
f 289 227 223 
f 224 225 230 
f 229 224 230 
f 289 225 226 
f 225 289 230 
f 289 226 227 
f 235 228 244 
f 230 289 236 
f 289 231 232 
f 289 232 234 
f 233 318 241 
f 311 318 233 
f 289 234 235 
f 289 235 244 
f 236 243 269 
f 236 289 243 
f 238 240 237 
f 245 238 237 
f 256 237 240 
f 245 237 256 
f 242 240 238 
f 242 238 245 
f 255 239 291 
f 239 260 291 
f 312 240 242 
f 251 240 249 
f 240 325 249 
f 256 240 251 
f 325 240 312 
f 283 241 320 
f 241 318 320 
f 245 254 242 
f 254 248 242 
f 242 248 312 
f 262 246 243 
f 243 246 269 
f 262 243 369 
f 243 289 369 
f 281 261 244 
f 261 369 244 
f 289 244 316 
f 244 369 316 
f 245 274 254 
f 264 245 256 
f 270 245 264 
f 270 274 245 
f 246 262 269 
f 253 247 305 
f 247 295 305 
f 254 347 248 
f 248 347 312 
f 251 249 250 
f 249 325 250 
f 325 251 250 
f 325 256 251 
f 252 257 259 
f 314 260 253 
f 305 314 253 
f 254 274 272 
f 272 347 254 
f 255 271 286 
f 271 255 291 
f 325 264 256 
f 257 258 259 
f 257 275 258 
f 301 275 257 
f 259 258 275 
f 259 275 311 
f 260 314 291 
f 281 263 261 
f 263 369 261 
f 269 262 266 
f 266 262 369 
f 267 263 281 
f 267 369 263 
f 270 264 347 
f 264 325 347 
f 297 265 287 
f 295 265 297 
f 266 279 269 
f 279 266 369 
f 281 268 267 
f 268 369 267 
f 273 268 281 
f 273 369 268 
f 269 309 278 
f 269 279 309 
f 274 270 276 
f 276 270 347 
f 334 286 271 
f 334 271 291 
f 272 274 276 
f 277 272 276 
f 272 277 347 
f 322 273 281 
f 284 273 322 
f 284 369 273 
f 301 303 275 
f 275 303 311 
f 277 276 280 
f 280 276 347 
f 347 277 280 
f 278 313 287 
f 278 309 313 
f 309 279 288 
f 288 279 369 
f 359 322 281 
f 323 359 281 
f 360 323 282 
f 324 360 282 
f 320 324 283 
f 285 284 322 
f 285 369 284 
f 292 285 322 
f 292 369 285 
f 290 286 296 
f 334 296 286 
f 287 326 297 
f 287 313 326 
f 288 306 302 
f 288 302 309 
f 288 310 306 
f 369 310 288 
f 312 289 325 
f 289 312 369 
f 316 325 289 
f 290 296 294 
f 291 314 337 
f 337 334 291 
f 293 292 322 
f 369 292 293 
f 310 293 298 
f 298 293 322 
f 369 293 310 
f 343 294 296 
f 315 328 294 
f 343 315 294 
f 294 328 354 
f 308 295 297 
f 295 308 305 
f 334 335 296 
f 296 335 343 
f 336 308 297 
f 297 326 336 
f 310 298 299 
f 363 299 298 
f 363 298 322 
f 310 299 300 
f 363 300 299 
f 300 356 310 
f 356 300 363 
f 301 304 303 
f 329 304 301 
f 302 306 307 
f 302 307 309 
f 311 303 304 
f 311 304 329 
f 308 314 305 
f 307 306 310 
f 307 317 309 
f 310 356 307 
f 344 317 307 
f 342 345 307 
f 307 356 342 
f 353 344 307 
f 307 345 353 
f 337 314 308 
f 337 308 336 
f 313 309 327 
f 344 309 317 
f 333 327 309 
f 333 309 344 
f 318 311 321 
f 321 311 341 
f 340 311 329 
f 349 311 340 
f 311 352 341 
f 311 349 352 
f 369 312 347 
f 326 313 319 
f 319 313 327 
f 328 315 343 
f 325 316 369 
f 318 321 320 
f 331 326 319 
f 327 332 319 
f 319 338 331 
f 332 338 319 
f 321 341 320 
f 341 324 320 
f 359 386 322 
f 386 363 322 
f 384 359 323 
f 360 384 323 
f 341 352 324 
f 324 352 360 
f 325 369 347 
f 336 326 331 
f 330 332 327 
f 333 330 327 
f 328 343 354 
f 330 358 332 
f 365 330 333 
f 358 330 365 
f 346 336 331 
f 338 348 331 
f 331 348 346 
f 332 368 338 
f 332 358 368 
f 344 351 333 
f 333 351 353 
f 333 353 365 
f 334 339 335 
f 337 357 334 
f 339 334 372 
f 334 357 372 
f 335 339 361 
f 335 361 343 
f 357 337 336 
f 346 370 336 
f 357 336 376 
f 370 376 336 
f 338 371 348 
f 338 368 371 
f 339 373 361 
f 372 394 339 
f 394 373 339 
f 364 349 340 
f 345 342 356 
f 343 362 354 
f 343 361 374 
f 343 374 362 
f 353 351 344 
f 345 355 353 
f 355 345 387 
f 356 387 345 
f 370 346 348 
f 348 377 370 
f 348 371 377 
f 349 378 352 
f 375 349 364 
f 378 349 375 
f 411 511 350 
f 350 495 494 
f 350 496 495 
f 496 350 508 
f 508 350 516 
f 350 511 520 
f 350 518 516 
f 350 517 518 
f 350 520 517 
f 352 379 360 
f 352 378 379 
f 355 387 353 
f 353 387 365 
f 362 367 354 
f 354 367 398 
f 363 366 356 
f 356 366 387 
f 357 376 372 
f 388 358 365 
f 358 381 368 
f 381 358 388 
f 384 413 359 
f 413 386 359 
f 360 379 384 
f 361 373 382 
f 361 382 374 
f 367 362 385 
f 362 374 385 
f 386 366 363 
f 387 415 365 
f 415 388 365 
f 389 366 386 
f 387 366 416 
f 366 389 416 
f 367 385 380 
f 367 380 398 
f 368 390 371 
f 368 381 390 
f 397 376 370 
f 370 377 391 
f 391 397 370 
f 371 392 377 
f 371 390 392 
f 372 376 394 
f 373 393 382 
f 426 393 373 
f 394 426 373 
f 374 382 395 
f 374 395 385 
f 383 378 375 
f 376 397 394 
f 377 402 391 
f 377 392 402 
f 378 401 379 
f 396 378 383 
f 401 378 396 
f 379 410 384 
f 379 401 410 
f 380 385 408 
f 398 380 408 
f 421 381 388 
f 381 419 390 
f 419 381 421 
f 382 393 414 
f 382 414 395 
f 384 410 413 
f 385 395 417 
f 385 417 408 
f 413 389 386 
f 440 415 387 
f 416 440 387 
f 415 445 388 
f 445 421 388 
f 420 389 413 
f 416 389 441 
f 389 420 441 
f 390 418 392 
f 390 419 418 
f 427 397 391 
f 391 402 422 
f 422 427 391 
f 392 425 402 
f 392 418 425 
f 393 424 414 
f 449 424 393 
f 426 449 393 
f 394 397 426 
f 414 431 395 
f 395 431 417 
f 409 401 396 
f 397 427 426 
f 399 398 408 
f 400 403 399 
f 408 400 399 
f 403 404 399 
f 403 400 408 
f 428 401 409 
f 401 430 410 
f 430 401 428 
f 402 433 422 
f 402 425 433 
f 404 403 437 
f 403 408 437 
f 405 404 437 
f 406 405 437 
f 406 437 407 
f 411 407 429 
f 407 437 429 
f 408 417 439 
f 408 439 437 
f 412 428 409 
f 410 436 413 
f 410 430 436 
f 411 429 511 
f 420 413 436 
f 414 424 432 
f 432 431 414 
f 440 469 415 
f 469 445 415 
f 464 440 416 
f 441 464 416 
f 431 454 417 
f 417 454 439 
f 419 442 418 
f 418 450 425 
f 442 450 418 
f 421 423 419 
f 423 442 419 
f 420 436 463 
f 420 463 441 
f 445 423 421 
f 452 427 422 
f 422 433 446 
f 446 452 422 
f 423 471 442 
f 448 423 445 
f 448 471 423 
f 462 432 424 
f 449 462 424 
f 425 455 433 
f 450 455 425 
f 426 427 449 
f 427 452 449 
f 428 438 430 
f 429 437 434 
f 499 429 434 
f 509 429 499 
f 510 429 509 
f 511 429 510 
f 459 436 430 
f 438 453 430 
f 453 459 430 
f 432 443 431 
f 431 443 451 
f 451 454 431 
f 462 443 432 
f 455 446 433 
f 434 447 435 
f 483 434 435 
f 434 437 447 
f 483 497 434 
f 434 497 499 
f 435 447 444 
f 481 435 444 
f 483 435 481 
f 463 436 459 
f 437 439 456 
f 447 437 456 
f 439 454 458 
f 456 439 458 
f 464 484 440 
f 484 469 440 
f 441 463 464 
f 471 450 442 
f 475 451 443 
f 462 468 443 
f 468 475 443 
f 444 447 460 
f 481 444 460 
f 469 448 445 
f 446 455 452 
f 447 456 477 
f 460 447 470 
f 470 447 477 
f 472 448 469 
f 472 471 448 
f 452 462 449 
f 455 450 461 
f 474 461 450 
f 474 450 471 
f 451 457 454 
f 457 451 476 
f 451 475 476 
f 455 465 452 
f 468 462 452 
f 468 452 465 
f 467 459 453 
f 454 457 458 
f 465 455 461 
f 458 477 456 
f 473 458 457 
f 457 476 473 
f 473 477 458 
f 459 480 463 
f 478 459 467 
f 480 459 478 
f 466 460 470 
f 466 481 460 
f 465 461 476 
f 474 479 461 
f 461 479 476 
f 463 482 464 
f 463 480 482 
f 464 482 502 
f 484 464 502 
f 465 475 468 
f 475 465 476 
f 466 470 487 
f 481 466 487 
f 484 472 469 
f 477 487 470 
f 491 471 472 
f 471 490 474 
f 491 490 471 
f 489 472 484 
f 506 472 489 
f 492 491 472 
f 492 472 506 
f 479 473 476 
f 473 479 477 
f 474 486 479 
f 474 485 486 
f 490 485 474 
f 486 477 479 
f 486 487 477 
f 478 493 480 
f 498 482 480 
f 493 494 480 
f 494 495 480 
f 495 496 480 
f 496 498 480 
f 483 481 487 
f 482 498 502 
f 483 487 505 
f 497 483 505 
f 484 501 489 
f 484 502 501 
f 488 486 485 
f 490 488 485 
f 486 488 487 
f 505 487 488 
f 490 491 488 
f 491 507 488 
f 507 505 488 
f 501 506 489 
f 492 515 491 
f 513 507 491 
f 513 491 515 
f 506 512 492 
f 492 512 515 
f 508 498 496 
f 499 497 505 
f 500 502 498 
f 500 498 519 
f 516 498 508 
f 519 498 516 
f 505 513 499 
f 499 513 509 
f 502 500 504 
f 526 504 500 
f 500 519 524 
f 524 526 500 
f 502 503 501 
f 501 503 528 
f 501 528 506 
f 502 504 503 
f 503 504 528 
f 504 526 528 
f 513 505 507 
f 506 525 512 
f 525 506 528 
f 513 510 509 
f 510 513 511 
f 511 513 514 
f 521 511 514 
f 511 522 520 
f 522 511 521 
f 525 515 512 
f 514 513 523 
f 513 515 523 
f 521 514 523 
f 515 527 523 
f 525 527 515 
f 516 518 519 
f 519 518 517 
f 520 519 517 
f 524 519 520 
f 524 520 522 
f 527 522 521 
f 527 521 523 
f 524 522 527 
f 526 524 527 
f 525 528 527 
f 526 527 528 


