v -0.091211 0.033015 -0.058419
v -0.090791 0.033663 -0.057644
v -0.090505 0.033878 -0.057201
v -0.089712 0.023873 -0.059944
v -0.087434 0.023862 -0.066273
v -0.087375 0.031897 -0.064543
v -0.086954 0.031454 -0.065816
v -0.086942 0.036433 -0.052091
v -0.085450 0.016740 -0.064382
v -0.085422 0.030934 -0.068400
v -0.085255 0.023910 -0.050389
v -0.085144 0.023911 -0.050240
v -0.085130 0.026911 -0.050271
v -0.085122 0.023772 -0.050263
v -0.085114 0.037492 -0.050345
v -0.085099 0.033911 -0.050342
v -0.084062 0.033916 -0.049255
v -0.083620 0.038364 -0.048890
v -0.082953 0.038766 -0.048200
v -0.082206 0.013872 -0.067774
v -0.082089 0.023853 -0.074990
v -0.080493 0.040267 -0.045581
v -0.079650 0.013866 -0.072667
v -0.079585 0.031958 -0.072608
v -0.078545 0.012910 -0.071614
v -0.078314 0.031779 -0.074278
v -0.078283 0.033948 -0.042998
v -0.078221 0.021698 -0.057500
v -0.078058 0.041671 -0.043276
v -0.078056 0.023948 -0.043183
v -0.077880 0.023768 -0.043367
v -0.077816 0.013875 -0.070921
v -0.077236 0.042098 -0.042661
v -0.075732 0.023849 -0.082746
v -0.075429 0.023960 -0.041034
v -0.074862 0.043442 -0.040497
v -0.073942 0.043968 -0.039642
v -0.073916 0.033968 -0.039595
v -0.073511 0.013861 -0.080630
v -0.072650 0.031999 -0.079813
v -0.071648 0.012443 -0.078855
v -0.071378 0.031939 -0.081261
v -0.071326 0.021970 -0.064743
v -0.070975 0.020126 -0.050600
v -0.070644 0.043984 -0.036573
v -0.070627 0.045850 -0.036601
v -0.070564 0.013876 -0.077824
v -0.070449 0.033985 -0.036724
v -0.069888 0.046296 -0.035832
v -0.069011 0.023847 -0.090155
v -0.068155 0.043997 -0.034111
v -0.067882 0.047476 -0.033852
v -0.067665 0.047606 -0.033629
v -0.067660 0.047607 -0.033624
v -0.067657 0.047606 -0.033638
v -0.067138 0.013857 -0.088369
v -0.065792 0.031957 -0.087091
v -0.065150 0.048094 -0.031046
v -0.064751 0.011891 -0.086096
v -0.064433 0.032137 -0.088182
v -0.064430 0.021820 -0.071984
v -0.064139 0.023981 -0.044092
v -0.064079 0.020239 -0.057842
v -0.063743 0.024306 -0.043715
v -0.063695 0.048391 -0.029393
v -0.063620 0.044022 -0.029448
v -0.063422 0.034237 -0.029603
v -0.063419 0.034022 -0.029606
v -0.063179 0.013877 -0.084600
v -0.061553 0.023849 -0.096861
v -0.060177 0.013856 -0.095550
v -0.060021 0.049064 -0.026040
v -0.058879 0.031975 -0.094317
v -0.057845 0.007994 -0.093328
v -0.057533 0.021380 -0.079226
v -0.057262 0.023980 -0.051352
v -0.057184 0.020373 -0.065085
v -0.057041 0.049597 -0.023461
v -0.056847 0.024200 -0.050957
v -0.056645 0.032461 -0.095750
v -0.056512 0.028559 -0.036831
v -0.056241 0.049741 -0.022769
v -0.056220 0.049744 -0.022749
v -0.056219 0.049059 -0.022747
v -0.056214 0.044059 -0.022725
v -0.056180 0.034059 -0.022707
v -0.056047 0.049777 -0.022584
v -0.055649 0.033009 -0.095769
v -0.055522 0.049876 -0.022077
v -0.055345 0.033188 -0.095752
v -0.054760 0.003884 -0.090390
v -0.054747 0.013867 -0.096614
v -0.053579 0.023867 -0.097894
v -0.053193 0.013905 -0.083744
v -0.052046 0.033495 -0.098639
v -0.052019 0.033357 -0.098614
v -0.052005 0.033285 -0.098600
v -0.051986 0.033184 -0.098581
v -0.051954 0.033022 -0.098551
v -0.051909 0.003905 -0.085038
v -0.051895 0.033657 -0.098495
v -0.051508 0.050631 -0.018207
v -0.051425 0.023872 -0.098047
v -0.050773 0.026958 -0.097426
v -0.050584 0.000704 -0.086413
v -0.050390 0.023979 -0.058617
v -0.050366 0.023939 -0.058638
v -0.050286 0.019451 -0.072325
v -0.050275 0.023519 -0.059548
v -0.049952 0.024199 -0.058199
v -0.049791 0.019629 -0.096490
v -0.049777 0.022508 -0.060502
v -0.049615 0.028137 -0.044072
v -0.049363 0.023981 -0.058817
v -0.049272 0.029570 -0.029938
v -0.049095 0.034096 -0.015647
v -0.049048 0.044096 -0.015749
v -0.049034 0.051098 -0.015802
v -0.048937 0.033991 -0.015811
v -0.048634 0.013886 -0.095387
v -0.047655 0.003904 -0.089506
v -0.047110 0.051457 -0.013983
v -0.046847 0.011737 -0.093685
v -0.046701 0.013942 -0.076060
v -0.045793 0.015300 -0.065380
v -0.045791 0.010142 -0.092680
v -0.045733 0.013966 -0.067989
v -0.045678 0.003942 -0.077081
v -0.045653 0.015057 -0.065520
v -0.045444 0.015300 -0.063835
v -0.045372 0.014446 -0.065801
v -0.045331 0.015300 -0.063333
v -0.045199 0.009367 -0.092115
v -0.045157 0.015300 -0.063187
v -0.045154 0.013973 -0.066019
v -0.044768 0.013063 -0.066405
v -0.044768 0.015300 -0.066405
v -0.044420 -0.016027 -0.066734
v -0.044126 0.012241 -0.065763
v -0.043962 -0.016020 -0.064275
v -0.043833 0.052063 -0.010933
v -0.043805 -0.015300 -0.065443
v -0.043651 -0.015300 -0.064606
v -0.043559 -0.015300 -0.064125
v -0.043539 -0.015300 -0.064018
v -0.043477 -0.015300 -0.063748
v -0.043387 0.011294 -0.065024
v -0.043324 -0.006052 -0.079500
v -0.043320 -0.006058 -0.079496
v -0.043319 -0.014534 -0.064957
v -0.043185 0.003914 -0.090197
v -0.043020 0.010421 -0.065405
v -0.042957 -0.013696 -0.065342
v -0.042935 -0.022426 -0.065319
v -0.042754 0.052263 -0.009927
v -0.042719 0.028136 -0.051314
v -0.042377 0.029569 -0.037180
v -0.042033 0.030924 -0.023046
v -0.042014 0.034133 -0.008581
v -0.041849 -0.012240 -0.063487
v -0.041845 -0.012234 -0.063483
v -0.041788 0.044133 -0.008872
v -0.041741 0.052451 -0.008973
v -0.041740 0.051244 -0.008961
v -0.041738 0.052452 -0.008970
v -0.041735 0.052451 -0.008967
v -0.041695 0.033953 -0.008916
v -0.041424 0.008651 -0.063062
v -0.041423 0.008649 -0.063061
v -0.040947 -0.026010 -0.063425
v -0.040649 -0.002240 -0.087781
v -0.040580 -0.010263 -0.062218
v -0.040331 0.052204 -0.007639
v -0.040110 -0.016042 -0.076438
v -0.039991 0.006719 -0.061628
v -0.039483 -0.004506 -0.086671
v -0.039416 0.003979 -0.069156
v -0.039371 0.005886 -0.061009
v -0.039138 -0.006021 -0.069394
v -0.038832 0.015301 -0.057196
v -0.038339 0.004004 -0.060947
v -0.038218 0.024017 -0.056019
v -0.038074 -0.005995 -0.060694
v -0.038001 -0.005886 -0.085260
v -0.037977 0.004008 -0.059615
v -0.037967 -0.015300 -0.057721
v -0.037966 0.002096 -0.059603
v -0.037960 0.001203 -0.059598
v -0.037957 0.000641 -0.059595
v -0.037957 0.000646 -0.059595
v -0.037941 0.001250 -0.059578
v -0.037917 -0.005964 -0.085179
v -0.037916 -0.005966 -0.085178
v -0.037886 -0.006059 -0.085150
v -0.037869 -0.001457 -0.059506
v -0.037779 -0.005991 -0.059417
v -0.037396 0.015301 -0.056836
v -0.037197 -0.015983 -0.056877
v -0.037197 -0.015300 -0.056880
v -0.037089 -0.025982 -0.056937
v -0.036806 -0.015300 -0.056508
v -0.036182 0.005514 -0.057820
v -0.036031 -0.025456 -0.072553
v -0.035757 -0.026020 -0.072291
v -0.035670 -0.031182 -0.058400
v -0.035481 0.029568 -0.044422
v -0.035138 0.030923 -0.030288
v -0.035118 -0.013887 -0.082514
v -0.034795 0.032277 -0.016153
v -0.034661 0.011115 -0.056299
v -0.034552 0.034170 -0.001916
v -0.034491 0.051172 -0.002072
v -0.034479 0.044170 -0.002047
v -0.034453 0.034104 -0.002020
v -0.034426 -0.016041 -0.081854
v -0.034214 0.051122 -0.001796
v -0.033141 0.015301 -0.052788
v -0.033024 0.014059 -0.052905
v -0.033023 -0.001776 -0.052905
v -0.033023 0.002243 -0.052905
v -0.033023 0.004038 -0.052905
v -0.033022 -0.015300 -0.052905
v -0.033022 0.008187 -0.052906
v -0.033022 0.012228 -0.052907
v -0.033022 0.012354 -0.052907
v -0.033022 0.012976 -0.052907
v -0.033022 0.014039 -0.052907
v -0.033019 -0.013719 -0.052908
v -0.033015 -0.011740 -0.052913
v -0.033014 -0.007741 -0.052913
v -0.033014 -0.005962 -0.052913
v -0.032364 0.034180 -0.000031
v -0.032146 0.015301 -0.053783
v -0.032145 -0.015300 -0.053782
v -0.031505 -0.022972 -0.079072
v -0.030625 -0.025004 -0.078233
v -0.030566 -0.025125 -0.078177
v -0.030522 0.024054 -0.049600
v -0.030204 0.050380 0.002404
v -0.030086 -0.026019 -0.077720
v -0.030033 0.014054 -0.050061
v -0.030007 0.004054 -0.050034
v -0.029981 -0.005946 -0.050008
v -0.029955 -0.015946 -0.049981
v -0.029929 -0.025945 -0.049955
v -0.028767 -0.033977 -0.065635
v -0.028422 -0.033129 -0.051499
v -0.028242 0.030922 -0.037530
v -0.027899 0.032276 -0.023396
v -0.027771 0.047599 -0.075528
v -0.027549 0.030999 -0.009254
v -0.027399 0.049893 0.004989
v -0.027241 0.045931 0.004844
v -0.027204 0.044207 0.004815
v -0.027043 0.034207 0.004699
v -0.026446 -0.030368 -0.074254
v -0.025083 0.049510 0.006899
v -0.024868 -0.032254 -0.072751
v -0.024229 0.049364 0.007652
v -0.023558 0.049250 0.008245
v -0.023359 -0.033971 -0.071314
v -0.022995 0.024091 -0.043005
v -0.022791 0.014091 -0.043165
v -0.022765 0.004091 -0.043139
v -0.022739 -0.005909 -0.043112
v -0.022713 -0.015908 -0.043086
v -0.022687 -0.025908 -0.043059
v -0.021796 -0.034186 -0.069825
v -0.021779 0.034234 0.010047
v -0.021522 -0.034973 -0.058736
v -0.021185 -0.031293 -0.044608
v -0.021003 0.032230 -0.030638
v -0.020653 0.030997 -0.016497
v -0.020303 0.029719 -0.002355
v -0.020046 0.034244 0.011852
v -0.019985 0.040411 0.011754
v -0.019973 0.044244 0.011722
v -0.019968 0.034153 0.011771
v -0.019962 0.048613 0.011687
v -0.018374 0.034252 0.013289
v -0.016114 -0.034919 -0.064416
v -0.015764 0.047871 0.015692
v -0.015740 0.047857 0.015715
v -0.015575 0.024128 -0.036296
v -0.015549 0.014128 -0.036269
v -0.015523 0.004128 -0.036243
v -0.015497 -0.005872 -0.036217
v -0.015471 -0.015871 -0.036190
v -0.015445 -0.025871 -0.036164
v -0.015408 0.004972 -0.010431
v -0.015030 0.047454 0.016395
v -0.014553 -0.034394 -0.062929
v -0.014286 -0.032543 -0.051847
v -0.013945 -0.030371 -0.037715
v -0.013762 0.046724 0.017646
v -0.013758 0.030996 -0.023739
v -0.013408 0.029717 -0.009598
v -0.013059 0.028778 0.004543
v -0.012757 0.046146 0.018635
v -0.012756 0.046146 0.018636
v -0.012731 0.044281 0.018617
v -0.012582 0.034281 0.018514
v -0.012358 0.044283 0.019016
v -0.010383 0.002182 -0.008716
v -0.009793 0.044297 0.022064
v -0.009424 -0.032942 -0.058046
v -0.008878 -0.032787 -0.057526
v -0.008510 0.024165 -0.029213
v -0.008306 0.014165 -0.029374
v -0.008280 0.004165 -0.029347
v -0.008254 -0.005835 -0.029321
v -0.008228 -0.015834 -0.029295
v -0.007687 -0.025834 -0.029809
v -0.007316 -0.032308 -0.056039
v -0.007049 -0.030326 -0.044957
v -0.006707 -0.028671 -0.030824
v -0.006512 0.029716 -0.016840
v -0.006162 0.028359 -0.002698
v -0.006024 0.042041 0.026087
v -0.005806 0.024599 0.011450
v -0.005592 -0.002717 -0.009739
v -0.005489 0.036241 0.025557
v -0.005424 0.024282 0.011813
v -0.005399 0.034318 0.025472
v -0.005184 0.024318 0.025301
v -0.005120 0.001500 -0.004263
v -0.003434 -0.007274 -0.012989
v -0.002713 0.040461 0.028199
v -0.002484 0.020309 -0.023355
v -0.002252 0.003266 0.000701
v -0.001993 0.040092 0.028748
v -0.001857 0.052445 -0.050855
v -0.001641 -0.030771 -0.050635
v -0.001554 0.024202 -0.022018
v -0.001426 0.039799 0.029190
v -0.001350 0.020029 -0.022210
v -0.001126 0.015477 -0.022419
v -0.001064 0.014202 -0.022478
v -0.001038 0.004202 -0.022452
v -0.001012 -0.005797 -0.022425
v -0.000986 -0.015797 -0.022399
v -0.000947 0.014866 -0.022305
v -0.000753 0.014204 -0.022182
v -0.000607 0.013575 -0.022043
v -0.000289 -0.025797 -0.023078
v -0.000079 -0.030313 -0.049149
v 0.000187 -0.028200 -0.038067
v 0.000453 0.019683 -0.020527
v 0.000534 -0.028176 -0.023929
v 0.000734 0.028358 -0.009940
v 0.001090 0.024496 0.004208
v 0.001134 0.015849 -0.020233
v 0.001448 0.020393 0.018356
v 0.001472 0.024280 0.004571
v 0.001570 0.004215 -0.019969
v 0.001603 0.014253 -0.019936
v 0.001607 0.014238 -0.019933
v 0.001614 0.014216 -0.019929
v 0.001876 0.037936 0.032314
v 0.001877 0.034355 0.032333
v 0.001941 0.024355 0.032319
v 0.001965 0.002518 -0.019592
v 0.001982 0.002441 -0.019576
v 0.002081 0.012205 -0.019483
v 0.002154 0.015653 -0.019282
v 0.002198 0.015645 -0.019240
v 0.002216 0.019344 -0.018880
v 0.002582 -0.000136 -0.019005
v 0.002872 0.008807 -0.018730
v 0.003142 0.007647 -0.018473
v 0.003352 0.008149 -0.018272
v 0.003386 0.015417 -0.018130
v 0.003657 0.008878 -0.017982
v 0.003731 0.036896 0.034044
v 0.003857 0.002907 -0.017791
v 0.004305 0.010423 -0.017366
v 0.004411 0.004230 -0.017263
v 0.005068 0.005796 -0.016638
v 0.005235 0.024239 -0.014646
v 0.005593 0.014993 -0.016070
v 0.005597 -0.028910 -0.043745
v 0.005785 0.018405 -0.015193
v 0.005903 0.014238 -0.015845
v 0.005996 0.014473 -0.015734
v 0.006120 0.014854 -0.015525
v 0.006123 0.014827 -0.015528
v 0.006132 0.014852 -0.015515
v 0.006193 0.008480 -0.015567
v 0.006204 0.004239 -0.015556
v 0.006230 -0.005760 -0.015530
v 0.006256 -0.015760 -0.015503
v 0.006351 0.035356 0.036742
v 0.006850 -0.025760 -0.016074
v 0.007019 0.018182 -0.014060
v 0.007159 -0.028577 -0.042257
v 0.007426 -0.026655 -0.031176
v 0.007464 0.018102 -0.013651
v 0.007474 0.034384 0.037900
v 0.007669 0.034585 0.038086
v 0.007720 0.012125 -0.014114
v 0.007778 -0.028854 -0.017032
v 0.007986 0.024495 -0.003035
v 0.007998 0.034387 0.038441
v 0.008339 0.034187 0.038789
v 0.008343 0.020391 0.011114
v 0.008359 0.034176 0.038809
v 0.008368 0.024279 -0.002671
v 0.008392 0.034176 0.038774
v 0.008575 0.024277 -0.003652
v 0.008612 0.014251 -0.013265
v 0.008631 0.014304 -0.013237
v 0.008701 0.016241 0.025263
v 0.008953 0.033534 0.039407
v 0.009013 0.029320 0.039366
v 0.009057 0.024392 0.039348
v 0.009152 0.014392 0.039301
v 0.009608 0.024395 0.039934
v 0.009881 0.017664 -0.011432
v 0.010221 0.014361 0.026711
v 0.010914 -0.025745 -0.014047
v 0.011452 0.030717 0.042147
v 0.011908 0.037387 -0.037747
v 0.011908 0.037387 -0.037747
v 0.012836 -0.027612 -0.036852
v 0.013199 0.014413 0.043354
v 0.013239 0.028770 0.043978
v 0.013420 0.014276 -0.008687
v 0.013446 0.004276 -0.008661
v 0.013472 -0.005723 -0.008634
v 0.013498 -0.015723 -0.008608
v 0.014054 -0.027880 -0.035692
v 0.014400 -0.027956 -0.035363
v 0.014662 0.025546 -0.035123
v 0.014662 0.025546 -0.035123
v 0.014662 0.025546 -0.035123
v 0.014672 -0.028251 -0.024276
v 0.014703 0.025367 -0.035083
v 0.015001 -0.021506 -0.010155
v 0.015021 0.023999 -0.034780
v 0.015176 0.032979 -0.034635
v 0.015239 0.020390 0.003872
v 0.015327 0.032393 -0.034490
v 0.015507 0.032907 -0.034319
v 0.015542 0.021758 -0.034284
v 0.015598 0.015813 0.018022
v 0.015745 0.020887 -0.034091
v 0.015748 0.024429 0.046821
v 0.015846 0.032630 -0.033996
v 0.015865 0.025898 0.046691
v 0.015964 0.008324 0.032180
v 0.016215 0.014429 0.046385
v 0.016305 0.010532 0.046312
v 0.016354 0.026066 -0.033511
v 0.016366 0.025263 0.047374
v 0.016508 0.004429 0.046131
v 0.016551 0.027609 -0.033324
v 0.016633 -0.025724 -0.011846
v 0.016650 0.016996 -0.033229
v 0.016730 0.016652 -0.033153
v 0.016730 0.016653 -0.033153
v 0.016901 0.014432 0.046879
v 0.016927 0.025992 -0.032965
v 0.017097 0.025263 -0.032804
v 0.017106 -0.010705 -0.005173
v 0.017117 0.014360 0.019469
v 0.017271 0.024436 0.047998
v 0.017290 0.024436 -0.032621
v 0.017290 0.024435 -0.032621
v 0.017290 0.024436 -0.032621
v 0.017615 0.032267 -0.032312
v 0.017615 0.032267 -0.032312
v 0.017615 0.032267 -0.032312
v 0.017630 0.032264 -0.032298
v 0.017668 0.018891 -0.032259
v 0.017869 0.008486 0.029869
v 0.017963 0.008324 0.030080
v 0.018100 0.024547 -0.031849
v 0.018105 0.008078 0.030399
v 0.018158 0.036104 -0.031796
v 0.018158 0.036104 -0.031796
v 0.018158 0.036104 -0.031796
v 0.018253 0.026734 -0.031704
v 0.018652 0.010333 0.025527
v 0.018658 0.034698 -0.031319
v 0.018661 0.034598 -0.031317
v 0.018809 0.025964 -0.031174
v 0.018848 0.034499 -0.031138
v 0.019124 0.035906 -0.030876
v 0.019124 0.035906 -0.030876
v 0.019124 0.035906 -0.030876
v 0.019144 0.011492 0.022803
v 0.019187 0.032901 -0.030815
v 0.019189 0.035892 -0.030813
v 0.019298 0.011853 0.021954
v 0.019305 0.027434 -0.030702
v 0.019378 0.035854 -0.030634
v 0.019537 -0.015700 -0.005838
v 0.019540 0.004215 0.036995
v 0.019540 0.012240 0.036995
v 0.019546 0.011806 0.021782
v 0.019683 0.033629 -0.030344
v 0.019686 0.004410 0.035725
v 0.019838 0.033436 -0.030196
v 0.020000 0.004797 0.034658
v 0.020081 -0.028905 -0.029953
v 0.020104 0.035704 -0.029942
v 0.020223 0.004410 0.035161
v 0.020235 0.014314 -0.001343
v 0.020262 0.003804 0.036274
v 0.020269 0.021687 0.050084
v 0.020311 0.035662 -0.029746
v 0.020342 0.003802 0.036193
v 0.020363 0.004169 0.035474
v 0.020372 0.031454 -0.029687
v 0.020425 0.035639 -0.029637
v 0.020502 0.031692 -0.029563
v 0.020578 0.003796 0.035958
v 0.020688 0.004314 -0.001765
v 0.020714 -0.005686 -0.001739
v 0.020922 0.026655 -0.029162
v 0.021004 0.026852 -0.029084
v 0.021005 0.026853 -0.029084
v 0.021005 0.026853 -0.029084
v 0.021200 0.020811 0.050776
v 0.021411 0.006108 0.035124
v 0.021437 0.027884 -0.028672
v 0.021641 0.006748 0.034894
v 0.021647 -0.030023 -0.028462
v 0.021649 0.031536 -0.028471
v 0.021851 0.007330 0.034684
v 0.021928 -0.033431 -0.017366
v 0.021960 0.031837 -0.028175
v 0.022219 -0.011971 -0.003285
v 0.022251 0.008439 0.034285
v 0.022254 0.008447 0.034282
v 0.022262 0.008471 0.034273
v 0.022268 0.008486 0.034268
v 0.022449 0.001505 0.038355
v 0.022493 0.015811 0.010780
v 0.022598 0.001386 0.038425
v 0.023062 0.031762 -0.027125
v 0.023192 0.000913 0.038703
v 0.023226 0.000688 0.039095
v 0.023266 -0.015687 -0.004364
v 0.023474 0.000688 0.038834
v 0.023966 0.018261 0.052725
v 0.024013 0.014359 0.012227
v 0.024082 0.047864 -0.026157
v 0.024151 0.014466 0.052552
v 0.024374 0.010892 0.018450
v 0.024393 0.004466 0.052351
v 0.024813 0.010809 0.018147
v 0.024920 -0.015673 -0.000713
v 0.025057 0.014351 0.008095
v 0.025427 0.010693 0.017723
v 0.025987 -0.025687 -0.007169
v 0.026525 0.011554 0.030010
v 0.026803 0.011754 0.029732
v 0.026850 -0.005534 0.049825
v 0.026912 0.011833 0.029624
v 0.026940 0.011853 0.029596
v 0.027336 -0.033816 -0.023045
v 0.027598 0.009352 0.017998
v 0.027931 0.004351 0.005131
v 0.027957 -0.005649 0.005157
v 0.027983 -0.015649 0.005183
v 0.028061 0.014484 0.055619
v 0.028898 -0.033208 -0.021558
v 0.029163 -0.030612 -0.010478
v 0.029266 0.008321 0.018209
v 0.029484 -0.020640 0.003634
v 0.029567 -0.005540 0.045135
v 0.029592 0.008120 0.018250
v 0.029708 -0.003952 0.041749
v 0.029755 0.008321 0.017695
v 0.030417 0.012301 0.057302
v 0.030452 0.007589 0.018358
v 0.030489 -0.007410 0.046013
v 0.031029 0.011364 0.057711
v 0.031809 -0.005540 0.042731
v 0.031845 0.010755 0.024691
v 0.031855 0.010752 0.024681
v 0.032068 0.010705 0.024468
v 0.032089 0.010700 0.024447
v 0.032120 0.010693 0.024416
v 0.032261 -0.006233 0.042942
v 0.032277 0.009449 0.058546
v 0.032338 0.005719 0.017602
v 0.032353 -0.005526 0.047787
v 0.032361 -0.006388 0.042989
v 0.032495 0.004503 0.058344
v 0.032612 0.005448 0.017492
v 0.032916 -0.007244 0.043249
v 0.033617 0.004400 0.018262
v 0.033677 -0.007255 0.042445
v 0.033842 0.004388 0.013424
v 0.033902 -0.006876 0.043710
v 0.033907 0.006658 0.059964
v 0.034115 -0.025662 -0.005763
v 0.034259 -0.006628 0.043876
v 0.034569 -0.029958 -0.016159
v 0.034743 -0.006879 0.042857
v 0.035199 -0.005612 0.012053
v 0.035605 0.005763 0.020931
v 0.035628 0.005731 0.020908
v 0.035653 0.005696 0.020883
v 0.035659 0.005687 0.020877
v 0.035677 0.005661 0.020859
v 0.035720 -0.005526 0.044559
v 0.035806 0.005479 0.020730
v 0.035828 0.005448 0.020708
v 0.035846 0.005285 0.020690
v 0.036160 -0.015612 0.011097
v 0.036312 0.001127 0.020225
v 0.036383 -0.007294 0.039587
v 0.036387 -0.023598 -0.003601
v 0.036720 -0.018222 0.010523
v 0.036995 0.000359 0.019541
v 0.036995 0.012241 0.019541
v 0.037264 -0.007307 0.038655
v 0.037385 -0.007552 0.038771
v 0.037388 -0.000147 0.020382
v 0.037417 -0.000174 0.020444
v 0.037535 0.004516 0.058554
v 0.037638 -0.000381 0.020917
v 0.037714 -0.000646 0.052890
v 0.037724 -0.026735 -0.013156
v 0.038100 -0.006891 0.039452
v 0.038595 -0.001277 0.022964
v 0.038729 -0.003481 0.045966
v 0.038783 -0.003444 0.045991
v 0.038793 -0.025667 -0.012138
v 0.039190 -0.007113 0.037491
v 0.039283 -0.025221 -0.011671
v 0.039944 -0.015596 0.013593
v 0.041249 -0.003401 0.028641
v 0.041553 0.002545 0.056545
v 0.041793 -0.023079 -0.009282
v 0.042050 -0.005575 0.019359
v 0.042230 -0.007309 0.033682
v 0.042469 -0.006533 0.020318
v 0.042587 -0.000144 0.047769
v 0.042627 -0.005542 0.031589
v 0.042909 -0.006466 0.032191
v 0.043055 -0.006948 0.032505
v 0.043152 -0.007263 0.032712
v 0.043353 -0.021947 -0.007796
v 0.043466 -0.005542 0.030752
v 0.043616 -0.018352 0.003281
v 0.043672 -0.008500 0.025028
v 0.043795 -0.010260 0.021624
v 0.043844 -0.005981 0.034192
v 0.043947 -0.012442 0.017403
v 0.044053 -0.010771 0.021911
v 0.044150 -0.009246 0.026024
v 0.044164 -0.005529 0.034878
v 0.044280 -0.007206 0.031528
v 0.044566 -0.004847 0.035737
v 0.044725 -0.009972 0.022972
v 0.045317 -0.003574 0.037343
v 0.045698 -0.005530 0.032877
v 0.045839 0.002421 0.049290
v 0.045955 -0.019872 -0.005319
v 0.046352 -0.015600 0.005886
v 0.046415 0.003327 0.050561
v 0.046706 0.003347 0.050232
v 0.046999 0.002474 0.047923
v 0.047213 0.002485 0.047664
v 0.047686 0.000295 0.042412
v 0.047951 0.003433 0.048829
v 0.048278 0.034169 -0.003117
v 0.048422 0.001548 0.043987
v 0.048529 0.001730 0.044215
v 0.049021 -0.017428 -0.002401
v 0.049086 0.002583 0.045406
v 0.050537 -0.016198 -0.000957
v 0.050840 -0.011502 0.010159
v 0.050886 -0.005539 0.024581
v 0.051068 -0.005539 0.024182
v 0.051127 -0.015604 -0.000395
v 0.051171 -0.005492 0.024281
v 0.051326 -0.005539 0.024119
v 0.051502 0.000581 0.038403
v 0.052096 -0.014720 0.000527
v 0.053621 0.003893 0.042356
v 0.054563 0.003938 0.041316
v 0.056249 -0.011849 0.004480
v 0.057809 -0.011012 0.005966
v 0.058072 -0.007620 0.017044
v 0.058400 -0.000177 0.031162
v 0.059670 0.003295 0.036673
v 0.060732 -0.005526 0.019576
v 0.061904 0.003141 0.034499
v 0.063476 -0.006111 0.011361
v 0.063617 -0.005989 0.011495
v 0.064191 -0.005537 0.012042
v 0.065177 -0.004738 0.012980
v 0.065299 -0.001823 0.023925
v 0.066849 0.003225 0.029209
v 0.068898 0.002964 0.027350
v 0.069081 0.012294 0.016695
v 0.070703 -0.000375 0.018241
v 0.074056 0.002879 0.022028
v 0.074323 0.002932 0.021688

f 2 1 4 
f 90 1 2 
f 1 6 4 
f 80 6 1 
f 80 1 88 
f 88 1 90 
f 4 3 2 
f 101 2 3 
f 95 90 2 
f 95 2 101 
f 16 3 4 
f 8 3 16 
f 101 3 8 
f 6 5 4 
f 4 5 9 
f 11 4 9 
f 13 4 11 
f 13 16 4 
f 7 5 6 
f 10 5 7 
f 20 9 5 
f 21 5 10 
f 20 5 23 
f 23 5 21 
f 7 6 24 
f 60 24 6 
f 80 60 6 
f 10 7 24 
f 15 8 16 
f 101 8 15 
f 11 9 14 
f 14 9 28 
f 32 9 20 
f 43 28 9 
f 32 43 9 
f 24 21 10 
f 13 11 12 
f 12 11 14 
f 17 13 12 
f 30 12 14 
f 17 12 27 
f 27 12 30 
f 16 13 17 
f 31 14 28 
f 31 30 14 
f 16 18 15 
f 101 15 18 
f 17 18 16 
f 17 19 18 
f 22 19 17 
f 22 17 27 
f 101 18 19 
f 19 22 33 
f 19 33 36 
f 36 101 19 
f 20 23 25 
f 32 20 25 
f 39 23 21 
f 26 21 24 
f 34 21 26 
f 34 39 21 
f 29 22 27 
f 33 22 29 
f 41 25 23 
f 39 41 23 
f 40 26 24 
f 60 40 24 
f 47 32 25 
f 41 47 25 
f 40 34 26 
f 27 33 29 
f 30 35 27 
f 27 38 33 
f 35 38 27 
f 44 31 28 
f 44 28 43 
f 35 30 31 
f 62 35 31 
f 44 62 31 
f 32 47 43 
f 38 36 33 
f 56 39 34 
f 42 34 40 
f 50 34 42 
f 50 56 34 
f 38 35 62 
f 37 36 38 
f 36 37 101 
f 37 38 45 
f 46 37 45 
f 37 46 101 
f 45 38 48 
f 48 38 62 
f 59 41 39 
f 56 59 39 
f 57 42 40 
f 60 57 40 
f 69 47 41 
f 59 69 41 
f 57 50 42 
f 63 44 43 
f 43 47 61 
f 63 43 61 
f 76 62 44 
f 63 76 44 
f 45 49 46 
f 45 48 68 
f 51 49 45 
f 51 45 68 
f 101 46 49 
f 47 69 61 
f 48 62 64 
f 68 48 64 
f 51 52 49 
f 101 49 52 
f 71 56 50 
f 70 50 57 
f 70 71 50 
f 52 51 53 
f 53 51 54 
f 58 54 51 
f 58 51 66 
f 66 51 67 
f 51 68 67 
f 52 53 55 
f 101 52 55 
f 55 53 54 
f 55 54 58 
f 55 58 78 
f 78 82 55 
f 250 55 82 
f 101 55 250 
f 74 59 56 
f 71 74 56 
f 70 57 60 
f 65 58 66 
f 72 58 65 
f 72 78 58 
f 69 59 74 
f 73 70 60 
f 80 73 60 
f 77 63 61 
f 61 69 75 
f 77 61 75 
f 62 76 64 
f 106 76 63 
f 77 106 63 
f 81 68 64 
f 64 76 79 
f 81 64 79 
f 72 65 66 
f 67 86 66 
f 85 72 66 
f 66 86 85 
f 67 68 86 
f 86 68 81 
f 69 74 100 
f 75 69 94 
f 69 100 94 
f 70 93 71 
f 73 80 70 
f 80 93 70 
f 92 74 71 
f 93 92 71 
f 78 72 85 
f 92 91 74 
f 91 100 74 
f 108 77 75 
f 94 124 75 
f 75 124 108 
f 76 106 79 
f 106 77 108 
f 84 82 78 
f 84 78 85 
f 113 81 79 
f 79 106 110 
f 113 79 110 
f 88 93 80 
f 86 81 115 
f 115 81 113 
f 83 82 84 
f 83 250 82 
f 83 84 87 
f 250 83 87 
f 87 84 85 
f 85 86 116 
f 89 87 85 
f 89 85 102 
f 102 85 117 
f 117 85 116 
f 119 86 115 
f 119 116 86 
f 87 89 155 
f 250 87 155 
f 93 88 90 
f 89 102 155 
f 103 93 90 
f 96 90 95 
f 96 97 90 
f 98 90 97 
f 99 90 98 
f 104 90 99 
f 103 90 104 
f 120 91 92 
f 100 91 105 
f 121 105 91 
f 123 91 120 
f 123 121 91 
f 92 93 111 
f 92 111 120 
f 111 93 103 
f 94 100 128 
f 124 94 128 
f 96 95 101 
f 97 96 101 
f 98 97 101 
f 99 98 101 
f 104 99 101 
f 128 100 105 
f 126 104 101 
f 133 126 101 
f 133 101 250 
f 118 102 117 
f 102 118 122 
f 141 102 122 
f 155 102 141 
f 111 103 104 
f 123 111 104 
f 126 123 104 
f 121 171 105 
f 148 128 105 
f 105 176 148 
f 171 176 105 
f 106 109 107 
f 106 107 114 
f 106 108 109 
f 110 106 114 
f 109 114 107 
f 109 108 112 
f 112 108 125 
f 108 124 127 
f 125 108 129 
f 127 129 108 
f 109 112 114 
f 156 113 110 
f 114 182 110 
f 110 182 156 
f 123 120 111 
f 112 134 114 
f 112 125 130 
f 112 130 132 
f 112 132 134 
f 157 115 113 
f 157 113 156 
f 114 134 180 
f 182 114 180 
f 158 119 115 
f 158 115 157 
f 117 116 159 
f 159 116 119 
f 122 118 117 
f 162 122 117 
f 162 117 159 
f 167 119 158 
f 167 159 119 
f 126 121 123 
f 126 133 121 
f 151 121 133 
f 121 151 171 
f 141 122 162 
f 127 124 177 
f 124 128 177 
f 125 129 137 
f 125 137 130 
f 127 131 129 
f 127 135 131 
f 135 127 136 
f 136 127 139 
f 139 127 152 
f 127 177 152 
f 148 179 128 
f 128 179 177 
f 129 131 137 
f 132 130 134 
f 134 130 137 
f 135 137 131 
f 151 133 250 
f 197 134 137 
f 180 134 197 
f 136 137 135 
f 137 136 139 
f 139 147 137 
f 147 168 137 
f 168 210 137 
f 233 197 137 
f 137 210 233 
f 142 138 140 
f 140 138 154 
f 153 138 142 
f 153 149 138 
f 138 149 174 
f 203 154 138 
f 174 203 138 
f 147 139 152 
f 143 142 140 
f 144 143 140 
f 145 144 140 
f 145 140 146 
f 186 146 140 
f 154 200 140 
f 186 140 198 
f 140 200 198 
f 164 155 141 
f 164 141 162 
f 142 143 186 
f 153 142 150 
f 234 150 142 
f 234 142 186 
f 143 144 186 
f 144 145 186 
f 145 146 186 
f 152 168 147 
f 148 149 179 
f 148 193 149 
f 148 176 184 
f 184 192 148 
f 148 192 193 
f 153 179 149 
f 208 174 149 
f 149 193 194 
f 194 208 149 
f 160 153 150 
f 234 160 150 
f 171 151 250 
f 152 181 168 
f 152 177 181 
f 161 153 160 
f 183 153 161 
f 179 153 183 
f 154 170 200 
f 154 203 170 
f 163 155 164 
f 250 155 163 
f 206 157 156 
f 182 238 156 
f 156 238 206 
f 207 158 157 
f 207 157 206 
f 209 167 158 
f 209 158 207 
f 162 159 211 
f 211 159 167 
f 161 160 234 
f 183 161 172 
f 234 172 161 
f 213 164 162 
f 213 162 211 
f 165 163 164 
f 332 163 165 
f 250 163 332 
f 165 164 166 
f 166 164 173 
f 164 213 173 
f 165 166 332 
f 173 548 166 
f 166 548 332 
f 214 167 209 
f 214 211 167 
f 168 181 169 
f 169 210 168 
f 169 181 175 
f 175 210 169 
f 200 170 205 
f 170 203 204 
f 204 246 170 
f 246 205 170 
f 176 171 250 
f 172 196 183 
f 234 196 172 
f 173 213 212 
f 212 548 173 
f 235 203 174 
f 215 174 208 
f 215 235 174 
f 178 175 181 
f 178 210 175 
f 184 176 250 
f 179 181 177 
f 178 181 185 
f 185 210 178 
f 183 181 179 
f 197 182 180 
f 181 183 190 
f 185 181 190 
f 182 197 217 
f 182 217 241 
f 238 182 241 
f 190 183 189 
f 189 183 196 
f 184 250 192 
f 185 188 187 
f 185 187 191 
f 188 185 190 
f 185 191 195 
f 202 185 195 
f 210 185 202 
f 199 186 198 
f 234 186 199 
f 187 188 191 
f 189 188 190 
f 191 188 189 
f 195 191 189 
f 196 195 189 
f 192 250 193 
f 194 193 250 
f 208 194 250 
f 196 202 195 
f 234 202 196 
f 233 217 197 
f 201 199 198 
f 198 200 245 
f 201 198 222 
f 222 198 244 
f 244 198 245 
f 234 199 201 
f 245 200 205 
f 234 201 222 
f 210 202 233 
f 234 233 202 
f 203 237 204 
f 236 203 235 
f 203 236 237 
f 204 237 240 
f 240 256 204 
f 258 246 204 
f 256 258 204 
f 247 245 205 
f 247 205 246 
f 248 207 206 
f 238 262 206 
f 206 262 248 
f 249 209 207 
f 249 207 248 
f 215 208 250 
f 251 214 209 
f 251 209 249 
f 211 232 213 
f 232 211 214 
f 216 212 213 
f 216 548 212 
f 216 213 239 
f 213 232 254 
f 213 253 239 
f 253 213 254 
f 255 232 214 
f 274 214 251 
f 255 214 274 
f 235 215 250 
f 239 257 216 
f 257 548 216 
f 217 233 218 
f 217 218 241 
f 227 218 233 
f 218 227 241 
f 219 220 231 
f 242 220 219 
f 219 231 243 
f 242 219 243 
f 220 221 231 
f 242 221 220 
f 221 223 231 
f 223 221 242 
f 234 222 228 
f 228 222 244 
f 223 224 231 
f 241 224 223 
f 241 223 242 
f 224 225 231 
f 241 225 224 
f 225 226 231 
f 241 226 225 
f 226 227 231 
f 241 227 226 
f 231 227 233 
f 234 228 229 
f 229 228 244 
f 229 230 234 
f 243 230 229 
f 243 229 244 
f 230 231 234 
f 243 231 230 
f 234 231 233 
f 254 232 255 
f 236 235 250 
f 237 236 250 
f 240 237 250 
f 238 241 263 
f 262 238 263 
f 239 253 252 
f 239 252 257 
f 256 240 250 
f 241 242 264 
f 263 241 264 
f 242 243 265 
f 264 242 265 
f 243 244 266 
f 265 243 266 
f 244 245 267 
f 266 244 267 
f 267 245 247 
f 270 247 246 
f 261 246 258 
f 268 246 261 
f 270 246 268 
f 271 267 247 
f 271 247 270 
f 272 249 248 
f 262 284 248 
f 248 284 272 
f 273 251 249 
f 273 249 272 
f 256 250 332 
f 274 251 273 
f 257 252 253 
f 253 254 259 
f 253 259 257 
f 277 254 255 
f 259 254 260 
f 254 277 260 
f 269 255 274 
f 276 255 269 
f 276 277 255 
f 258 256 332 
f 259 548 257 
f 268 261 258 
f 268 258 332 
f 260 548 259 
f 260 277 279 
f 279 548 260 
f 262 263 285 
f 284 262 285 
f 263 264 286 
f 285 263 286 
f 264 265 287 
f 286 264 287 
f 265 266 288 
f 287 265 288 
f 266 267 289 
f 288 266 289 
f 289 267 271 
f 281 270 268 
f 281 268 332 
f 269 274 278 
f 276 269 275 
f 275 269 278 
f 293 271 270 
f 292 270 281 
f 293 270 292 
f 294 289 271 
f 294 271 293 
f 296 273 272 
f 284 308 272 
f 272 308 296 
f 297 274 273 
f 297 273 296 
f 278 274 298 
f 298 274 297 
f 280 276 275 
f 280 275 278 
f 280 277 276 
f 279 277 291 
f 280 302 277 
f 291 277 301 
f 302 301 277 
f 302 280 278 
f 320 278 298 
f 302 278 320 
f 282 279 283 
f 282 548 279 
f 291 283 279 
f 292 281 332 
f 282 283 548 
f 291 671 283 
f 283 671 548 
f 284 285 309 
f 308 284 309 
f 285 286 310 
f 309 285 310 
f 286 287 311 
f 310 286 311 
f 287 288 312 
f 311 287 312 
f 288 289 313 
f 312 288 313 
f 313 289 294 
f 304 290 327 
f 290 304 330 
f 290 362 327 
f 336 329 290 
f 329 337 290 
f 330 394 290 
f 348 336 290 
f 337 342 290 
f 290 342 344 
f 290 344 355 
f 290 367 348 
f 290 355 362 
f 290 382 367 
f 290 394 382 
f 295 291 301 
f 295 671 291 
f 306 293 292 
f 306 292 332 
f 315 294 293 
f 307 293 306 
f 314 293 307 
f 315 293 314 
f 316 313 294 
f 316 294 315 
f 295 301 299 
f 299 671 295 
f 317 297 296 
f 308 334 296 
f 296 334 317 
f 318 298 297 
f 318 297 317 
f 320 298 318 
f 299 301 300 
f 300 671 299 
f 300 301 303 
f 300 303 305 
f 305 328 300 
f 328 671 300 
f 301 302 324 
f 303 301 324 
f 320 325 302 
f 302 325 324 
f 305 303 322 
f 303 324 322 
f 304 327 321 
f 370 304 321 
f 326 330 304 
f 304 387 326 
f 304 356 352 
f 365 304 352 
f 356 304 357 
f 364 357 304 
f 364 304 369 
f 366 304 365 
f 304 366 372 
f 369 304 370 
f 304 372 380 
f 304 380 385 
f 304 385 387 
f 319 305 322 
f 305 319 328 
f 470 307 306 
f 422 306 332 
f 433 306 422 
f 437 306 433 
f 470 306 437 
f 485 314 307 
f 471 307 470 
f 473 307 471 
f 485 307 473 
f 308 309 338 
f 334 308 329 
f 329 308 338 
f 309 310 339 
f 338 309 339 
f 310 311 340 
f 339 310 340 
f 311 312 341 
f 340 311 341 
f 312 313 345 
f 341 312 345 
f 345 313 316 
f 333 315 314 
f 439 333 314 
f 487 439 314 
f 485 487 314 
f 347 316 315 
f 346 315 333 
f 347 315 346 
f 349 345 316 
f 349 316 347 
f 350 318 317 
f 334 379 317 
f 317 379 350 
f 351 320 318 
f 351 318 350 
f 328 319 322 
f 320 323 325 
f 320 351 323 
f 327 326 321 
f 387 321 326 
f 321 371 370 
f 321 373 371 
f 373 321 376 
f 376 321 383 
f 383 321 386 
f 387 386 321 
f 322 324 331 
f 322 331 328 
f 325 323 353 
f 323 351 354 
f 405 353 323 
f 354 405 323 
f 324 325 361 
f 331 324 335 
f 324 360 335 
f 360 324 361 
f 361 325 353 
f 330 326 327 
f 411 330 327 
f 327 362 363 
f 327 363 368 
f 368 375 327 
f 375 377 327 
f 377 378 327 
f 378 388 327 
f 388 400 327 
f 400 410 327 
f 410 411 327 
f 328 331 671 
f 334 329 336 
f 337 329 338 
f 394 330 397 
f 397 330 418 
f 330 411 418 
f 331 335 671 
f 548 422 332 
f 444 346 333 
f 439 444 333 
f 336 348 334 
f 334 348 367 
f 379 334 367 
f 335 360 359 
f 335 359 671 
f 337 338 342 
f 338 339 344 
f 342 338 343 
f 343 338 344 
f 339 340 390 
f 344 339 355 
f 355 339 362 
f 362 339 363 
f 363 339 368 
f 368 339 390 
f 340 341 391 
f 390 340 391 
f 341 345 393 
f 391 341 393 
f 342 343 344 
f 393 345 349 
f 381 347 346 
f 446 381 346 
f 446 346 444 
f 396 349 347 
f 395 347 381 
f 396 347 395 
f 401 393 349 
f 401 349 396 
f 402 351 350 
f 379 409 350 
f 350 409 402 
f 351 402 354 
f 365 352 356 
f 412 361 353 
f 412 353 405 
f 354 402 407 
f 441 405 354 
f 407 441 354 
f 357 358 356 
f 358 365 356 
f 364 358 357 
f 376 358 364 
f 358 366 365 
f 372 366 358 
f 372 358 383 
f 383 358 376 
f 374 359 360 
f 359 374 671 
f 360 361 415 
f 392 374 360 
f 392 360 398 
f 398 360 415 
f 412 416 361 
f 361 416 415 
f 373 364 369 
f 376 364 373 
f 382 379 367 
f 375 368 390 
f 369 370 371 
f 373 369 371 
f 380 372 383 
f 392 671 374 
f 390 377 375 
f 378 377 389 
f 389 377 390 
f 388 378 389 
f 379 382 394 
f 379 394 397 
f 379 397 418 
f 409 379 427 
f 379 418 427 
f 384 380 383 
f 385 380 384 
f 458 395 381 
f 458 381 446 
f 386 384 383 
f 386 385 384 
f 385 386 387 
f 400 388 389 
f 389 390 429 
f 400 389 428 
f 428 389 429 
f 390 391 430 
f 429 390 430 
f 393 430 391 
f 399 392 398 
f 399 671 392 
f 420 393 401 
f 420 430 393 
f 424 396 395 
f 474 424 395 
f 459 395 458 
f 474 395 459 
f 436 401 396 
f 431 396 424 
f 432 396 431 
f 436 396 432 
f 399 398 403 
f 403 398 414 
f 398 415 414 
f 403 408 399 
f 408 671 399 
f 428 410 400 
f 457 420 401 
f 531 401 436 
f 457 401 531 
f 402 409 407 
f 404 408 403 
f 404 403 414 
f 406 408 404 
f 406 404 414 
f 445 412 405 
f 445 405 441 
f 406 413 408 
f 413 406 414 
f 407 409 508 
f 407 508 441 
f 413 510 408 
f 510 701 408 
f 408 701 671 
f 409 427 508 
f 411 410 427 
f 427 410 428 
f 418 411 427 
f 412 419 416 
f 412 445 419 
f 414 421 413 
f 413 421 510 
f 417 414 415 
f 414 417 447 
f 414 447 421 
f 416 417 415 
f 425 417 416 
f 416 419 450 
f 452 425 416 
f 452 416 450 
f 417 425 451 
f 447 417 451 
f 419 445 465 
f 475 450 419 
f 465 494 419 
f 483 475 419 
f 491 483 419 
f 419 494 491 
f 420 438 430 
f 438 420 457 
f 426 421 447 
f 510 421 426 
f 423 435 422 
f 481 423 422 
f 422 435 433 
f 479 481 422 
f 548 479 422 
f 423 440 435 
f 423 481 440 
f 520 431 424 
f 520 424 474 
f 451 425 452 
f 449 426 447 
f 426 449 510 
f 427 428 518 
f 508 427 518 
f 428 429 519 
f 518 428 519 
f 464 429 430 
f 519 429 464 
f 497 430 438 
f 497 464 430 
f 432 431 671 
f 520 521 431 
f 522 431 521 
f 526 431 522 
f 541 431 526 
f 671 431 541 
f 505 436 432 
f 505 432 671 
f 435 434 433 
f 434 437 433 
f 434 435 437 
f 442 437 435 
f 435 440 442 
f 528 436 505 
f 531 436 528 
f 443 437 442 
f 443 448 437 
f 448 470 437 
f 438 457 544 
f 438 544 497 
f 444 439 446 
f 446 439 460 
f 456 453 439 
f 453 460 439 
f 487 456 439 
f 443 442 440 
f 440 481 443 
f 539 445 441 
f 508 554 441 
f 441 554 539 
f 443 481 448 
f 445 539 465 
f 458 446 460 
f 449 447 454 
f 451 461 447 
f 466 454 447 
f 461 466 447 
f 472 470 448 
f 481 472 448 
f 454 466 449 
f 466 510 449 
f 452 450 455 
f 455 450 502 
f 476 450 475 
f 450 476 478 
f 450 478 504 
f 450 504 502 
f 461 451 452 
f 452 455 549 
f 452 549 461 
f 456 460 453 
f 455 502 498 
f 455 498 543 
f 543 559 455 
f 455 551 549 
f 455 559 551 
f 469 460 456 
f 469 456 462 
f 487 462 456 
f 556 457 531 
f 457 556 544 
f 459 458 460 
f 460 474 459 
f 477 460 469 
f 460 523 474 
f 486 460 477 
f 523 460 486 
f 461 510 466 
f 510 461 524 
f 524 461 549 
f 469 462 463 
f 492 463 462 
f 487 492 462 
f 469 463 467 
f 463 482 467 
f 501 482 463 
f 492 501 463 
f 497 519 464 
f 465 500 494 
f 550 500 465 
f 465 539 547 
f 547 555 465 
f 552 550 465 
f 555 552 465 
f 469 467 468 
f 467 482 468 
f 468 482 469 
f 482 477 469 
f 472 471 470 
f 473 471 472 
f 484 473 472 
f 490 472 481 
f 484 472 490 
f 484 485 473 
f 474 523 520 
f 476 475 537 
f 475 483 558 
f 537 475 557 
f 557 475 558 
f 478 476 536 
f 536 476 537 
f 482 486 477 
f 504 478 535 
f 535 478 536 
f 480 481 479 
f 479 548 480 
f 481 480 490 
f 490 480 488 
f 548 488 480 
f 501 486 482 
f 483 491 560 
f 558 483 560 
f 484 487 485 
f 490 487 484 
f 486 514 495 
f 523 486 495 
f 503 486 501 
f 515 486 503 
f 548 514 486 
f 548 486 515 
f 487 490 492 
f 490 488 489 
f 548 489 488 
f 490 489 493 
f 548 493 489 
f 490 501 492 
f 490 493 496 
f 490 496 511 
f 490 503 501 
f 490 515 503 
f 490 511 515 
f 491 494 561 
f 560 491 561 
f 548 496 493 
f 494 500 582 
f 561 494 581 
f 581 494 582 
f 514 523 495 
f 511 496 506 
f 548 506 496 
f 497 533 519 
f 533 497 544 
f 498 509 499 
f 498 499 538 
f 498 502 509 
f 498 538 543 
f 509 512 499 
f 512 517 499 
f 525 499 517 
f 525 527 499 
f 527 530 499 
f 530 534 499 
f 534 535 499 
f 535 536 499 
f 536 537 499 
f 537 557 499 
f 538 499 540 
f 540 499 542 
f 542 499 545 
f 545 499 574 
f 557 558 499 
f 558 560 499 
f 560 561 499 
f 561 619 499 
f 574 499 630 
f 499 619 675 
f 630 499 631 
f 631 499 642 
f 642 499 662 
f 662 499 667 
f 667 499 668 
f 499 675 668 
f 500 550 583 
f 500 583 582 
f 502 504 507 
f 507 513 502 
f 512 509 502 
f 502 517 512 
f 513 517 502 
f 504 527 507 
f 504 530 527 
f 504 534 530 
f 534 504 535 
f 528 505 671 
f 548 511 506 
f 513 507 525 
f 525 507 527 
f 508 518 564 
f 554 508 564 
f 510 524 701 
f 548 515 511 
f 517 513 525 
f 514 516 523 
f 548 516 514 
f 516 529 523 
f 548 529 516 
f 518 519 565 
f 564 518 565 
f 533 566 519 
f 565 519 566 
f 520 523 521 
f 523 522 521 
f 522 523 526 
f 526 523 541 
f 529 532 523 
f 532 541 523 
f 546 524 549 
f 524 546 701 
f 562 531 528 
f 568 562 528 
f 568 528 671 
f 548 532 529 
f 569 556 531 
f 568 531 562 
f 569 531 568 
f 548 541 532 
f 533 544 553 
f 533 553 566 
f 540 543 538 
f 539 554 547 
f 542 543 540 
f 671 541 548 
f 545 543 542 
f 543 545 574 
f 543 572 559 
f 543 574 572 
f 553 544 556 
f 546 549 567 
f 567 701 546 
f 547 554 596 
f 547 575 555 
f 547 596 575 
f 549 551 591 
f 567 549 591 
f 550 552 584 
f 550 584 583 
f 559 591 551 
f 552 555 585 
f 552 585 584 
f 553 556 616 
f 566 553 571 
f 553 616 571 
f 554 564 596 
f 555 575 563 
f 555 563 605 
f 585 555 604 
f 555 605 604 
f 599 556 569 
f 556 599 616 
f 559 572 578 
f 589 559 578 
f 589 591 559 
f 619 561 581 
f 575 570 563 
f 563 570 606 
f 563 606 605 
f 564 565 603 
f 596 564 603 
f 565 566 613 
f 603 565 613 
f 613 566 571 
f 576 567 591 
f 576 701 567 
f 601 569 568 
f 601 568 671 
f 627 599 569 
f 601 627 569 
f 570 575 573 
f 570 573 607 
f 570 607 606 
f 617 613 571 
f 617 571 616 
f 572 574 580 
f 572 593 578 
f 580 586 572 
f 586 590 572 
f 590 593 572 
f 573 575 577 
f 573 577 608 
f 573 608 607 
f 574 630 580 
f 575 588 577 
f 588 575 592 
f 575 596 592 
f 579 576 591 
f 576 579 701 
f 577 588 610 
f 577 610 608 
f 609 589 578 
f 593 595 578 
f 621 578 595 
f 597 600 578 
f 602 597 578 
f 600 609 578 
f 621 602 578 
f 587 579 591 
f 587 666 579 
f 579 666 685 
f 686 579 685 
f 701 579 686 
f 586 580 630 
f 582 619 581 
f 583 619 582 
f 584 619 583 
f 585 619 584 
f 604 619 585 
f 590 586 630 
f 591 598 587 
f 598 666 587 
f 588 592 611 
f 588 611 610 
f 589 626 591 
f 589 609 630 
f 589 631 626 
f 589 630 631 
f 593 590 597 
f 597 590 600 
f 600 590 609 
f 609 590 630 
f 624 598 591 
f 624 591 626 
f 592 596 594 
f 611 592 594 
f 602 595 593 
f 602 593 597 
f 594 596 639 
f 612 611 594 
f 612 594 614 
f 614 594 618 
f 618 594 639 
f 628 595 602 
f 621 595 615 
f 628 615 595 
f 596 603 639 
f 598 624 666 
f 599 634 616 
f 632 599 627 
f 599 632 634 
f 627 601 671 
f 621 628 602 
f 613 639 603 
f 605 619 604 
f 606 619 605 
f 607 619 606 
f 608 619 607 
f 610 619 608 
f 611 619 610 
f 612 619 611 
f 614 619 612 
f 635 613 617 
f 635 639 613 
f 618 619 614 
f 620 621 615 
f 628 620 615 
f 649 617 616 
f 616 634 638 
f 647 616 638 
f 649 616 647 
f 664 635 617 
f 649 664 617 
f 622 619 618 
f 622 618 639 
f 623 619 622 
f 625 619 623 
f 619 625 629 
f 619 629 636 
f 660 619 636 
f 669 619 660 
f 672 619 669 
f 673 619 672 
f 675 619 673 
f 640 621 620 
f 633 620 628 
f 633 640 620 
f 633 628 621 
f 640 633 621 
f 622 639 623 
f 625 623 639 
f 637 624 626 
f 624 637 665 
f 624 665 666 
f 629 625 639 
f 626 631 642 
f 665 637 626 
f 642 662 626 
f 662 670 626 
f 666 665 626 
f 626 670 666 
f 632 627 671 
f 639 636 629 
f 634 632 671 
f 671 638 634 
f 635 653 639 
f 635 664 653 
f 639 648 636 
f 643 636 648 
f 658 636 643 
f 660 636 658 
f 638 671 647 
f 648 639 641 
f 641 639 653 
f 648 641 650 
f 650 641 659 
f 651 641 653 
f 641 651 659 
f 643 657 644 
f 658 643 644 
f 648 657 643 
f 652 644 645 
f 644 657 645 
f 656 644 652 
f 656 658 644 
f 652 645 646 
f 657 646 645 
f 652 646 661 
f 657 661 646 
f 663 649 647 
f 671 663 647 
f 648 650 655 
f 648 655 657 
f 674 649 663 
f 676 664 649 
f 674 676 649 
f 655 650 659 
f 651 653 654 
f 659 651 654 
f 661 656 652 
f 659 654 653 
f 678 659 653 
f 653 664 677 
f 689 653 677 
f 679 678 653 
f 682 679 653 
f 682 653 689 
f 678 657 655 
f 659 678 655 
f 656 661 658 
f 678 661 657 
f 658 661 660 
f 660 661 683 
f 669 660 683 
f 678 683 661 
f 662 667 670 
f 701 663 671 
f 674 663 701 
f 680 664 676 
f 664 684 677 
f 664 680 684 
f 685 666 670 
f 668 670 667 
f 675 670 668 
f 669 686 672 
f 683 686 669 
f 685 670 675 
f 672 685 673 
f 686 685 672 
f 685 675 673 
f 680 676 674 
f 680 674 701 
f 677 684 687 
f 688 677 687 
f 689 677 688 
f 679 681 678 
f 678 681 683 
f 681 679 682 
f 684 680 701 
f 692 681 682 
f 681 690 683 
f 698 690 681 
f 692 698 681 
f 692 682 689 
f 691 686 683 
f 690 691 683 
f 687 684 701 
f 686 691 699 
f 686 699 704 
f 686 704 701 
f 688 687 701 
f 694 689 688 
f 694 688 701 
f 696 692 689 
f 694 695 689 
f 695 696 689 
f 690 693 691 
f 699 693 690 
f 698 699 690 
f 699 691 693 
f 692 696 697 
f 692 697 698 
f 695 694 701 
f 696 695 701 
f 697 696 701 
f 698 697 702 
f 702 697 701 
f 698 700 699 
f 703 700 698 
f 702 704 698 
f 704 703 698 
f 704 699 700 
f 704 700 703 
f 704 702 701 


