####
#
#	OBJ File Generated by LightWave3D
#	LightWave3D OBJ Export v2.2
#
####
#	Object: 1
#
#	                Vertices: 60
#	                  Points: 0
#	                   Lines: 0
#	                   Faces: 20
#	               Materials: 1
#
####

o 1

#	             Vertex list

v -0.0106403 -0.0511185 0.0145839
v 0.00470039 -0.0503489 0.0145839
v -0.0106403 -0.0511185 -0.013584
v 0.00470039 -0.0503489 0.0145839
v 0.00470039 -0.0503489 -0.013584
v -0.0106403 -0.0511185 -0.013584
v 0.00470039 -0.0503489 0.0145839
v -0.0106403 -0.0511185 0.0145839
v -0.00736283 -0.0129777 0.00840947
v 0.00470039 -0.0503489 0.0145839
v -0.00736283 -0.0129777 0.00840947
v 0.00897784 -0.0122081 0.00840947
v 0.00897784 -0.0122081 0.00840947
v -0.00736283 -0.0129777 0.00840947
v -0.00802729 0.0354314 0.00810526
v 0.00897784 -0.0122081 0.00840947
v -0.00802729 0.0354314 0.00810526
v 0.0202648 0.0415508 0.00810526
v 0.0202648 0.0415508 0.00810526
v -0.00802729 0.0354314 0.00810526
v -0.00802729 0.0354314 -0.0071054
v 0.0202648 0.0415508 0.00810526
v -0.00802729 0.0354314 -0.0071054
v 0.0202648 0.0415508 -0.0071054
v -0.00736283 -0.0129777 -0.00708005
v 0.00897784 -0.0122081 -0.00708005
v -0.00802729 0.0354314 -0.0071054
v 0.00897784 -0.0122081 -0.00708005
v 0.0202648 0.0415508 -0.0071054
v -0.00802729 0.0354314 -0.0071054
v -0.0106403 -0.0511185 -0.013584
v 0.00470039 -0.0503489 -0.013584
v -0.00736283 -0.0129777 -0.00708005
v 0.00470039 -0.0503489 -0.013584
v 0.00897784 -0.0122081 -0.00708005
v -0.00736283 -0.0129777 -0.00708005
v -0.0106403 -0.0511185 0.0145839
v -0.0106403 -0.0511185 -0.013584
v -0.00736283 -0.0129777 -0.00708005
v -0.0106403 -0.0511185 0.0145839
v -0.00736283 -0.0129777 -0.00708005
v -0.00736283 -0.0129777 0.00840947
v -0.00736283 -0.0129777 -0.00708005
v -0.00802729 0.0354314 -0.0071054
v -0.00802729 0.0354314 0.00810526
v -0.00736283 -0.0129777 0.00840947
v -0.00736283 -0.0129777 -0.00708005
v -0.00802729 0.0354314 0.00810526
v 0.00470039 -0.0503489 0.0145839
v 0.00897784 -0.0122081 -0.00708005
v 0.00470039 -0.0503489 -0.013584
v 0.00470039 -0.0503489 0.0145839
v 0.00897784 -0.0122081 0.00840947
v 0.00897784 -0.0122081 -0.00708005
v 0.00897784 -0.0122081 0.00840947
v 0.0202648 0.0415508 0.00810526
v 0.00897784 -0.0122081 -0.00708005
v 0.00897784 -0.0122081 -0.00708005
v 0.0202648 0.0415508 0.00810526
v 0.0202648 0.0415508 -0.0071054

#	               Face list

usemtl Default
f 3 2 1
f 6 5 4
f 9 8 7
f 12 11 10
f 15 14 13
f 18 17 16
f 21 20 19
f 24 23 22
f 27 26 25
f 30 29 28
f 33 32 31
f 36 35 34
f 39 38 37
f 42 41 40
f 45 44 43
f 48 47 46
f 51 50 49
f 54 53 52
f 57 56 55
f 60 59 58

#	             End of file
