####
#
#	OBJ File Generated by LightWave3D
#	LightWave3D OBJ Export v2.2
#
####
#	Object: 1
#
#	                Vertices: 389
#	                  Points: 0
#	                   Lines: 0
#	                   Faces: 112
#	               Materials: 1
#
####

o 1

#	             Vertex list

v -0.0391735 -0.0145 -0.0163293
v 0.0105133 -0.0145 -0.0144965
v 0.010513 -0.0145 -0.015663
v -0.0445369 -0.0145 -0.0178091
v -0.0391735 -0.0145 -0.0163293
v -0.0445369 -0.0145 -0.0178091
v -0.0314429 0.00414995 -0.0175408
v -0.033772 -0.00454346 -0.0161002
v -0.033772 -0.00454346 -0.0161002
v -0.0314429 0.00414995 -0.0175408
v -0.0113507 0.0135 -0.016289
v -0.0113504 0.0135 -0.015031
v -0.0113504 0.0135 -0.015031
v -0.0113507 0.0135 -0.016289
v 0.0022998 0.0300845 -0.0151418
v 0.0024899 0.030574 -0.0140792
v 0.0024899 0.030574 -0.0140792
v 0.0022998 0.0300845 -0.0151418
v 0.0190365 0.0275 -0.0146235
v 0.0105133 -0.0145 -0.0144965
v 0.010513 -0.0145 -0.015663
v -0.0391726 -0.0145 -0.0139772
v 0.0105142 -0.0145 -0.0129714
v 0.0105133 -0.0145 -0.0144965
v -0.0391735 -0.0145 -0.0163293
v -0.0391726 -0.0145 -0.0139772
v -0.0391735 -0.0145 -0.0163293
v -0.033772 -0.00454346 -0.0161002
v -0.033771 -0.00454372 -0.0138514
v -0.033771 -0.00454372 -0.0138514
v -0.033772 -0.00454346 -0.0161002
v -0.0113504 0.0135 -0.015031
v -0.0113495 0.0135 -0.0132647
v -0.0113495 0.0135 -0.0132647
v -0.0113504 0.0135 -0.015031
v 0.0024899 0.030574 -0.0140792
v 0.0027444 0.0312281 -0.012659
v 0.0027444 0.0312281 -0.012659
v 0.0024899 0.030574 -0.0140792
v 0.0190365 0.0275 -0.0146235
v 0.0105142 -0.0145 -0.0129714
v 0.0105133 -0.0145 -0.0144965
v -0.0485753 -0.0145 -0.0117667
v 0.0105146 -0.0145 -0.0109977
v 0.0105142 -0.0145 -0.0129714
v -0.0391726 -0.0145 -0.0139772
v -0.0485753 -0.0145 -0.0117667
v -0.0391726 -0.0145 -0.0139772
v -0.033771 -0.00454372 -0.0138514
v -0.0314412 0.00414951 -0.0116705
v -0.0314412 0.00414951 -0.0116705
v -0.033771 -0.00454372 -0.0138514
v -0.0113495 0.0135 -0.0132647
v -0.0113491 0.0135 -0.011222
v -0.0113491 0.0135 -0.011222
v -0.0113495 0.0135 -0.0132647
v 0.0027444 0.0312281 -0.012659
v 0.0030621 0.0320463 -0.0108828
v 0.0030621 0.0320463 -0.0108828
v 0.0027444 0.0312281 -0.012659
v 0.0190365 0.0275 -0.0146235
v 0.0190394 0.0295 -0.0103569
v 0.0190394 0.0295 -0.0103569
v 0.0190365 0.0275 -0.0146235
v 0.018049 0.0155 -0.0143982
v 0.0180519 0.0155 -0.0102928
v 0.0180519 0.0155 -0.0102928
v 0.018049 0.0155 -0.0143982
v 0.0105146 -0.0145 -0.0109977
v 0.0105142 -0.0145 -0.0129714
v -0.0389782 -0.0145 -0.0001276
v 0.0105168 -0.0145 -0.0001276
v 0.0105163 -0.0145 -0.00262145
v -0.0389787 -0.0145 -0.00286819
v -0.0389782 -0.0145 -0.0001276
v -0.0389787 -0.0145 -0.00286819
v -0.0337692 -0.00454421 -0.00283735
v -0.0337687 -0.00454434 -0.0001276
v -0.0337687 -0.00454434 -0.0001276
v -0.0337692 -0.00454421 -0.00283735
v -0.0113475 0.0135 -0.00269342
v -0.011347 0.0135 -0.0001276
v -0.011347 0.0135 -0.0001276
v -0.0113475 0.0135 -0.00269342
v 0.0033251 0.03272 -0.00264202
v 0.0033256 0.0327198 -0.0001276
v 0.0033256 0.0327198 -0.0001276
v 0.0033251 0.03272 -0.00264202
v 0.0190394 0.0295 -0.0103569
v 0.0190418 0.0315 -0.0001276
v 0.0190418 0.0315 -0.0001276
v 0.0190394 0.0295 -0.0103569
v 0.0180519 0.0155 -0.0102928
v 0.0180543 0.0155 -0.0001276
v 0.0180543 0.0155 -0.0001276
v 0.0180519 0.0155 -0.0102928
v 0.0105168 -0.0145 -0.0001276
v 0.0105163 -0.0145 -0.00262145
v -0.0485741 -0.0145 -0.00506085
v 0.0105159 -0.0145 -0.00455798
v 0.0105146 -0.0145 -0.0109977
v -0.0485753 -0.0145 -0.0117667
v -0.0389787 -0.0145 -0.00286819
v 0.0105163 -0.0145 -0.00262145
v 0.0105159 -0.0145 -0.00455798
v -0.0485741 -0.0145 -0.00506085
v -0.0485741 -0.0145 -0.00506085
v -0.0485753 -0.0145 -0.0117667
v -0.0314412 0.00414951 -0.0116705
v -0.0314401 0.0041492 -0.00499799
v -0.0389787 -0.0145 -0.00286819
v -0.0485741 -0.0145 -0.00506085
v -0.0314401 0.0041492 -0.00499799
v -0.0337692 -0.00454421 -0.00283735
v -0.0314401 0.0041492 -0.00499799
v -0.0314412 0.00414951 -0.0116705
v -0.0113491 0.0135 -0.011222
v -0.0113479 0.0135 -0.00470465
v -0.0337692 -0.00454421 -0.00283735
v -0.0314401 0.0041492 -0.00499799
v -0.0113479 0.0135 -0.00470465
v -0.0113475 0.0135 -0.00269342
v -0.0113479 0.0135 -0.00470465
v -0.0113491 0.0135 -0.011222
v 0.0030621 0.0320463 -0.0108828
v 0.0033247 0.0327202 -0.00459989
v -0.0113475 0.0135 -0.00269342
v -0.0113479 0.0135 -0.00470465
v 0.0033247 0.0327202 -0.00459989
v 0.0033251 0.03272 -0.00264202
v 0.0033247 0.0327202 -0.00459989
v 0.0030621 0.0320463 -0.0108828
v 0.0190394 0.0295 -0.0103569
v 0.0033251 0.03272 -0.00264202
v 0.0033247 0.0327202 -0.00459989
v 0.0190394 0.0295 -0.0103569
v 0.0105159 -0.0145 -0.00455798
v 0.0105146 -0.0145 -0.0109977
v 0.0105163 -0.0145 -0.00262145
v 0.0105159 -0.0145 -0.00455798
v -0.0415083 -0.0145 -0.0245252
v 0.0105117 -0.0145 -0.0210664
v -0.0369635 -0.0145 -0.0253931
v -0.0445369 -0.0145 -0.0178091
v 0.010513 -0.0145 -0.015663
v 0.0105117 -0.0145 -0.0210664
v -0.0415083 -0.0145 -0.0245252
v -0.0415083 -0.0145 -0.0245252
v -0.0369635 -0.0145 -0.0253931
v -0.0337738 -0.00454297 -0.0258896
v -0.0314442 0.00415031 -0.0240929
v -0.0445369 -0.0145 -0.0178091
v -0.0415083 -0.0145 -0.0245252
v -0.0314442 0.00415031 -0.0240929
v -0.0314429 0.00414995 -0.0175408
v -0.0314442 0.00415031 -0.0240929
v -0.0337738 -0.00454297 -0.0258896
v -0.0113523 0.0135 -0.0213564
v -0.0113521 0.0135 -0.0200105
v -0.0314429 0.00414995 -0.0175408
v -0.0314442 0.00415031 -0.0240929
v -0.0113521 0.0135 -0.0200105
v -0.0113507 0.0135 -0.016289
v -0.0113521 0.0135 -0.0200105
v -0.0113523 0.0135 -0.0213564
v 0.0018728 0.0289874 -0.0166345
v -0.0113507 0.0135 -0.016289
v -0.0113521 0.0135 -0.0200105
v 0.0018728 0.0289874 -0.0166345
v 0.0022998 0.0300845 -0.0151418
v 0.0022998 0.0300845 -0.0151418
v 0.0018728 0.0289874 -0.0166345
v 0.0190365 0.0275 -0.0146235
v 0.010513 -0.0145 -0.015663
v 0.0105117 -0.0145 -0.0210664
v 0.018049 0.0155 -0.0143982
v 0.0105117 -0.0145 -0.0210664
v 0.018049 0.0155 -0.0143982
v 0.0190365 0.0275 -0.0146235
v 0.0018728 0.0289874 -0.0166345
v 0.0105117 -0.0145 -0.0210664
v 0.018049 0.0155 -0.0143982
v 0.0018728 0.0289874 -0.0166345
v 0.0105117 -0.0145 -0.0210664
v -0.0337738 -0.00454297 -0.0258896
v -0.0369635 -0.0145 -0.0253931
v 0.0105117 -0.0145 -0.0210664
v 0.0018728 0.0289874 -0.0166345
v -0.0113523 0.0135 -0.0213564
v 0.0105117 -0.0145 -0.0210664
v -0.0113523 0.0135 -0.0213564
v -0.0337738 -0.00454297 -0.0258896
v -0.0391735 -0.0145 0.0160741
v -0.0445369 -0.0145 0.0175539
v 0.010513 -0.0145 0.0154078
v 0.0105133 -0.0145 0.0142413
v -0.0391735 -0.0145 0.0160741
v -0.033772 -0.00454346 0.015845
v -0.0314429 0.00414995 0.0172856
v -0.0445369 -0.0145 0.0175539
v -0.033772 -0.00454346 0.015845
v -0.0113504 0.0135 0.0147758
v -0.0113507 0.0135 0.0160338
v -0.0314429 0.00414995 0.0172856
v -0.0113504 0.0135 0.0147758
v 0.0024899 0.030574 0.013824
v 0.0022998 0.0300845 0.0148866
v -0.0113507 0.0135 0.0160338
v 0.0024899 0.030574 0.013824
v 0.0190365 0.0275 0.0143683
v 0.0022998 0.0300845 0.0148866
v 0.0105133 -0.0145 0.0142413
v 0.010513 -0.0145 0.0154078
v -0.0391726 -0.0145 0.013722
v -0.0391735 -0.0145 0.0160741
v 0.0105133 -0.0145 0.0142413
v 0.0105142 -0.0145 0.0127162
v -0.0391726 -0.0145 0.013722
v -0.033771 -0.00454372 0.0135962
v -0.033772 -0.00454346 0.015845
v -0.0391735 -0.0145 0.0160741
v -0.033771 -0.00454372 0.0135962
v -0.0113495 0.0135 0.0130095
v -0.0113504 0.0135 0.0147758
v -0.033772 -0.00454346 0.015845
v -0.0113495 0.0135 0.0130095
v 0.0027444 0.0312281 0.0124038
v 0.0024899 0.030574 0.013824
v -0.0113504 0.0135 0.0147758
v 0.0027444 0.0312281 0.0124038
v 0.0190365 0.0275 0.0143683
v 0.0024899 0.030574 0.013824
v 0.0105142 -0.0145 0.0127162
v 0.0105133 -0.0145 0.0142413
v -0.0485753 -0.0145 0.0115115
v -0.0391726 -0.0145 0.013722
v 0.0105142 -0.0145 0.0127162
v 0.0105146 -0.0145 0.0107425
v -0.0485753 -0.0145 0.0115115
v -0.0314412 0.00414951 0.0114154
v -0.033771 -0.00454372 0.0135962
v -0.0391726 -0.0145 0.013722
v -0.0314412 0.00414951 0.0114154
v -0.0113491 0.0135 0.0109668
v -0.0113495 0.0135 0.0130095
v -0.033771 -0.00454372 0.0135962
v -0.0113491 0.0135 0.0109668
v 0.0030621 0.0320463 0.0106276
v 0.0027444 0.0312281 0.0124038
v -0.0113495 0.0135 0.0130095
v 0.0030621 0.0320463 0.0106276
v 0.0190394 0.0295 0.0101017
v 0.0190365 0.0275 0.0143683
v 0.0027444 0.0312281 0.0124038
v 0.0190394 0.0295 0.0101017
v 0.0180519 0.0155 0.0100376
v 0.018049 0.0155 0.014143
v 0.0190365 0.0275 0.0143683
v 0.018049 0.0155 0.014143
v 0.0180519 0.0155 0.0100376
v 0.0105146 -0.0145 0.0107425
v 0.0105142 -0.0145 0.0127162
v -0.0389782 -0.0145 -0.0001276
v -0.0389787 -0.0145 0.00261299
v 0.0105163 -0.0145 0.00236625
v 0.0105168 -0.0145 -0.0001276
v -0.0389782 -0.0145 -0.0001276
v -0.0337687 -0.00454434 -0.0001276
v -0.0337692 -0.00454421 0.00258215
v -0.0389787 -0.0145 0.00261299
v -0.0337687 -0.00454434 -0.0001276
v -0.011347 0.0135 -0.0001276
v -0.0113475 0.0135 0.00243822
v -0.0337692 -0.00454421 0.00258215
v -0.011347 0.0135 -0.0001276
v 0.0033256 0.0327198 -0.0001276
v 0.0033251 0.03272 0.00238682
v -0.0113475 0.0135 0.00243822
v 0.0033256 0.0327198 -0.0001276
v 0.0190418 0.0315 -0.0001276
v 0.0190394 0.0295 0.0101017
v 0.0033251 0.03272 0.00238682
v 0.0190418 0.0315 -0.0001276
v 0.0180543 0.0155 -0.0001276
v 0.0180519 0.0155 0.0100376
v 0.0190394 0.0295 0.0101017
v 0.0180543 0.0155 -0.0001276
v 0.0180519 0.0155 0.0100376
v 0.0105168 -0.0145 -0.0001276
v 0.0105163 -0.0145 0.00236625
v -0.0485741 -0.0145 0.00480565
v -0.0485753 -0.0145 0.0115115
v 0.0105146 -0.0145 0.0107425
v 0.0105159 -0.0145 0.00430278
v -0.0389787 -0.0145 0.00261299
v -0.0485741 -0.0145 0.00480565
v 0.0105159 -0.0145 0.00430278
v 0.0105163 -0.0145 0.00236625
v -0.0485741 -0.0145 0.00480565
v -0.0314401 0.0041492 0.00474279
v -0.0314412 0.00414951 0.0114154
v -0.0485753 -0.0145 0.0115115
v -0.0389787 -0.0145 0.00261299
v -0.0337692 -0.00454421 0.00258215
v -0.0314401 0.0041492 0.00474279
v -0.0485741 -0.0145 0.00480565
v -0.0314401 0.0041492 0.00474279
v -0.0113479 0.0135 0.00444945
v -0.0113491 0.0135 0.0109668
v -0.0314412 0.00414951 0.0114154
v -0.0337692 -0.00454421 0.00258215
v -0.0113475 0.0135 0.00243822
v -0.0113479 0.0135 0.00444945
v -0.0314401 0.0041492 0.00474279
v -0.0113479 0.0135 0.00444945
v 0.0033247 0.0327202 0.00434469
v 0.0030621 0.0320463 0.0106276
v -0.0113491 0.0135 0.0109668
v -0.0113475 0.0135 0.00243822
v 0.0033251 0.03272 0.00238682
v 0.0033247 0.0327202 0.00434469
v -0.0113479 0.0135 0.00444945
v 0.0033247 0.0327202 0.00434469
v 0.0190394 0.0295 0.0101017
v 0.0030621 0.0320463 0.0106276
v 0.0033251 0.03272 0.00238682
v 0.0190394 0.0295 0.0101017
v 0.0033247 0.0327202 0.00434469
v 0.0105159 -0.0145 0.00430278
v 0.0105146 -0.0145 0.0107425
v 0.0105163 -0.0145 0.00236625
v 0.0105159 -0.0145 0.00430278
v -0.0415083 -0.0145 0.02427
v -0.0369635 -0.0145 0.0251379
v 0.0105115 -0.0145 0.0216254
v -0.0445369 -0.0145 0.0175539
v -0.0415083 -0.0145 0.02427
v 0.0105115 -0.0145 0.0216254
v 0.010513 -0.0145 0.0154078
v -0.0415083 -0.0145 0.02427
v -0.0314442 0.00415031 0.0238377
v -0.0337738 -0.00454297 0.0256344
v -0.0369635 -0.0145 0.0251379
v -0.0445369 -0.0145 0.0175539
v -0.0314429 0.00414995 0.0172856
v -0.0314442 0.00415031 0.0238377
v -0.0415083 -0.0145 0.02427
v -0.0314442 0.00415031 0.0238377
v -0.0113521 0.0135 0.0197553
v -0.0113523 0.0135 0.0211012
v -0.0337738 -0.00454297 0.0256344
v -0.0314429 0.00414995 0.0172856
v -0.0113507 0.0135 0.0160338
v -0.0113521 0.0135 0.0197553
v -0.0314442 0.00415031 0.0238377
v -0.0113521 0.0135 0.0197553
v 0.001873 0.0289873 0.0157572
v -0.0113523 0.0135 0.0211012
v -0.0113507 0.0135 0.0160338
v 0.0022998 0.0300845 0.0148866
v 0.001873 0.0289873 0.0157572
v -0.0113521 0.0135 0.0197553
v 0.0022998 0.0300845 0.0148866
v 0.0190365 0.0275 0.0143683
v 0.001873 0.0289873 0.0157572
v 0.010513 -0.0145 0.0154078
v 0.0105115 -0.0145 0.0216254
v 0.0105115 -0.0145 0.0216254
v 0.018049 0.0155 0.014143
v 0.018049 0.0155 0.014143
v 0.001873 0.0289873 0.0157572
v 0.0190365 0.0275 0.0143683
v 0.0105115 -0.0145 0.0216254
v 0.001873 0.0289873 0.0157572
v 0.018049 0.0155 0.014143
v 0.0105115 -0.0145 0.0216254
v -0.0369635 -0.0145 0.0251379
v -0.0337738 -0.00454297 0.0256344
v 0.0105115 -0.0145 0.0216254
v -0.0113523 0.0135 0.0211012
v 0.001873 0.0289873 0.0157572
v 0.0105115 -0.0145 0.0216254
v -0.0337738 -0.00454297 0.0256344
v -0.0113523 0.0135 0.0211012
v 0.0210843 0.0005 -0.0001276
v 0.021079 0.0005 0.014143
v 0.0210818 0.0005 0.0100376
v 0.021079 0.0005 -0.0143982
v 0.0210818 0.0005 -0.0102928

#	               Face list

usemtl Default
f 4 3 2 1
f 8 7 6 5
f 12 11 10 9
f 16 15 14 13
f 19 18 17
f 21 388 20
f 25 24 23 22
f 29 28 27 26
f 33 32 31 30
f 37 36 35 34
f 40 39 38
f 42 388 41
f 46 45 44 43
f 50 49 48 47
f 54 53 52 51
f 58 57 56 55
f 62 61 60 59
f 66 65 64 63
f 68 67 389 388
f 70 388 389 69
f 74 73 72 71
f 78 77 76 75
f 82 81 80 79
f 86 85 84 83
f 90 89 88 87
f 94 93 92 91
f 385 389 96 95
f 98 389 385 97
f 102 101 100 99
f 106 105 104 103
f 110 109 108 107
f 114 113 112 111
f 118 117 116 115
f 122 121 120 119
f 126 125 124 123
f 130 129 128 127
f 133 132 131
f 136 135 134
f 138 389 137
f 140 389 139
f 143 142 141
f 147 146 145 144
f 151 150 149 148
f 155 154 153 152
f 159 158 157 156
f 163 162 161 160
f 166 165 164
f 170 169 168 167
f 173 172 171
f 175 388 174
f 177 176 388
f 180 179 178
f 183 182 181
f 186 185 184
f 189 188 187
f 192 191 190
f 196 195 194 193
f 200 199 198 197
f 204 203 202 201
f 208 207 206 205
f 211 210 209
f 386 213 212
f 217 216 215 214
f 221 220 219 218
f 225 224 223 222
f 229 228 227 226
f 232 231 230
f 386 234 233
f 238 237 236 235
f 242 241 240 239
f 246 245 244 243
f 250 249 248 247
f 254 253 252 251
f 258 257 256 255
f 387 260 259 386
f 387 386 262 261
f 266 265 264 263
f 270 269 268 267
f 274 273 272 271
f 278 277 276 275
f 282 281 280 279
f 286 285 284 283
f 288 387 385 287
f 385 387 290 289
f 294 293 292 291
f 298 297 296 295
f 302 301 300 299
f 306 305 304 303
f 310 309 308 307
f 314 313 312 311
f 318 317 316 315
f 322 321 320 319
f 325 324 323
f 328 327 326
f 387 330 329
f 387 332 331
f 335 334 333
f 339 338 337 336
f 343 342 341 340
f 347 346 345 344
f 351 350 349 348
f 355 354 353 352
f 358 357 356
f 362 361 360 359
f 365 364 363
f 386 367 366
f 369 368 386
f 372 371 370
f 375 374 373
f 378 377 376
f 381 380 379
f 384 383 382

#	             End of file
