####
#
#	OBJ File Generated by LightWave3D
#	LightWave3D OBJ Export v2.2
#
####
#	Object: 12
#
#	                Vertices: 132
#	                  Points: 0
#	                   Lines: 0
#	                   Faces: 44
#	               Materials: 1
#
####

o 12

#	             Vertex list

v -0.008 -0.104 0.00550528
v -0.008 -0.106 1.24438e-018
v -0.024 0.05 0.00769067
v -0.008 -0.106 1.24438e-018
v -0.024 0.05 1.24438e-018
v -0.024 0.05 0.00769067
v -0.024 0.05 0.00769067
v -0.024 0.05 1.24438e-018
v -0.018 0.102 1.24438e-018
v -0.024 0.05 0.00769067
v -0.018 0.102 1.24438e-018
v -0.018 0.102 0.00625599
v 0.028 0.028 0.0134294
v 0.012 0.102 1.24438e-018
v 0.028 0.028 1.24438e-018
v 0.028 0.028 0.0134294
v 0.012 0.102 0.00625599
v 0.012 0.102 1.24438e-018
v 0.012 -0.104 0.00481712
v 0.028 0.028 0.0134294
v 0.012 -0.106 0
v 0.012 -0.106 0
v 0.028 0.028 0.0134294
v 0.028 0.028 1.24438e-018
v 0.028 0.028 0.0134294
v -1.04308e-010 0.10068 0.015589
v 0.012 0.102 0.00625599
v -1.04308e-010 -0.10128 0.0114571
v 0.028 0.028 0.0134294
v 0.012 -0.104 0.00481712
v -1.04308e-010 -0.10128 0.0114571
v -1.04308e-010 0.10068 0.015589
v 0.028 0.028 0.0134294
v -0.024 0.05 0.00769067
v -0.018 0.102 0.00625599
v -1.04308e-010 0.10068 0.015589
v -1.04308e-010 -0.10128 0.0114571
v -0.024 0.05 0.00769067
v -1.04308e-010 0.10068 0.015589
v -1.04308e-010 -0.10128 0.0114571
v -0.008 -0.104 0.00550528
v -0.024 0.05 0.00769067
v -0.008 -0.104 0.00550528
v -1.04308e-010 -0.106 7.46627e-019
v -0.008 -0.106 1.24438e-018
v -1.04308e-010 -0.10128 0.0114571
v -1.04308e-010 -0.106 7.46627e-019
v -0.008 -0.104 0.00550528
v 0.012 -0.104 0.00481712
v 0.012 -0.106 0
v -1.04308e-010 -0.106 7.46627e-019
v -1.04308e-010 -0.10128 0.0114571
v 0.012 -0.104 0.00481712
v -1.04308e-010 -0.106 7.46627e-019
v 0.012 0.102 0.00625599
v -1.04308e-010 0.102 1.24438e-018
v 0.012 0.102 1.24438e-018
v -1.04308e-010 0.10068 0.015589
v -1.04308e-010 0.102 1.24438e-018
v 0.012 0.102 0.00625599
v -0.018 0.102 0.00625599
v -0.018 0.102 1.24438e-018
v -1.04308e-010 0.102 1.24438e-018
v -1.04308e-010 0.10068 0.015589
v -0.018 0.102 0.00625599
v -1.04308e-010 0.102 1.24438e-018
v -0.008 -0.104 -0.00550528
v -0.024 0.05 -0.00769067
v -0.008 -0.106 1.24438e-018
v -0.008 -0.106 1.24438e-018
v -0.024 0.05 -0.00769067
v -0.024 0.05 1.24438e-018
v -0.024 0.05 -0.00769067
v -0.018 0.102 1.24438e-018
v -0.024 0.05 1.24438e-018
v -0.024 0.05 -0.00769067
v -0.018 0.102 -0.00625599
v -0.018 0.102 1.24438e-018
v 0.028 0.028 -0.0134294
v 0.028 0.028 1.24438e-018
v 0.012 0.102 1.24438e-018
v 0.028 0.028 -0.0134294
v 0.012 0.102 1.24438e-018
v 0.012 0.102 -0.00625599
v 0.012 -0.104 -0.00481712
v 0.012 -0.106 0
v 0.028 0.028 -0.0134294
v 0.012 -0.106 0
v 0.028 0.028 1.24438e-018
v 0.028 0.028 -0.0134294
v 0.028 0.028 -0.0134294
v 0.012 0.102 -0.00625599
v -1.04308e-010 0.10068 -0.0148238
v -1.04308e-010 -0.10128 -0.010692
v 0.012 -0.104 -0.00481712
v 0.028 0.028 -0.0134294
v -1.04308e-010 -0.10128 -0.010692
v 0.028 0.028 -0.0134294
v -1.04308e-010 0.10068 -0.0148238
v -0.024 0.05 -0.00769067
v -1.04308e-010 0.10068 -0.0148238
v -0.018 0.102 -0.00625599
v -1.04308e-010 -0.10128 -0.010692
v -1.04308e-010 0.10068 -0.0148238
v -0.024 0.05 -0.00769067
v -1.04308e-010 -0.10128 -0.010692
v -0.024 0.05 -0.00769067
v -0.008 -0.104 -0.00550528
v -0.008 -0.104 -0.00550528
v -0.008 -0.106 1.24438e-018
v -1.04308e-010 -0.106 7.46627e-019
v -1.04308e-010 -0.10128 -0.010692
v -0.008 -0.104 -0.00550528
v -1.04308e-010 -0.106 7.46627e-019
v 0.012 -0.104 -0.00481712
v -1.04308e-010 -0.106 7.46627e-019
v 0.012 -0.106 0
v -1.04308e-010 -0.10128 -0.010692
v -1.04308e-010 -0.106 7.46627e-019
v 0.012 -0.104 -0.00481712
v 0.012 0.102 -0.00625599
v 0.012 0.102 1.24438e-018
v -1.04308e-010 0.102 1.24438e-018
v -1.04308e-010 0.10068 -0.0148238
v 0.012 0.102 -0.00625599
v -1.04308e-010 0.102 1.24438e-018
v -0.018 0.102 -0.00625599
v -1.04308e-010 0.102 1.24438e-018
v -0.018 0.102 1.24438e-018
v -1.04308e-010 0.10068 -0.0148238
v -1.04308e-010 0.102 1.24438e-018
v -0.018 0.102 -0.00625599

#	               Face list

usemtl Default
f 3 2 1
f 6 5 4
f 9 8 7
f 12 11 10
f 15 14 13
f 18 17 16
f 21 20 19
f 24 23 22
f 27 26 25
f 30 29 28
f 33 32 31
f 36 35 34
f 39 38 37
f 42 41 40
f 45 44 43
f 48 47 46
f 51 50 49
f 54 53 52
f 57 56 55
f 60 59 58
f 63 62 61
f 66 65 64
f 69 68 67
f 72 71 70
f 75 74 73
f 78 77 76
f 81 80 79
f 84 83 82
f 87 86 85
f 90 89 88
f 93 92 91
f 96 95 94
f 99 98 97
f 102 101 100
f 105 104 103
f 108 107 106
f 111 110 109
f 114 113 112
f 117 116 115
f 120 119 118
f 123 122 121
f 126 125 124
f 129 128 127
f 132 131 130

#	             End of file
