# Blender v2.76 (sub 0) OBJ File: 'board.blend'
# www.blender.org
mtllib board2.mtl
o board
v 0.011887 0.002337 0.002286
v 0.011887 0.000000 0.002286
v 0.008941 0.002337 0.002286
v 0.008941 0.000000 0.002286
v 0.008941 0.002337 0.003810
v 0.008941 0.000000 0.003810
v 0.011887 0.002337 0.003810
v 0.011887 0.000000 0.003810
v 0.008992 0.002286 0.002388
v 0.011836 0.002286 0.002388
v 0.008992 0.002286 -0.002591
v 0.011836 0.002286 -0.002591
v 0.011836 0.000000 0.002388
v 0.008992 0.000000 0.002388
v 0.011836 0.000000 -0.002591
v 0.008992 0.000000 -0.002591
v 0.010465 0.001168 -0.000965
v 0.010465 0.001168 -0.000889
v 0.010998 0.001168 -0.000965
v 0.011049 0.001168 -0.000889
v 0.011151 0.001168 -0.001041
v 0.011227 0.001168 -0.000965
v 0.011151 0.001168 -0.001118
v 0.011227 0.001168 -0.001194
v 0.010998 0.001168 -0.001194
v 0.011049 0.001168 -0.001270
v 0.010465 0.001168 -0.001194
v 0.010465 0.001168 -0.001270
v 0.011049 0.001118 -0.000889
v 0.010465 0.001118 -0.000889
v 0.011227 0.001118 -0.000965
v 0.011227 0.001118 -0.001194
v 0.011049 0.001118 -0.001270
v 0.010465 0.001118 -0.001270
v 0.010465 0.001118 -0.001194
v 0.010998 0.001118 -0.001194
v 0.011151 0.001118 -0.001118
v 0.011151 0.001118 -0.001041
v 0.010998 0.001118 -0.000965
v 0.010465 0.001118 -0.000965
v 0.010897 0.001118 -0.000686
v 0.010643 0.001118 -0.000762
v 0.011049 0.001118 -0.000762
v 0.011049 0.001118 -0.000381
v 0.011049 0.001118 -0.000457
v 0.011176 0.001118 -0.000432
v 0.011125 0.001118 -0.000483
v 0.011227 0.001118 -0.000533
v 0.011151 0.001118 -0.000559
v 0.011227 0.001118 -0.000610
v 0.011151 0.001118 -0.000584
v 0.011176 0.001118 -0.000711
v 0.011125 0.001118 -0.000660
v 0.011049 0.001118 -0.000686
v 0.010795 0.001118 -0.000508
v 0.010795 0.001118 -0.000635
v 0.010744 0.001118 -0.000686
v 0.010643 0.001118 -0.000686
v 0.010516 0.001118 -0.000711
v 0.010566 0.001118 -0.000660
v 0.010465 0.001118 -0.000610
v 0.010541 0.001118 -0.000584
v 0.010465 0.001118 -0.000533
v 0.010541 0.001118 -0.000559
v 0.010516 0.001118 -0.000432
v 0.010566 0.001118 -0.000483
v 0.010643 0.001118 -0.000381
v 0.010643 0.001118 -0.000457
v 0.010770 0.001118 -0.000381
v 0.010744 0.001118 -0.000457
v 0.010897 0.001118 -0.000508
v 0.010744 0.001168 -0.000457
v 0.010795 0.001168 -0.000508
v 0.010643 0.001168 -0.000457
v 0.010566 0.001168 -0.000483
v 0.010541 0.001168 -0.000559
v 0.010541 0.001168 -0.000584
v 0.010566 0.001168 -0.000660
v 0.010643 0.001168 -0.000686
v 0.010744 0.001168 -0.000686
v 0.010795 0.001168 -0.000635
v 0.010897 0.001168 -0.000508
v 0.010897 0.001168 -0.000686
v 0.011049 0.001168 -0.000686
v 0.011125 0.001168 -0.000660
v 0.011151 0.001168 -0.000584
v 0.011151 0.001168 -0.000559
v 0.011125 0.001168 -0.000483
v 0.011049 0.001168 -0.000457
v 0.011049 0.001168 -0.000381
v 0.011176 0.001168 -0.000432
v 0.011227 0.001168 -0.000533
v 0.011227 0.001168 -0.000610
v 0.011176 0.001168 -0.000711
v 0.011049 0.001168 -0.000762
v 0.010643 0.001168 -0.000762
v 0.010516 0.001168 -0.000711
v 0.010465 0.001168 -0.000610
v 0.010465 0.001168 -0.000533
v 0.010516 0.001168 -0.000432
v 0.010643 0.001168 -0.000381
v 0.010770 0.001168 -0.000381
v 0.010744 0.001118 0.001067
v 0.011049 0.001118 0.001143
v 0.010643 0.001118 0.001143
v 0.010643 0.001118 0.000762
v 0.010643 0.001118 0.000838
v 0.010516 0.001118 0.000813
v 0.010566 0.001118 0.000864
v 0.010465 0.001118 0.000914
v 0.010541 0.001118 0.000940
v 0.010465 0.001118 0.000991
v 0.010541 0.001118 0.000965
v 0.010516 0.001118 0.001092
v 0.010566 0.001118 0.001041
v 0.010643 0.001118 0.001067
v 0.011151 0.001118 0.000965
v 0.011227 0.001118 0.000991
v 0.011125 0.001118 0.001041
v 0.011176 0.001118 0.001092
v 0.011049 0.001118 0.001067
v 0.010947 0.001118 0.001067
v 0.010897 0.001118 0.001016
v 0.010795 0.001118 0.001016
v 0.010897 0.001118 0.000889
v 0.010795 0.001118 0.000889
v 0.010947 0.001118 0.000838
v 0.010897 0.001118 0.000762
v 0.011074 0.001118 0.000838
v 0.011074 0.001118 0.000762
v 0.011125 0.001118 0.000864
v 0.011176 0.001118 0.000813
v 0.011151 0.001118 0.000940
v 0.011227 0.001118 0.000914
v 0.010947 0.001168 0.000838
v 0.011074 0.001168 0.000838
v 0.010897 0.001168 0.000889
v 0.010897 0.001168 0.001016
v 0.010947 0.001168 0.001067
v 0.011049 0.001168 0.001067
v 0.011125 0.001168 0.001041
v 0.011151 0.001168 0.000965
v 0.011151 0.001168 0.000940
v 0.011125 0.001168 0.000864
v 0.011074 0.001168 0.000762
v 0.010897 0.001168 0.000762
v 0.011176 0.001168 0.000813
v 0.011227 0.001168 0.000914
v 0.011227 0.001168 0.000991
v 0.011176 0.001168 0.001092
v 0.011049 0.001168 0.001143
v 0.010643 0.001168 0.001143
v 0.010516 0.001168 0.001092
v 0.010465 0.001168 0.000991
v 0.010465 0.001168 0.000914
v 0.010516 0.001168 0.000813
v 0.010643 0.001168 0.000762
v 0.010643 0.001168 0.000838
v 0.010566 0.001168 0.000864
v 0.010541 0.001168 0.000940
v 0.010541 0.001168 0.000965
v 0.010566 0.001168 0.001041
v 0.010643 0.001168 0.001067
v 0.010744 0.001168 0.001067
v 0.010795 0.001168 0.001016
v 0.010795 0.001168 0.000889
v 0.010897 0.001118 -0.000127
v 0.010643 0.001118 -0.000254
v 0.010846 0.001118 -0.000178
v 0.010770 0.001118 -0.000254
v 0.010947 0.001118 -0.000178
v 0.010922 0.001118 -0.000254
v 0.011049 0.001118 -0.000254
v 0.010846 0.001118 0.000051
v 0.010897 0.001118 -0.000000
v 0.010922 0.001118 0.000127
v 0.010947 0.001118 0.000051
v 0.011049 0.001118 0.000127
v 0.011049 0.001118 0.000051
v 0.011176 0.001118 0.000076
v 0.011125 0.001118 0.000025
v 0.011227 0.001118 -0.000025
v 0.011151 0.001118 -0.000051
v 0.011227 0.001118 -0.000102
v 0.011151 0.001118 -0.000076
v 0.011176 0.001118 -0.000203
v 0.011125 0.001118 -0.000152
v 0.011049 0.001118 -0.000178
v 0.010795 0.001118 -0.000000
v 0.010744 0.001118 0.000051
v 0.010770 0.001118 0.000127
v 0.010643 0.001118 0.000051
v 0.010643 0.001118 0.000127
v 0.010566 0.001118 0.000025
v 0.010516 0.001118 0.000076
v 0.010541 0.001118 -0.000051
v 0.010465 0.001118 -0.000025
v 0.010541 0.001118 -0.000076
v 0.010465 0.001118 -0.000102
v 0.010566 0.001118 -0.000152
v 0.010516 0.001118 -0.000203
v 0.010643 0.001118 -0.000178
v 0.010744 0.001118 -0.000178
v 0.010795 0.001118 -0.000127
v 0.010744 0.001168 0.000051
v 0.010795 0.001168 -0.000000
v 0.010643 0.001168 0.000051
v 0.010566 0.001168 0.000025
v 0.010541 0.001168 -0.000051
v 0.010541 0.001168 -0.000076
v 0.010566 0.001168 -0.000152
v 0.010643 0.001168 -0.000178
v 0.010744 0.001168 -0.000178
v 0.010795 0.001168 -0.000127
v 0.011049 0.001168 0.000127
v 0.010922 0.001168 0.000127
v 0.011176 0.001168 0.000076
v 0.011227 0.001168 -0.000025
v 0.011227 0.001168 -0.000102
v 0.011176 0.001168 -0.000203
v 0.011049 0.001168 -0.000254
v 0.010922 0.001168 -0.000254
v 0.010846 0.001168 -0.000178
v 0.010770 0.001168 -0.000254
v 0.010643 0.001168 -0.000254
v 0.010516 0.001168 -0.000203
v 0.010465 0.001168 -0.000102
v 0.010465 0.001168 -0.000025
v 0.010516 0.001168 0.000076
v 0.010643 0.001168 0.000127
v 0.010770 0.001168 0.000127
v 0.010846 0.001168 0.000051
v 0.010897 0.001168 -0.000000
v 0.010897 0.001168 -0.000127
v 0.010947 0.001168 -0.000178
v 0.011049 0.001168 -0.000178
v 0.011125 0.001168 -0.000152
v 0.011151 0.001168 -0.000076
v 0.011151 0.001168 -0.000051
v 0.011125 0.001168 0.000025
v 0.011049 0.001168 0.000051
v 0.010947 0.001168 0.000051
v 0.009754 0.001118 -0.000178
v 0.009754 0.001118 -0.000102
v 0.009677 0.001118 -0.000203
v 0.009627 0.001118 -0.000152
v 0.009652 0.001118 -0.000279
v 0.009576 0.001118 -0.000254
v 0.009652 0.001118 -0.000305
v 0.009576 0.001118 -0.000330
v 0.009677 0.001118 -0.000381
v 0.009627 0.001118 -0.000432
v 0.009754 0.001118 -0.000406
v 0.009754 0.001118 -0.000483
v 0.009855 0.001118 -0.000406
v 0.009881 0.001118 -0.000483
v 0.009906 0.001118 -0.000356
v 0.009957 0.001118 -0.000406
v 0.009906 0.001118 -0.000305
v 0.010008 0.001118 -0.000305
v 0.010008 0.001118 -0.000356
v 0.010058 0.001118 -0.000406
v 0.010033 0.001118 -0.000483
v 0.010160 0.001118 -0.000406
v 0.010160 0.001118 -0.000483
v 0.010236 0.001118 -0.000381
v 0.010287 0.001118 -0.000432
v 0.010262 0.001118 -0.000305
v 0.010338 0.001118 -0.000330
v 0.010262 0.001118 -0.000279
v 0.010338 0.001118 -0.000254
v 0.010236 0.001118 -0.000203
v 0.010287 0.001118 -0.000152
v 0.010160 0.001118 -0.000178
v 0.010160 0.001118 -0.000102
v 0.009754 0.001168 -0.000178
v 0.009754 0.001168 -0.000102
v 0.009677 0.001168 -0.000203
v 0.009652 0.001168 -0.000279
v 0.009652 0.001168 -0.000305
v 0.009677 0.001168 -0.000381
v 0.009754 0.001168 -0.000406
v 0.009855 0.001168 -0.000406
v 0.009906 0.001168 -0.000356
v 0.009906 0.001168 -0.000305
v 0.010008 0.001168 -0.000305
v 0.010008 0.001168 -0.000356
v 0.010058 0.001168 -0.000406
v 0.010160 0.001168 -0.000406
v 0.010236 0.001168 -0.000381
v 0.010262 0.001168 -0.000305
v 0.010262 0.001168 -0.000279
v 0.010236 0.001168 -0.000203
v 0.010160 0.001168 -0.000178
v 0.010160 0.001168 -0.000102
v 0.010287 0.001168 -0.000152
v 0.010338 0.001168 -0.000254
v 0.010338 0.001168 -0.000330
v 0.010287 0.001168 -0.000432
v 0.010160 0.001168 -0.000483
v 0.010033 0.001168 -0.000483
v 0.009957 0.001168 -0.000406
v 0.009881 0.001168 -0.000483
v 0.009754 0.001168 -0.000483
v 0.009627 0.001168 -0.000432
v 0.009576 0.001168 -0.000330
v 0.009576 0.001168 -0.000254
v 0.009627 0.001168 -0.000152
v 0.010338 0.001168 0.000025
v 0.010262 0.001168 0.000025
v 0.010338 0.001168 0.000406
v 0.010262 0.001168 0.000330
v 0.010185 0.001168 0.000406
v 0.010211 0.001168 0.000330
v 0.009881 0.001168 0.000102
v 0.009906 0.001168 0.000025
v 0.009754 0.001168 0.000102
v 0.009754 0.001168 0.000025
v 0.009677 0.001168 0.000127
v 0.009627 0.001168 0.000076
v 0.009652 0.001168 0.000203
v 0.009576 0.001168 0.000178
v 0.009652 0.001168 0.000229
v 0.009576 0.001168 0.000254
v 0.009677 0.001168 0.000305
v 0.009627 0.001168 0.000356
v 0.009754 0.001168 0.000330
v 0.009754 0.001168 0.000406
v 0.009627 0.001118 0.000076
v 0.009576 0.001118 0.000178
v 0.009754 0.001118 0.000025
v 0.009906 0.001118 0.000025
v 0.010211 0.001118 0.000330
v 0.010262 0.001118 0.000330
v 0.010262 0.001118 0.000025
v 0.010338 0.001118 0.000025
v 0.010338 0.001118 0.000406
v 0.010185 0.001118 0.000406
v 0.009881 0.001118 0.000102
v 0.009754 0.001118 0.000102
v 0.009677 0.001118 0.000127
v 0.009652 0.001118 0.000203
v 0.009652 0.001118 0.000229
v 0.009677 0.001118 0.000305
v 0.009754 0.001118 0.000330
v 0.009754 0.001118 0.000406
v 0.009627 0.001118 0.000356
v 0.009576 0.001118 0.000254
v 0.010262 0.001168 0.000762
v 0.010262 0.001168 0.000914
v 0.010338 0.001168 0.000914
v 0.009703 0.001168 0.000914
v 0.009754 0.001168 0.000914
v 0.009576 0.001168 0.000787
v 0.009754 0.001168 0.000762
v 0.010338 0.001168 0.000533
v 0.010262 0.001168 0.000533
v 0.010262 0.001168 0.000686
v 0.009576 0.001168 0.000686
v 0.009754 0.001118 0.000914
v 0.009703 0.001118 0.000914
v 0.009754 0.001118 0.000762
v 0.010262 0.001118 0.000762
v 0.010262 0.001118 0.000914
v 0.010338 0.001118 0.000914
v 0.010338 0.001118 0.000533
v 0.010262 0.001118 0.000533
v 0.010262 0.001118 0.000686
v 0.009576 0.001118 0.000686
v 0.009576 0.001118 0.000787
v 0.010185 0.001168 0.001118
v 0.010211 0.001168 0.001041
v 0.009728 0.001168 0.001118
v 0.009703 0.001168 0.001041
v 0.009652 0.001168 0.001194
v 0.009576 0.001168 0.001168
v 0.009652 0.001168 0.001270
v 0.009576 0.001168 0.001295
v 0.009728 0.001168 0.001346
v 0.009703 0.001168 0.001422
v 0.010185 0.001168 0.001346
v 0.010211 0.001168 0.001422
v 0.010262 0.001168 0.001270
v 0.010338 0.001168 0.001295
v 0.010262 0.001168 0.001194
v 0.010338 0.001168 0.001168
v 0.010262 0.001118 0.001194
v 0.010185 0.001118 0.001118
v 0.010262 0.001118 0.001270
v 0.010185 0.001118 0.001346
v 0.009728 0.001118 0.001346
v 0.009652 0.001118 0.001270
v 0.009652 0.001118 0.001194
v 0.009728 0.001118 0.001118
v 0.010211 0.001118 0.001041
v 0.009703 0.001118 0.001041
v 0.009576 0.001118 0.001168
v 0.009576 0.001118 0.001295
v 0.009703 0.001118 0.001422
v 0.010211 0.001118 0.001422
v 0.010338 0.001118 0.001295
v 0.010338 0.001118 0.001168
v 0.010566 0.001168 0.000635
v 0.010566 0.001168 0.000559
v 0.010465 0.001168 0.000635
v 0.010541 0.001168 0.000559
v 0.010465 0.001168 0.000254
v 0.010541 0.001168 0.000330
v 0.010693 0.001168 0.000254
v 0.010668 0.001168 0.000330
v 0.010846 0.001168 0.000406
v 0.010820 0.001168 0.000483
v 0.011227 0.001168 0.000406
v 0.011227 0.001168 0.000483
v 0.010465 0.001118 0.000254
v 0.010465 0.001118 0.000635
v 0.010693 0.001118 0.000254
v 0.010846 0.001118 0.000406
v 0.011227 0.001118 0.000406
v 0.011227 0.001118 0.000483
v 0.010820 0.001118 0.000483
v 0.010668 0.001118 0.000330
v 0.010541 0.001118 0.000330
v 0.010541 0.001118 0.000559
v 0.010566 0.001118 0.000559
v 0.010566 0.001118 0.000635
v 0.009804 0.001168 -0.000838
v 0.009804 0.001168 -0.000762
v 0.009906 0.001168 -0.000838
v 0.009906 0.001168 -0.000762
v 0.009982 0.001168 -0.000737
v 0.010312 0.001168 -0.000737
v 0.009982 0.001168 -0.000838
v 0.010338 0.001168 -0.000762
v 0.010338 0.001168 -0.000838
v 0.009576 0.001168 -0.000686
v 0.009576 0.001168 -0.000610
v 0.009906 0.001168 -0.000686
v 0.009982 0.001168 -0.000610
v 0.009906 0.001168 -0.000991
v 0.009982 0.001168 -0.000991
v 0.009982 0.001118 -0.000610
v 0.009576 0.001118 -0.000610
v 0.009982 0.001118 -0.000737
v 0.010312 0.001118 -0.000737
v 0.010338 0.001118 -0.000762
v 0.010338 0.001118 -0.000838
v 0.009982 0.001118 -0.000838
v 0.009982 0.001118 -0.000991
v 0.009906 0.001118 -0.000991
v 0.009906 0.001118 -0.000838
v 0.009804 0.001118 -0.000838
v 0.009804 0.001118 -0.000762
v 0.009906 0.001118 -0.000762
v 0.009906 0.001118 -0.000686
v 0.009576 0.001118 -0.000686
v 0.010160 0.001168 -0.001194
v 0.010160 0.001168 -0.001118
v 0.010236 0.001168 -0.001219
v 0.010287 0.001168 -0.001168
v 0.010262 0.001168 -0.001295
v 0.010338 0.001168 -0.001270
v 0.010262 0.001168 -0.001321
v 0.010338 0.001168 -0.001346
v 0.010236 0.001168 -0.001397
v 0.010287 0.001168 -0.001448
v 0.010160 0.001168 -0.001422
v 0.010160 0.001168 -0.001499
v 0.010058 0.001168 -0.001422
v 0.010033 0.001168 -0.001499
v 0.010008 0.001168 -0.001372
v 0.009931 0.001168 -0.001397
v 0.010008 0.001168 -0.001118
v 0.009931 0.001168 -0.001194
v 0.009576 0.001168 -0.001118
v 0.009652 0.001168 -0.001194
v 0.009576 0.001168 -0.001499
v 0.009652 0.001168 -0.001499
v 0.009652 0.001118 -0.001194
v 0.009652 0.001118 -0.001499
v 0.009931 0.001118 -0.001194
v 0.009931 0.001118 -0.001397
v 0.010033 0.001118 -0.001499
v 0.010160 0.001118 -0.001499
v 0.010287 0.001118 -0.001448
v 0.010338 0.001118 -0.001346
v 0.010338 0.001118 -0.001270
v 0.010287 0.001118 -0.001168
v 0.010160 0.001118 -0.001118
v 0.010160 0.001118 -0.001194
v 0.010236 0.001118 -0.001219
v 0.010262 0.001118 -0.001295
v 0.010262 0.001118 -0.001321
v 0.010236 0.001118 -0.001397
v 0.010160 0.001118 -0.001422
v 0.010058 0.001118 -0.001422
v 0.010008 0.001118 -0.001372
v 0.010008 0.001118 -0.001118
v 0.009576 0.001118 -0.001118
v 0.009576 0.001118 -0.001499
v 0.011887 0.002337 -0.004064
v 0.011887 0.000000 -0.004064
v 0.008941 0.002337 -0.004064
v 0.008941 0.000000 -0.004064
v 0.008941 0.002337 -0.002540
v 0.008941 0.000000 -0.002540
v 0.011887 0.002337 -0.002540
v 0.011887 0.000000 -0.002540
v -0.008941 0.002337 0.002286
v -0.008941 0.000000 0.002286
v -0.011887 0.002337 0.002286
v -0.011887 0.000000 0.002286
v -0.011887 0.002337 0.003810
v -0.011887 0.000000 0.003810
v -0.008941 0.002337 0.003810
v -0.008941 0.000000 0.003810
v -0.010490 0.001168 0.000025
v -0.010566 0.001168 0.000025
v -0.010490 0.001168 0.000406
v -0.010566 0.001168 0.000330
v -0.010643 0.001168 0.000406
v -0.010617 0.001168 0.000330
v -0.010947 0.001168 0.000102
v -0.010922 0.001168 0.000025
v -0.011074 0.001168 0.000102
v -0.011074 0.001168 0.000025
v -0.011151 0.001168 0.000127
v -0.011201 0.001168 0.000076
v -0.011176 0.001168 0.000203
v -0.011252 0.001168 0.000178
v -0.011176 0.001168 0.000229
v -0.011252 0.001168 0.000254
v -0.011151 0.001168 0.000305
v -0.011201 0.001168 0.000356
v -0.011074 0.001168 0.000330
v -0.011074 0.001168 0.000406
v -0.011201 0.001118 0.000076
v -0.011252 0.001118 0.000178
v -0.011074 0.001118 0.000025
v -0.010922 0.001118 0.000025
v -0.010617 0.001118 0.000330
v -0.010566 0.001118 0.000330
v -0.010566 0.001118 0.000025
v -0.010490 0.001118 0.000025
v -0.010490 0.001118 0.000406
v -0.010643 0.001118 0.000406
v -0.010947 0.001118 0.000102
v -0.011074 0.001118 0.000102
v -0.011151 0.001118 0.000127
v -0.011176 0.001118 0.000203
v -0.011176 0.001118 0.000229
v -0.011151 0.001118 0.000305
v -0.011074 0.001118 0.000330
v -0.011074 0.001118 0.000406
v -0.011201 0.001118 0.000356
v -0.011252 0.001118 0.000254
v -0.010566 0.001168 0.000762
v -0.010566 0.001168 0.000914
v -0.010490 0.001168 0.000914
v -0.011125 0.001168 0.000914
v -0.011074 0.001168 0.000914
v -0.011252 0.001168 0.000787
v -0.011074 0.001168 0.000762
v -0.010490 0.001168 0.000533
v -0.010566 0.001168 0.000533
v -0.010566 0.001168 0.000686
v -0.011252 0.001168 0.000686
v -0.011074 0.001118 0.000914
v -0.011125 0.001118 0.000914
v -0.011074 0.001118 0.000762
v -0.010566 0.001118 0.000762
v -0.010566 0.001118 0.000914
v -0.010490 0.001118 0.000914
v -0.010490 0.001118 0.000533
v -0.010566 0.001118 0.000533
v -0.010566 0.001118 0.000686
v -0.011252 0.001118 0.000686
v -0.011252 0.001118 0.000787
v -0.010643 0.001168 0.001118
v -0.010617 0.001168 0.001041
v -0.011100 0.001168 0.001118
v -0.011125 0.001168 0.001041
v -0.011176 0.001168 0.001194
v -0.011252 0.001168 0.001168
v -0.011176 0.001168 0.001270
v -0.011252 0.001168 0.001295
v -0.011100 0.001168 0.001346
v -0.011125 0.001168 0.001422
v -0.010643 0.001168 0.001346
v -0.010617 0.001168 0.001422
v -0.010566 0.001168 0.001270
v -0.010490 0.001168 0.001295
v -0.010566 0.001168 0.001194
v -0.010490 0.001168 0.001168
v -0.010566 0.001118 0.001194
v -0.010643 0.001118 0.001118
v -0.010566 0.001118 0.001270
v -0.010643 0.001118 0.001346
v -0.011100 0.001118 0.001346
v -0.011176 0.001118 0.001270
v -0.011176 0.001118 0.001194
v -0.011100 0.001118 0.001118
v -0.010617 0.001118 0.001041
v -0.011125 0.001118 0.001041
v -0.011252 0.001118 0.001168
v -0.011252 0.001118 0.001295
v -0.011125 0.001118 0.001422
v -0.010617 0.001118 0.001422
v -0.010490 0.001118 0.001295
v -0.010490 0.001118 0.001168
v -0.010262 0.001168 0.000635
v -0.010262 0.001168 0.000559
v -0.010363 0.001168 0.000635
v -0.010287 0.001168 0.000559
v -0.010363 0.001168 0.000254
v -0.010287 0.001168 0.000330
v -0.010135 0.001168 0.000254
v -0.010160 0.001168 0.000330
v -0.009982 0.001168 0.000406
v -0.010008 0.001168 0.000483
v -0.009601 0.001168 0.000406
v -0.009601 0.001168 0.000483
v -0.010363 0.001118 0.000254
v -0.010363 0.001118 0.000635
v -0.010135 0.001118 0.000254
v -0.009982 0.001118 0.000406
v -0.009601 0.001118 0.000406
v -0.009601 0.001118 0.000483
v -0.010008 0.001118 0.000483
v -0.010160 0.001118 0.000330
v -0.010287 0.001118 0.000330
v -0.010287 0.001118 0.000559
v -0.010262 0.001118 0.000559
v -0.010262 0.001118 0.000635
v -0.011024 0.001168 -0.000838
v -0.011024 0.001168 -0.000762
v -0.010922 0.001168 -0.000838
v -0.010922 0.001168 -0.000762
v -0.010846 0.001168 -0.000737
v -0.010516 0.001168 -0.000737
v -0.010846 0.001168 -0.000838
v -0.010490 0.001168 -0.000762
v -0.010490 0.001168 -0.000838
v -0.011252 0.001168 -0.000686
v -0.011252 0.001168 -0.000610
v -0.010922 0.001168 -0.000686
v -0.010846 0.001168 -0.000610
v -0.010922 0.001168 -0.000991
v -0.010846 0.001168 -0.000991
v -0.010846 0.001118 -0.000610
v -0.011252 0.001118 -0.000610
v -0.010846 0.001118 -0.000737
v -0.010516 0.001118 -0.000737
v -0.010490 0.001118 -0.000762
v -0.010490 0.001118 -0.000838
v -0.010846 0.001118 -0.000838
v -0.010846 0.001118 -0.000991
v -0.010922 0.001118 -0.000991
v -0.010922 0.001118 -0.000838
v -0.011024 0.001118 -0.000838
v -0.011024 0.001118 -0.000762
v -0.010922 0.001118 -0.000762
v -0.010922 0.001118 -0.000686
v -0.011252 0.001118 -0.000686
v -0.010668 0.001168 -0.001194
v -0.010668 0.001168 -0.001118
v -0.010592 0.001168 -0.001219
v -0.010541 0.001168 -0.001168
v -0.010566 0.001168 -0.001295
v -0.010490 0.001168 -0.001270
v -0.010566 0.001168 -0.001321
v -0.010490 0.001168 -0.001346
v -0.010592 0.001168 -0.001397
v -0.010541 0.001168 -0.001448
v -0.010668 0.001168 -0.001422
v -0.010668 0.001168 -0.001499
v -0.010770 0.001168 -0.001422
v -0.010795 0.001168 -0.001499
v -0.010820 0.001168 -0.001372
v -0.010897 0.001168 -0.001397
v -0.010820 0.001168 -0.001118
v -0.010897 0.001168 -0.001194
v -0.011252 0.001168 -0.001118
v -0.011176 0.001168 -0.001194
v -0.011252 0.001168 -0.001499
v -0.011176 0.001168 -0.001499
v -0.011176 0.001118 -0.001194
v -0.011176 0.001118 -0.001499
v -0.010897 0.001118 -0.001194
v -0.010897 0.001118 -0.001397
v -0.010795 0.001118 -0.001499
v -0.010668 0.001118 -0.001499
v -0.010541 0.001118 -0.001448
v -0.010490 0.001118 -0.001346
v -0.010490 0.001118 -0.001270
v -0.010541 0.001118 -0.001168
v -0.010668 0.001118 -0.001118
v -0.010668 0.001118 -0.001194
v -0.010592 0.001118 -0.001219
v -0.010566 0.001118 -0.001295
v -0.010566 0.001118 -0.001321
v -0.010592 0.001118 -0.001397
v -0.010668 0.001118 -0.001422
v -0.010770 0.001118 -0.001422
v -0.010820 0.001118 -0.001372
v -0.010820 0.001118 -0.001118
v -0.011252 0.001118 -0.001118
v -0.011252 0.001118 -0.001499
v -0.008941 0.002337 -0.004064
v -0.008941 0.000000 -0.004064
v -0.011887 0.002337 -0.004064
v -0.011887 0.000000 -0.004064
v -0.011887 0.002337 -0.002540
v -0.011887 0.000000 -0.002540
v -0.008941 0.002337 -0.002540
v -0.008941 0.000000 -0.002540
v -0.011836 0.002286 0.002388
v -0.008992 0.002286 0.002388
v -0.011836 0.002286 -0.002591
v -0.008992 0.002286 -0.002591
v -0.008992 0.000000 0.002388
v -0.011836 0.000000 0.002388
v -0.008992 0.000000 -0.002591
v -0.011836 0.000000 -0.002591
v -0.010363 0.001168 -0.000965
v -0.010363 0.001168 -0.000889
v -0.009830 0.001168 -0.000965
v -0.009779 0.001168 -0.000889
v -0.009677 0.001168 -0.001041
v -0.009601 0.001168 -0.000965
v -0.009677 0.001168 -0.001118
v -0.009601 0.001168 -0.001194
v -0.009830 0.001168 -0.001194
v -0.009779 0.001168 -0.001270
v -0.010363 0.001168 -0.001194
v -0.010363 0.001168 -0.001270
v -0.009779 0.001118 -0.000889
v -0.010363 0.001118 -0.000889
v -0.009601 0.001118 -0.000965
v -0.009601 0.001118 -0.001194
v -0.009779 0.001118 -0.001270
v -0.010363 0.001118 -0.001270
v -0.010363 0.001118 -0.001194
v -0.009830 0.001118 -0.001194
v -0.009677 0.001118 -0.001118
v -0.009677 0.001118 -0.001041
v -0.009830 0.001118 -0.000965
v -0.010363 0.001118 -0.000965
v -0.009931 0.001118 -0.000686
v -0.010185 0.001118 -0.000762
v -0.009779 0.001118 -0.000762
v -0.009779 0.001118 -0.000381
v -0.009779 0.001118 -0.000457
v -0.009652 0.001118 -0.000432
v -0.009703 0.001118 -0.000483
v -0.009601 0.001118 -0.000533
v -0.009677 0.001118 -0.000559
v -0.009601 0.001118 -0.000610
v -0.009677 0.001118 -0.000584
v -0.009652 0.001118 -0.000711
v -0.009703 0.001118 -0.000660
v -0.009779 0.001118 -0.000686
v -0.010033 0.001118 -0.000508
v -0.010033 0.001118 -0.000635
v -0.010084 0.001118 -0.000686
v -0.010185 0.001118 -0.000686
v -0.010312 0.001118 -0.000711
v -0.010262 0.001118 -0.000660
v -0.010363 0.001118 -0.000610
v -0.010287 0.001118 -0.000584
v -0.010363 0.001118 -0.000533
v -0.010287 0.001118 -0.000559
v -0.010312 0.001118 -0.000432
v -0.010262 0.001118 -0.000483
v -0.010185 0.001118 -0.000381
v -0.010185 0.001118 -0.000457
v -0.010058 0.001118 -0.000381
v -0.010084 0.001118 -0.000457
v -0.009931 0.001118 -0.000508
v -0.010084 0.001168 -0.000457
v -0.010033 0.001168 -0.000508
v -0.010185 0.001168 -0.000457
v -0.010262 0.001168 -0.000483
v -0.010287 0.001168 -0.000559
v -0.010287 0.001168 -0.000584
v -0.010262 0.001168 -0.000660
v -0.010185 0.001168 -0.000686
v -0.010084 0.001168 -0.000686
v -0.010033 0.001168 -0.000635
v -0.009931 0.001168 -0.000508
v -0.009931 0.001168 -0.000686
v -0.009779 0.001168 -0.000686
v -0.009703 0.001168 -0.000660
v -0.009677 0.001168 -0.000584
v -0.009677 0.001168 -0.000559
v -0.009703 0.001168 -0.000483
v -0.009779 0.001168 -0.000457
v -0.009779 0.001168 -0.000381
v -0.009652 0.001168 -0.000432
v -0.009601 0.001168 -0.000533
v -0.009601 0.001168 -0.000610
v -0.009652 0.001168 -0.000711
v -0.009779 0.001168 -0.000762
v -0.010185 0.001168 -0.000762
v -0.010312 0.001168 -0.000711
v -0.010363 0.001168 -0.000610
v -0.010363 0.001168 -0.000533
v -0.010312 0.001168 -0.000432
v -0.010185 0.001168 -0.000381
v -0.010058 0.001168 -0.000381
v -0.010084 0.001118 0.001067
v -0.009779 0.001118 0.001143
v -0.010185 0.001118 0.001143
v -0.010185 0.001118 0.000762
v -0.010185 0.001118 0.000838
v -0.010312 0.001118 0.000813
v -0.010262 0.001118 0.000864
v -0.010363 0.001118 0.000914
v -0.010287 0.001118 0.000940
v -0.010363 0.001118 0.000991
v -0.010287 0.001118 0.000965
v -0.010312 0.001118 0.001092
v -0.010262 0.001118 0.001041
v -0.010185 0.001118 0.001067
v -0.009677 0.001118 0.000965
v -0.009601 0.001118 0.000991
v -0.009703 0.001118 0.001041
v -0.009652 0.001118 0.001092
v -0.009779 0.001118 0.001067
v -0.009881 0.001118 0.001067
v -0.009931 0.001118 0.001016
v -0.010033 0.001118 0.001016
v -0.009931 0.001118 0.000889
v -0.010033 0.001118 0.000889
v -0.009881 0.001118 0.000838
v -0.009931 0.001118 0.000762
v -0.009754 0.001118 0.000838
v -0.009754 0.001118 0.000762
v -0.009703 0.001118 0.000864
v -0.009652 0.001118 0.000813
v -0.009677 0.001118 0.000940
v -0.009601 0.001118 0.000914
v -0.009881 0.001168 0.000838
v -0.009754 0.001168 0.000838
v -0.009931 0.001168 0.000889
v -0.009931 0.001168 0.001016
v -0.009881 0.001168 0.001067
v -0.009779 0.001168 0.001067
v -0.009703 0.001168 0.001041
v -0.009677 0.001168 0.000965
v -0.009677 0.001168 0.000940
v -0.009703 0.001168 0.000864
v -0.009754 0.001168 0.000762
v -0.009931 0.001168 0.000762
v -0.009652 0.001168 0.000813
v -0.009601 0.001168 0.000914
v -0.009601 0.001168 0.000991
v -0.009652 0.001168 0.001092
v -0.009779 0.001168 0.001143
v -0.010185 0.001168 0.001143
v -0.010312 0.001168 0.001092
v -0.010363 0.001168 0.000991
v -0.010363 0.001168 0.000914
v -0.010312 0.001168 0.000813
v -0.010185 0.001168 0.000762
v -0.010185 0.001168 0.000838
v -0.010262 0.001168 0.000864
v -0.010287 0.001168 0.000940
v -0.010287 0.001168 0.000965
v -0.010262 0.001168 0.001041
v -0.010185 0.001168 0.001067
v -0.010084 0.001168 0.001067
v -0.010033 0.001168 0.001016
v -0.010033 0.001168 0.000889
v -0.009931 0.001118 -0.000127
v -0.010185 0.001118 -0.000254
v -0.009982 0.001118 -0.000178
v -0.010058 0.001118 -0.000254
v -0.009881 0.001118 -0.000178
v -0.009906 0.001118 -0.000254
v -0.009779 0.001118 -0.000254
v -0.009982 0.001118 0.000051
v -0.009931 0.001118 -0.000000
v -0.009906 0.001118 0.000127
v -0.009881 0.001118 0.000051
v -0.009779 0.001118 0.000127
v -0.009779 0.001118 0.000051
v -0.009652 0.001118 0.000076
v -0.009703 0.001118 0.000025
v -0.009601 0.001118 -0.000025
v -0.009677 0.001118 -0.000051
v -0.009601 0.001118 -0.000102
v -0.009677 0.001118 -0.000076
v -0.009652 0.001118 -0.000203
v -0.009703 0.001118 -0.000152
v -0.009779 0.001118 -0.000178
v -0.010033 0.001118 -0.000000
v -0.010084 0.001118 0.000051
v -0.010058 0.001118 0.000127
v -0.010185 0.001118 0.000051
v -0.010185 0.001118 0.000127
v -0.010262 0.001118 0.000025
v -0.010312 0.001118 0.000076
v -0.010287 0.001118 -0.000051
v -0.010363 0.001118 -0.000025
v -0.010287 0.001118 -0.000076
v -0.010363 0.001118 -0.000102
v -0.010262 0.001118 -0.000152
v -0.010312 0.001118 -0.000203
v -0.010185 0.001118 -0.000178
v -0.010084 0.001118 -0.000178
v -0.010033 0.001118 -0.000127
v -0.010084 0.001168 0.000051
v -0.010033 0.001168 -0.000000
v -0.010185 0.001168 0.000051
v -0.010262 0.001168 0.000025
v -0.010287 0.001168 -0.000051
v -0.010287 0.001168 -0.000076
v -0.010262 0.001168 -0.000152
v -0.010185 0.001168 -0.000178
v -0.010084 0.001168 -0.000178
v -0.010033 0.001168 -0.000127
v -0.009779 0.001168 0.000127
v -0.009906 0.001168 0.000127
v -0.009652 0.001168 0.000076
v -0.009601 0.001168 -0.000025
v -0.009601 0.001168 -0.000102
v -0.009652 0.001168 -0.000203
v -0.009779 0.001168 -0.000254
v -0.009906 0.001168 -0.000254
v -0.009982 0.001168 -0.000178
v -0.010058 0.001168 -0.000254
v -0.010185 0.001168 -0.000254
v -0.010312 0.001168 -0.000203
v -0.010363 0.001168 -0.000102
v -0.010363 0.001168 -0.000025
v -0.010312 0.001168 0.000076
v -0.010185 0.001168 0.000127
v -0.010058 0.001168 0.000127
v -0.009982 0.001168 0.000051
v -0.009931 0.001168 -0.000000
v -0.009931 0.001168 -0.000127
v -0.009881 0.001168 -0.000178
v -0.009779 0.001168 -0.000178
v -0.009703 0.001168 -0.000152
v -0.009677 0.001168 -0.000076
v -0.009677 0.001168 -0.000051
v -0.009703 0.001168 0.000025
v -0.009779 0.001168 0.000051
v -0.009881 0.001168 0.000051
v -0.011074 0.001118 -0.000178
v -0.011074 0.001118 -0.000102
v -0.011151 0.001118 -0.000203
v -0.011201 0.001118 -0.000152
v -0.011176 0.001118 -0.000279
v -0.011252 0.001118 -0.000254
v -0.011176 0.001118 -0.000305
v -0.011252 0.001118 -0.000330
v -0.011151 0.001118 -0.000381
v -0.011201 0.001118 -0.000432
v -0.011074 0.001118 -0.000406
v -0.011074 0.001118 -0.000483
v -0.010973 0.001118 -0.000406
v -0.010947 0.001118 -0.000483
v -0.010922 0.001118 -0.000356
v -0.010871 0.001118 -0.000406
v -0.010922 0.001118 -0.000305
v -0.010820 0.001118 -0.000305
v -0.010820 0.001118 -0.000356
v -0.010770 0.001118 -0.000406
v -0.010795 0.001118 -0.000483
v -0.010668 0.001118 -0.000406
v -0.010668 0.001118 -0.000483
v -0.010592 0.001118 -0.000381
v -0.010541 0.001118 -0.000432
v -0.010566 0.001118 -0.000305
v -0.010490 0.001118 -0.000330
v -0.010566 0.001118 -0.000279
v -0.010490 0.001118 -0.000254
v -0.010592 0.001118 -0.000203
v -0.010541 0.001118 -0.000152
v -0.010668 0.001118 -0.000178
v -0.010668 0.001118 -0.000102
v -0.011074 0.001168 -0.000178
v -0.011074 0.001168 -0.000102
v -0.011151 0.001168 -0.000203
v -0.011176 0.001168 -0.000279
v -0.011176 0.001168 -0.000305
v -0.011151 0.001168 -0.000381
v -0.011074 0.001168 -0.000406
v -0.010973 0.001168 -0.000406
v -0.010922 0.001168 -0.000356
v -0.010922 0.001168 -0.000305
v -0.010820 0.001168 -0.000305
v -0.010820 0.001168 -0.000356
v -0.010770 0.001168 -0.000406
v -0.010668 0.001168 -0.000406
v -0.010592 0.001168 -0.000381
v -0.010566 0.001168 -0.000305
v -0.010566 0.001168 -0.000279
v -0.010592 0.001168 -0.000203
v -0.010668 0.001168 -0.000178
v -0.010668 0.001168 -0.000102
v -0.010541 0.001168 -0.000152
v -0.010490 0.001168 -0.000254
v -0.010490 0.001168 -0.000330
v -0.010541 0.001168 -0.000432
v -0.010668 0.001168 -0.000483
v -0.010795 0.001168 -0.000483
v -0.010871 0.001168 -0.000406
v -0.010947 0.001168 -0.000483
v -0.011074 0.001168 -0.000483
v -0.011201 0.001168 -0.000432
v -0.011252 0.001168 -0.000330
v -0.011252 0.001168 -0.000254
v -0.011201 0.001168 -0.000152
v 0.006553 0.004200 0.002692
v 0.001064 0.004200 0.002696
v 0.007061 0.004200 0.003200
v 0.001064 0.004200 0.009496
v 0.007064 0.004200 0.009496
v 0.006553 0.000100 0.002692
v 0.007061 0.000100 0.003200
v 0.001064 0.000100 0.009496
v 0.001064 0.000100 0.002696
v 0.007064 0.000100 0.009496
v 0.006553 0.004200 -0.009500
v 0.001064 0.004200 -0.009496
v 0.007061 0.004200 -0.008992
v 0.001064 0.004200 -0.002696
v 0.007064 0.004200 -0.002696
v 0.006553 0.000100 -0.009500
v 0.007061 0.000100 -0.008992
v 0.001064 0.000100 -0.002696
v 0.001064 0.000100 -0.009496
v 0.007064 0.000100 -0.002696
v -0.001575 0.004200 0.002692
v -0.007064 0.004200 0.002696
v -0.001067 0.004200 0.003200
v -0.007064 0.004200 0.009496
v -0.001064 0.004200 0.009496
v -0.001575 0.000100 0.002692
v -0.001067 0.000100 0.003200
v -0.007064 0.000100 0.009496
v -0.007064 0.000100 0.002696
v -0.001064 0.000100 0.009496
v -0.001575 0.004200 -0.009500
v -0.007064 0.004200 -0.009496
v -0.001067 0.004200 -0.008992
v -0.007064 0.004200 -0.002696
v -0.001064 0.004200 -0.002696
v -0.001575 0.000100 -0.009500
v -0.001067 0.000100 -0.008992
v -0.007064 0.000100 -0.002696
v -0.007064 0.000100 -0.009496
v -0.001064 0.000100 -0.002696
v -0.012588 -0.000000 -0.011256
v -0.013582 -0.000000 -0.010000
v 0.015881 -0.000000 -0.005750
v -0.014450 -0.000000 0.008169
v -0.015187 -0.000000 0.006746
v -0.015784 -0.000000 0.005261
v -0.016694 -0.000000 -0.001044
v -0.016694 -0.000000 0.000558
v -0.014450 -0.000000 -0.008654
v -0.015187 -0.000000 -0.007232
v -0.015784 -0.000000 -0.005746
v -0.016237 -0.000000 -0.004210
v -0.016541 -0.000000 -0.002638
v -0.013582 -0.000000 0.009514
v -0.012588 -0.000000 0.010770
v -0.011480 -0.000000 0.011926
v -0.016541 -0.000000 0.002152
v -0.016237 -0.000000 0.003724
v -0.011480 -0.000000 -0.012412
v 0.015284 -0.000000 -0.007235
v 0.014547 -0.000000 -0.008657
v 0.010363 -0.000000 -0.013456
v -0.010266 -0.000000 -0.013456
v 0.011577 -0.000000 -0.012412
v 0.013679 -0.000000 -0.010002
v 0.012685 -0.000000 -0.011257
v -0.010266 -0.000000 0.012971
v 0.010363 -0.000000 0.012960
v 0.011577 -0.000000 0.011916
v 0.012685 -0.000000 0.010760
v 0.016638 -0.000000 0.002146
v 0.016791 -0.000000 0.000552
v 0.016791 -0.000000 -0.001049
v 0.013679 -0.000000 0.009505
v 0.014547 -0.000000 0.008160
v 0.015284 -0.000000 0.006738
v 0.015881 -0.000000 0.005253
v 0.016334 -0.000000 0.003718
v 0.016638 -0.000000 -0.002643
v 0.016334 -0.000000 -0.004214
v 0.010363 -0.000823 0.012960
v -0.010266 -0.000823 0.012971
v 0.011577 -0.000823 0.011916
v 0.012685 -0.000823 0.010760
v 0.013679 -0.000823 0.009505
v 0.014547 -0.000823 0.008160
v 0.015284 -0.000823 0.006738
v 0.015881 -0.000823 0.005253
v 0.016334 -0.000823 0.003718
v 0.016638 -0.000823 0.002146
v 0.016791 -0.000823 0.000552
v 0.016791 -0.000823 -0.001049
v 0.016638 -0.000823 -0.002643
v 0.016334 -0.000823 -0.004214
v 0.015881 -0.000823 -0.005750
v 0.015284 -0.000823 -0.007235
v 0.014547 -0.000823 -0.008657
v 0.013679 -0.000823 -0.010002
v 0.012685 -0.000823 -0.011257
v 0.011577 -0.000823 -0.012412
v 0.010363 -0.000823 -0.013456
v -0.010266 -0.000823 -0.013456
v -0.011480 -0.000823 -0.012412
v -0.012588 -0.000823 -0.011256
v -0.013582 -0.000823 -0.010000
v -0.014450 -0.000823 -0.008654
v -0.015187 -0.000823 -0.007232
v -0.015784 -0.000823 -0.005746
v -0.016237 -0.000823 -0.004210
v -0.016541 -0.000823 -0.002638
v -0.016694 -0.000823 -0.001044
v -0.016694 -0.000823 0.000558
v -0.016541 -0.000823 0.002152
v -0.016237 -0.000823 0.003724
v -0.015784 -0.000823 0.005261
v -0.015187 -0.000823 0.006746
v -0.014450 -0.000823 0.008169
v -0.013582 -0.000823 0.009514
v -0.012588 -0.000823 0.010770
v -0.011480 -0.000823 0.011926
vn 0.000000 1.000000 0.000000
vn 0.000000 0.000000 1.000000
vn 0.393900 0.000000 0.919100
vn 1.000000 0.000000 0.000000
vn 0.393900 0.000000 -0.919100
vn 0.000000 0.000000 -1.000000
vn -1.000000 0.000000 0.000000
vn -0.447200 0.000000 0.894400
vn -0.447200 0.000000 -0.894400
vn 0.000000 -1.000000 0.000000
vn -0.707100 0.000000 -0.707100
vn 0.316200 0.000000 -0.948700
vn 0.948700 0.000000 -0.316200
vn 0.948700 0.000000 0.316200
vn 0.316200 0.000000 0.948700
vn -0.707100 0.000000 0.707100
vn -0.316200 0.000000 0.948700
vn -0.948700 0.000000 0.316200
vn -0.948700 0.000000 -0.316200
vn -0.316200 0.000000 -0.948700
vn 0.371400 0.000000 0.928500
vn 0.894400 0.000000 0.447200
vn 0.894400 0.000000 -0.447200
vn 0.371400 0.000000 -0.928500
vn -0.371400 0.000000 -0.928500
vn -0.894400 0.000000 -0.447200
vn -0.894400 0.000000 0.447200
vn -0.371400 0.000000 0.928500
vn 0.707100 0.000000 0.707100
vn 0.707100 0.000000 -0.707100
vn 0.447200 0.000000 -0.894400
vn -0.780900 0.000000 -0.624700
vn 0.000500 0.000000 1.000000
vn 0.652100 0.000000 0.758100
vn 0.721500 0.000000 0.692400
vn 0.784300 0.000000 0.620400
vn 0.839900 0.000000 0.542700
vn 0.887900 0.000000 0.460000
vn 0.927800 0.000000 0.373200
vn 0.959200 0.000000 0.282900
vn 0.981800 0.000000 0.190000
vn 0.995400 0.000000 0.095500
vn 0.995400 0.000000 -0.095500
vn 0.981800 0.000000 -0.190000
vn 0.959200 0.000000 -0.282900
vn 0.927800 0.000000 -0.373200
vn 0.887900 0.000000 -0.460000
vn 0.839900 0.000000 -0.542700
vn 0.784300 0.000000 -0.620400
vn 0.721500 0.000000 -0.692400
vn 0.652100 0.000000 -0.758100
vn -0.652400 0.000000 -0.757900
vn -0.721700 0.000000 -0.692200
vn -0.784500 0.000000 -0.620200
vn -0.840100 0.000000 -0.542500
vn -0.888000 0.000000 -0.459900
vn -0.927800 0.000000 -0.373000
vn -0.959200 0.000000 -0.282800
vn -0.981800 0.000000 -0.190000
vn -0.995400 0.000000 -0.095400
vn -0.995400 0.000000 0.095400
vn -0.981800 0.000000 0.190000
vn -0.959200 0.000000 0.282800
vn -0.927800 0.000000 0.373000
vn -0.888000 0.000000 0.459900
vn -0.840100 0.000000 0.542500
vn -0.784500 0.000000 0.620200
vn -0.721700 0.000000 0.692200
vn -0.652400 0.000000 0.757900
usemtl None
s off
f 17//1 18//1 19//1
f 19//1 18//1 20//1
f 19//1 20//1 21//1
f 21//1 20//1 22//1
f 21//1 22//1 23//1
f 23//1 22//1 24//1
f 23//1 24//1 25//1
f 25//1 24//1 26//1
f 25//1 26//1 27//1
f 27//1 26//1 28//1
f 29//2 20//2 30//2
f 30//2 20//2 18//2
f 31//3 22//3 29//3
f 29//3 22//3 20//3
f 32//4 24//4 31//4
f 31//4 24//4 22//4
f 33//5 26//5 32//5
f 32//5 26//5 24//5
f 34//6 28//6 33//6
f 33//6 28//6 26//6
f 35//7 27//7 34//7
f 34//7 27//7 28//7
f 36//2 25//2 35//2
f 35//2 25//2 27//2
f 37//8 23//8 36//8
f 36//8 23//8 25//8
f 38//7 21//7 37//7
f 37//7 21//7 23//7
f 39//9 19//9 38//9
f 38//9 19//9 21//9
f 40//6 17//6 39//6
f 39//6 17//6 19//6
f 30//7 18//7 40//7
f 40//7 18//7 17//7
f 35//10 34//10 36//10
f 36//10 34//10 33//10
f 36//10 33//10 37//10
f 37//10 33//10 32//10
f 37//10 32//10 38//10
f 38//10 32//10 31//10
f 38//10 31//10 39//10
f 39//10 31//10 29//10
f 39//10 29//10 40//10
f 40//10 29//10 30//10
f 41//10 42//10 43//10
f 44//10 45//10 46//10
f 46//10 45//10 47//10
f 46//10 47//10 48//10
f 48//10 47//10 49//10
f 48//10 49//10 50//10
f 50//10 49//10 51//10
f 50//10 51//10 52//10
f 52//10 51//10 53//10
f 52//10 53//10 43//10
f 43//10 53//10 54//10
f 43//10 54//10 41//10
f 55//10 56//10 41//10
f 41//10 56//10 57//10
f 41//10 57//10 42//10
f 42//10 57//10 58//10
f 42//10 58//10 59//10
f 59//10 58//10 60//10
f 59//10 60//10 61//10
f 61//10 60//10 62//10
f 61//10 62//10 63//10
f 63//10 62//10 64//10
f 63//10 64//10 65//10
f 65//10 64//10 66//10
f 65//10 66//10 67//10
f 67//10 66//10 68//10
f 67//10 68//10 69//10
f 69//10 68//10 70//10
f 69//10 70//10 71//10
f 71//10 70//10 55//10
f 71//10 55//10 41//10
f 70//11 72//11 55//11
f 55//11 72//11 73//11
f 68//6 74//6 70//6
f 70//6 74//6 72//6
f 66//12 75//12 68//12
f 68//12 75//12 74//12
f 64//13 76//13 66//13
f 66//13 76//13 75//13
f 62//4 77//4 64//4
f 64//4 77//4 76//4
f 60//14 78//14 62//14
f 62//14 78//14 77//14
f 58//15 79//15 60//15
f 60//15 79//15 78//15
f 57//2 80//2 58//2
f 58//2 80//2 79//2
f 56//16 81//16 57//16
f 57//16 81//16 80//16
f 55//7 73//7 56//7
f 56//7 73//7 81//7
f 82//4 71//4 83//4
f 83//4 71//4 41//4
f 54//2 84//2 41//2
f 41//2 84//2 83//2
f 53//17 85//17 54//17
f 54//17 85//17 84//17
f 51//18 86//18 53//18
f 53//18 86//18 85//18
f 49//7 87//7 51//7
f 51//7 87//7 86//7
f 47//19 88//19 49//19
f 49//19 88//19 87//19
f 45//20 89//20 47//20
f 47//20 89//20 88//20
f 44//7 90//7 45//7
f 45//7 90//7 89//7
f 46//21 91//21 44//21
f 44//21 91//21 90//21
f 48//22 92//22 46//22
f 46//22 92//22 91//22
f 50//4 93//4 48//4
f 48//4 93//4 92//4
f 52//23 94//23 50//23
f 50//23 94//23 93//23
f 43//24 95//24 52//24
f 52//24 95//24 94//24
f 42//6 96//6 43//6
f 43//6 96//6 95//6
f 59//25 97//25 42//25
f 42//25 97//25 96//25
f 61//26 98//26 59//26
f 59//26 98//26 97//26
f 63//7 99//7 61//7
f 61//7 99//7 98//7
f 65//27 100//27 63//27
f 63//27 100//27 99//27
f 67//28 101//28 65//28
f 65//28 101//28 100//28
f 69//2 102//2 67//2
f 67//2 102//2 101//2
f 71//29 82//29 69//29
f 69//29 82//29 102//29
f 80//1 95//1 96//1
f 83//1 81//1 82//1
f 82//1 81//1 73//1
f 82//1 73//1 102//1
f 102//1 73//1 72//1
f 102//1 72//1 101//1
f 101//1 72//1 74//1
f 101//1 74//1 100//1
f 100//1 74//1 75//1
f 100//1 75//1 99//1
f 99//1 75//1 76//1
f 99//1 76//1 98//1
f 98//1 76//1 77//1
f 98//1 77//1 97//1
f 97//1 77//1 78//1
f 97//1 78//1 96//1
f 96//1 78//1 79//1
f 96//1 79//1 80//1
f 89//1 90//1 88//1
f 88//1 90//1 91//1
f 88//1 91//1 87//1
f 87//1 91//1 92//1
f 87//1 92//1 86//1
f 86//1 92//1 93//1
f 86//1 93//1 85//1
f 85//1 93//1 94//1
f 85//1 94//1 84//1
f 84//1 94//1 95//1
f 84//1 95//1 83//1
f 83//1 95//1 80//1
f 83//1 80//1 81//1
f 103//10 104//10 105//10
f 106//10 107//10 108//10
f 108//10 107//10 109//10
f 108//10 109//10 110//10
f 110//10 109//10 111//10
f 110//10 111//10 112//10
f 112//10 111//10 113//10
f 112//10 113//10 114//10
f 114//10 113//10 115//10
f 114//10 115//10 105//10
f 105//10 115//10 116//10
f 105//10 116//10 103//10
f 117//10 118//10 119//10
f 119//10 118//10 120//10
f 119//10 120//10 121//10
f 121//10 120//10 104//10
f 121//10 104//10 122//10
f 122//10 104//10 103//10
f 122//10 103//10 123//10
f 123//10 103//10 124//10
f 123//10 124//10 125//10
f 125//10 124//10 126//10
f 125//10 126//10 127//10
f 127//10 126//10 128//10
f 127//10 128//10 129//10
f 129//10 128//10 130//10
f 129//10 130//10 131//10
f 131//10 130//10 132//10
f 131//10 132//10 133//10
f 133//10 132//10 134//10
f 133//10 134//10 117//10
f 117//10 134//10 118//10
f 135//2 127//2 136//2
f 136//2 127//2 129//2
f 137//29 125//29 135//29
f 135//29 125//29 127//29
f 138//4 123//4 137//4
f 137//4 123//4 125//4
f 139//30 122//30 138//30
f 138//30 122//30 123//30
f 140//6 121//6 139//6
f 139//6 121//6 122//6
f 141//20 119//20 140//20
f 140//20 119//20 121//20
f 142//19 117//19 141//19
f 141//19 117//19 119//19
f 143//7 133//7 142//7
f 142//7 133//7 117//7
f 144//18 131//18 143//18
f 143//18 131//18 133//18
f 136//8 129//8 144//8
f 144//8 129//8 131//8
f 145//6 130//6 146//6
f 146//6 130//6 128//6
f 147//31 132//31 145//31
f 145//31 132//31 130//31
f 148//23 134//23 147//23
f 147//23 134//23 132//23
f 149//4 118//4 148//4
f 148//4 118//4 134//4
f 150//22 120//22 149//22
f 149//22 120//22 118//22
f 151//21 104//21 150//21
f 150//21 104//21 120//21
f 152//2 105//2 151//2
f 151//2 105//2 104//2
f 153//28 114//28 152//28
f 152//28 114//28 105//28
f 154//27 112//27 153//27
f 153//27 112//27 114//27
f 155//7 110//7 154//7
f 154//7 110//7 112//7
f 156//26 108//26 155//26
f 155//26 108//26 110//26
f 157//25 106//25 156//25
f 156//25 106//25 108//25
f 158//4 107//4 157//4
f 157//4 107//4 106//4
f 159//15 109//15 158//15
f 158//15 109//15 107//15
f 160//14 111//14 159//14
f 159//14 111//14 109//14
f 161//4 113//4 160//4
f 160//4 113//4 111//4
f 162//13 115//13 161//13
f 161//13 115//13 113//13
f 163//12 116//12 162//12
f 162//12 116//12 115//12
f 164//6 103//6 163//6
f 163//6 103//6 116//6
f 165//11 124//11 164//11
f 164//11 124//11 103//11
f 166//7 126//7 165//7
f 165//7 126//7 124//7
f 146//32 128//32 166//32
f 166//32 128//32 126//32
f 158//1 157//1 159//1
f 159//1 157//1 156//1
f 159//1 156//1 160//1
f 160//1 156//1 155//1
f 160//1 155//1 161//1
f 161//1 155//1 154//1
f 161//1 154//1 162//1
f 162//1 154//1 153//1
f 162//1 153//1 163//1
f 163//1 153//1 152//1
f 163//1 152//1 164//1
f 164//1 152//1 151//1
f 138//1 164//1 139//1
f 139//1 164//1 151//1
f 139//1 151//1 140//1
f 140//1 151//1 141//1
f 141//1 151//1 150//1
f 141//1 150//1 142//1
f 142//1 150//1 149//1
f 142//1 149//1 143//1
f 143//1 149//1 148//1
f 143//1 148//1 144//1
f 144//1 148//1 147//1
f 144//1 147//1 136//1
f 136//1 147//1 145//1
f 136//1 145//1 135//1
f 135//1 145//1 146//1
f 135//1 146//1 137//1
f 137//1 146//1 166//1
f 137//1 166//1 138//1
f 138//1 166//1 165//1
f 138//1 165//1 164//1
f 167//10 168//10 169//10
f 169//10 168//10 170//10
f 167//10 169//10 171//10
f 171//10 169//10 172//10
f 171//10 172//10 173//10
f 174//10 175//10 176//10
f 176//10 175//10 177//10
f 176//10 177//10 178//10
f 178//10 177//10 179//10
f 178//10 179//10 180//10
f 180//10 179//10 181//10
f 180//10 181//10 182//10
f 182//10 181//10 183//10
f 182//10 183//10 184//10
f 184//10 183//10 185//10
f 184//10 185//10 186//10
f 186//10 185//10 187//10
f 186//10 187//10 173//10
f 173//10 187//10 188//10
f 173//10 188//10 171//10
f 167//10 175//10 189//10
f 189//10 175//10 174//10
f 189//10 174//10 190//10
f 190//10 174//10 191//10
f 190//10 191//10 192//10
f 192//10 191//10 193//10
f 192//10 193//10 194//10
f 194//10 193//10 195//10
f 194//10 195//10 196//10
f 196//10 195//10 197//10
f 196//10 197//10 198//10
f 198//10 197//10 199//10
f 198//10 199//10 200//10
f 200//10 199//10 201//10
f 200//10 201//10 202//10
f 202//10 201//10 168//10
f 202//10 168//10 203//10
f 203//10 168//10 167//10
f 203//10 167//10 204//10
f 204//10 167//10 189//10
f 190//11 205//11 189//11
f 189//11 205//11 206//11
f 192//6 207//6 190//6
f 190//6 207//6 205//6
f 194//12 208//12 192//12
f 192//12 208//12 207//12
f 196//13 209//13 194//13
f 194//13 209//13 208//13
f 198//4 210//4 196//4
f 196//4 210//4 209//4
f 200//14 211//14 198//14
f 198//14 211//14 210//14
f 202//15 212//15 200//15
f 200//15 212//15 211//15
f 203//2 213//2 202//2
f 202//2 213//2 212//2
f 204//16 214//16 203//16
f 203//16 214//16 213//16
f 189//7 206//7 204//7
f 204//7 206//7 214//7
f 178//2 215//2 176//2
f 176//2 215//2 216//2
f 180//21 217//21 178//21
f 178//21 217//21 215//21
f 182//22 218//22 180//22
f 180//22 218//22 217//22
f 184//4 219//4 182//4
f 182//4 219//4 218//4
f 186//23 220//23 184//23
f 184//23 220//23 219//23
f 173//24 221//24 186//24
f 186//24 221//24 220//24
f 172//6 222//6 173//6
f 173//6 222//6 221//6
f 169//11 223//11 172//11
f 172//11 223//11 222//11
f 170//30 224//30 169//30
f 169//30 224//30 223//30
f 168//6 225//6 170//6
f 170//6 225//6 224//6
f 201//25 226//25 168//25
f 168//25 226//25 225//25
f 199//26 227//26 201//26
f 201//26 227//26 226//26
f 197//7 228//7 199//7
f 199//7 228//7 227//7
f 195//27 229//27 197//27
f 197//27 229//27 228//27
f 193//28 230//28 195//28
f 195//28 230//28 229//28
f 191//2 231//2 193//2
f 193//2 231//2 230//2
f 174//29 232//29 191//29
f 191//29 232//29 231//29
f 176//16 216//16 174//16
f 174//16 216//16 232//16
f 233//4 175//4 234//4
f 234//4 175//4 167//4
f 171//29 235//29 167//29
f 167//29 235//29 234//29
f 188//2 236//2 171//2
f 171//2 236//2 235//2
f 187//17 237//17 188//17
f 188//17 237//17 236//17
f 185//18 238//18 187//18
f 187//18 238//18 237//18
f 183//7 239//7 185//7
f 185//7 239//7 238//7
f 181//19 240//19 183//19
f 183//19 240//19 239//19
f 179//20 241//20 181//20
f 181//20 241//20 240//20
f 177//6 242//6 179//6
f 179//6 242//6 241//6
f 175//30 233//30 177//30
f 177//30 233//30 242//30
f 234//1 235//1 214//1
f 221//1 222//1 220//1
f 220//1 222//1 223//1
f 223//1 224//1 213//1
f 213//1 224//1 225//1
f 213//1 225//1 212//1
f 220//1 237//1 219//1
f 219//1 237//1 238//1
f 219//1 238//1 218//1
f 218//1 238//1 239//1
f 218//1 239//1 217//1
f 217//1 239//1 240//1
f 217//1 240//1 215//1
f 215//1 240//1 241//1
f 215//1 241//1 216//1
f 216//1 241//1 242//1
f 216//1 242//1 232//1
f 232//1 242//1 233//1
f 213//1 214//1 223//1
f 223//1 214//1 235//1
f 223//1 235//1 220//1
f 220//1 235//1 236//1
f 220//1 236//1 237//1
f 212//1 225//1 211//1
f 211//1 225//1 226//1
f 211//1 226//1 210//1
f 210//1 226//1 227//1
f 210//1 227//1 209//1
f 209//1 227//1 228//1
f 209//1 228//1 208//1
f 208//1 228//1 229//1
f 208//1 229//1 207//1
f 207//1 229//1 230//1
f 207//1 230//1 205//1
f 205//1 230//1 231//1
f 205//1 231//1 206//1
f 206//1 231//1 232//1
f 206//1 232//1 214//1
f 214//1 232//1 233//1
f 214//1 233//1 234//1
f 243//10 244//10 245//10
f 245//10 244//10 246//10
f 245//10 246//10 247//10
f 247//10 246//10 248//10
f 247//10 248//10 249//10
f 249//10 248//10 250//10
f 249//10 250//10 251//10
f 251//10 250//10 252//10
f 251//10 252//10 253//10
f 253//10 252//10 254//10
f 253//10 254//10 255//10
f 255//10 254//10 256//10
f 255//10 256//10 257//10
f 257//10 256//10 258//10
f 257//10 258//10 259//10
f 260//10 259//10 261//10
f 261//10 259//10 258//10
f 261//10 258//10 262//10
f 262//10 258//10 263//10
f 262//10 263//10 264//10
f 264//10 263//10 265//10
f 264//10 265//10 266//10
f 266//10 265//10 267//10
f 266//10 267//10 268//10
f 268//10 267//10 269//10
f 268//10 269//10 270//10
f 270//10 269//10 271//10
f 270//10 271//10 272//10
f 272//10 271//10 273//10
f 272//10 273//10 274//10
f 274//10 273//10 275//10
f 243//4 276//4 244//4
f 244//4 276//4 277//4
f 245//12 278//12 243//12
f 243//12 278//12 276//12
f 247//13 279//13 245//13
f 245//13 279//13 278//13
f 249//4 280//4 247//4
f 247//4 280//4 279//4
f 251//14 281//14 249//14
f 249//14 281//14 280//14
f 253//15 282//15 251//15
f 251//15 282//15 281//15
f 255//2 283//2 253//2
f 253//2 283//2 282//2
f 257//16 284//16 255//16
f 255//16 284//16 283//16
f 259//7 285//7 257//7
f 257//7 285//7 284//7
f 260//2 286//2 259//2
f 259//2 286//2 285//2
f 261//4 287//4 260//4
f 260//4 287//4 286//4
f 262//29 288//29 261//29
f 261//29 288//29 287//29
f 264//2 289//2 262//2
f 262//2 289//2 288//2
f 266//17 290//17 264//17
f 264//17 290//17 289//17
f 268//18 291//18 266//18
f 266//18 291//18 290//18
f 270//7 292//7 268//7
f 268//7 292//7 291//7
f 272//19 293//19 270//19
f 270//19 293//19 292//19
f 274//20 294//20 272//20
f 272//20 294//20 293//20
f 275//7 295//7 274//7
f 274//7 295//7 294//7
f 273//21 296//21 275//21
f 275//21 296//21 295//21
f 271//22 297//22 273//22
f 273//22 297//22 296//22
f 269//4 298//4 271//4
f 271//4 298//4 297//4
f 267//23 299//23 269//23
f 269//23 299//23 298//23
f 265//24 300//24 267//24
f 267//24 300//24 299//24
f 263//6 301//6 265//6
f 265//6 301//6 300//6
f 258//11 302//11 263//11
f 263//11 302//11 301//11
f 256//30 303//30 258//30
f 258//30 303//30 302//30
f 254//6 304//6 256//6
f 256//6 304//6 303//6
f 252//25 305//25 254//25
f 254//25 305//25 304//25
f 250//26 306//26 252//26
f 252//26 306//26 305//26
f 248//7 307//7 250//7
f 250//7 307//7 306//7
f 246//27 308//27 248//27
f 248//27 308//27 307//27
f 244//28 277//28 246//28
f 246//28 277//28 308//28
f 294//1 295//1 293//1
f 293//1 295//1 296//1
f 293//1 296//1 292//1
f 292//1 296//1 297//1
f 292//1 297//1 291//1
f 291//1 297//1 298//1
f 291//1 298//1 290//1
f 290//1 298//1 299//1
f 290//1 299//1 289//1
f 289//1 299//1 300//1
f 289//1 300//1 288//1
f 288//1 300//1 301//1
f 288//1 301//1 287//1
f 287//1 301//1 302//1
f 287//1 302//1 286//1
f 285//1 286//1 284//1
f 284//1 286//1 302//1
f 284//1 302//1 283//1
f 283//1 302//1 303//1
f 283//1 303//1 282//1
f 282//1 303//1 304//1
f 282//1 304//1 281//1
f 281//1 304//1 305//1
f 281//1 305//1 280//1
f 280//1 305//1 306//1
f 280//1 306//1 279//1
f 279//1 306//1 307//1
f 279//1 307//1 278//1
f 278//1 307//1 308//1
f 278//1 308//1 276//1
f 276//1 308//1 277//1
f 309//1 310//1 311//1
f 311//1 310//1 312//1
f 311//1 312//1 313//1
f 313//1 312//1 314//1
f 313//1 314//1 315//1
f 315//1 314//1 316//1
f 315//1 316//1 317//1
f 317//1 316//1 318//1
f 317//1 318//1 319//1
f 319//1 318//1 320//1
f 319//1 320//1 321//1
f 321//1 320//1 322//1
f 321//1 322//1 323//1
f 323//1 322//1 324//1
f 323//1 324//1 325//1
f 325//1 324//1 326//1
f 325//1 326//1 327//1
f 327//1 326//1 328//1
f 320//26 329//26 322//26
f 322//26 329//26 330//26
f 318//25 331//25 320//25
f 320//25 331//25 329//25
f 316//6 332//6 318//6
f 318//6 332//6 331//6
f 314//30 333//30 316//30
f 316//30 333//30 332//30
f 312//6 334//6 314//6
f 314//6 334//6 333//6
f 310//7 335//7 312//7
f 312//7 335//7 334//7
f 309//6 336//6 310//6
f 310//6 336//6 335//6
f 311//4 337//4 309//4
f 309//4 337//4 336//4
f 313//2 338//2 311//2
f 311//2 338//2 337//2
f 315//16 339//16 313//16
f 313//16 339//16 338//16
f 317//2 340//2 315//2
f 315//2 340//2 339//2
f 319//15 341//15 317//15
f 317//15 341//15 340//15
f 321//14 342//14 319//14
f 319//14 342//14 341//14
f 323//4 343//4 321//4
f 321//4 343//4 342//4
f 325//13 344//13 323//13
f 323//13 344//13 343//13
f 327//12 345//12 325//12
f 325//12 345//12 344//12
f 328//4 346//4 327//4
f 327//4 346//4 345//4
f 326//28 347//28 328//28
f 328//28 347//28 346//28
f 324//27 348//27 326//27
f 326//27 348//27 347//27
f 322//7 330//7 324//7
f 324//7 330//7 348//7
f 345//10 346//10 344//10
f 344//10 346//10 347//10
f 344//10 347//10 343//10
f 343//10 347//10 348//10
f 343//10 348//10 342//10
f 342//10 348//10 330//10
f 342//10 330//10 341//10
f 341//10 330//10 329//10
f 341//10 329//10 340//10
f 340//10 329//10 331//10
f 340//10 331//10 339//10
f 339//10 331//10 332//10
f 339//10 332//10 338//10
f 338//10 332//10 333//10
f 338//10 333//10 337//10
f 337//10 333//10 334//10
f 337//10 334//10 336//10
f 336//10 334//10 335//10
f 349//1 350//1 351//1
f 352//1 353//1 354//1
f 354//1 353//1 355//1
f 356//1 357//1 358//1
f 351//1 356//1 349//1
f 349//1 356//1 358//1
f 349//1 358//1 355//1
f 355//1 358//1 359//1
f 355//1 359//1 354//1
f 360//2 353//2 361//2
f 361//2 353//2 352//2
f 362//4 355//4 360//4
f 360//4 355//4 353//4
f 363//2 349//2 362//2
f 362//2 349//2 355//2
f 364//7 350//7 363//7
f 363//7 350//7 349//7
f 365//2 351//2 364//2
f 364//2 351//2 350//2
f 366//4 356//4 365//4
f 365//4 356//4 351//4
f 367//6 357//6 366//6
f 366//6 357//6 356//6
f 368//7 358//7 367//7
f 367//7 358//7 357//7
f 369//6 359//6 368//6
f 368//6 359//6 358//6
f 370//7 354//7 369//7
f 369//7 354//7 359//7
f 361//16 352//16 370//16
f 370//16 352//16 354//16
f 368//10 367//10 366//10
f 365//10 364//10 363//10
f 362//10 360//10 361//10
f 366//10 365//10 368//10
f 368//10 365//10 363//10
f 368//10 363//10 369//10
f 369//10 363//10 362//10
f 369//10 362//10 370//10
f 370//10 362//10 361//10
f 371//1 372//1 373//1
f 373//1 372//1 374//1
f 373//1 374//1 375//1
f 375//1 374//1 376//1
f 375//1 376//1 377//1
f 377//1 376//1 378//1
f 377//1 378//1 379//1
f 379//1 378//1 380//1
f 379//1 380//1 381//1
f 381//1 380//1 382//1
f 381//1 382//1 383//1
f 383//1 382//1 384//1
f 383//1 384//1 385//1
f 385//1 384//1 386//1
f 385//1 386//1 371//1
f 371//1 386//1 372//1
f 387//16 385//16 388//16
f 388//16 385//16 371//16
f 389//7 383//7 387//7
f 387//7 383//7 385//7
f 390//11 381//11 389//11
f 389//11 381//11 383//11
f 391//6 379//6 390//6
f 390//6 379//6 381//6
f 392//30 377//30 391//30
f 391//30 377//30 379//30
f 393//4 375//4 392//4
f 392//4 375//4 377//4
f 394//29 373//29 393//29
f 393//29 373//29 375//29
f 388//2 371//2 394//2
f 394//2 371//2 373//2
f 395//6 396//6 372//6
f 372//6 396//6 374//6
f 397//11 376//11 396//11
f 396//11 376//11 374//11
f 398//7 378//7 397//7
f 397//7 378//7 376//7
f 399//16 380//16 398//16
f 398//16 380//16 378//16
f 400//2 382//2 399//2
f 399//2 382//2 380//2
f 401//29 384//29 400//29
f 400//29 384//29 382//29
f 402//4 386//4 401//4
f 401//4 386//4 384//4
f 395//30 372//30 402//30
f 402//30 372//30 386//30
f 394//10 396//10 388//10
f 388//10 396//10 395//10
f 388//10 395//10 387//10
f 387//10 395//10 402//10
f 387//10 402//10 389//10
f 389//10 402//10 401//10
f 389//10 401//10 390//10
f 390//10 401//10 400//10
f 390//10 400//10 391//10
f 391//10 400//10 399//10
f 391//10 399//10 392//10
f 392//10 399//10 398//10
f 392//10 398//10 393//10
f 393//10 398//10 397//10
f 393//10 397//10 394//10
f 394//10 397//10 396//10
f 403//1 404//1 405//1
f 405//1 404//1 406//1
f 405//1 406//1 407//1
f 407//1 406//1 408//1
f 407//1 408//1 409//1
f 409//1 408//1 410//1
f 409//1 410//1 411//1
f 411//1 410//1 412//1
f 411//1 412//1 413//1
f 413//1 412//1 414//1
f 407//7 415//7 405//7
f 405//7 415//7 416//7
f 409//6 417//6 407//6
f 407//6 417//6 415//6
f 411//30 418//30 409//30
f 409//30 418//30 417//30
f 413//6 419//6 411//6
f 411//6 419//6 418//6
f 414//4 420//4 413//4
f 413//4 420//4 419//4
f 412//2 421//2 414//2
f 414//2 421//2 420//2
f 410//16 422//16 412//16
f 412//16 422//16 421//16
f 408//2 423//2 410//2
f 410//2 423//2 422//2
f 406//4 424//4 408//4
f 408//4 424//4 423//4
f 404//6 425//6 406//6
f 406//6 425//6 424//6
f 403//4 426//4 404//4
f 404//4 426//4 425//4
f 405//2 416//2 403//2
f 403//2 416//2 426//2
f 425//10 426//10 424//10
f 424//10 426//10 416//10
f 424//10 416//10 423//10
f 423//10 416//10 415//10
f 423//10 415//10 422//10
f 422//10 415//10 417//10
f 422//10 417//10 421//10
f 421//10 417//10 418//10
f 421//10 418//10 420//10
f 420//10 418//10 419//10
f 427//1 428//1 429//1
f 429//1 428//1 430//1
f 431//1 432//1 433//1
f 433//1 432//1 434//1
f 433//1 434//1 435//1
f 436//1 437//1 438//1
f 438//1 437//1 439//1
f 438//1 439//1 430//1
f 430//1 439//1 431//1
f 430//1 431//1 429//1
f 429//1 431//1 433//1
f 429//1 433//1 440//1
f 440//1 433//1 441//1
f 442//2 439//2 443//2
f 443//2 439//2 437//2
f 444//4 431//4 442//4
f 442//4 431//4 439//4
f 445//2 432//2 444//2
f 444//2 432//2 431//2
f 446//29 434//29 445//29
f 445//29 434//29 432//29
f 447//4 435//4 446//4
f 446//4 435//4 434//4
f 448//6 433//6 447//6
f 447//6 433//6 435//6
f 449//4 441//4 448//4
f 448//4 441//4 433//4
f 450//6 440//6 449//6
f 449//6 440//6 441//6
f 451//7 429//7 450//7
f 450//7 429//7 440//7
f 452//6 427//6 451//6
f 451//6 427//6 429//6
f 453//7 428//7 452//7
f 452//7 428//7 427//7
f 454//2 430//2 453//2
f 453//2 430//2 428//2
f 455//7 438//7 454//7
f 454//7 438//7 430//7
f 456//6 436//6 455//6
f 455//6 436//6 438//6
f 443//7 437//7 456//7
f 456//7 437//7 436//7
f 454//10 453//10 452//10
f 448//10 447//10 446//10
f 450//10 449//10 451//10
f 451//10 449//10 448//10
f 451//10 448//10 444//10
f 444//10 448//10 446//10
f 444//10 446//10 445//10
f 443//10 456//10 442//10
f 442//10 456//10 455//10
f 442//10 455//10 444//10
f 444//10 455//10 454//10
f 444//10 454//10 451//10
f 451//10 454//10 452//10
f 457//1 458//1 459//1
f 459//1 458//1 460//1
f 459//1 460//1 461//1
f 461//1 460//1 462//1
f 461//1 462//1 463//1
f 463//1 462//1 464//1
f 463//1 464//1 465//1
f 465//1 464//1 466//1
f 465//1 466//1 467//1
f 467//1 466//1 468//1
f 467//1 468//1 469//1
f 469//1 468//1 470//1
f 469//1 470//1 471//1
f 471//1 470//1 472//1
f 471//1 472//1 473//1
f 473//1 472//1 474//1
f 473//1 474//1 475//1
f 475//1 474//1 476//1
f 475//1 476//1 477//1
f 477//1 476//1 478//1
f 476//4 479//4 478//4
f 478//4 479//4 480//4
f 474//6 481//6 476//6
f 476//6 481//6 479//6
f 472//7 482//7 474//7
f 474//7 482//7 481//7
f 470//11 483//11 472//11
f 472//11 483//11 482//11
f 468//6 484//6 470//6
f 470//6 484//6 483//6
f 466//24 485//24 468//24
f 468//24 485//24 484//24
f 464//23 486//23 466//23
f 466//23 486//23 485//23
f 462//4 487//4 464//4
f 464//4 487//4 486//4
f 460//22 488//22 462//22
f 462//22 488//22 487//22
f 458//21 489//21 460//21
f 460//21 489//21 488//21
f 457//7 490//7 458//7
f 458//7 490//7 489//7
f 459//20 491//20 457//20
f 457//20 491//20 490//20
f 461//19 492//19 459//19
f 459//19 492//19 491//19
f 463//7 493//7 461//7
f 461//7 493//7 492//7
f 465//18 494//18 463//18
f 463//18 494//18 493//18
f 467//17 495//17 465//17
f 465//17 495//17 494//17
f 469//2 496//2 467//2
f 467//2 496//2 495//2
f 471//29 497//29 469//29
f 469//29 497//29 496//29
f 473//4 498//4 471//4
f 471//4 498//4 497//4
f 475//2 499//2 473//2
f 473//2 499//2 498//2
f 477//7 500//7 475//7
f 475//7 500//7 499//7
f 478//6 480//6 477//6
f 477//6 480//6 500//6
f 500//10 480//10 499//10
f 499//10 480//10 479//10
f 499//10 479//10 498//10
f 498//10 479//10 481//10
f 498//10 481//10 497//10
f 497//10 481//10 482//10
f 497//10 482//10 496//10
f 496//10 482//10 483//10
f 496//10 483//10 495//10
f 495//10 483//10 484//10
f 495//10 484//10 494//10
f 494//10 484//10 485//10
f 494//10 485//10 493//10
f 493//10 485//10 486//10
f 493//10 486//10 492//10
f 492//10 486//10 487//10
f 492//10 487//10 491//10
f 491//10 487//10 488//10
f 491//10 488//10 490//10
f 490//10 488//10 489//10
f 517//1 518//1 519//1
f 519//1 518//1 520//1
f 519//1 520//1 521//1
f 521//1 520//1 522//1
f 521//1 522//1 523//1
f 523//1 522//1 524//1
f 523//1 524//1 525//1
f 525//1 524//1 526//1
f 525//1 526//1 527//1
f 527//1 526//1 528//1
f 527//1 528//1 529//1
f 529//1 528//1 530//1
f 529//1 530//1 531//1
f 531//1 530//1 532//1
f 531//1 532//1 533//1
f 533//1 532//1 534//1
f 533//1 534//1 535//1
f 535//1 534//1 536//1
f 528//26 537//26 530//26
f 530//26 537//26 538//26
f 526//25 539//25 528//25
f 528//25 539//25 537//25
f 524//6 540//6 526//6
f 526//6 540//6 539//6
f 522//30 541//30 524//30
f 524//30 541//30 540//30
f 520//6 542//6 522//6
f 522//6 542//6 541//6
f 518//7 543//7 520//7
f 520//7 543//7 542//7
f 517//6 544//6 518//6
f 518//6 544//6 543//6
f 519//4 545//4 517//4
f 517//4 545//4 544//4
f 521//2 546//2 519//2
f 519//2 546//2 545//2
f 523//16 547//16 521//16
f 521//16 547//16 546//16
f 525//2 548//2 523//2
f 523//2 548//2 547//2
f 527//15 549//15 525//15
f 525//15 549//15 548//15
f 529//14 550//14 527//14
f 527//14 550//14 549//14
f 531//4 551//4 529//4
f 529//4 551//4 550//4
f 533//13 552//13 531//13
f 531//13 552//13 551//13
f 535//12 553//12 533//12
f 533//12 553//12 552//12
f 536//4 554//4 535//4
f 535//4 554//4 553//4
f 534//28 555//28 536//28
f 536//28 555//28 554//28
f 532//27 556//27 534//27
f 534//27 556//27 555//27
f 530//7 538//7 532//7
f 532//7 538//7 556//7
f 553//10 554//10 552//10
f 552//10 554//10 555//10
f 552//10 555//10 551//10
f 551//10 555//10 556//10
f 551//10 556//10 550//10
f 550//10 556//10 538//10
f 550//10 538//10 549//10
f 549//10 538//10 537//10
f 549//10 537//10 548//10
f 548//10 537//10 539//10
f 548//10 539//10 547//10
f 547//10 539//10 540//10
f 547//10 540//10 546//10
f 546//10 540//10 541//10
f 546//10 541//10 545//10
f 545//10 541//10 542//10
f 545//10 542//10 544//10
f 544//10 542//10 543//10
f 557//1 558//1 559//1
f 560//1 561//1 562//1
f 562//1 561//1 563//1
f 564//1 565//1 566//1
f 559//1 564//1 557//1
f 557//1 564//1 566//1
f 557//1 566//1 563//1
f 563//1 566//1 567//1
f 563//1 567//1 562//1
f 568//2 561//2 569//2
f 569//2 561//2 560//2
f 570//4 563//4 568//4
f 568//4 563//4 561//4
f 571//2 557//2 570//2
f 570//2 557//2 563//2
f 572//7 558//7 571//7
f 571//7 558//7 557//7
f 573//2 559//2 572//2
f 572//2 559//2 558//2
f 574//4 564//4 573//4
f 573//4 564//4 559//4
f 575//6 565//6 574//6
f 574//6 565//6 564//6
f 576//7 566//7 575//7
f 575//7 566//7 565//7
f 577//6 567//6 576//6
f 576//6 567//6 566//6
f 578//7 562//7 577//7
f 577//7 562//7 567//7
f 569//16 560//16 578//16
f 578//16 560//16 562//16
f 576//10 575//10 574//10
f 573//10 572//10 571//10
f 570//10 568//10 569//10
f 574//10 573//10 576//10
f 576//10 573//10 571//10
f 576//10 571//10 577//10
f 577//10 571//10 570//10
f 577//10 570//10 578//10
f 578//10 570//10 569//10
f 579//1 580//1 581//1
f 581//1 580//1 582//1
f 581//1 582//1 583//1
f 583//1 582//1 584//1
f 583//1 584//1 585//1
f 585//1 584//1 586//1
f 585//1 586//1 587//1
f 587//1 586//1 588//1
f 587//1 588//1 589//1
f 589//1 588//1 590//1
f 589//1 590//1 591//1
f 591//1 590//1 592//1
f 591//1 592//1 593//1
f 593//1 592//1 594//1
f 593//1 594//1 579//1
f 579//1 594//1 580//1
f 595//16 593//16 596//16
f 596//16 593//16 579//16
f 597//7 591//7 595//7
f 595//7 591//7 593//7
f 598//11 589//11 597//11
f 597//11 589//11 591//11
f 599//6 587//6 598//6
f 598//6 587//6 589//6
f 600//30 585//30 599//30
f 599//30 585//30 587//30
f 601//4 583//4 600//4
f 600//4 583//4 585//4
f 602//29 581//29 601//29
f 601//29 581//29 583//29
f 596//2 579//2 602//2
f 602//2 579//2 581//2
f 603//6 604//6 580//6
f 580//6 604//6 582//6
f 605//11 584//11 604//11
f 604//11 584//11 582//11
f 606//7 586//7 605//7
f 605//7 586//7 584//7
f 607//16 588//16 606//16
f 606//16 588//16 586//16
f 608//2 590//2 607//2
f 607//2 590//2 588//2
f 609//29 592//29 608//29
f 608//29 592//29 590//29
f 610//4 594//4 609//4
f 609//4 594//4 592//4
f 603//30 580//30 610//30
f 610//30 580//30 594//30
f 602//10 604//10 596//10
f 596//10 604//10 603//10
f 596//10 603//10 595//10
f 595//10 603//10 610//10
f 595//10 610//10 597//10
f 597//10 610//10 609//10
f 597//10 609//10 598//10
f 598//10 609//10 608//10
f 598//10 608//10 599//10
f 599//10 608//10 607//10
f 599//10 607//10 600//10
f 600//10 607//10 606//10
f 600//10 606//10 601//10
f 601//10 606//10 605//10
f 601//10 605//10 602//10
f 602//10 605//10 604//10
f 611//1 612//1 613//1
f 613//1 612//1 614//1
f 613//1 614//1 615//1
f 615//1 614//1 616//1
f 615//1 616//1 617//1
f 617//1 616//1 618//1
f 617//1 618//1 619//1
f 619//1 618//1 620//1
f 619//1 620//1 621//1
f 621//1 620//1 622//1
f 615//7 623//7 613//7
f 613//7 623//7 624//7
f 617//6 625//6 615//6
f 615//6 625//6 623//6
f 619//30 626//30 617//30
f 617//30 626//30 625//30
f 621//6 627//6 619//6
f 619//6 627//6 626//6
f 622//4 628//4 621//4
f 621//4 628//4 627//4
f 620//2 629//2 622//2
f 622//2 629//2 628//2
f 618//16 630//16 620//16
f 620//16 630//16 629//16
f 616//2 631//2 618//2
f 618//2 631//2 630//2
f 614//4 632//4 616//4
f 616//4 632//4 631//4
f 612//6 633//6 614//6
f 614//6 633//6 632//6
f 611//4 634//4 612//4
f 612//4 634//4 633//4
f 613//2 624//2 611//2
f 611//2 624//2 634//2
f 633//10 634//10 632//10
f 632//10 634//10 624//10
f 632//10 624//10 631//10
f 631//10 624//10 623//10
f 631//10 623//10 630//10
f 630//10 623//10 625//10
f 630//10 625//10 629//10
f 629//10 625//10 626//10
f 629//10 626//10 628//10
f 628//10 626//10 627//10
f 635//1 636//1 637//1
f 637//1 636//1 638//1
f 639//1 640//1 641//1
f 641//1 640//1 642//1
f 641//1 642//1 643//1
f 644//1 645//1 646//1
f 646//1 645//1 647//1
f 646//1 647//1 638//1
f 638//1 647//1 639//1
f 638//1 639//1 637//1
f 637//1 639//1 641//1
f 637//1 641//1 648//1
f 648//1 641//1 649//1
f 650//2 647//2 651//2
f 651//2 647//2 645//2
f 652//4 639//4 650//4
f 650//4 639//4 647//4
f 653//2 640//2 652//2
f 652//2 640//2 639//2
f 654//29 642//29 653//29
f 653//29 642//29 640//29
f 655//4 643//4 654//4
f 654//4 643//4 642//4
f 656//6 641//6 655//6
f 655//6 641//6 643//6
f 657//4 649//4 656//4
f 656//4 649//4 641//4
f 658//6 648//6 657//6
f 657//6 648//6 649//6
f 659//7 637//7 658//7
f 658//7 637//7 648//7
f 660//6 635//6 659//6
f 659//6 635//6 637//6
f 661//7 636//7 660//7
f 660//7 636//7 635//7
f 662//2 638//2 661//2
f 661//2 638//2 636//2
f 663//7 646//7 662//7
f 662//7 646//7 638//7
f 664//6 644//6 663//6
f 663//6 644//6 646//6
f 651//7 645//7 664//7
f 664//7 645//7 644//7
f 662//10 661//10 660//10
f 656//10 655//10 654//10
f 658//10 657//10 659//10
f 659//10 657//10 656//10
f 659//10 656//10 652//10
f 652//10 656//10 654//10
f 652//10 654//10 653//10
f 651//10 664//10 650//10
f 650//10 664//10 663//10
f 650//10 663//10 652//10
f 652//10 663//10 662//10
f 652//10 662//10 659//10
f 659//10 662//10 660//10
f 665//1 666//1 667//1
f 667//1 666//1 668//1
f 667//1 668//1 669//1
f 669//1 668//1 670//1
f 669//1 670//1 671//1
f 671//1 670//1 672//1
f 671//1 672//1 673//1
f 673//1 672//1 674//1
f 673//1 674//1 675//1
f 675//1 674//1 676//1
f 675//1 676//1 677//1
f 677//1 676//1 678//1
f 677//1 678//1 679//1
f 679//1 678//1 680//1
f 679//1 680//1 681//1
f 681//1 680//1 682//1
f 681//1 682//1 683//1
f 683//1 682//1 684//1
f 683//1 684//1 685//1
f 685//1 684//1 686//1
f 684//4 687//4 686//4
f 686//4 687//4 688//4
f 682//6 689//6 684//6
f 684//6 689//6 687//6
f 680//7 690//7 682//7
f 682//7 690//7 689//7
f 678//11 691//11 680//11
f 680//11 691//11 690//11
f 676//6 692//6 678//6
f 678//6 692//6 691//6
f 674//24 693//24 676//24
f 676//24 693//24 692//24
f 672//23 694//23 674//23
f 674//23 694//23 693//23
f 670//4 695//4 672//4
f 672//4 695//4 694//4
f 668//22 696//22 670//22
f 670//22 696//22 695//22
f 666//21 697//21 668//21
f 668//21 697//21 696//21
f 665//7 698//7 666//7
f 666//7 698//7 697//7
f 667//20 699//20 665//20
f 665//20 699//20 698//20
f 669//19 700//19 667//19
f 667//19 700//19 699//19
f 671//7 701//7 669//7
f 669//7 701//7 700//7
f 673//18 702//18 671//18
f 671//18 702//18 701//18
f 675//17 703//17 673//17
f 673//17 703//17 702//17
f 677//2 704//2 675//2
f 675//2 704//2 703//2
f 679//29 705//29 677//29
f 677//29 705//29 704//29
f 681//4 706//4 679//4
f 679//4 706//4 705//4
f 683//2 707//2 681//2
f 681//2 707//2 706//2
f 685//7 708//7 683//7
f 683//7 708//7 707//7
f 686//6 688//6 685//6
f 685//6 688//6 708//6
f 708//10 688//10 707//10
f 707//10 688//10 687//10
f 707//10 687//10 706//10
f 706//10 687//10 689//10
f 706//10 689//10 705//10
f 705//10 689//10 690//10
f 705//10 690//10 704//10
f 704//10 690//10 691//10
f 704//10 691//10 703//10
f 703//10 691//10 692//10
f 703//10 692//10 702//10
f 702//10 692//10 693//10
f 702//10 693//10 701//10
f 701//10 693//10 694//10
f 701//10 694//10 700//10
f 700//10 694//10 695//10
f 700//10 695//10 699//10
f 699//10 695//10 696//10
f 699//10 696//10 698//10
f 698//10 696//10 697//10
f 725//1 726//1 727//1
f 727//1 726//1 728//1
f 727//1 728//1 729//1
f 729//1 728//1 730//1
f 729//1 730//1 731//1
f 731//1 730//1 732//1
f 731//1 732//1 733//1
f 733//1 732//1 734//1
f 733//1 734//1 735//1
f 735//1 734//1 736//1
f 737//2 728//2 738//2
f 738//2 728//2 726//2
f 739//3 730//3 737//3
f 737//3 730//3 728//3
f 740//4 732//4 739//4
f 739//4 732//4 730//4
f 741//5 734//5 740//5
f 740//5 734//5 732//5
f 742//6 736//6 741//6
f 741//6 736//6 734//6
f 743//7 735//7 742//7
f 742//7 735//7 736//7
f 744//2 733//2 743//2
f 743//2 733//2 735//2
f 745//8 731//8 744//8
f 744//8 731//8 733//8
f 746//7 729//7 745//7
f 745//7 729//7 731//7
f 747//9 727//9 746//9
f 746//9 727//9 729//9
f 748//6 725//6 747//6
f 747//6 725//6 727//6
f 738//7 726//7 748//7
f 748//7 726//7 725//7
f 743//10 742//10 744//10
f 744//10 742//10 741//10
f 744//10 741//10 745//10
f 745//10 741//10 740//10
f 745//10 740//10 746//10
f 746//10 740//10 739//10
f 746//10 739//10 747//10
f 747//10 739//10 737//10
f 747//10 737//10 748//10
f 748//10 737//10 738//10
f 749//10 750//10 751//10
f 752//10 753//10 754//10
f 754//10 753//10 755//10
f 754//10 755//10 756//10
f 756//10 755//10 757//10
f 756//10 757//10 758//10
f 758//10 757//10 759//10
f 758//10 759//10 760//10
f 760//10 759//10 761//10
f 760//10 761//10 751//10
f 751//10 761//10 762//10
f 751//10 762//10 749//10
f 763//10 764//10 749//10
f 749//10 764//10 765//10
f 749//10 765//10 750//10
f 750//10 765//10 766//10
f 750//10 766//10 767//10
f 767//10 766//10 768//10
f 767//10 768//10 769//10
f 769//10 768//10 770//10
f 769//10 770//10 771//10
f 771//10 770//10 772//10
f 771//10 772//10 773//10
f 773//10 772//10 774//10
f 773//10 774//10 775//10
f 775//10 774//10 776//10
f 775//10 776//10 777//10
f 777//10 776//10 778//10
f 777//10 778//10 779//10
f 779//10 778//10 763//10
f 779//10 763//10 749//10
f 778//11 780//11 763//11
f 763//11 780//11 781//11
f 776//6 782//6 778//6
f 778//6 782//6 780//6
f 774//12 783//12 776//12
f 776//12 783//12 782//12
f 772//13 784//13 774//13
f 774//13 784//13 783//13
f 770//4 785//4 772//4
f 772//4 785//4 784//4
f 768//14 786//14 770//14
f 770//14 786//14 785//14
f 766//15 787//15 768//15
f 768//15 787//15 786//15
f 765//2 788//2 766//2
f 766//2 788//2 787//2
f 764//16 789//16 765//16
f 765//16 789//16 788//16
f 763//7 781//7 764//7
f 764//7 781//7 789//7
f 790//4 779//4 791//4
f 791//4 779//4 749//4
f 762//2 792//2 749//2
f 749//2 792//2 791//2
f 761//17 793//17 762//17
f 762//17 793//17 792//17
f 759//18 794//18 761//18
f 761//18 794//18 793//18
f 757//7 795//7 759//7
f 759//7 795//7 794//7
f 755//19 796//19 757//19
f 757//19 796//19 795//19
f 753//20 797//20 755//20
f 755//20 797//20 796//20
f 752//7 798//7 753//7
f 753//7 798//7 797//7
f 754//21 799//21 752//21
f 752//21 799//21 798//21
f 756//22 800//22 754//22
f 754//22 800//22 799//22
f 758//4 801//4 756//4
f 756//4 801//4 800//4
f 760//23 802//23 758//23
f 758//23 802//23 801//23
f 751//24 803//24 760//24
f 760//24 803//24 802//24
f 750//6 804//6 751//6
f 751//6 804//6 803//6
f 767//25 805//25 750//25
f 750//25 805//25 804//25
f 769//26 806//26 767//26
f 767//26 806//26 805//26
f 771//7 807//7 769//7
f 769//7 807//7 806//7
f 773//27 808//27 771//27
f 771//27 808//27 807//27
f 775//28 809//28 773//28
f 773//28 809//28 808//28
f 777//2 810//2 775//2
f 775//2 810//2 809//2
f 779//29 790//29 777//29
f 777//29 790//29 810//29
f 788//1 803//1 804//1
f 791//1 789//1 790//1
f 790//1 789//1 781//1
f 790//1 781//1 810//1
f 810//1 781//1 780//1
f 810//1 780//1 809//1
f 809//1 780//1 782//1
f 809//1 782//1 808//1
f 808//1 782//1 783//1
f 808//1 783//1 807//1
f 807//1 783//1 784//1
f 807//1 784//1 806//1
f 806//1 784//1 785//1
f 806//1 785//1 805//1
f 805//1 785//1 786//1
f 805//1 786//1 804//1
f 804//1 786//1 787//1
f 804//1 787//1 788//1
f 797//1 798//1 796//1
f 796//1 798//1 799//1
f 796//1 799//1 795//1
f 795//1 799//1 800//1
f 795//1 800//1 794//1
f 794//1 800//1 801//1
f 794//1 801//1 793//1
f 793//1 801//1 802//1
f 793//1 802//1 792//1
f 792//1 802//1 803//1
f 792//1 803//1 791//1
f 791//1 803//1 788//1
f 791//1 788//1 789//1
f 811//10 812//10 813//10
f 814//10 815//10 816//10
f 816//10 815//10 817//10
f 816//10 817//10 818//10
f 818//10 817//10 819//10
f 818//10 819//10 820//10
f 820//10 819//10 821//10
f 820//10 821//10 822//10
f 822//10 821//10 823//10
f 822//10 823//10 813//10
f 813//10 823//10 824//10
f 813//10 824//10 811//10
f 825//10 826//10 827//10
f 827//10 826//10 828//10
f 827//10 828//10 829//10
f 829//10 828//10 812//10
f 829//10 812//10 830//10
f 830//10 812//10 811//10
f 830//10 811//10 831//10
f 831//10 811//10 832//10
f 831//10 832//10 833//10
f 833//10 832//10 834//10
f 833//10 834//10 835//10
f 835//10 834//10 836//10
f 835//10 836//10 837//10
f 837//10 836//10 838//10
f 837//10 838//10 839//10
f 839//10 838//10 840//10
f 839//10 840//10 841//10
f 841//10 840//10 842//10
f 841//10 842//10 825//10
f 825//10 842//10 826//10
f 843//2 835//2 844//2
f 844//2 835//2 837//2
f 845//29 833//29 843//29
f 843//29 833//29 835//29
f 846//4 831//4 845//4
f 845//4 831//4 833//4
f 847//30 830//30 846//30
f 846//30 830//30 831//30
f 848//6 829//6 847//6
f 847//6 829//6 830//6
f 849//20 827//20 848//20
f 848//20 827//20 829//20
f 850//19 825//19 849//19
f 849//19 825//19 827//19
f 851//7 841//7 850//7
f 850//7 841//7 825//7
f 852//18 839//18 851//18
f 851//18 839//18 841//18
f 844//8 837//8 852//8
f 852//8 837//8 839//8
f 853//6 838//6 854//6
f 854//6 838//6 836//6
f 855//31 840//31 853//31
f 853//31 840//31 838//31
f 856//23 842//23 855//23
f 855//23 842//23 840//23
f 857//4 826//4 856//4
f 856//4 826//4 842//4
f 858//22 828//22 857//22
f 857//22 828//22 826//22
f 859//21 812//21 858//21
f 858//21 812//21 828//21
f 860//2 813//2 859//2
f 859//2 813//2 812//2
f 861//28 822//28 860//28
f 860//28 822//28 813//28
f 862//27 820//27 861//27
f 861//27 820//27 822//27
f 863//7 818//7 862//7
f 862//7 818//7 820//7
f 864//26 816//26 863//26
f 863//26 816//26 818//26
f 865//25 814//25 864//25
f 864//25 814//25 816//25
f 866//4 815//4 865//4
f 865//4 815//4 814//4
f 867//15 817//15 866//15
f 866//15 817//15 815//15
f 868//14 819//14 867//14
f 867//14 819//14 817//14
f 869//4 821//4 868//4
f 868//4 821//4 819//4
f 870//13 823//13 869//13
f 869//13 823//13 821//13
f 871//12 824//12 870//12
f 870//12 824//12 823//12
f 872//6 811//6 871//6
f 871//6 811//6 824//6
f 873//11 832//11 872//11
f 872//11 832//11 811//11
f 874//7 834//7 873//7
f 873//7 834//7 832//7
f 854//32 836//32 874//32
f 874//32 836//32 834//32
f 866//1 865//1 867//1
f 867//1 865//1 864//1
f 867//1 864//1 868//1
f 868//1 864//1 863//1
f 868//1 863//1 869//1
f 869//1 863//1 862//1
f 869//1 862//1 870//1
f 870//1 862//1 861//1
f 870//1 861//1 871//1
f 871//1 861//1 860//1
f 871//1 860//1 872//1
f 872//1 860//1 859//1
f 846//1 872//1 847//1
f 847//1 872//1 859//1
f 847//1 859//1 848//1
f 848//1 859//1 849//1
f 849//1 859//1 858//1
f 849//1 858//1 850//1
f 850//1 858//1 857//1
f 850//1 857//1 851//1
f 851//1 857//1 856//1
f 851//1 856//1 852//1
f 852//1 856//1 855//1
f 852//1 855//1 844//1
f 844//1 855//1 853//1
f 844//1 853//1 843//1
f 843//1 853//1 854//1
f 843//1 854//1 845//1
f 845//1 854//1 874//1
f 845//1 874//1 846//1
f 846//1 874//1 873//1
f 846//1 873//1 872//1
f 875//10 876//10 877//10
f 877//10 876//10 878//10
f 875//10 877//10 879//10
f 879//10 877//10 880//10
f 879//10 880//10 881//10
f 882//10 883//10 884//10
f 884//10 883//10 885//10
f 884//10 885//10 886//10
f 886//10 885//10 887//10
f 886//10 887//10 888//10
f 888//10 887//10 889//10
f 888//10 889//10 890//10
f 890//10 889//10 891//10
f 890//10 891//10 892//10
f 892//10 891//10 893//10
f 892//10 893//10 894//10
f 894//10 893//10 895//10
f 894//10 895//10 881//10
f 881//10 895//10 896//10
f 881//10 896//10 879//10
f 875//10 883//10 897//10
f 897//10 883//10 882//10
f 897//10 882//10 898//10
f 898//10 882//10 899//10
f 898//10 899//10 900//10
f 900//10 899//10 901//10
f 900//10 901//10 902//10
f 902//10 901//10 903//10
f 902//10 903//10 904//10
f 904//10 903//10 905//10
f 904//10 905//10 906//10
f 906//10 905//10 907//10
f 906//10 907//10 908//10
f 908//10 907//10 909//10
f 908//10 909//10 910//10
f 910//10 909//10 876//10
f 910//10 876//10 911//10
f 911//10 876//10 875//10
f 911//10 875//10 912//10
f 912//10 875//10 897//10
f 898//11 913//11 897//11
f 897//11 913//11 914//11
f 900//6 915//6 898//6
f 898//6 915//6 913//6
f 902//12 916//12 900//12
f 900//12 916//12 915//12
f 904//13 917//13 902//13
f 902//13 917//13 916//13
f 906//4 918//4 904//4
f 904//4 918//4 917//4
f 908//14 919//14 906//14
f 906//14 919//14 918//14
f 910//15 920//15 908//15
f 908//15 920//15 919//15
f 911//2 921//2 910//2
f 910//2 921//2 920//2
f 912//16 922//16 911//16
f 911//16 922//16 921//16
f 897//7 914//7 912//7
f 912//7 914//7 922//7
f 886//2 923//2 884//2
f 884//2 923//2 924//2
f 888//21 925//21 886//21
f 886//21 925//21 923//21
f 890//22 926//22 888//22
f 888//22 926//22 925//22
f 892//4 927//4 890//4
f 890//4 927//4 926//4
f 894//23 928//23 892//23
f 892//23 928//23 927//23
f 881//24 929//24 894//24
f 894//24 929//24 928//24
f 880//6 930//6 881//6
f 881//6 930//6 929//6
f 877//11 931//11 880//11
f 880//11 931//11 930//11
f 878//30 932//30 877//30
f 877//30 932//30 931//30
f 876//6 933//6 878//6
f 878//6 933//6 932//6
f 909//25 934//25 876//25
f 876//25 934//25 933//25
f 907//26 935//26 909//26
f 909//26 935//26 934//26
f 905//7 936//7 907//7
f 907//7 936//7 935//7
f 903//27 937//27 905//27
f 905//27 937//27 936//27
f 901//28 938//28 903//28
f 903//28 938//28 937//28
f 899//2 939//2 901//2
f 901//2 939//2 938//2
f 882//29 940//29 899//29
f 899//29 940//29 939//29
f 884//16 924//16 882//16
f 882//16 924//16 940//16
f 941//4 883//4 942//4
f 942//4 883//4 875//4
f 879//29 943//29 875//29
f 875//29 943//29 942//29
f 896//2 944//2 879//2
f 879//2 944//2 943//2
f 895//17 945//17 896//17
f 896//17 945//17 944//17
f 893//18 946//18 895//18
f 895//18 946//18 945//18
f 891//7 947//7 893//7
f 893//7 947//7 946//7
f 889//19 948//19 891//19
f 891//19 948//19 947//19
f 887//20 949//20 889//20
f 889//20 949//20 948//20
f 885//6 950//6 887//6
f 887//6 950//6 949//6
f 883//30 941//30 885//30
f 885//30 941//30 950//30
f 942//1 943//1 922//1
f 929//1 930//1 928//1
f 928//1 930//1 931//1
f 931//1 932//1 921//1
f 921//1 932//1 933//1
f 921//1 933//1 920//1
f 928//1 945//1 927//1
f 927//1 945//1 946//1
f 927//1 946//1 926//1
f 926//1 946//1 947//1
f 926//1 947//1 925//1
f 925//1 947//1 948//1
f 925//1 948//1 923//1
f 923//1 948//1 949//1
f 923//1 949//1 924//1
f 924//1 949//1 950//1
f 924//1 950//1 940//1
f 940//1 950//1 941//1
f 921//1 922//1 931//1
f 931//1 922//1 943//1
f 931//1 943//1 928//1
f 928//1 943//1 944//1
f 928//1 944//1 945//1
f 920//1 933//1 919//1
f 919//1 933//1 934//1
f 919//1 934//1 918//1
f 918//1 934//1 935//1
f 918//1 935//1 917//1
f 917//1 935//1 936//1
f 917//1 936//1 916//1
f 916//1 936//1 937//1
f 916//1 937//1 915//1
f 915//1 937//1 938//1
f 915//1 938//1 913//1
f 913//1 938//1 939//1
f 913//1 939//1 914//1
f 914//1 939//1 940//1
f 914//1 940//1 922//1
f 922//1 940//1 941//1
f 922//1 941//1 942//1
f 951//10 952//10 953//10
f 953//10 952//10 954//10
f 953//10 954//10 955//10
f 955//10 954//10 956//10
f 955//10 956//10 957//10
f 957//10 956//10 958//10
f 957//10 958//10 959//10
f 959//10 958//10 960//10
f 959//10 960//10 961//10
f 961//10 960//10 962//10
f 961//10 962//10 963//10
f 963//10 962//10 964//10
f 963//10 964//10 965//10
f 965//10 964//10 966//10
f 965//10 966//10 967//10
f 968//10 967//10 969//10
f 969//10 967//10 966//10
f 969//10 966//10 970//10
f 970//10 966//10 971//10
f 970//10 971//10 972//10
f 972//10 971//10 973//10
f 972//10 973//10 974//10
f 974//10 973//10 975//10
f 974//10 975//10 976//10
f 976//10 975//10 977//10
f 976//10 977//10 978//10
f 978//10 977//10 979//10
f 978//10 979//10 980//10
f 980//10 979//10 981//10
f 980//10 981//10 982//10
f 982//10 981//10 983//10
f 951//4 984//4 952//4
f 952//4 984//4 985//4
f 953//12 986//12 951//12
f 951//12 986//12 984//12
f 955//13 987//13 953//13
f 953//13 987//13 986//13
f 957//4 988//4 955//4
f 955//4 988//4 987//4
f 959//14 989//14 957//14
f 957//14 989//14 988//14
f 961//15 990//15 959//15
f 959//15 990//15 989//15
f 963//2 991//2 961//2
f 961//2 991//2 990//2
f 965//16 992//16 963//16
f 963//16 992//16 991//16
f 967//7 993//7 965//7
f 965//7 993//7 992//7
f 968//2 994//2 967//2
f 967//2 994//2 993//2
f 969//4 995//4 968//4
f 968//4 995//4 994//4
f 970//29 996//29 969//29
f 969//29 996//29 995//29
f 972//2 997//2 970//2
f 970//2 997//2 996//2
f 974//17 998//17 972//17
f 972//17 998//17 997//17
f 976//18 999//18 974//18
f 974//18 999//18 998//18
f 978//7 1000//7 976//7
f 976//7 1000//7 999//7
f 980//19 1001//19 978//19
f 978//19 1001//19 1000//19
f 982//20 1002//20 980//20
f 980//20 1002//20 1001//20
f 983//7 1003//7 982//7
f 982//7 1003//7 1002//7
f 981//21 1004//21 983//21
f 983//21 1004//21 1003//21
f 979//22 1005//22 981//22
f 981//22 1005//22 1004//22
f 977//4 1006//4 979//4
f 979//4 1006//4 1005//4
f 975//23 1007//23 977//23
f 977//23 1007//23 1006//23
f 973//24 1008//24 975//24
f 975//24 1008//24 1007//24
f 971//6 1009//6 973//6
f 973//6 1009//6 1008//6
f 966//11 1010//11 971//11
f 971//11 1010//11 1009//11
f 964//30 1011//30 966//30
f 966//30 1011//30 1010//30
f 962//6 1012//6 964//6
f 964//6 1012//6 1011//6
f 960//25 1013//25 962//25
f 962//25 1013//25 1012//25
f 958//26 1014//26 960//26
f 960//26 1014//26 1013//26
f 956//7 1015//7 958//7
f 958//7 1015//7 1014//7
f 954//27 1016//27 956//27
f 956//27 1016//27 1015//27
f 952//28 985//28 954//28
f 954//28 985//28 1016//28
f 1002//1 1003//1 1001//1
f 1001//1 1003//1 1004//1
f 1001//1 1004//1 1000//1
f 1000//1 1004//1 1005//1
f 1000//1 1005//1 999//1
f 999//1 1005//1 1006//1
f 999//1 1006//1 998//1
f 998//1 1006//1 1007//1
f 998//1 1007//1 997//1
f 997//1 1007//1 1008//1
f 997//1 1008//1 996//1
f 996//1 1008//1 1009//1
f 996//1 1009//1 995//1
f 995//1 1009//1 1010//1
f 995//1 1010//1 994//1
f 993//1 994//1 992//1
f 992//1 994//1 1010//1
f 992//1 1010//1 991//1
f 991//1 1010//1 1011//1
f 991//1 1011//1 990//1
f 990//1 1011//1 1012//1
f 990//1 1012//1 989//1
f 989//1 1012//1 1013//1
f 989//1 1013//1 988//1
f 988//1 1013//1 1014//1
f 988//1 1014//1 987//1
f 987//1 1014//1 1015//1
f 987//1 1015//1 986//1
f 986//1 1015//1 1016//1
f 986//1 1016//1 984//1
f 984//1 1016//1 985//1
f 1057//1 1058//1 1059//1
f 1060//1 1059//1 1061//1
f 1061//1 1059//1 1062//1
f 1059//1 1063//1 1064//1
f 1058//1 1065//1 1059//1
f 1059//1 1065//1 1066//1
f 1059//1 1066//1 1067//1
f 1067//1 1068//1 1059//1
f 1059//1 1068//1 1069//1
f 1059//1 1069//1 1063//1
f 1060//1 1070//1 1059//1
f 1059//1 1070//1 1071//1
f 1059//1 1071//1 1072//1
f 1064//1 1073//1 1059//1
f 1059//1 1073//1 1074//1
f 1059//1 1074//1 1062//1
f 1057//1 1059//1 1075//1
f 1075//1 1059//1 1076//1
f 1075//1 1076//1 1077//1
f 1078//1 1079//1 1080//1
f 1080//1 1079//1 1075//1
f 1077//1 1081//1 1075//1
f 1075//1 1081//1 1082//1
f 1075//1 1082//1 1080//1
f 1083//1 1084//1 1072//1
f 1072//1 1084//1 1085//1
f 1072//1 1085//1 1086//1
f 1087//1 1088//1 1072//1
f 1072//1 1088//1 1089//1
f 1086//1 1090//1 1072//1
f 1072//1 1090//1 1091//1
f 1072//1 1091//1 1092//1
f 1092//1 1093//1 1072//1
f 1072//1 1093//1 1094//1
f 1072//1 1094//1 1087//1
f 1089//1 1095//1 1072//1
f 1072//1 1095//1 1096//1
f 1072//1 1096//1 1059//1
f 1097//33 1084//33 1098//33
f 1098//33 1084//33 1083//33
f 1084//34 1097//34 1099//34
f 1084//34 1099//34 1085//34
f 1085//35 1099//35 1100//35
f 1085//35 1100//35 1086//35
f 1086//36 1100//36 1101//36
f 1086//36 1101//36 1090//36
f 1090//37 1101//37 1102//37
f 1090//37 1102//37 1091//37
f 1091//38 1102//38 1103//38
f 1091//38 1103//38 1092//38
f 1092//39 1103//39 1104//39
f 1092//39 1104//39 1093//39
f 1093//40 1104//40 1105//40
f 1093//40 1105//40 1094//40
f 1094//41 1105//41 1106//41
f 1094//41 1106//41 1087//41
f 1087//42 1106//42 1107//42
f 1087//42 1107//42 1088//42
f 1088//4 1107//4 1108//4
f 1088//4 1108//4 1089//4
f 1089//43 1108//43 1109//43
f 1089//43 1109//43 1095//43
f 1095//44 1109//44 1110//44
f 1095//44 1110//44 1096//44
f 1096//45 1110//45 1111//45
f 1096//45 1111//45 1059//45
f 1059//46 1111//46 1112//46
f 1059//46 1112//46 1076//46
f 1076//47 1112//47 1113//47
f 1076//47 1113//47 1077//47
f 1077//48 1113//48 1114//48
f 1077//48 1114//48 1081//48
f 1081//49 1114//49 1115//49
f 1081//49 1115//49 1082//49
f 1082//50 1115//50 1116//50
f 1082//50 1116//50 1080//50
f 1080//51 1116//51 1117//51
f 1080//51 1117//51 1078//51
f 1118//6 1079//6 1117//6
f 1117//6 1079//6 1078//6
f 1079//52 1118//52 1119//52
f 1079//52 1119//52 1075//52
f 1075//53 1119//53 1120//53
f 1075//53 1120//53 1057//53
f 1057//54 1120//54 1121//54
f 1057//54 1121//54 1058//54
f 1058//55 1121//55 1122//55
f 1058//55 1122//55 1065//55
f 1065//56 1122//56 1123//56
f 1065//56 1123//56 1066//56
f 1066//57 1123//57 1124//57
f 1066//57 1124//57 1067//57
f 1067//58 1124//58 1125//58
f 1067//58 1125//58 1068//58
f 1068//59 1125//59 1126//59
f 1068//59 1126//59 1069//59
f 1069//60 1126//60 1127//60
f 1069//60 1127//60 1063//60
f 1063//7 1127//7 1128//7
f 1063//7 1128//7 1064//7
f 1064//61 1128//61 1129//61
f 1064//61 1129//61 1073//61
f 1073//62 1129//62 1130//62
f 1073//62 1130//62 1074//62
f 1074//63 1130//63 1131//63
f 1074//63 1131//63 1062//63
f 1062//64 1131//64 1132//64
f 1062//64 1132//64 1061//64
f 1061//65 1132//65 1133//65
f 1061//65 1133//65 1060//65
f 1060//66 1133//66 1134//66
f 1060//66 1134//66 1070//66
f 1070//67 1134//67 1135//67
f 1070//67 1135//67 1071//67
f 1071//68 1135//68 1136//68
f 1071//68 1136//68 1072//68
f 1072//69 1136//69 1098//69
f 1072//69 1098//69 1083//69
f 1134//10 1133//10 1111//10
f 1133//10 1132//10 1111//10
f 1111//10 1132//10 1131//10
f 1111//10 1131//10 1130//10
f 1127//10 1126//10 1111//10
f 1111//10 1126//10 1125//10
f 1111//10 1125//10 1124//10
f 1124//10 1123//10 1111//10
f 1111//10 1123//10 1122//10
f 1111//10 1122//10 1121//10
f 1121//10 1120//10 1111//10
f 1111//10 1120//10 1119//10
f 1111//10 1119//10 1112//10
f 1097//10 1098//10 1099//10
f 1099//10 1098//10 1136//10
f 1130//10 1129//10 1111//10
f 1111//10 1129//10 1128//10
f 1111//10 1128//10 1127//10
f 1110//10 1136//10 1111//10
f 1111//10 1136//10 1135//10
f 1111//10 1135//10 1134//10
f 1103//10 1102//10 1136//10
f 1118//10 1117//10 1119//10
f 1119//10 1117//10 1116//10
f 1119//10 1116//10 1115//10
f 1103//10 1136//10 1104//10
f 1115//10 1114//10 1119//10
f 1119//10 1114//10 1113//10
f 1119//10 1113//10 1112//10
f 1110//10 1109//10 1136//10
f 1136//10 1109//10 1108//10
f 1136//10 1108//10 1107//10
f 1102//10 1101//10 1136//10
f 1136//10 1101//10 1100//10
f 1136//10 1100//10 1099//10
f 1107//10 1106//10 1136//10
f 1136//10 1106//10 1105//10
f 1136//10 1105//10 1104//10
