####
#
#	OBJ File Generated by LightWave3D
#	LightWave3D OBJ Export v2.2
#
####
#	Object: 1
#
#	                Vertices: 2853
#	                  Points: 0
#	                   Lines: 0
#	                   Faces: 951
#	               Materials: 1
#
####

o 1

#	             Vertex list

v -0.00675 0.00115 0.012
v -0.005701 -0.001941 0.012
v -0.005738 -0.002094 0.012
v 0.00675 -0.01515 0.012
v 0.005457 -0.012457 0.012
v 0.005559 -0.012338 0.012
v -0.00675 0.00115 0.012
v -0.005641 -0.001796 0.012
v -0.005701 -0.001941 0.012
v -0.005559 -0.001662 0.012
v -0.005641 -0.001796 0.012
v -0.00675 0.00115 0.012
v -0.00675 0.00115 0.012
v -0.005338 -0.001441 0.012
v -0.005457 -0.001543 0.012
v -0.005204 -0.001359 0.012
v -0.005338 -0.001441 0.012
v -0.00675 0.00115 0.012
v -0.005059 -0.001299 0.012
v -0.005204 -0.001359 0.012
v -0.00675 0.00115 0.012
v 0.00675 0.00115 0.012
v 0.005204 -0.001359 0.012
v 0.005059 -0.001299 0.012
v 0.005338 -0.001441 0.012
v 0.005204 -0.001359 0.012
v 0.00675 0.00115 0.012
v 0.005701 -0.001941 0.012
v 0.005641 -0.001796 0.012
v 0.00675 0.00115 0.012
v -0.005338 -0.012559 0.012
v -0.005204 -0.012641 0.012
v -0.00675 -0.01515 0.012
v 0.00675 0.00115 0.012
v 0.005457 -0.001543 0.012
v 0.005338 -0.001441 0.012
v 0.005559 -0.001662 0.012
v 0.005457 -0.001543 0.012
v 0.00675 0.00115 0.012
v 0.005641 -0.001796 0.012
v 0.005559 -0.001662 0.012
v 0.00675 0.00115 0.012
v 0.005204 -0.012641 0.012
v 0.005338 -0.012559 0.012
v 0.00675 -0.01515 0.012
v 0.005059 -0.012701 0.012
v 0.005204 -0.012641 0.012
v 0.00675 -0.01515 0.012
v -0.00675 0.00115 0.012
v -0.00575 -0.01175 0.012
v -0.00675 -0.01515 0.012
v -0.00575 -0.00225 0.012
v -0.00575 -0.01175 0.012
v -0.00675 0.00115 0.012
v -0.00675 -0.01515 0.012
v -0.005457 -0.012457 0.012
v -0.005338 -0.012559 0.012
v -0.005559 -0.012338 0.012
v -0.005457 -0.012457 0.012
v -0.00675 -0.01515 0.012
v -0.005641 -0.012204 0.012
v -0.005559 -0.012338 0.012
v -0.00675 -0.01515 0.012
v -0.00675 -0.01515 0.012
v -0.005701 -0.012059 0.012
v -0.005641 -0.012204 0.012
v -0.00675 0.00115 0.012
v -0.004906 -0.001262 0.012
v -0.005059 -0.001299 0.012
v -0.00475 -0.00125 0.012
v -0.004906 -0.001262 0.012
v -0.00675 0.00115 0.012
v 0.004 0.00115 0.012
v -0.00475 -0.00125 0.012
v -0.00675 0.00115 0.012
v 0.00475 -0.00125 0.012
v -0.00475 -0.00125 0.012
v 0.004 0.00115 0.012
v 0.00675 0.00115 0.012
v 0.00475 -0.00125 0.012
v 0.004 0.00115 0.012
v 0.004906 -0.001262 0.012
v 0.00475 -0.00125 0.012
v 0.00675 0.00115 0.012
v 0.005059 -0.001299 0.012
v 0.004906 -0.001262 0.012
v 0.00675 0.00115 0.012
v 0.005641 -0.012204 0.012
v 0.005701 -0.012059 0.012
v 0.00675 -0.01515 0.012
v 0.005559 -0.012338 0.012
v 0.005641 -0.012204 0.012
v 0.00675 -0.01515 0.012
v 0.00675 -0.01515 0.012
v 0.004906 -0.012738 0.012
v 0.005059 -0.012701 0.012
v -0.00675 -0.01515 0.012
v 0.00475 -0.01275 0.012
v 0.00675 -0.01515 0.012
v -0.00475 -0.01275 0.012
v 0.00475 -0.01275 0.012
v -0.00675 -0.01515 0.012
v -0.004906 -0.012738 0.012
v -0.00475 -0.01275 0.012
v -0.00675 -0.01515 0.012
v 0.00675 -0.01515 0.012
v 0.00575 -0.00225 0.012
v 0.00675 0.00115 0.012
v 0.00575 -0.01175 0.012
v 0.00575 -0.00225 0.012
v 0.00675 -0.01515 0.012
v 0.00875 0.00035 0.00445
v 0.00875 0.000694 0.0054
v 0.00875 0.00035 0.0054
v 0.00875 0.000694 0.00445
v 0.00875 0.000694 0.0054
v 0.00875 0.00035 0.00445
v 0.00875 0.00115 0.00525
v 0.00875 0.00115 0.0076
v 0.00875 0.000694 0.0059
v 0.00875 -0.00065 0.0089
v 0.00875 0.00035 0.0054
v 0.00875 0.00035 0.0059
v 0.00875 0.00035 0.00445
v 0.00875 0.00035 0.0054
v 0.00875 -0.00065 0.0089
v 0.00875 -0.00065 0.0039
v 0.00875 0.00035 0.00445
v 0.00875 -0.00065 0.0089
v 0.00875 0.000694 0.0054
v 0.00875 0.000694 0.00445
v 0.00875 0.00115 0.00525
v 0.00875 0.000694 0.0059
v 0.00875 0.000694 0.0054
v 0.00875 0.00115 0.00525
v 0.00875 0.00035 0.0088
v 0.00875 -0.00065 0.0089
v 0.00875 0.00035 0.0083
v 0.00875 0.00115 0.0089
v 0.00875 -0.00065 0.0089
v 0.00875 0.00035 0.0088
v 0.00875 0.000694 0.0083
v 0.00875 0.00115 0.0089
v 0.00875 0.000694 0.0088
v 0.00875 0.00035 0.00685
v 0.00875 0.00035 0.0059
v 0.00875 0.000694 0.0059
v 0.00875 -0.00065 0.0089
v 0.00875 0.00035 0.0059
v 0.00875 0.00035 0.00685
v 0.00875 0.00035 0.00735
v 0.00875 -0.00065 0.0089
v 0.00875 0.00035 0.00685
v 0.00875 0.00035 0.0083
v 0.00875 -0.00065 0.0089
v 0.00875 0.00035 0.00735
v 0.00875 0.000694 0.00735
v 0.00875 0.00035 0.0083
v 0.00875 0.00035 0.00735
v 0.00875 0.000694 0.0059
v 0.00875 0.00115 0.0076
v 0.00875 0.000694 0.00685
v 0.00875 0.00035 0.00685
v 0.00875 0.000694 0.0059
v 0.00875 0.000694 0.00685
v 0.01175 0.000694 0.0054
v 0.01175 0.000694 0.00445
v 0.01175 0.00035 0.00445
v 0.01175 0.00035 0.00445
v 0.01175 0.00035 0.0054
v 0.01175 0.000694 0.0054
v 0.01175 -0.00065 0.0039
v 0.01175 0.00035 0.0054
v 0.01175 0.00035 0.00445
v 0.01175 0.000694 0.0059
v 0.01175 0.00035 0.0059
v 0.01175 0.000694 0.00685
v 0.01175 0.00115 0.00525
v 0.01175 0.000694 0.0059
v 0.01175 0.000694 0.00685
v 0.01175 0.000694 0.0054
v 0.01175 0.000694 0.0059
v 0.01175 0.00115 0.00525
v 0.01175 0.000694 0.00445
v 0.01175 0.000694 0.0054
v 0.01175 0.00115 0.004575
v 0.01175 0.00035 0.00685
v 0.01175 0.00035 0.0059
v 0.01175 -0.00065 0.0039
v 0.01175 -0.00065 0.0089
v 0.01175 0.00035 0.00685
v 0.01175 -0.00065 0.0039
v 0.01175 0.00035 0.00735
v 0.01175 0.00035 0.00685
v 0.01175 -0.00065 0.0089
v 0.01175 0.00035 0.0083
v 0.01175 0.00035 0.00735
v 0.01175 -0.00065 0.0089
v 0.01175 0.000694 0.0083
v 0.01175 0.000694 0.00735
v 0.01175 0.00035 0.0083
v 0.01175 0.00115 0.0076
v 0.01175 0.000694 0.00735
v 0.01175 0.000694 0.0083
v 0.01175 0.000694 0.0088
v 0.01175 0.00115 0.0076
v 0.01175 0.000694 0.0083
v 0.01175 -0.00065 0.0089
v 0.01175 0.00115 0.0089
v 0.01175 0.00035 0.0088
v -0.0175 -0.00035 0.0035
v -0.0175 0.00085 0.0035
v -0.0177 0.00055 0.0035
v -0.018675 -0.00035 0.0035
v -0.018675 0.00085 0.0035
v -0.01915 0.00055 0.0035
v -0.020125 -0.00035 0.0035
v -0.020125 0.00085 0.0035
v -0.0206 0.00055 0.0035
v -0.021575 -0.00035 0.0035
v -0.021575 0.00085 0.0035
v -0.02205 0.00055 0.0035
v -0.023025 -0.00035 0.0035
v -0.023025 0.00085 0.0035
v -0.0235 0.00055 0.0035
v -0.024475 -0.00035 0.0035
v -0.024475 0.00085 0.0035
v -0.02495 0.00055 0.0035
v -0.0269 0.00015 0.0035
v -0.0269 0.00055 0.0035
v -0.02695 0.00085 0.0035
v -0.0264 0.00055 0.0035
v -0.02695 0.00085 0.0035
v -0.0269 0.00055 0.0035
v -0.0264 0.00015 0.0035
v -0.025925 0.00085 0.0035
v -0.0264 0.00055 0.0035
v -0.025925 -0.00035 0.0035
v -0.025925 0.00085 0.0035
v -0.0264 0.00015 0.0035
v -0.02695 0.00085 0.0035
v -0.02695 -0.00035 0.0035
v -0.0269 0.00015 0.0035
v -0.027 -0.00035 0.0035
v -0.02695 -0.00035 0.0035
v -0.02695 0.00085 0.0035
v -0.027 0.00085 0.0035
v -0.027 -0.00035 0.0035
v -0.02695 0.00085 0.0035
v -0.02545 0.00055 0.0035
v -0.02495 0.00055 0.0035
v -0.025925 0.00085 0.0035
v -0.025925 -0.00035 0.0035
v -0.02545 0.00055 0.0035
v -0.025925 0.00085 0.0035
v -0.02545 0.00015 0.0035
v -0.02545 0.00055 0.0035
v -0.025925 -0.00035 0.0035
v -0.02495 0.00055 0.0035
v -0.02495 0.00015 0.0035
v -0.024475 -0.00035 0.0035
v -0.024 0.00055 0.0035
v -0.0235 0.00055 0.0035
v -0.024475 0.00085 0.0035
v -0.024475 -0.00035 0.0035
v -0.024 0.00055 0.0035
v -0.024475 0.00085 0.0035
v -0.024 0.00015 0.0035
v -0.024 0.00055 0.0035
v -0.024475 -0.00035 0.0035
v -0.0235 0.00055 0.0035
v -0.0235 0.00015 0.0035
v -0.023025 -0.00035 0.0035
v -0.02255 0.00055 0.0035
v -0.02205 0.00055 0.0035
v -0.023025 0.00085 0.0035
v -0.023025 -0.00035 0.0035
v -0.02255 0.00055 0.0035
v -0.023025 0.00085 0.0035
v -0.02255 0.00015 0.0035
v -0.02255 0.00055 0.0035
v -0.023025 -0.00035 0.0035
v -0.02205 0.00055 0.0035
v -0.02205 0.00015 0.0035
v -0.021575 -0.00035 0.0035
v -0.0211 0.00055 0.0035
v -0.0206 0.00055 0.0035
v -0.021575 0.00085 0.0035
v -0.021575 -0.00035 0.0035
v -0.0211 0.00055 0.0035
v -0.021575 0.00085 0.0035
v -0.0211 0.00015 0.0035
v -0.0211 0.00055 0.0035
v -0.021575 -0.00035 0.0035
v -0.0206 0.00055 0.0035
v -0.0206 0.00015 0.0035
v -0.020125 -0.00035 0.0035
v -0.01965 0.00055 0.0035
v -0.01915 0.00055 0.0035
v -0.020125 0.00085 0.0035
v -0.020125 -0.00035 0.0035
v -0.01965 0.00055 0.0035
v -0.020125 0.00085 0.0035
v -0.01965 0.00015 0.0035
v -0.01965 0.00055 0.0035
v -0.020125 -0.00035 0.0035
v -0.01915 0.00055 0.0035
v -0.01915 0.00015 0.0035
v -0.018675 -0.00035 0.0035
v -0.0182 0.00055 0.0035
v -0.0177 0.00055 0.0035
v -0.018675 0.00085 0.0035
v -0.018675 -0.00035 0.0035
v -0.0182 0.00055 0.0035
v -0.018675 0.00085 0.0035
v -0.0182 0.00015 0.0035
v -0.0182 0.00055 0.0035
v -0.018675 -0.00035 0.0035
v -0.0177 0.00055 0.0035
v -0.0177 0.00015 0.0035
v -0.0175 -0.00035 0.0035
v 0.025 0.0005 0.0006
v 0.025 0.000825 5e-005
v 0.025 0.0005 0.0002
v 0.025 0.000825 0.00115
v 0.025 0.000825 5e-005
v 0.025 0.0005 0.0006
v 0.025 0.0003 0.0006
v 0.025 0.000825 0.00115
v 0.025 0.0005 0.0006
v 0.025 -0.0002 0.00115
v 0.025 0.000825 0.00115
v 0.025 0.0003 0.0006
v 0.025 -0.0002 5e-005
v 0.025 -0.0002 0.00115
v 0.025 0.0003 0.0002
v 0.025 0.000825 5e-005
v 0.025 -0.0002 5e-005
v 0.025 0.0003 0.0002
v 0.025 -0.0002 -0.0001
v 0.025 -0.0002 5e-005
v 0.025 0.000825 5e-005
v 0.025 0.000825 -0.0001
v 0.025 -0.0002 -0.0001
v 0.025 0.000825 5e-005
v 0.025 0.0005 0.0017
v 0.025 -0.0002 0.00115
v 0.025 0.0003 0.0017
v 0.025 0.000825 0.00115
v 0.025 -0.0002 0.00115
v 0.025 0.0005 0.0017
v 0.025 0.0005 0.0021
v 0.025 0.000825 0.00115
v 0.025 0.0005 0.0017
v 0.025 0.000825 0.00265
v 0.025 0.000825 0.00115
v 0.025 0.0005 0.0021
v 0.025 -0.0002 0.00265
v 0.025 0.000825 0.00265
v 0.025 0.0003 0.0021
v 0.025 -0.0002 0.00115
v 0.025 -0.0002 0.00265
v 0.025 0.0003 0.0017
v 0.025 0.000825 0.00115
v 0.025 0.00115 0.00115
v 0.025 0.000825 5e-005
v 0.025 0.00115 0.0026
v 0.025 0.00115 0.00115
v 0.025 0.000825 0.00115
v 0.025 0.000825 0.00265
v 0.025 0.00115 0.0026
v 0.025 0.000825 0.00115
v 0.025 0.000825 0.00265
v 0.025 -0.0002 0.00265
v 0.025 0.0005 0.0032
v 0.025 0.0005 0.0036
v 0.025 0.000825 0.00265
v 0.025 0.0005 0.0032
v 0.025 0.000825 0.00415
v 0.025 0.000825 0.00265
v 0.025 0.0005 0.0036
v 0.025 0.0003 0.0036
v 0.025 0.000825 0.00415
v 0.025 0.0005 0.0036
v 0.025 0.0003 0.0032
v 0.025 -0.0002 0.00415
v 0.025 0.0003 0.0036
v 0.025 -0.0002 0.00265
v 0.025 -0.0002 0.00415
v 0.025 0.0003 0.0032
v 0.025 0.0005 0.0047
v 0.025 -0.0002 0.00415
v 0.025 0.0003 0.0047
v 0.025 0.000825 0.00415
v 0.025 -0.0002 0.00415
v 0.025 0.0005 0.0047
v 0.025 0.000825 0.00565
v 0.025 0.000825 0.00415
v 0.025 0.0005 0.0051
v 0.025 -0.0002 0.00415
v 0.025 -0.0002 0.00565
v 0.025 0.0003 0.0047
v 0.025 0.000825 0.00565
v 0.025 0.00115 0.004575
v 0.025 0.000825 0.00415
v 0.025 0.0005 0.0062
v 0.025 -0.0002 0.00565
v 0.025 0.0003 0.0062
v 0.025 0.000825 0.00565
v 0.025 -0.0002 0.00565
v 0.025 0.0005 0.0062
v 0.025 0.0005 0.0066
v 0.025 0.000825 0.00565
v 0.025 0.0005 0.0062
v 0.025 0.000825 0.00715
v 0.025 0.000825 0.00565
v 0.025 0.0005 0.0066
v 0.025 -0.0002 0.00715
v 0.025 0.000825 0.00715
v 0.025 0.0003 0.0066
v 0.025 -0.0002 0.00565
v 0.025 -0.0002 0.00715
v 0.025 0.0003 0.0062
v 0.025 0.000825 0.00715
v 0.025 -0.0002 0.00715
v 0.025 0.0005 0.0077
v 0.025 0.0005 0.0081
v 0.025 0.000825 0.00715
v 0.025 0.0005 0.0077
v 0.025 0.000825 0.00865
v 0.025 0.000825 0.00715
v 0.025 0.0005 0.0081
v 0.025 -0.0002 0.00865
v 0.025 0.000825 0.00865
v 0.025 0.0003 0.0081
v 0.025 0.000825 0.00565
v 0.025 0.000825 0.00715
v 0.025 0.00115 0.00715
v 0.025 0.00115 0.00565
v 0.025 0.000825 0.00565
v 0.025 0.00115 0.00715
v 0.025 0.0005 0.0092
v 0.025 -0.0002 0.00865
v 0.025 0.0003 0.0092
v 0.025 0.000825 0.00865
v 0.025 -0.0002 0.00865
v 0.025 0.0005 0.0092
v 0.025 0.0005 0.0096
v 0.025 0.000825 0.00865
v 0.025 0.0005 0.0092
v 0.025 0.000825 0.0099
v 0.025 0.000825 0.00865
v 0.025 0.0005 0.0096
v 0.025 -0.0002 0.0099
v 0.025 0.000825 0.0099
v 0.025 0.0003 0.0096
v 0.025 0.0003 0.0092
v 0.025 -0.0002 0.0099
v 0.025 0.0003 0.0096
v 0.025 -0.0002 0.00865
v 0.025 -0.0002 0.0099
v 0.025 0.0003 0.0092
v 0.025 0.00115 0.0091
v 0.025 0.000825 0.0099
v 0.025 0.00115 0.0099
v 0.025 0.000825 0.00865
v 0.025 0.000825 0.0099
v 0.025 0.00115 0.0091
v 0.02124 5e-005 0.00115
v 0.02124 5e-005 5e-005
v 0.02124 0.0003 0.0006
v 0.02124 0.0005 0.0006
v 0.02124 5e-005 0.00115
v 0.02124 0.0003 0.0006
v 0.02124 0.00115 0.00115
v 0.02124 5e-005 0.00115
v 0.02124 0.0005 0.0006
v 0.02124 0.0005 0.0002
v 0.02124 0.00115 0.00115
v 0.02124 0.0005 0.0006
v 0.02124 5e-005 5e-005
v 0.02124 0.00115 5e-005
v 0.02124 0.0005 0.0002
v 0.02124 0.00115 -0.0001
v 0.02124 0.00115 5e-005
v 0.02124 5e-005 5e-005
v 0.02124 5e-005 -0.0001
v 0.02124 0.00115 -0.0001
v 0.02124 5e-005 5e-005
v 0.02124 0.0005 0.0021
v 0.02124 0.00115 0.00265
v 0.02124 5e-005 0.00265
v 0.02124 0.00115 0.0026
v 0.02124 0.00115 0.00265
v 0.02124 0.0005 0.0021
v 0.02124 0.0005 0.0017
v 0.02124 0.00115 0.0026
v 0.02124 0.0005 0.0021
v 0.02124 0.0003 0.0017
v 0.02124 0.00115 0.00115
v 0.02124 0.0005 0.0017
v 0.02124 5e-005 0.00115
v 0.02124 0.00115 0.00115
v 0.02124 0.0003 0.0017
v 0.02124 0.0003 0.0021
v 0.02124 5e-005 0.00115
v 0.02124 0.0003 0.0017
v 0.02124 5e-005 0.00265
v 0.02124 5e-005 0.00115
v 0.02124 0.0003 0.0021
v 0.02124 0.0005 0.0021
v 0.02124 5e-005 0.00265
v 0.02124 0.0003 0.0021
v 0.02124 0.00115 0.00315
v 0.02124 0.00115 0.00375
v 0.02124 0.0005 0.0036
v 0.02124 0.0005 0.0032
v 0.02124 0.00115 0.00315
v 0.02124 0.0005 0.0036
v 0.02124 0.00115 0.00265
v 0.02124 0.00115 0.00315
v 0.02124 0.0005 0.0032
v 0.02124 0.0003 0.0032
v 0.02124 0.00115 0.00265
v 0.02124 0.0005 0.0032
v 0.02124 5e-005 0.00265
v 0.02124 0.00115 0.00265
v 0.02124 0.0003 0.0032
v 0.02124 0.0003 0.0036
v 0.02124 5e-005 0.00265
v 0.02124 0.0003 0.0032
v 0.02124 5e-005 0.00415
v 0.02124 5e-005 0.00265
v 0.02124 0.0003 0.0036
v 0.02124 0.0005 0.0036
v 0.02124 5e-005 0.00415
v 0.02124 0.0003 0.0036
v 0.02124 0.00115 0.00415
v 0.02124 5e-005 0.00415
v 0.02124 0.0005 0.0036
v 0.02124 0.00115 0.004575
v 0.02124 0.00115 0.00525
v 0.02124 0.0005 0.0051
v 0.02124 0.0005 0.0047
v 0.02124 0.00115 0.004575
v 0.02124 0.0005 0.0051
v 0.02124 0.0003 0.0047
v 0.02124 0.00115 0.00415
v 0.02124 0.0005 0.0047
v 0.02124 5e-005 0.00415
v 0.02124 0.00115 0.00415
v 0.02124 0.0003 0.0047
v 0.02124 0.0003 0.0051
v 0.02124 5e-005 0.00415
v 0.02124 0.0003 0.0047
v 0.02124 0.0003 0.0062
v 0.02124 0.00115 0.00565
v 0.02124 0.0005 0.0062
v 0.02124 5e-005 0.00565
v 0.02124 0.00115 0.00565
v 0.02124 0.0003 0.0062
v 0.02124 0.0003 0.0066
v 0.02124 5e-005 0.00565
v 0.02124 0.0003 0.0062
v 0.02124 5e-005 0.00715
v 0.02124 5e-005 0.00565
v 0.02124 0.0003 0.0066
v 0.02124 0.00115 0.00715
v 0.02124 5e-005 0.00715
v 0.02124 0.0005 0.0066
v 0.02124 0.00115 0.00565
v 0.02124 0.00115 0.00715
v 0.02124 0.0005 0.0062
v 0.02124 5e-005 0.00715
v 0.02124 0.00115 0.00715
v 0.02124 0.0003 0.0077
v 0.02124 5e-005 0.00865
v 0.02124 5e-005 0.00715
v 0.02124 0.0003 0.0081
v 0.02124 0.00115 0.00865
v 0.02124 5e-005 0.00865
v 0.02124 0.0005 0.0081
v 0.02124 0.0005 0.0077
v 0.02124 0.00115 0.00865
v 0.02124 0.0005 0.0081
v 0.02124 0.00115 0.0076
v 0.02124 0.00115 0.00865
v 0.02124 0.0005 0.0077
v 0.02124 0.00115 0.0099
v 0.02124 0.0005 0.0092
v 0.02124 0.00115 0.0091
v 0.02124 0.0005 0.0096
v 0.02124 0.0005 0.0092
v 0.02124 0.00115 0.0099
v 0.02124 5e-005 0.0099
v 0.02124 0.0005 0.0096
v 0.02124 0.00115 0.0099
v 0.02124 5e-005 0.00865
v 0.02124 0.0003 0.0096
v 0.02124 5e-005 0.0099
v 0.02124 0.0003 0.0092
v 0.02124 0.0003 0.0096
v 0.02124 5e-005 0.00865
v 0.02124 0.00115 0.00865
v 0.02124 0.0003 0.0092
v 0.02124 5e-005 0.00865
v 0.02124 0.0005 0.0092
v 0.02124 0.0003 0.0092
v 0.02124 0.00115 0.00865
v 0.02124 -0.0002 0.00115
v 0.02124 -0.0002 5e-005
v 0.02124 5e-005 5e-005
v 0.02124 5e-005 0.00115
v 0.02124 -0.0002 0.00115
v 0.02124 5e-005 5e-005
v 0.02124 5e-005 0.00265
v 0.02124 -0.0002 0.00265
v 0.02124 5e-005 0.00115
v 0.02124 -0.0002 0.00715
v 0.02124 -0.0002 0.00565
v 0.02124 5e-005 0.00565
v 0.02124 5e-005 0.00715
v 0.02124 -0.0002 0.00715
v 0.02124 5e-005 0.00565
v 0.02124 -0.0002 0.00865
v 0.02124 -0.0002 0.00715
v 0.02124 5e-005 0.00715
v 0.02124 5e-005 0.00865
v 0.02124 -0.0002 0.00865
v 0.02124 5e-005 0.00715
v 0.02124 -0.0002 0.0099
v 0.02124 -0.0002 0.00865
v 0.02124 5e-005 0.00865
v 0.02124 5e-005 0.0099
v 0.02124 -0.0002 0.0099
v 0.02124 5e-005 0.00865
v -0.00675 -0.01515 0.012
v -0.00675 0.00115 0.0091
v -0.00675 0.00115 0.012
v -0.00675 0.00115 0.00895
v -0.00675 0.00115 0.0091
v -0.00675 -0.01515 0.012
v -0.00675 0.00115 0.0076
v -0.00675 0.00115 0.00895
v -0.00675 -0.01515 0.012
v -0.00675 -0.01515 0.012
v -0.00675 0.00115 0.00525
v -0.00675 0.00115 0.0076
v -0.00675 0.00115 0.004575
v -0.00675 0.00115 0.00525
v -0.00675 -0.01515 0.012
v -0.00675 -0.01515 -0.0038
v -0.00675 0.00115 0.004575
v -0.00675 -0.01515 0.012
v -0.00675 -0.01515 -0.0038
v -0.00675 0.00115 0.00375
v -0.00675 0.00115 0.004575
v -0.00675 0.00115 0.00315
v -0.00675 0.00115 0.00375
v -0.00675 -0.01515 -0.0038
v -0.00675 -0.01515 -0.0038
v -0.00675 0.00115 0.00115
v -0.00675 0.00115 0.0026
v -0.00675 0.00115 -0.00155
v -0.00675 0.00115 0.00115
v -0.00675 -0.01515 -0.0038
v -0.00675 0.00115 -0.0038
v -0.00675 0.00115 -0.00155
v -0.00675 -0.01515 -0.0038
v 0.004 0.00115 -0.0038
v 0.00675 -0.01515 -0.0038
v 0.00675 0.00115 -0.0038
v -0.00675 -0.01515 -0.0038
v 0.00675 -0.01515 -0.0038
v 0.004 0.00115 -0.0038
v -0.00675 0.00115 -0.0038
v -0.00675 -0.01515 -0.0038
v 0.004 0.00115 -0.0038
v 0.00675 -0.01515 -0.0038
v 0.00675 0.00115 -0.00155
v 0.00675 0.00115 -0.0038
v 0.00675 0.00115 0.00115
v 0.00675 0.00115 -0.00155
v 0.00675 -0.01515 -0.0038
v 0.00675 0.00115 0.0026
v 0.00675 0.00115 0.00115
v 0.00675 -0.01515 -0.0038
v 0.00675 0.00115 0.00375
v 0.00675 0.00115 0.00315
v 0.00675 -0.01515 -0.0038
v 0.00675 -0.01515 0.012
v 0.00675 0.00115 0.00375
v 0.00675 -0.01515 -0.0038
v 0.00675 0.00115 0.00525
v 0.00675 0.00115 0.004575
v 0.00675 -0.01515 0.012
v 0.00675 0.00115 0.0076
v 0.00675 0.00115 0.00525
v 0.00675 -0.01515 0.012
v 0.00675 -0.01515 0.012
v 0.00675 0.00115 0.00895
v 0.00675 0.00115 0.0076
v 0.00675 0.00115 0.0091
v 0.00675 0.00115 0.00895
v 0.00675 -0.01515 0.012
v 0.00675 0.00115 0.012
v 0.00675 0.00115 0.0091
v 0.00675 -0.01515 0.012
v 0.001698 -0.01515 0.010234
v 0.001698 -0.00315 0.008717
v 0.001698 -0.00315 0.010234
v 0.001698 -0.01515 0.008717
v 0.001698 -0.00315 0.008717
v 0.001698 -0.01515 0.010234
v 0.001698 -0.01515 0.008717
v 0.003269 -0.00315 0.008717
v 0.001698 -0.00315 0.008717
v 0.003269 -0.01515 0.008717
v 0.003269 -0.00315 0.008717
v 0.001698 -0.01515 0.008717
v 0.003269 -0.01515 0.008717
v 0.003269 -0.00315 0.007633
v 0.003269 -0.00315 0.008717
v 0.003269 -0.01515 0.007633
v 0.003269 -0.00315 0.007633
v 0.003269 -0.01515 0.008717
v 0.003269 -0.01515 0.007633
v 0.004895 -0.00315 0.007633
v 0.003269 -0.00315 0.007633
v 0.004895 -0.01515 0.007633
v 0.004895 -0.00315 0.007633
v 0.003269 -0.01515 0.007633
v 0.004895 -0.01515 0.007633
v 0.004895 -0.00315 0.006116
v 0.004895 -0.00315 0.007633
v 0.004895 -0.01515 0.006116
v 0.005925 -0.00315 0.006116
v 0.004895 -0.00315 0.006116
v 0.005925 -0.01515 0.006116
v 0.005925 -0.00315 0.006116
v 0.004895 -0.01515 0.006116
v 0.005925 -0.01515 0.006116
v 0.005925 -0.00315 0.00113
v 0.005925 -0.00315 0.006116
v 0.005925 -0.01515 0.00113
v 0.005925 -0.00315 0.00113
v 0.005925 -0.01515 0.006116
v 0.005925 -0.01515 0.00113
v 0.004895 -0.00315 0.00113
v 0.005925 -0.00315 0.00113
v 0.004895 -0.01515 0.00113
v 0.004895 -0.00315 0.00113
v 0.005925 -0.01515 0.00113
v 0.004895 -0.01515 0.00113
v 0.004895 -0.00315 -0.000821
v 0.004895 -0.00315 0.00113
v 0.004895 -0.01515 -0.000821
v 0.004895 -0.00315 -0.000821
v 0.004895 -0.01515 0.00113
v 0.004895 -0.01515 -0.000821
v 0.002619 -0.00315 -0.000821
v 0.004895 -0.00315 -0.000821
v 0.002619 -0.01515 -0.000821
v 0.002619 -0.00315 -0.000821
v 0.004895 -0.01515 -0.000821
v 0.002619 -0.01515 -0.001634
v 0.002619 -0.00315 -0.001634
v 0.002619 -0.01515 -0.000821
v 0.002619 -0.01515 -0.001634
v -0.002619 -0.00315 -0.001634
v 0.002619 -0.00315 -0.001634
v -0.002619 -0.01515 -0.001634
v -0.002619 -0.00315 -0.001634
v 0.002619 -0.01515 -0.001634
v -0.002619 -0.01515 -0.001634
v -0.002619 -0.00315 -0.000821
v -0.002619 -0.00315 -0.001634
v -0.002619 -0.01515 -0.000821
v -0.004895 -0.00315 -0.000821
v -0.002619 -0.00315 -0.000821
v -0.004895 -0.01515 -0.000821
v -0.004895 -0.00315 -0.000821
v -0.002619 -0.01515 -0.000821
v -0.004895 -0.01515 -0.000821
v -0.004895 -0.00315 0.00113
v -0.004895 -0.00315 -0.000821
v -0.004895 -0.01515 0.00113
v -0.004895 -0.00315 0.00113
v -0.004895 -0.01515 -0.000821
v -0.004895 -0.01515 0.00113
v -0.005925 -0.00315 0.00113
v -0.004895 -0.00315 0.00113
v -0.005925 -0.01515 0.00113
v -0.005925 -0.00315 0.006116
v -0.005925 -0.00315 0.00113
v -0.005925 -0.01515 0.006116
v -0.005925 -0.00315 0.006116
v -0.005925 -0.01515 0.00113
v -0.005925 -0.01515 0.006116
v -0.004895 -0.00315 0.006116
v -0.005925 -0.00315 0.006116
v -0.004895 -0.01515 0.006116
v -0.004895 -0.00315 0.006116
v -0.005925 -0.01515 0.006116
v -0.004895 -0.01515 0.006116
v -0.004895 -0.00315 0.007633
v -0.004895 -0.00315 0.006116
v -0.004895 -0.01515 0.007633
v -0.004895 -0.00315 0.007633
v -0.004895 -0.01515 0.006116
v -0.004895 -0.01515 0.007633
v -0.003269 -0.00315 0.007633
v -0.004895 -0.00315 0.007633
v -0.003269 -0.01515 0.007633
v -0.003269 -0.00315 0.007633
v -0.004895 -0.01515 0.007633
v -0.003269 -0.01515 0.007633
v -0.003269 -0.00315 0.008717
v -0.003269 -0.00315 0.007633
v -0.003269 -0.01515 0.008717
v -0.003269 -0.00315 0.008717
v -0.003269 -0.01515 0.007633
v -0.003269 -0.01515 0.008717
v -0.001698 -0.00315 0.008717
v -0.003269 -0.00315 0.008717
v -0.001698 -0.01515 0.008717
v -0.001698 -0.00315 0.008717
v -0.003269 -0.01515 0.008717
v -0.001698 -0.01515 0.008717
v -0.001698 -0.00315 0.010234
v -0.001698 -0.00315 0.008717
v -0.001698 -0.01515 0.010234
v -0.001698 -0.00315 0.010234
v -0.001698 -0.01515 0.008717
v -0.001698 -0.01515 0.010234
v 0.001698 -0.00315 0.010234
v -0.001698 -0.00315 0.010234
v 0.001698 -0.01515 0.010234
v 0.001698 -0.00315 0.010234
v -0.001698 -0.01515 0.010234
v 0.02124 5e-005 -0.0001
v 0.025 0.000825 -0.0001
v 0.02124 0.00115 -0.0001
v 0.025 -0.0002 -0.0001
v 0.025 0.000825 -0.0001
v 0.02124 5e-005 -0.0001
v 0.02124 5e-005 0.0099
v 0.02124 0.00115 0.0099
v 0.025 0.000825 0.0099
v 0.025 -0.0002 0.0099
v 0.02124 5e-005 0.0099
v 0.025 0.000825 0.0099
v 0.02114 0.0005 0.0002
v 0.02124 0.0005 0.0006
v 0.02114 0.0005 0.0006
v 0.02054 0.00115 0.0002
v 0.02114 0.0005 0.0006
v 0.02054 0.00115 0.0006
v 0.02114 0.0005 0.0002
v 0.02114 0.0005 0.0006
v 0.02054 0.00115 0.0002
v 0.02098 0.000364 0.0006
v 0.02098 0.000364 0.0002
v 0.020499 0.000886 0.0006
v 0.02114 0.0005 0.0006
v 0.02124 0.0005 0.0006
v 0.021127 0.0003 0.0006
v 0.02114 0.0005 0.0006
v 0.020499 0.000886 0.0006
v 0.02054 0.00115 0.0006
v 0.02098 0.000364 0.0006
v 0.020499 0.000886 0.0006
v 0.02114 0.0005 0.0006
v 0.02054 0.00115 0.0017
v 0.02114 0.0005 0.0021
v 0.02054 0.00115 0.0021
v 0.02114 0.0005 0.0017
v 0.02114 0.0005 0.0021
v 0.02054 0.00115 0.0017
v 0.02098 0.000364 0.0021
v 0.02098 0.000364 0.0017
v 0.020499 0.000886 0.0021
v 0.02114 0.0005 0.0021
v 0.020499 0.000886 0.0021
v 0.02054 0.00115 0.0021
v 0.02098 0.000364 0.0021
v 0.020499 0.000886 0.0021
v 0.02114 0.0005 0.0021
v 0.02114 0.0005 0.0032
v 0.02124 0.0005 0.0036
v 0.02114 0.0005 0.0036
v 0.02124 0.0005 0.0032
v 0.02124 0.0005 0.0036
v 0.02114 0.0005 0.0032
v 0.02054 0.00115 0.0032
v 0.02114 0.0005 0.0036
v 0.02054 0.00115 0.0036
v 0.02114 0.0005 0.0032
v 0.02114 0.0005 0.0036
v 0.02054 0.00115 0.0032
v 0.020499 0.000886 0.0036
v 0.02098 0.000364 0.0032
v 0.020499 0.000886 0.0032
v 0.02098 0.000364 0.0036
v 0.02098 0.000364 0.0032
v 0.020499 0.000886 0.0036
v 0.021127 0.0003 0.0036
v 0.02124 0.0003 0.0032
v 0.021127 0.0003 0.0032
v 0.02124 0.0003 0.0036
v 0.02124 0.0003 0.0032
v 0.021127 0.0003 0.0036
v 0.021127 0.0003 0.0036
v 0.02124 0.0005 0.0036
v 0.02124 0.0003 0.0036
v 0.02114 0.0005 0.0036
v 0.02124 0.0005 0.0036
v 0.021127 0.0003 0.0036
v 0.021094 0.000303 0.0036
v 0.02114 0.0005 0.0036
v 0.021127 0.0003 0.0036
v 0.02114 0.0005 0.0036
v 0.021032 0.000324 0.0036
v 0.021005 0.000342 0.0036
v 0.021062 0.000311 0.0036
v 0.021032 0.000324 0.0036
v 0.02114 0.0005 0.0036
v 0.021094 0.000303 0.0036
v 0.021062 0.000311 0.0036
v 0.02114 0.0005 0.0036
v 0.02098 0.000364 0.0036
v 0.020499 0.000886 0.0036
v 0.02114 0.0005 0.0036
v 0.021005 0.000342 0.0036
v 0.02098 0.000364 0.0036
v 0.02114 0.0005 0.0036
v 0.02114 0.0005 0.0032
v 0.02124 0.0003 0.0032
v 0.02124 0.0005 0.0032
v 0.02054 0.00115 0.0032
v 0.02098 0.000364 0.0032
v 0.02114 0.0005 0.0032
v 0.020499 0.000886 0.0032
v 0.02098 0.000364 0.0032
v 0.02054 0.00115 0.0032
v 0.02054 0.00115 0.0047
v 0.02114 0.0005 0.0051
v 0.02054 0.00115 0.0051
v 0.02114 0.0005 0.0047
v 0.02114 0.0005 0.0051
v 0.02054 0.00115 0.0047
v 0.020499 0.000886 0.0051
v 0.02098 0.000364 0.0047
v 0.020499 0.000886 0.0047
v 0.02098 0.000364 0.0051
v 0.02098 0.000364 0.0047
v 0.020499 0.000886 0.0051
v 0.021127 0.0003 0.0051
v 0.02124 0.0003 0.0047
v 0.021127 0.0003 0.0047
v 0.02114 0.0005 0.0047
v 0.02124 0.0003 0.0047
v 0.02124 0.0005 0.0047
v 0.021127 0.0003 0.0047
v 0.02124 0.0003 0.0047
v 0.02114 0.0005 0.0047
v 0.02114 0.0005 0.0047
v 0.021094 0.000303 0.0047
v 0.021127 0.0003 0.0047
v 0.021062 0.000311 0.0047
v 0.021094 0.000303 0.0047
v 0.02114 0.0005 0.0047
v 0.021032 0.000324 0.0047
v 0.021062 0.000311 0.0047
v 0.02114 0.0005 0.0047
v 0.02114 0.0005 0.0047
v 0.021005 0.000342 0.0047
v 0.021032 0.000324 0.0047
v 0.02098 0.000364 0.0047
v 0.021005 0.000342 0.0047
v 0.02114 0.0005 0.0047
v 0.02054 0.00115 0.0062
v 0.02114 0.0005 0.0066
v 0.02054 0.00115 0.0066
v 0.02014 0.00095 0.0062
v 0.02014 0.00115 0.0066
v 0.02014 0.00095 0.0066
v 0.020352 0.00095 0.0062
v 0.02014 0.00095 0.0066
v 0.020352 0.00095 0.0066
v 0.02014 0.00095 0.0062
v 0.02014 0.00095 0.0066
v 0.020352 0.00095 0.0062
v 0.020499 0.000886 0.0066
v 0.02098 0.000364 0.0062
v 0.020499 0.000886 0.0062
v 0.02054 0.00115 0.0066
v 0.02014 0.00095 0.0066
v 0.02014 0.00115 0.0066
v 0.020352 0.00095 0.0066
v 0.02014 0.00095 0.0066
v 0.02054 0.00115 0.0066
v 0.02054 0.00115 0.0066
v 0.020385 0.000947 0.0066
v 0.020352 0.00095 0.0066
v 0.020417 0.000939 0.0066
v 0.020385 0.000947 0.0066
v 0.02054 0.00115 0.0066
v 0.020447 0.000926 0.0066
v 0.020417 0.000939 0.0066
v 0.02054 0.00115 0.0066
v 0.02054 0.00115 0.0066
v 0.020475 0.000908 0.0066
v 0.020447 0.000926 0.0066
v 0.020499 0.000886 0.0066
v 0.020475 0.000908 0.0066
v 0.02054 0.00115 0.0066
v 0.02114 0.0005 0.0066
v 0.020499 0.000886 0.0066
v 0.02054 0.00115 0.0066
v 0.02114 0.0005 0.0077
v 0.02114 0.0005 0.0081
v 0.02054 0.00115 0.0077
v 0.020499 0.000886 0.0081
v 0.02098 0.000364 0.0077
v 0.020499 0.000886 0.0077
v 0.02098 0.000364 0.0081
v 0.02098 0.000364 0.0077
v 0.020499 0.000886 0.0081
v 0.02054 0.00115 0.0077
v 0.02098 0.000364 0.0077
v 0.02114 0.0005 0.0077
v 0.020499 0.000886 0.0077
v 0.02098 0.000364 0.0077
v 0.02054 0.00115 0.0077
v 0.02054 0.00115 0.0092
v 0.02114 0.0005 0.0096
v 0.02054 0.00115 0.0096
v 0.02014 0.00095 0.0092
v 0.02014 0.00115 0.0096
v 0.02014 0.00095 0.0096
v 0.020352 0.00095 0.0092
v 0.02014 0.00095 0.0096
v 0.020352 0.00095 0.0096
v 0.02054 0.00115 0.0096
v 0.02014 0.00095 0.0096
v 0.02014 0.00115 0.0096
v 0.020352 0.00095 0.0096
v 0.02014 0.00095 0.0096
v 0.02054 0.00115 0.0096
v 0.02054 0.00115 0.0096
v 0.020385 0.000947 0.0096
v 0.020352 0.00095 0.0096
v 0.020417 0.000939 0.0096
v 0.020385 0.000947 0.0096
v 0.02054 0.00115 0.0096
v 0.020447 0.000926 0.0096
v 0.020417 0.000939 0.0096
v 0.02054 0.00115 0.0096
v 0.02054 0.00115 0.0096
v 0.020475 0.000908 0.0096
v 0.020447 0.000926 0.0096
v 0.020499 0.000886 0.0096
v 0.020475 0.000908 0.0096
v 0.02054 0.00115 0.0096
v 0.02114 0.0005 0.0096
v 0.020499 0.000886 0.0096
v 0.02054 0.00115 0.0096
v 0.021005 0.000342 0.0032
v 0.02098 0.000364 0.0032
v 0.02098 0.000364 0.0036
v 0.021005 0.000342 0.0036
v 0.021005 0.000342 0.0032
v 0.02098 0.000364 0.0036
v 0.021032 0.000324 0.0032
v 0.021005 0.000342 0.0032
v 0.021005 0.000342 0.0036
v 0.021032 0.000324 0.0036
v 0.021032 0.000324 0.0032
v 0.021005 0.000342 0.0036
v 0.021062 0.000311 0.0032
v 0.021032 0.000324 0.0032
v 0.021032 0.000324 0.0036
v 0.021062 0.000311 0.0036
v 0.021062 0.000311 0.0032
v 0.021032 0.000324 0.0036
v 0.021094 0.000303 0.0032
v 0.021062 0.000311 0.0032
v 0.021062 0.000311 0.0036
v 0.021094 0.000303 0.0036
v 0.021094 0.000303 0.0032
v 0.021062 0.000311 0.0036
v 0.021127 0.0003 0.0032
v 0.021094 0.000303 0.0032
v 0.021094 0.000303 0.0036
v 0.021127 0.0003 0.0036
v 0.021127 0.0003 0.0032
v 0.021094 0.000303 0.0036
v 0.020475 0.000908 0.0051
v 0.020499 0.000886 0.0051
v 0.020499 0.000886 0.0047
v 0.020475 0.000908 0.0047
v 0.020475 0.000908 0.0051
v 0.020499 0.000886 0.0047
v 0.020447 0.000926 0.0051
v 0.020475 0.000908 0.0051
v 0.020475 0.000908 0.0047
v 0.020447 0.000926 0.0047
v 0.020447 0.000926 0.0051
v 0.020475 0.000908 0.0047
v 0.020417 0.000939 0.0051
v 0.020447 0.000926 0.0051
v 0.020447 0.000926 0.0047
v 0.021005 0.000342 0.0047
v 0.02098 0.000364 0.0047
v 0.02098 0.000364 0.0051
v 0.021005 0.000342 0.0051
v 0.021005 0.000342 0.0047
v 0.02098 0.000364 0.0051
v 0.021032 0.000324 0.0047
v 0.021005 0.000342 0.0047
v 0.021005 0.000342 0.0051
v 0.021062 0.000311 0.0047
v 0.021032 0.000324 0.0047
v 0.021032 0.000324 0.0051
v 0.021094 0.000303 0.0047
v 0.021062 0.000311 0.0047
v 0.021062 0.000311 0.0051
v 0.021127 0.0003 0.0047
v 0.021094 0.000303 0.0047
v 0.021094 0.000303 0.0051
v 0.020475 0.000908 0.0066
v 0.020499 0.000886 0.0066
v 0.020499 0.000886 0.0062
v 0.020475 0.000908 0.0062
v 0.020475 0.000908 0.0066
v 0.020499 0.000886 0.0062
v 0.020447 0.000926 0.0066
v 0.020475 0.000908 0.0066
v 0.020475 0.000908 0.0062
v 0.020447 0.000926 0.0062
v 0.020447 0.000926 0.0066
v 0.020475 0.000908 0.0062
v 0.020417 0.000939 0.0066
v 0.020447 0.000926 0.0066
v 0.020447 0.000926 0.0062
v 0.020417 0.000939 0.0062
v 0.020417 0.000939 0.0066
v 0.020447 0.000926 0.0062
v 0.020385 0.000947 0.0066
v 0.020417 0.000939 0.0066
v 0.020417 0.000939 0.0062
v 0.020385 0.000947 0.0062
v 0.020385 0.000947 0.0066
v 0.020417 0.000939 0.0062
v 0.020352 0.00095 0.0066
v 0.020385 0.000947 0.0066
v 0.020385 0.000947 0.0062
v 0.020352 0.00095 0.0062
v 0.020352 0.00095 0.0066
v 0.020385 0.000947 0.0062
v 0.020447 0.000926 0.0096
v 0.020475 0.000908 0.0096
v 0.020475 0.000908 0.0092
v 0.020417 0.000939 0.0096
v 0.020447 0.000926 0.0096
v 0.020447 0.000926 0.0092
v 0.020417 0.000939 0.0092
v 0.020417 0.000939 0.0096
v 0.020447 0.000926 0.0092
v 0.020385 0.000947 0.0096
v 0.020417 0.000939 0.0096
v 0.020417 0.000939 0.0092
v 0.020352 0.00095 0.0096
v 0.020385 0.000947 0.0096
v 0.020385 0.000947 0.0092
v 0.02574 0.000886 0.0002
v 0.025259 0.000364 0.0006
v 0.02574 0.000886 0.0006
v 0.0251 0.0005 0.0002
v 0.0257 0.00115 0.0006
v 0.0251 0.0005 0.0006
v 0.025 0.0005 0.0002
v 0.0251 0.0005 0.0006
v 0.025 0.0005 0.0006
v 0.0251 0.0005 0.0006
v 0.025 0.0003 0.0006
v 0.025 0.0005 0.0006
v 0.0257 0.00115 0.0006
v 0.025259 0.000364 0.0006
v 0.0251 0.0005 0.0006
v 0.02574 0.000886 0.0006
v 0.025259 0.000364 0.0006
v 0.0257 0.00115 0.0006
v 0.02574 0.000886 0.0017
v 0.025259 0.000364 0.0021
v 0.02574 0.000886 0.0021
v 0.0251 0.0005 0.0017
v 0.0257 0.00115 0.0021
v 0.0251 0.0005 0.0021
v 0.0257 0.00115 0.0021
v 0.025259 0.000364 0.0021
v 0.0251 0.0005 0.0021
v 0.02574 0.000886 0.0021
v 0.025259 0.000364 0.0021
v 0.0257 0.00115 0.0021
v 0.025112 0.0003 0.0032
v 0.025 0.0003 0.0036
v 0.025112 0.0003 0.0036
v 0.025 0.0003 0.0032
v 0.025 0.0003 0.0036
v 0.025112 0.0003 0.0032
v 0.02574 0.000886 0.0032
v 0.025259 0.000364 0.0036
v 0.02574 0.000886 0.0036
v 0.025259 0.000364 0.0032
v 0.025259 0.000364 0.0036
v 0.02574 0.000886 0.0032
v 0.0251 0.0005 0.0032
v 0.0257 0.00115 0.0036
v 0.0251 0.0005 0.0036
v 0.0257 0.00115 0.0032
v 0.0257 0.00115 0.0036
v 0.0251 0.0005 0.0032
v 0.025 0.0005 0.0032
v 0.0251 0.0005 0.0036
v 0.025 0.0005 0.0036
v 0.0251 0.0005 0.0032
v 0.0251 0.0005 0.0036
v 0.025 0.0005 0.0032
v 0.0251 0.0005 0.0036
v 0.025 0.0003 0.0036
v 0.025 0.0005 0.0036
v 0.025112 0.0003 0.0036
v 0.025 0.0003 0.0036
v 0.0251 0.0005 0.0036
v 0.0251 0.0005 0.0036
v 0.025145 0.000303 0.0036
v 0.025112 0.0003 0.0036
v 0.025177 0.000311 0.0036
v 0.025145 0.000303 0.0036
v 0.0251 0.0005 0.0036
v 0.025207 0.000324 0.0036
v 0.025177 0.000311 0.0036
v 0.0251 0.0005 0.0036
v 0.0251 0.0005 0.0036
v 0.025235 0.000342 0.0036
v 0.025207 0.000324 0.0036
v 0.025259 0.000364 0.0036
v 0.025235 0.000342 0.0036
v 0.0251 0.0005 0.0036
v 0.0257 0.00115 0.0036
v 0.025259 0.000364 0.0036
v 0.0251 0.0005 0.0036
v 0.02574 0.000886 0.0036
v 0.025259 0.000364 0.0036
v 0.0257 0.00115 0.0036
v 0.0251 0.0005 0.0032
v 0.025 0.0005 0.0032
v 0.025112 0.0003 0.0032
v 0.0251 0.0005 0.0032
v 0.02574 0.000886 0.0032
v 0.0257 0.00115 0.0032
v 0.025259 0.000364 0.0032
v 0.02574 0.000886 0.0032
v 0.0251 0.0005 0.0032
v 0.025 0.0003 0.0047
v 0.025 0.0003 0.0051
v 0.025112 0.0003 0.0047
v 0.02574 0.000886 0.0047
v 0.025259 0.000364 0.0051
v 0.02574 0.000886 0.0051
v 0.0251 0.0005 0.0047
v 0.0257 0.00115 0.0051
v 0.0251 0.0005 0.0051
v 0.0257 0.00115 0.0047
v 0.0257 0.00115 0.0051
v 0.0251 0.0005 0.0047
v 0.025112 0.0003 0.0047
v 0.025 0.0005 0.0047
v 0.025 0.0003 0.0047
v 0.0251 0.0005 0.0047
v 0.025 0.0005 0.0047
v 0.025112 0.0003 0.0047
v 0.025145 0.000303 0.0047
v 0.0251 0.0005 0.0047
v 0.025112 0.0003 0.0047
v 0.0251 0.0005 0.0047
v 0.025207 0.000324 0.0047
v 0.025235 0.000342 0.0047
v 0.025177 0.000311 0.0047
v 0.025207 0.000324 0.0047
v 0.0251 0.0005 0.0047
v 0.025145 0.000303 0.0047
v 0.025177 0.000311 0.0047
v 0.0251 0.0005 0.0047
v 0.025235 0.000342 0.0047
v 0.025259 0.000364 0.0047
v 0.0251 0.0005 0.0047
v 0.02574 0.000886 0.0062
v 0.025259 0.000364 0.0066
v 0.02574 0.000886 0.0066
v 0.025887 0.00095 0.0066
v 0.0261 0.00095 0.0062
v 0.025887 0.00095 0.0062
v 0.0261 0.00095 0.0066
v 0.0261 0.00095 0.0062
v 0.025887 0.00095 0.0066
v 0.0261 0.00115 0.0062
v 0.0261 0.00095 0.0066
v 0.0261 0.00115 0.0066
v 0.0261 0.00095 0.0062
v 0.0261 0.00095 0.0066
v 0.0261 0.00115 0.0062
v 0.0251 0.0005 0.0062
v 0.0257 0.00115 0.0066
v 0.0251 0.0005 0.0066
v 0.0257 0.00115 0.0062
v 0.0257 0.00115 0.0066
v 0.0251 0.0005 0.0062
v 0.025792 0.000926 0.0066
v 0.0257 0.00115 0.0066
v 0.025822 0.000939 0.0066
v 0.025765 0.000908 0.0066
v 0.0257 0.00115 0.0066
v 0.025792 0.000926 0.0066
v 0.0257 0.00115 0.0066
v 0.025259 0.000364 0.0066
v 0.0251 0.0005 0.0066
v 0.02574 0.000886 0.0066
v 0.025259 0.000364 0.0066
v 0.0257 0.00115 0.0066
v 0.025765 0.000908 0.0066
v 0.02574 0.000886 0.0066
v 0.0257 0.00115 0.0066
v 0.025887 0.00095 0.0066
v 0.0261 0.00115 0.0066
v 0.0261 0.00095 0.0066
v 0.0257 0.00115 0.0066
v 0.0261 0.00115 0.0066
v 0.025887 0.00095 0.0066
v 0.025854 0.000947 0.0066
v 0.0257 0.00115 0.0066
v 0.025887 0.00095 0.0066
v 0.025822 0.000939 0.0066
v 0.0257 0.00115 0.0066
v 0.025854 0.000947 0.0066
v 0.02574 0.000886 0.0077
v 0.025259 0.000364 0.0081
v 0.02574 0.000886 0.0081
v 0.025259 0.000364 0.0077
v 0.025259 0.000364 0.0081
v 0.02574 0.000886 0.0077
v 0.0251 0.0005 0.0077
v 0.0257 0.00115 0.0081
v 0.0251 0.0005 0.0081
v 0.0257 0.00115 0.0077
v 0.0257 0.00115 0.0081
v 0.0251 0.0005 0.0077
v 0.0251 0.0005 0.0077
v 0.02574 0.000886 0.0077
v 0.0257 0.00115 0.0077
v 0.025259 0.000364 0.0077
v 0.02574 0.000886 0.0077
v 0.0251 0.0005 0.0077
v 0.0261 0.00095 0.0096
v 0.0261 0.00095 0.0092
v 0.025887 0.00095 0.0096
v 0.0261 0.00115 0.0092
v 0.0261 0.00095 0.0096
v 0.0261 0.00115 0.0096
v 0.0261 0.00095 0.0092
v 0.0261 0.00095 0.0096
v 0.0261 0.00115 0.0092
v 0.0251 0.0005 0.0092
v 0.0257 0.00115 0.0096
v 0.0251 0.0005 0.0096
v 0.025792 0.000926 0.0096
v 0.0257 0.00115 0.0096
v 0.025822 0.000939 0.0096
v 0.025765 0.000908 0.0096
v 0.0257 0.00115 0.0096
v 0.025792 0.000926 0.0096
v 0.0257 0.00115 0.0096
v 0.025259 0.000364 0.0096
v 0.0251 0.0005 0.0096
v 0.02574 0.000886 0.0096
v 0.025259 0.000364 0.0096
v 0.0257 0.00115 0.0096
v 0.025765 0.000908 0.0096
v 0.02574 0.000886 0.0096
v 0.0257 0.00115 0.0096
v 0.025887 0.00095 0.0096
v 0.0261 0.00115 0.0096
v 0.0261 0.00095 0.0096
v 0.0257 0.00115 0.0096
v 0.0261 0.00115 0.0096
v 0.025887 0.00095 0.0096
v 0.025854 0.000947 0.0096
v 0.0257 0.00115 0.0096
v 0.025887 0.00095 0.0096
v 0.025822 0.000939 0.0096
v 0.0257 0.00115 0.0096
v 0.025854 0.000947 0.0096
v 0.025145 0.000303 0.0032
v 0.025112 0.0003 0.0032
v 0.025112 0.0003 0.0036
v 0.025145 0.000303 0.0036
v 0.025145 0.000303 0.0032
v 0.025112 0.0003 0.0036
v 0.025177 0.000311 0.0032
v 0.025145 0.000303 0.0032
v 0.025145 0.000303 0.0036
v 0.025177 0.000311 0.0036
v 0.025177 0.000311 0.0032
v 0.025145 0.000303 0.0036
v 0.025207 0.000324 0.0032
v 0.025177 0.000311 0.0032
v 0.025177 0.000311 0.0036
v 0.025207 0.000324 0.0036
v 0.025207 0.000324 0.0032
v 0.025177 0.000311 0.0036
v 0.025235 0.000342 0.0032
v 0.025207 0.000324 0.0032
v 0.025207 0.000324 0.0036
v 0.025235 0.000342 0.0036
v 0.025235 0.000342 0.0032
v 0.025207 0.000324 0.0036
v 0.025259 0.000364 0.0032
v 0.025235 0.000342 0.0032
v 0.025235 0.000342 0.0036
v 0.025259 0.000364 0.0036
v 0.025259 0.000364 0.0032
v 0.025235 0.000342 0.0036
v 0.025792 0.000926 0.0047
v 0.025792 0.000926 0.0051
v 0.025822 0.000939 0.0047
v 0.025765 0.000908 0.0051
v 0.025792 0.000926 0.0051
v 0.025792 0.000926 0.0047
v 0.025765 0.000908 0.0047
v 0.025765 0.000908 0.0051
v 0.025792 0.000926 0.0047
v 0.02574 0.000886 0.0051
v 0.025765 0.000908 0.0051
v 0.025765 0.000908 0.0047
v 0.02574 0.000886 0.0047
v 0.02574 0.000886 0.0051
v 0.025765 0.000908 0.0047
v 0.025145 0.000303 0.0047
v 0.025112 0.0003 0.0047
v 0.025112 0.0003 0.0051
v 0.025177 0.000311 0.0047
v 0.025145 0.000303 0.0047
v 0.025145 0.000303 0.0051
v 0.025207 0.000324 0.0047
v 0.025177 0.000311 0.0047
v 0.025177 0.000311 0.0051
v 0.025235 0.000342 0.0047
v 0.025207 0.000324 0.0047
v 0.025207 0.000324 0.0051
v 0.025235 0.000342 0.0051
v 0.025235 0.000342 0.0047
v 0.025207 0.000324 0.0051
v 0.025259 0.000364 0.0047
v 0.025235 0.000342 0.0047
v 0.025235 0.000342 0.0051
v 0.025854 0.000947 0.0066
v 0.025887 0.00095 0.0066
v 0.025887 0.00095 0.0062
v 0.025854 0.000947 0.0062
v 0.025854 0.000947 0.0066
v 0.025887 0.00095 0.0062
v 0.025822 0.000939 0.0066
v 0.025854 0.000947 0.0066
v 0.025854 0.000947 0.0062
v 0.025822 0.000939 0.0062
v 0.025822 0.000939 0.0066
v 0.025854 0.000947 0.0062
v 0.025792 0.000926 0.0066
v 0.025822 0.000939 0.0066
v 0.025822 0.000939 0.0062
v 0.025792 0.000926 0.0062
v 0.025792 0.000926 0.0066
v 0.025822 0.000939 0.0062
v 0.025765 0.000908 0.0066
v 0.025792 0.000926 0.0066
v 0.025792 0.000926 0.0062
v 0.025765 0.000908 0.0062
v 0.025765 0.000908 0.0066
v 0.025792 0.000926 0.0062
v 0.02574 0.000886 0.0066
v 0.025765 0.000908 0.0066
v 0.025765 0.000908 0.0062
v 0.02574 0.000886 0.0062
v 0.02574 0.000886 0.0066
v 0.025765 0.000908 0.0062
v 0.025854 0.000947 0.0096
v 0.025887 0.00095 0.0096
v 0.025887 0.00095 0.0092
v 0.025822 0.000939 0.0096
v 0.025854 0.000947 0.0096
v 0.025854 0.000947 0.0092
v 0.025792 0.000926 0.0096
v 0.025822 0.000939 0.0096
v 0.025822 0.000939 0.0092
v 0.025765 0.000908 0.0096
v 0.025792 0.000926 0.0096
v 0.025792 0.000926 0.0092
v -0.027 0.00115 0.00525
v -0.027 -0.00035 0.0075
v -0.027 -0.00035 0.0035
v -0.027 0.00085 0.0075
v -0.027 -0.00035 0.0075
v -0.027 0.00115 0.00525
v -0.027 0.00115 0.0075
v -0.027 0.00085 0.0075
v -0.027 0.00115 0.00525
v -0.027 -0.00035 0.0035
v -0.027 0.00115 0.004575
v -0.027 0.00115 0.00525
v -0.027 0.00115 0.00375
v -0.027 0.00115 0.004575
v -0.027 -0.00035 0.0035
v -0.027 0.00085 0.0035
v -0.027 0.00115 0.00375
v -0.027 -0.00035 0.0035
v -0.0175 -0.00035 0.0035
v -0.0175 0.00115 0.00375
v -0.0175 0.00085 0.0035
v -0.0175 0.00115 0.00525
v -0.0175 0.00085 0.0075
v -0.0175 0.00115 0.0075
v -0.0175 -0.00035 0.0035
v -0.0175 0.00085 0.0075
v -0.0175 0.00115 0.00525
v -0.0175 0.00115 0.004575
v -0.0175 -0.00035 0.0035
v -0.0175 0.00115 0.00525
v -0.0175 0.00115 0.00375
v -0.0175 -0.00035 0.0035
v -0.0175 0.00115 0.004575
v -0.0269 0.00015 0.0026
v -0.0269 0.00055 0.0035
v -0.0269 0.00015 0.0035
v -0.0269 0.00055 0.0031
v -0.0269 0.00055 0.0035
v -0.0269 0.00015 0.0026
v -0.0269 0.00075 0.0026
v -0.0269 0.00055 0.0031
v -0.0269 0.00015 0.0026
v -0.0269 0.00075 0.0026
v -0.0269 0.00075 0.002
v -0.0269 0.00115 0.0026
v -0.0269 0.00055 0.0031
v -0.0269 0.00075 0.0026
v -0.0269 0.00115 0.0031
v -0.0264 0.00075 0.002
v -0.0269 0.00115 0.002
v -0.0269 0.00075 0.002
v -0.0264 0.00055 0.0031
v -0.0264 0.00015 0.0035
v -0.0264 0.00055 0.0035
v -0.0264 0.00015 0.0026
v -0.0264 0.00015 0.0035
v -0.0264 0.00055 0.0031
v -0.0264 0.00115 0.0031
v -0.0264 0.00015 0.0026
v -0.0264 0.00055 0.0031
v -0.0264 0.00075 0.0026
v -0.0264 0.00015 0.0026
v -0.0264 0.00115 0.0031
v -0.0264 0.00075 0.002
v -0.0264 0.00075 0.0026
v -0.0264 0.00115 0.0026
v -0.0264 0.00015 0.0026
v -0.0269 0.00015 0.0035
v -0.0264 0.00015 0.0035
v -0.0269 0.00015 0.0026
v -0.0269 0.00015 0.0035
v -0.0264 0.00015 0.0026
v -0.0269 0.00055 0.0079
v -0.0269 0.00015 0.0075
v -0.0269 0.00055 0.0075
v -0.0269 0.00115 0.0079
v -0.0269 0.00015 0.0084
v -0.0269 0.00055 0.0079
v -0.0264 0.00055 0.0079
v -0.0264 0.00055 0.0075
v -0.0264 0.00015 0.0084
v -0.0264 0.00115 0.0079
v -0.0264 0.00055 0.0079
v -0.0264 0.00075 0.0084
v -0.02545 0.00015 0.0026
v -0.02545 0.00055 0.0035
v -0.02545 0.00015 0.0035
v -0.02545 0.00055 0.0031
v -0.02545 0.00055 0.0035
v -0.02545 0.00015 0.0026
v -0.02545 0.00075 0.0026
v -0.02545 0.00055 0.0031
v -0.02545 0.00015 0.0026
v -0.02545 0.00075 0.0026
v -0.02545 0.00075 0.002
v -0.02545 0.00115 0.0026
v -0.02545 0.00055 0.0031
v -0.02545 0.00075 0.0026
v -0.02545 0.00115 0.0031
v -0.02495 0.00075 0.002
v -0.02545 0.00115 0.002
v -0.02545 0.00075 0.002
v -0.02495 0.00055 0.0031
v -0.02495 0.00015 0.0035
v -0.02495 0.00055 0.0035
v -0.02495 0.00015 0.0026
v -0.02495 0.00015 0.0035
v -0.02495 0.00055 0.0031
v -0.02495 0.00115 0.0031
v -0.02495 0.00015 0.0026
v -0.02495 0.00055 0.0031
v -0.02495 0.00075 0.0026
v -0.02495 0.00015 0.0026
v -0.02495 0.00115 0.0031
v -0.02495 0.00075 0.002
v -0.02495 0.00075 0.0026
v -0.02495 0.00115 0.0026
v -0.02495 0.00015 0.0026
v -0.02545 0.00015 0.0035
v -0.02495 0.00015 0.0035
v -0.02545 0.00015 0.0026
v -0.02545 0.00015 0.0035
v -0.02495 0.00015 0.0026
v -0.02545 0.00055 0.0079
v -0.02545 0.00015 0.0075
v -0.02545 0.00055 0.0075
v -0.02545 0.00115 0.0079
v -0.02545 0.00015 0.0084
v -0.02545 0.00055 0.0079
v -0.02495 0.00055 0.0079
v -0.02495 0.00055 0.0075
v -0.02495 0.00015 0.0084
v -0.02495 0.00115 0.0079
v -0.02495 0.00055 0.0079
v -0.02495 0.00075 0.0084
v -0.024 0.00015 0.0026
v -0.024 0.00055 0.0035
v -0.024 0.00015 0.0035
v -0.024 0.00055 0.0031
v -0.024 0.00055 0.0035
v -0.024 0.00015 0.0026
v -0.024 0.00075 0.0026
v -0.024 0.00055 0.0031
v -0.024 0.00015 0.0026
v -0.024 0.00075 0.0026
v -0.024 0.00075 0.002
v -0.024 0.00115 0.0026
v -0.024 0.00055 0.0031
v -0.024 0.00075 0.0026
v -0.024 0.00115 0.0031
v -0.0235 0.00075 0.002
v -0.024 0.00115 0.002
v -0.024 0.00075 0.002
v -0.0235 0.00055 0.0031
v -0.0235 0.00015 0.0035
v -0.0235 0.00055 0.0035
v -0.0235 0.00015 0.0026
v -0.0235 0.00015 0.0035
v -0.0235 0.00055 0.0031
v -0.0235 0.00115 0.0031
v -0.0235 0.00015 0.0026
v -0.0235 0.00055 0.0031
v -0.0235 0.00075 0.0026
v -0.0235 0.00015 0.0026
v -0.0235 0.00115 0.0031
v -0.0235 0.00075 0.002
v -0.0235 0.00075 0.0026
v -0.0235 0.00115 0.0026
v -0.0235 0.00015 0.0026
v -0.024 0.00015 0.0035
v -0.0235 0.00015 0.0035
v -0.024 0.00015 0.0026
v -0.024 0.00015 0.0035
v -0.0235 0.00015 0.0026
v -0.024 0.00055 0.0079
v -0.024 0.00015 0.0075
v -0.024 0.00055 0.0075
v -0.024 0.00115 0.0079
v -0.024 0.00015 0.0084
v -0.024 0.00055 0.0079
v -0.0235 0.00055 0.0079
v -0.0235 0.00055 0.0075
v -0.0235 0.00015 0.0084
v -0.0235 0.00115 0.0079
v -0.0235 0.00055 0.0079
v -0.0235 0.00075 0.0084
v -0.02255 0.00015 0.0026
v -0.02255 0.00055 0.0035
v -0.02255 0.00015 0.0035
v -0.02255 0.00055 0.0031
v -0.02255 0.00055 0.0035
v -0.02255 0.00015 0.0026
v -0.02255 0.00075 0.0026
v -0.02255 0.00055 0.0031
v -0.02255 0.00015 0.0026
v -0.02255 0.00075 0.0026
v -0.02255 0.00075 0.002
v -0.02255 0.00115 0.0026
v -0.02255 0.00055 0.0031
v -0.02255 0.00075 0.0026
v -0.02255 0.00115 0.0031
v -0.02205 0.00075 0.002
v -0.02255 0.00115 0.002
v -0.02255 0.00075 0.002
v -0.02205 0.00055 0.0031
v -0.02205 0.00015 0.0035
v -0.02205 0.00055 0.0035
v -0.02205 0.00015 0.0026
v -0.02205 0.00015 0.0035
v -0.02205 0.00055 0.0031
v -0.02205 0.00115 0.0031
v -0.02205 0.00015 0.0026
v -0.02205 0.00055 0.0031
v -0.02205 0.00075 0.0026
v -0.02205 0.00015 0.0026
v -0.02205 0.00115 0.0031
v -0.02205 0.00075 0.002
v -0.02205 0.00075 0.0026
v -0.02205 0.00115 0.0026
v -0.02205 0.00015 0.0026
v -0.02255 0.00015 0.0035
v -0.02205 0.00015 0.0035
v -0.02255 0.00015 0.0026
v -0.02255 0.00015 0.0035
v -0.02205 0.00015 0.0026
v -0.02255 0.00055 0.0079
v -0.02255 0.00015 0.0075
v -0.02255 0.00055 0.0075
v -0.02255 0.00115 0.0079
v -0.02255 0.00015 0.0084
v -0.02255 0.00055 0.0079
v -0.02205 0.00055 0.0079
v -0.02205 0.00055 0.0075
v -0.02205 0.00015 0.0084
v -0.02205 0.00115 0.0079
v -0.02205 0.00055 0.0079
v -0.02205 0.00075 0.0084
v -0.0211 0.00015 0.0026
v -0.0211 0.00055 0.0035
v -0.0211 0.00015 0.0035
v -0.0211 0.00055 0.0031
v -0.0211 0.00055 0.0035
v -0.0211 0.00015 0.0026
v -0.0211 0.00075 0.0026
v -0.0211 0.00055 0.0031
v -0.0211 0.00015 0.0026
v -0.0211 0.00075 0.0026
v -0.0211 0.00075 0.002
v -0.0211 0.00115 0.0026
v -0.0211 0.00055 0.0031
v -0.0211 0.00075 0.0026
v -0.0211 0.00115 0.0031
v -0.0206 0.00075 0.002
v -0.0211 0.00115 0.002
v -0.0211 0.00075 0.002
v -0.0206 0.00055 0.0031
v -0.0206 0.00015 0.0035
v -0.0206 0.00055 0.0035
v -0.0206 0.00015 0.0026
v -0.0206 0.00015 0.0035
v -0.0206 0.00055 0.0031
v -0.0206 0.00115 0.0031
v -0.0206 0.00015 0.0026
v -0.0206 0.00055 0.0031
v -0.0206 0.00075 0.0026
v -0.0206 0.00015 0.0026
v -0.0206 0.00115 0.0031
v -0.0206 0.00075 0.002
v -0.0206 0.00075 0.0026
v -0.0206 0.00115 0.0026
v -0.0206 0.00015 0.0026
v -0.0211 0.00015 0.0035
v -0.0206 0.00015 0.0035
v -0.0211 0.00015 0.0026
v -0.0211 0.00015 0.0035
v -0.0206 0.00015 0.0026
v -0.0211 0.00055 0.0079
v -0.0211 0.00015 0.0075
v -0.0211 0.00055 0.0075
v -0.0211 0.00115 0.0079
v -0.0211 0.00015 0.0084
v -0.0211 0.00055 0.0079
v -0.0206 0.00055 0.0079
v -0.0206 0.00055 0.0075
v -0.0206 0.00015 0.0084
v -0.0206 0.00115 0.0079
v -0.0206 0.00055 0.0079
v -0.0206 0.00075 0.0084
v -0.01965 0.00015 0.0026
v -0.01965 0.00055 0.0035
v -0.01965 0.00015 0.0035
v -0.01965 0.00055 0.0031
v -0.01965 0.00055 0.0035
v -0.01965 0.00015 0.0026
v -0.01965 0.00075 0.0026
v -0.01965 0.00055 0.0031
v -0.01965 0.00015 0.0026
v -0.01965 0.00075 0.0026
v -0.01965 0.00075 0.002
v -0.01965 0.00115 0.0026
v -0.01965 0.00055 0.0031
v -0.01965 0.00075 0.0026
v -0.01965 0.00115 0.0031
v -0.01915 0.00075 0.002
v -0.01965 0.00115 0.002
v -0.01965 0.00075 0.002
v -0.01915 0.00055 0.0031
v -0.01915 0.00015 0.0035
v -0.01915 0.00055 0.0035
v -0.01915 0.00015 0.0026
v -0.01915 0.00015 0.0035
v -0.01915 0.00055 0.0031
v -0.01915 0.00115 0.0031
v -0.01915 0.00015 0.0026
v -0.01915 0.00055 0.0031
v -0.01915 0.00075 0.0026
v -0.01915 0.00015 0.0026
v -0.01915 0.00115 0.0031
v -0.01915 0.00075 0.002
v -0.01915 0.00075 0.0026
v -0.01915 0.00115 0.0026
v -0.01915 0.00015 0.0026
v -0.01965 0.00015 0.0035
v -0.01915 0.00015 0.0035
v -0.01965 0.00015 0.0026
v -0.01965 0.00015 0.0035
v -0.01915 0.00015 0.0026
v -0.01965 0.00055 0.0079
v -0.01965 0.00015 0.0075
v -0.01965 0.00055 0.0075
v -0.01965 0.00115 0.0079
v -0.01965 0.00015 0.0084
v -0.01965 0.00055 0.0079
v -0.01915 0.00055 0.0079
v -0.01915 0.00055 0.0075
v -0.01915 0.00015 0.0084
v -0.01915 0.00115 0.0079
v -0.01915 0.00055 0.0079
v -0.01915 0.00075 0.0084
v -0.0182 0.00015 0.0026
v -0.0182 0.00055 0.0035
v -0.0182 0.00015 0.0035
v -0.0182 0.00055 0.0031
v -0.0182 0.00055 0.0035
v -0.0182 0.00015 0.0026
v -0.0182 0.00075 0.0026
v -0.0182 0.00055 0.0031
v -0.0182 0.00015 0.0026
v -0.0182 0.00075 0.0026
v -0.0182 0.00075 0.002
v -0.0182 0.00115 0.0026
v -0.0182 0.00055 0.0031
v -0.0182 0.00075 0.0026
v -0.0182 0.00115 0.0031
v -0.0177 0.00075 0.002
v -0.0182 0.00115 0.002
v -0.0182 0.00075 0.002
v -0.0177 0.00055 0.0031
v -0.0177 0.00015 0.0035
v -0.0177 0.00055 0.0035
v -0.0177 0.00015 0.0026
v -0.0177 0.00015 0.0035
v -0.0177 0.00055 0.0031
v -0.0177 0.00115 0.0031
v -0.0177 0.00015 0.0026
v -0.0177 0.00055 0.0031
v -0.0177 0.00075 0.0026
v -0.0177 0.00015 0.0026
v -0.0177 0.00115 0.0031
v -0.0177 0.00075 0.002
v -0.0177 0.00075 0.0026
v -0.0177 0.00115 0.0026
v -0.0177 0.00015 0.0026
v -0.0182 0.00015 0.0035
v -0.0177 0.00015 0.0035
v -0.0182 0.00015 0.0026
v -0.0182 0.00015 0.0035
v -0.0177 0.00015 0.0026
v -0.0182 0.00055 0.0079
v -0.0182 0.00015 0.0075
v -0.0182 0.00055 0.0075
v -0.0182 0.00115 0.0079
v -0.0182 0.00015 0.0084
v -0.0182 0.00055 0.0079
v -0.0177 0.00055 0.0079
v -0.0177 0.00055 0.0075
v -0.0177 0.00015 0.0084
v -0.0177 0.00115 0.0079
v -0.0177 0.00055 0.0079
v -0.0177 0.00075 0.0084
v -0.0177 0.00075 0.0026
v -0.0182 0.00015 0.0026
v -0.0177 0.00015 0.0026
v -0.0182 0.00075 0.0026
v -0.0182 0.00015 0.0026
v -0.0177 0.00075 0.0026
v -0.0177 0.00075 0.002
v -0.0182 0.00075 0.0026
v -0.0177 0.00075 0.0026
v -0.0182 0.00075 0.002
v -0.0182 0.00075 0.0026
v -0.0177 0.00075 0.002
v -0.01915 0.00075 0.0026
v -0.01965 0.00015 0.0026
v -0.01915 0.00015 0.0026
v -0.01965 0.00075 0.0026
v -0.01965 0.00015 0.0026
v -0.01915 0.00075 0.0026
v -0.01915 0.00075 0.002
v -0.01965 0.00075 0.0026
v -0.01915 0.00075 0.0026
v -0.01965 0.00075 0.002
v -0.01965 0.00075 0.0026
v -0.01915 0.00075 0.002
v -0.0206 0.00075 0.0026
v -0.0211 0.00015 0.0026
v -0.0206 0.00015 0.0026
v -0.0211 0.00075 0.0026
v -0.0211 0.00015 0.0026
v -0.0206 0.00075 0.0026
v -0.0206 0.00075 0.002
v -0.0211 0.00075 0.0026
v -0.0206 0.00075 0.0026
v -0.0211 0.00075 0.002
v -0.0211 0.00075 0.0026
v -0.0206 0.00075 0.002
v -0.02205 0.00075 0.0026
v -0.02255 0.00015 0.0026
v -0.02205 0.00015 0.0026
v -0.02255 0.00075 0.0026
v -0.02255 0.00015 0.0026
v -0.02205 0.00075 0.0026
v -0.02205 0.00075 0.002
v -0.02255 0.00075 0.0026
v -0.02205 0.00075 0.0026
v -0.02255 0.00075 0.002
v -0.02255 0.00075 0.0026
v -0.02205 0.00075 0.002
v -0.0235 0.00075 0.0026
v -0.024 0.00015 0.0026
v -0.0235 0.00015 0.0026
v -0.024 0.00075 0.0026
v -0.024 0.00015 0.0026
v -0.0235 0.00075 0.0026
v -0.0235 0.00075 0.002
v -0.024 0.00075 0.0026
v -0.0235 0.00075 0.0026
v -0.024 0.00075 0.002
v -0.024 0.00075 0.0026
v -0.0235 0.00075 0.002
v -0.02495 0.00075 0.0026
v -0.02545 0.00015 0.0026
v -0.02495 0.00015 0.0026
v -0.02545 0.00075 0.0026
v -0.02545 0.00015 0.0026
v -0.02495 0.00075 0.0026
v -0.02495 0.00075 0.002
v -0.02545 0.00075 0.0026
v -0.02495 0.00075 0.0026
v -0.02545 0.00075 0.002
v -0.02545 0.00075 0.0026
v -0.02495 0.00075 0.002
v -0.0269 0.00075 0.0026
v -0.0264 0.00075 0.002
v -0.0269 0.00075 0.002
v -0.0264 0.00075 0.0026
v -0.0264 0.00075 0.002
v -0.0269 0.00075 0.0026
v -0.0269 0.00015 0.0026
v -0.0264 0.00075 0.0026
v -0.0269 0.00075 0.0026
v -0.0264 0.00015 0.0026
v -0.0264 0.00075 0.0026
v -0.0269 0.00015 0.0026
v -0.0177 0.00055 0.0079
v -0.0182 0.00055 0.0075
v -0.0177 0.00055 0.0075
v -0.0182 0.00055 0.0079
v -0.0182 0.00055 0.0075
v -0.0177 0.00055 0.0079
v -0.0177 0.00115 0.0079
v -0.0182 0.00055 0.0079
v -0.0177 0.00055 0.0079
v -0.0182 0.00115 0.0079
v -0.0182 0.00055 0.0079
v -0.0177 0.00115 0.0079
v -0.01915 0.00055 0.0079
v -0.01965 0.00055 0.0075
v -0.01915 0.00055 0.0075
v -0.01965 0.00055 0.0079
v -0.01965 0.00055 0.0075
v -0.01915 0.00055 0.0079
v -0.01915 0.00115 0.0079
v -0.01965 0.00055 0.0079
v -0.01915 0.00055 0.0079
v -0.01965 0.00115 0.0079
v -0.01965 0.00055 0.0079
v -0.01915 0.00115 0.0079
v -0.0206 0.00055 0.0079
v -0.0211 0.00055 0.0075
v -0.0206 0.00055 0.0075
v -0.0211 0.00055 0.0079
v -0.0211 0.00055 0.0075
v -0.0206 0.00055 0.0079
v -0.0206 0.00115 0.0079
v -0.0211 0.00055 0.0079
v -0.0206 0.00055 0.0079
v -0.0211 0.00115 0.0079
v -0.0211 0.00055 0.0079
v -0.0206 0.00115 0.0079
v -0.02205 0.00055 0.0079
v -0.02255 0.00055 0.0075
v -0.02205 0.00055 0.0075
v -0.02255 0.00055 0.0079
v -0.02255 0.00055 0.0075
v -0.02205 0.00055 0.0079
v -0.02205 0.00115 0.0079
v -0.02255 0.00055 0.0079
v -0.02205 0.00055 0.0079
v -0.02255 0.00115 0.0079
v -0.02255 0.00055 0.0079
v -0.02205 0.00115 0.0079
v -0.0235 0.00055 0.0079
v -0.024 0.00055 0.0075
v -0.0235 0.00055 0.0075
v -0.024 0.00055 0.0079
v -0.024 0.00055 0.0075
v -0.0235 0.00055 0.0079
v -0.0235 0.00115 0.0079
v -0.024 0.00055 0.0079
v -0.0235 0.00055 0.0079
v -0.024 0.00115 0.0079
v -0.024 0.00055 0.0079
v -0.0235 0.00115 0.0079
v -0.02495 0.00055 0.0079
v -0.02545 0.00055 0.0075
v -0.02495 0.00055 0.0075
v -0.02545 0.00055 0.0079
v -0.02545 0.00055 0.0075
v -0.02495 0.00055 0.0079
v -0.02495 0.00115 0.0079
v -0.02545 0.00055 0.0079
v -0.02495 0.00055 0.0079
v -0.02545 0.00115 0.0079
v -0.02545 0.00055 0.0079
v -0.02495 0.00115 0.0079
v -0.0269 0.00055 0.0079
v -0.0264 0.00115 0.0079
v -0.0269 0.00115 0.0079
v -0.0264 0.00055 0.0079
v -0.0264 0.00115 0.0079
v -0.0269 0.00055 0.0079
v -0.0269 0.00055 0.0075
v -0.0264 0.00055 0.0079
v -0.0269 0.00055 0.0079
v -0.0264 0.00055 0.0075
v -0.0264 0.00055 0.0079
v -0.0269 0.00055 0.0075
v -0.0177 0.00055 0.0031
v -0.0182 0.00115 0.0031
v -0.0177 0.00115 0.0031
v -0.0182 0.00055 0.0031
v -0.0182 0.00115 0.0031
v -0.0177 0.00055 0.0031
v -0.0177 0.00055 0.0035
v -0.0182 0.00055 0.0031
v -0.0177 0.00055 0.0031
v -0.0182 0.00055 0.0035
v -0.0182 0.00055 0.0031
v -0.0177 0.00055 0.0035
v -0.01915 0.00055 0.0031
v -0.01965 0.00115 0.0031
v -0.01915 0.00115 0.0031
v -0.01965 0.00055 0.0031
v -0.01965 0.00115 0.0031
v -0.01915 0.00055 0.0031
v -0.01915 0.00055 0.0035
v -0.01965 0.00055 0.0031
v -0.01915 0.00055 0.0031
v -0.01965 0.00055 0.0035
v -0.01965 0.00055 0.0031
v -0.01915 0.00055 0.0035
v -0.0206 0.00055 0.0031
v -0.0211 0.00115 0.0031
v -0.0206 0.00115 0.0031
v -0.0211 0.00055 0.0031
v -0.0211 0.00115 0.0031
v -0.0206 0.00055 0.0031
v -0.0206 0.00055 0.0035
v -0.0211 0.00055 0.0031
v -0.0206 0.00055 0.0031
v -0.0211 0.00055 0.0035
v -0.0211 0.00055 0.0031
v -0.0206 0.00055 0.0035
v -0.02205 0.00055 0.0031
v -0.02255 0.00115 0.0031
v -0.02205 0.00115 0.0031
v -0.02255 0.00055 0.0031
v -0.02255 0.00115 0.0031
v -0.02205 0.00055 0.0031
v -0.02205 0.00055 0.0035
v -0.02255 0.00055 0.0031
v -0.02205 0.00055 0.0031
v -0.02255 0.00055 0.0035
v -0.02255 0.00055 0.0031
v -0.02205 0.00055 0.0035
v -0.0235 0.00055 0.0031
v -0.024 0.00115 0.0031
v -0.0235 0.00115 0.0031
v -0.024 0.00055 0.0031
v -0.024 0.00115 0.0031
v -0.0235 0.00055 0.0031
v -0.0235 0.00055 0.0035
v -0.024 0.00055 0.0031
v -0.0235 0.00055 0.0031
v -0.024 0.00055 0.0035
v -0.024 0.00055 0.0031
v -0.0235 0.00055 0.0035
v -0.02495 0.00055 0.0031
v -0.02545 0.00115 0.0031
v -0.02495 0.00115 0.0031
v -0.02545 0.00055 0.0031
v -0.02545 0.00115 0.0031
v -0.02495 0.00055 0.0031
v -0.02495 0.00055 0.0035
v -0.02545 0.00055 0.0031
v -0.02495 0.00055 0.0031
v -0.02545 0.00055 0.0035
v -0.02545 0.00055 0.0031
v -0.02495 0.00055 0.0035
v -0.0269 0.00055 0.0031
v -0.0264 0.00055 0.0035
v -0.0269 0.00055 0.0035
v -0.0264 0.00055 0.0031
v -0.0264 0.00055 0.0035
v -0.0269 0.00055 0.0031
v -0.0269 0.00115 0.0031
v -0.0264 0.00055 0.0031
v -0.0269 0.00055 0.0031
v -0.0264 0.00115 0.0031
v -0.0264 0.00055 0.0031
v -0.0269 0.00115 0.0031
v 0.01235 0.00115 -0.0055
v 0.00835 -0.00105 -0.0055
v 0.01235 -0.00105 -0.0055
v 0.00835 0.00115 -0.003
v 0.01235 -0.00105 -0.003
v 0.00835 -0.00105 -0.003
v 0.00835 -0.00105 -0.0055
v 0.01235 -0.00105 -0.003
v 0.01235 -0.00105 -0.0055
v 0.00835 -0.00105 -0.003
v 0.01235 -0.00105 -0.003
v 0.00835 -0.00105 -0.0055
v 0.00875 0.00115 0.0089
v 0.01175 -0.00065 0.0089
v 0.00875 -0.00065 0.0089
v 0.01175 0.00115 0.0089
v 0.01175 -0.00065 0.0089
v 0.00875 0.00115 0.0089
v 0.01175 -0.00065 0.0089
v 0.00875 -0.00065 0.0039
v 0.00875 -0.00065 0.0089
v 0.01175 -0.00065 0.0039
v 0.00875 -0.00065 0.0039
v 0.01175 -0.00065 0.0089
v 0.012087 0.000694 0.0059
v 0.01175 0.00035 0.0059
v 0.01175 0.000694 0.0059
v 0.01228 0.00035 0.0059
v 0.01175 0.00035 0.0059
v 0.012087 0.000694 0.0059
v 0.012579 0.00115 0.0059
v 0.01228 0.00035 0.0059
v 0.012087 0.000694 0.0059
v 0.012877 0.000904 0.0059
v 0.01228 0.00035 0.0059
v 0.012579 0.00115 0.0059
v 0.008413 0.000694 0.0059
v 0.007622 0.000904 0.0059
v 0.007921 0.00115 0.0059
v 0.00822 0.00035 0.0059
v 0.007622 0.000904 0.0059
v 0.008413 0.000694 0.0059
v 0.00875 0.000694 0.0059
v 0.00822 0.00035 0.0059
v 0.008413 0.000694 0.0059
v 0.00875 0.00035 0.0059
v 0.00822 0.00035 0.0059
v 0.00875 0.000694 0.0059
v 0.012877 0.000904 0.0059
v 0.01228 0.00035 0.0054
v 0.01228 0.00035 0.0059
v 0.012877 0.000904 0.0088
v 0.01228 0.00035 0.0083
v 0.01228 0.00035 0.0088
v 0.012877 0.000904 0.0083
v 0.01228 0.00035 0.0083
v 0.012877 0.000904 0.0088
v 0.012087 0.000694 0.0059
v 0.012579 0.00115 0.0054
v 0.012579 0.00115 0.0059
v 0.012087 0.000694 0.0054
v 0.012579 0.00115 0.0054
v 0.012087 0.000694 0.0059
v 0.01175 0.000694 0.0059
v 0.012087 0.000694 0.0054
v 0.012087 0.000694 0.0059
v 0.01175 0.000694 0.0088
v 0.012087 0.000694 0.0083
v 0.012087 0.000694 0.0088
v 0.01175 0.000694 0.0083
v 0.012087 0.000694 0.0083
v 0.01175 0.000694 0.0088
v 0.012087 0.000694 0.0083
v 0.012579 0.00115 0.0083
v 0.012087 0.000694 0.0088
v 0.00875 0.000694 0.0059
v 0.008413 0.000694 0.0059
v 0.00875 0.000694 0.0054
v 0.008413 0.000694 0.0059
v 0.007921 0.00115 0.0059
v 0.008413 0.000694 0.0054
v 0.008413 0.000694 0.0088
v 0.007921 0.00115 0.0088
v 0.008413 0.000694 0.0083
v 0.00875 0.000694 0.0083
v 0.008413 0.000694 0.0088
v 0.008413 0.000694 0.0083
v 0.00875 0.000694 0.0088
v 0.008413 0.000694 0.0088
v 0.00875 0.000694 0.0083
v 0.007622 0.000904 0.0059
v 0.00822 0.00035 0.0059
v 0.007622 0.000904 0.0054
v 0.007622 0.000904 0.00685
v 0.00822 0.00035 0.00735
v 0.00822 0.00035 0.00685
v 0.007622 0.000904 0.00735
v 0.00822 0.00035 0.00735
v 0.007622 0.000904 0.00685
v 0.007622 0.000904 0.0083
v 0.00822 0.00035 0.0088
v 0.00822 0.00035 0.0083
v 0.007622 0.000904 0.0088
v 0.00822 0.00035 0.0088
v 0.007622 0.000904 0.0083
v -0.005559 -0.012338 0.01202
v -0.005559 -0.012338 0.012
v -0.005641 -0.012204 0.01202
v -0.005457 -0.012457 0.012
v -0.005559 -0.012338 0.012
v -0.005559 -0.012338 0.01202
v -0.005457 -0.012457 0.01202
v -0.005457 -0.012457 0.012
v -0.005559 -0.012338 0.01202
v -0.005338 -0.012559 0.012
v -0.005457 -0.012457 0.012
v -0.005457 -0.012457 0.01202
v -0.005338 -0.012559 0.01202
v -0.005338 -0.012559 0.012
v -0.005457 -0.012457 0.01202
v -0.005204 -0.012641 0.012
v -0.005338 -0.012559 0.012
v -0.005338 -0.012559 0.01202
v 0.005059 -0.012701 0.012
v 0.004906 -0.012738 0.012
v 0.004906 -0.012738 0.01202
v 0.005059 -0.012701 0.01202
v 0.005059 -0.012701 0.012
v 0.004906 -0.012738 0.01202
v 0.005204 -0.012641 0.012
v 0.005059 -0.012701 0.012
v 0.005059 -0.012701 0.01202
v 0.005204 -0.012641 0.01202
v 0.005204 -0.012641 0.012
v 0.005059 -0.012701 0.01202
v 0.005338 -0.012559 0.012
v 0.005204 -0.012641 0.012
v 0.005204 -0.012641 0.01202
v 0.005559 -0.012338 0.012
v 0.005457 -0.012457 0.012
v 0.005457 -0.012457 0.01202
v 0.005559 -0.012338 0.01202
v 0.005559 -0.012338 0.012
v 0.005457 -0.012457 0.01202
v 0.005641 -0.012204 0.012
v 0.005559 -0.012338 0.012
v 0.005559 -0.012338 0.01202
v 0.005641 -0.012204 0.01202
v 0.005641 -0.012204 0.012
v 0.005559 -0.012338 0.01202
v 0.00575 -0.00225 0.012
v 0.00575 -0.01175 0.01202
v 0.00575 -0.00225 0.01202
v 0.00575 -0.01175 0.012
v 0.00575 -0.01175 0.01202
v 0.00575 -0.00225 0.012
v 0.005338 -0.001441 0.01202
v 0.005338 -0.001441 0.012
v 0.005457 -0.001543 0.01202
v 0.005204 -0.001359 0.012
v 0.005338 -0.001441 0.012
v 0.005338 -0.001441 0.01202
v 0.005204 -0.001359 0.01202
v 0.005204 -0.001359 0.012
v 0.005338 -0.001441 0.01202
v -0.00575 -0.01175 0.012
v -0.00575 -0.00225 0.01202
v -0.00575 -0.01175 0.01202
v -0.00575 -0.00225 0.012
v -0.00575 -0.00225 0.01202
v -0.00575 -0.01175 0.012
v -0.00475 -0.01275 0.01202
v -0.00575 -0.01175 0.01202
v -0.00575 -0.00225 0.01202
v -0.005204 -0.001359 0.01202
v -0.00575 -0.00225 0.01202
v -0.005738 -0.002094 0.01202
v -0.005059 -0.001299 0.01202
v -0.00575 -0.00225 0.01202
v -0.005204 -0.001359 0.01202
v -0.00575 -0.01175 0.01202
v -0.005059 -0.012701 0.01202
v -0.005204 -0.012641 0.01202
v -0.00475 -0.01275 0.01202
v 0.00475 -0.00125 0.01202
v 0.00475 -0.01275 0.01202
v -0.00475 -0.00125 0.01202
v 0.00475 -0.00125 0.01202
v -0.00475 -0.01275 0.01202
v -0.00575 -0.00225 0.01202
v -0.00475 -0.00125 0.01202
v -0.00475 -0.01275 0.01202
v -0.004906 -0.001262 0.01202
v -0.00475 -0.00125 0.01202
v -0.00575 -0.00225 0.01202
v -0.005059 -0.001299 0.01202
v -0.004906 -0.001262 0.01202
v -0.00575 -0.00225 0.01202
v -0.005204 -0.012641 0.01202
v -0.005738 -0.011906 0.01202
v -0.00575 -0.01175 0.01202
v -0.005701 -0.012059 0.01202
v -0.005738 -0.011906 0.01202
v -0.005204 -0.012641 0.01202
v -0.005641 -0.012204 0.01202
v -0.005701 -0.012059 0.01202
v -0.005204 -0.012641 0.01202
v -0.005204 -0.012641 0.01202
v -0.005559 -0.012338 0.01202
v -0.005641 -0.012204 0.01202
v -0.005457 -0.012457 0.01202
v -0.005559 -0.012338 0.01202
v -0.005204 -0.012641 0.01202
v -0.005338 -0.012559 0.01202
v -0.005457 -0.012457 0.01202
v -0.005204 -0.012641 0.01202
v 0.005059 -0.012701 0.01202
v 0.004906 -0.012738 0.01202
v 0.00575 -0.01175 0.01202
v 0.005204 -0.012641 0.01202
v 0.005059 -0.012701 0.01202
v 0.00575 -0.01175 0.01202
v 0.00475 -0.00125 0.01202
v 0.00575 -0.01175 0.01202
v 0.00475 -0.01275 0.01202
v 0.00575 -0.00225 0.01202
v 0.00575 -0.01175 0.01202
v 0.00475 -0.00125 0.01202
v -0.005701 -0.001941 0.01202
v -0.005641 -0.001796 0.01202
v -0.005204 -0.001359 0.01202
v -0.005738 -0.002094 0.01202
v -0.005701 -0.001941 0.01202
v -0.005204 -0.001359 0.01202
v 0.00575 -0.01175 0.01202
v 0.005338 -0.012559 0.01202
v 0.005204 -0.012641 0.01202
v 0.005457 -0.012457 0.01202
v 0.005338 -0.012559 0.01202
v 0.00575 -0.01175 0.01202
v 0.005559 -0.012338 0.01202
v 0.005457 -0.012457 0.01202
v 0.00575 -0.01175 0.01202
v 0.005559 -0.012338 0.01202
v 0.005701 -0.012059 0.01202
v 0.005641 -0.012204 0.01202
v 0.005738 -0.011906 0.01202
v 0.005701 -0.012059 0.01202
v 0.005559 -0.012338 0.01202
v 0.00575 -0.01175 0.01202
v 0.005738 -0.011906 0.01202
v 0.005559 -0.012338 0.01202
v 0.005641 -0.001796 0.01202
v 0.004906 -0.001262 0.01202
v 0.005059 -0.001299 0.01202
v 0.00475 -0.00125 0.01202
v 0.004906 -0.001262 0.01202
v 0.005641 -0.001796 0.01202
v 0.005701 -0.001941 0.01202
v 0.00475 -0.00125 0.01202
v 0.005641 -0.001796 0.01202
v 0.005738 -0.002094 0.01202
v 0.00475 -0.00125 0.01202
v 0.005701 -0.001941 0.01202
v 0.005204 -0.001359 0.01202
v 0.005338 -0.001441 0.01202
v 0.005641 -0.001796 0.01202
v 0.005059 -0.001299 0.01202
v 0.005204 -0.001359 0.01202
v 0.005641 -0.001796 0.01202
v -0.005457 -0.001543 0.012
v -0.005559 -0.001662 0.012
v -0.00675 0.00115 0.012
v -0.00675 -0.01515 0.012
v -0.005059 -0.012701 0.012
v -0.004906 -0.012738 0.012
v -0.005204 -0.012641 0.012
v -0.005059 -0.012701 0.012
v -0.00675 -0.01515 0.012
v 0.00675 -0.01515 0.012
v 0.005338 -0.012559 0.012
v 0.005457 -0.012457 0.012
v -0.005738 -0.002094 0.012
v -0.00575 -0.00225 0.012
v -0.00675 0.00115 0.012
v -0.005738 -0.011906 0.012
v -0.005701 -0.012059 0.012
v -0.00675 -0.01515 0.012
v -0.00575 -0.01175 0.012
v -0.005738 -0.011906 0.012
v -0.00675 -0.01515 0.012
v 0.00675 -0.01515 0.012
v 0.005701 -0.012059 0.012
v 0.005738 -0.011906 0.012
v 0.00475 -0.01275 0.012
v 0.004906 -0.012738 0.012
v 0.00675 -0.01515 0.012
v 0.00675 0.00115 0.012
v 0.005738 -0.002094 0.012
v 0.005701 -0.001941 0.012
v 0.00575 -0.00225 0.012
v 0.005738 -0.002094 0.012
v 0.00675 0.00115 0.012
v 0.005738 -0.011906 0.012
v 0.00575 -0.01175 0.012
v 0.00675 -0.01515 0.012
v -0.00675 0.00115 0.0026
v -0.00675 0.00115 0.00315
v -0.00675 -0.01515 -0.0038
v 0.00675 -0.01515 -0.0038
v 0.00675 0.00115 0.00315
v 0.00675 0.00115 0.0026
v 0.00675 -0.01515 0.012
v 0.00675 0.00115 0.004575
v 0.00675 0.00115 0.00375
v 0.00675 -0.01515 -0.0038
v 0.002619 -0.01515 -0.000821
v 0.004895 -0.01515 -0.000821
v 0.002619 -0.01515 -0.001634
v 0.002619 -0.01515 -0.000821
v 0.00675 -0.01515 -0.0038
v -0.00675 -0.01515 -0.0038
v 0.002619 -0.01515 -0.001634
v 0.00675 -0.01515 -0.0038
v -0.005925 -0.01515 0.006116
v -0.005925 -0.01515 0.00113
v -0.00675 -0.01515 -0.0038
v -0.00675 -0.01515 0.012
v -0.005925 -0.01515 0.006116
v -0.00675 -0.01515 -0.0038
v 0.005925 -0.01515 0.006116
v 0.00675 -0.01515 -0.0038
v 0.005925 -0.01515 0.00113
v 0.00675 -0.01515 0.012
v 0.00675 -0.01515 -0.0038
v 0.005925 -0.01515 0.006116
v 0.003269 -0.01515 0.008717
v 0.00675 -0.01515 0.012
v 0.004895 -0.01515 0.007633
v 0.003269 -0.01515 0.007633
v 0.003269 -0.01515 0.008717
v 0.004895 -0.01515 0.007633
v 0.00675 -0.01515 0.012
v -0.001698 -0.01515 0.010234
v -0.00675 -0.01515 0.012
v 0.001698 -0.01515 0.010234
v -0.001698 -0.01515 0.010234
v 0.00675 -0.01515 0.012
v 0.003269 -0.01515 0.008717
v 0.001698 -0.01515 0.010234
v 0.00675 -0.01515 0.012
v 0.004895 -0.01515 0.006116
v 0.004895 -0.00315 0.006116
v 0.004895 -0.01515 0.007633
v 0.002619 -0.01515 -0.000821
v 0.002619 -0.00315 -0.001634
v 0.002619 -0.00315 -0.000821
v -0.002619 -0.01515 -0.000821
v -0.002619 -0.00315 -0.000821
v -0.002619 -0.01515 -0.001634
v -0.005925 -0.01515 0.00113
v -0.005925 -0.00315 0.00113
v -0.004895 -0.01515 0.00113
v 0.004895 -0.00315 0.006116
v 0.005925 -0.00315 0.006116
v 0.005925 -0.00315 0.00113
v 0.001698 -0.00315 0.008717
v 0.003269 -0.00315 0.008717
v 0.003269 -0.00315 0.007633
v 0.001698 -0.00315 0.008717
v -0.001698 -0.00315 0.010234
v 0.001698 -0.00315 0.010234
v -0.001698 -0.00315 0.008717
v -0.001698 -0.00315 0.010234
v 0.001698 -0.00315 0.008717
v 0.003269 -0.00315 0.007633
v -0.001698 -0.00315 0.008717
v 0.001698 -0.00315 0.008717
v 0.005925 -0.00315 0.00113
v 0.003269 -0.00315 0.007633
v 0.004895 -0.00315 0.006116
v -0.001698 -0.00315 0.008717
v 0.003269 -0.00315 0.007633
v 0.005925 -0.00315 0.00113
v 0.004895 -0.00315 0.00113
v -0.001698 -0.00315 0.008717
v 0.005925 -0.00315 0.00113
v -0.003269 -0.00315 0.008717
v -0.001698 -0.00315 0.008717
v 0.004895 -0.00315 0.00113
v 0.004895 -0.00315 -0.000821
v -0.003269 -0.00315 0.008717
v 0.004895 -0.00315 0.00113
v -0.003269 -0.00315 0.007633
v -0.003269 -0.00315 0.008717
v 0.004895 -0.00315 -0.000821
v 0.002619 -0.00315 -0.000821
v -0.003269 -0.00315 0.007633
v 0.004895 -0.00315 -0.000821
v -0.004895 -0.00315 0.006116
v -0.003269 -0.00315 0.007633
v 0.002619 -0.00315 -0.000821
v 0.002619 -0.00315 -0.001634
v -0.004895 -0.00315 0.006116
v 0.002619 -0.00315 -0.000821
v -0.002619 -0.00315 -0.000821
v -0.004895 -0.00315 0.006116
v 0.002619 -0.00315 -0.001634
v -0.004895 -0.00315 0.00113
v -0.002619 -0.00315 -0.000821
v -0.004895 -0.00315 -0.000821
v -0.004895 -0.00315 0.006116
v -0.002619 -0.00315 -0.000821
v -0.004895 -0.00315 0.00113
v -0.005925 -0.00315 0.00113
v -0.004895 -0.00315 0.006116
v -0.004895 -0.00315 0.00113
v -0.005925 -0.00315 0.006116
v -0.004895 -0.00315 0.006116
v -0.005925 -0.00315 0.00113
v -0.005559 -0.012338 0.012
v -0.005641 -0.012204 0.012
v -0.005641 -0.012204 0.01202
v -0.005204 -0.012641 0.01202
v -0.005204 -0.012641 0.012
v -0.005338 -0.012559 0.01202
v -0.005059 -0.012701 0.012
v -0.005204 -0.012641 0.012
v -0.005204 -0.012641 0.01202
v -0.005059 -0.012701 0.01202
v -0.005059 -0.012701 0.012
v -0.005204 -0.012641 0.01202
v 0.00475 -0.01275 0.012
v -0.00475 -0.01275 0.01202
v 0.00475 -0.01275 0.01202
v -0.00475 -0.01275 0.012
v -0.00475 -0.01275 0.01202
v 0.00475 -0.01275 0.012
v 0.005457 -0.012457 0.012
v 0.005338 -0.012559 0.012
v 0.005338 -0.012559 0.01202
v 0.005457 -0.012457 0.01202
v 0.005457 -0.012457 0.012
v 0.005338 -0.012559 0.01202
v 0.005059 -0.001299 0.01202
v 0.005059 -0.001299 0.012
v 0.005204 -0.001359 0.01202
v 0.004906 -0.001262 0.012
v 0.005059 -0.001299 0.012
v 0.005059 -0.001299 0.01202
v 0.004906 -0.001262 0.01202
v 0.004906 -0.001262 0.012
v 0.005059 -0.001299 0.01202
v 0.00475 -0.00125 0.012
v 0.004906 -0.001262 0.012
v 0.004906 -0.001262 0.01202
v 0.00475 -0.00125 0.01202
v 0.00475 -0.00125 0.012
v 0.004906 -0.001262 0.01202
v -0.00475 -0.00125 0.012
v 0.00475 -0.00125 0.01202
v -0.00475 -0.00125 0.01202
v 0.00475 -0.00125 0.012
v 0.00475 -0.00125 0.01202
v -0.00475 -0.00125 0.012
v -0.004906 -0.001262 0.012
v -0.00475 -0.00125 0.012
v -0.00475 -0.00125 0.01202
v -0.004906 -0.001262 0.01202
v -0.004906 -0.001262 0.012
v -0.00475 -0.00125 0.01202
v -0.005059 -0.001299 0.012
v -0.004906 -0.001262 0.012
v -0.004906 -0.001262 0.01202
v -0.005059 -0.001299 0.01202
v -0.005059 -0.001299 0.012
v -0.004906 -0.001262 0.01202
v -0.005204 -0.001359 0.012
v -0.005059 -0.001299 0.012
v -0.005059 -0.001299 0.01202
v -0.005204 -0.001359 0.01202
v -0.005204 -0.001359 0.012
v -0.005059 -0.001299 0.01202
v -0.005338 -0.001441 0.01202
v -0.005338 -0.001441 0.012
v -0.005204 -0.001359 0.01202
v -0.005457 -0.001543 0.012
v -0.005338 -0.001441 0.012
v -0.005338 -0.001441 0.01202
v -0.005457 -0.001543 0.01202
v -0.005457 -0.001543 0.012
v -0.005338 -0.001441 0.01202
v -0.005559 -0.001662 0.012
v -0.005457 -0.001543 0.012
v -0.005457 -0.001543 0.01202
v -0.004906 -0.012738 0.01202
v -0.005059 -0.012701 0.01202
v -0.00575 -0.01175 0.01202
v -0.00475 -0.01275 0.01202
v -0.004906 -0.012738 0.01202
v -0.00575 -0.01175 0.01202
v -0.005338 -0.001441 0.01202
v -0.005641 -0.001796 0.01202
v -0.005457 -0.001543 0.01202
v 0.00575 -0.01175 0.01202
v 0.004906 -0.012738 0.01202
v 0.00475 -0.01275 0.01202
v 0.005738 -0.002094 0.01202
v 0.00575 -0.00225 0.01202
v 0.00475 -0.00125 0.01202
v -0.005204 -0.001359 0.01202
v -0.005641 -0.001796 0.01202
v -0.005338 -0.001441 0.01202
v 0.005925 -0.01515 0.006116
v 0.004895 -0.01515 0.006116
v 0.004895 -0.01515 0.007633
v 0.00675 -0.01515 -0.0038
v 0.004895 -0.01515 0.00113
v 0.005925 -0.01515 0.00113
v 0.004895 -0.01515 -0.000821
v 0.004895 -0.01515 0.00113
v 0.00675 -0.01515 -0.0038
v -0.002619 -0.01515 -0.001634
v 0.002619 -0.01515 -0.001634
v -0.00675 -0.01515 -0.0038
v -0.00675 -0.01515 -0.0038
v -0.002619 -0.01515 -0.000821
v -0.002619 -0.01515 -0.001634
v -0.004895 -0.01515 -0.000821
v -0.002619 -0.01515 -0.000821
v -0.00675 -0.01515 -0.0038
v -0.004895 -0.01515 0.00113
v -0.004895 -0.01515 -0.000821
v -0.00675 -0.01515 -0.0038
v -0.00675 -0.01515 -0.0038
v -0.005925 -0.01515 0.00113
v -0.004895 -0.01515 0.00113
v -0.004895 -0.01515 0.006116
v -0.005925 -0.01515 0.006116
v -0.00675 -0.01515 0.012
v -0.00675 -0.01515 0.012
v -0.004895 -0.01515 0.007633
v -0.004895 -0.01515 0.006116
v -0.003269 -0.01515 0.007633
v -0.004895 -0.01515 0.007633
v -0.00675 -0.01515 0.012
v -0.003269 -0.01515 0.008717
v -0.003269 -0.01515 0.007633
v -0.00675 -0.01515 0.012
v 0.004895 -0.01515 0.007633
v 0.00675 -0.01515 0.012
v 0.005925 -0.01515 0.006116
v -0.00675 -0.01515 0.012
v -0.001698 -0.01515 0.008717
v -0.003269 -0.01515 0.008717
v -0.001698 -0.01515 0.010234
v -0.001698 -0.01515 0.008717
v -0.00675 -0.01515 0.012
v 0.001698 -0.01515 0.008717
v 0.001698 -0.01515 0.010234
v 0.003269 -0.01515 0.008717
v 0.003269 -0.00315 0.007633
v 0.004895 -0.00315 0.007633
v 0.004895 -0.00315 0.006116
v -0.004895 -0.00315 0.006116
v -0.004895 -0.00315 0.007633
v -0.003269 -0.00315 0.007633
v -0.002619 -0.00315 -0.001634
v -0.002619 -0.00315 -0.000821
v 0.002619 -0.00315 -0.001634
v -0.005738 -0.011906 0.012
v -0.00575 -0.01175 0.012
v -0.00575 -0.01175 0.01202
v -0.005738 -0.011906 0.01202
v -0.005738 -0.011906 0.012
v -0.00575 -0.01175 0.01202
v -0.005701 -0.012059 0.012
v -0.005738 -0.011906 0.012
v -0.005738 -0.011906 0.01202
v -0.005701 -0.012059 0.01202
v -0.005701 -0.012059 0.012
v -0.005738 -0.011906 0.01202
v -0.005641 -0.012204 0.012
v -0.005701 -0.012059 0.012
v -0.005701 -0.012059 0.01202
v -0.005641 -0.012204 0.01202
v -0.005641 -0.012204 0.012
v -0.005701 -0.012059 0.01202
v -0.004906 -0.012738 0.012
v -0.005059 -0.012701 0.012
v -0.005059 -0.012701 0.01202
v -0.004906 -0.012738 0.01202
v -0.004906 -0.012738 0.012
v -0.005059 -0.012701 0.01202
v -0.00475 -0.01275 0.012
v -0.004906 -0.012738 0.012
v -0.004906 -0.012738 0.01202
v -0.00475 -0.01275 0.01202
v -0.00475 -0.01275 0.012
v -0.004906 -0.012738 0.01202
v 0.004906 -0.012738 0.012
v 0.00475 -0.01275 0.012
v 0.00475 -0.01275 0.01202
v 0.004906 -0.012738 0.01202
v 0.004906 -0.012738 0.012
v 0.00475 -0.01275 0.01202
v 0.005338 -0.012559 0.01202
v 0.005338 -0.012559 0.012
v 0.005204 -0.012641 0.01202
v 0.005701 -0.012059 0.012
v 0.005641 -0.012204 0.012
v 0.005641 -0.012204 0.01202
v 0.005701 -0.012059 0.01202
v 0.005701 -0.012059 0.012
v 0.005641 -0.012204 0.01202
v 0.005738 -0.011906 0.012
v 0.005701 -0.012059 0.012
v 0.005701 -0.012059 0.01202
v 0.005738 -0.011906 0.01202
v 0.005738 -0.011906 0.012
v 0.005701 -0.012059 0.01202
v 0.00575 -0.01175 0.012
v 0.005738 -0.011906 0.012
v 0.005738 -0.011906 0.01202
v 0.00575 -0.01175 0.01202
v 0.00575 -0.01175 0.012
v 0.005738 -0.011906 0.01202
v 0.005738 -0.002094 0.012
v 0.00575 -0.00225 0.012
v 0.00575 -0.00225 0.01202
v 0.005738 -0.002094 0.01202
v 0.005738 -0.002094 0.012
v 0.00575 -0.00225 0.01202
v 0.005701 -0.001941 0.012
v 0.005738 -0.002094 0.012
v 0.005738 -0.002094 0.01202
v 0.005701 -0.001941 0.01202
v 0.005701 -0.001941 0.012
v 0.005738 -0.002094 0.01202
v 0.005641 -0.001796 0.012
v 0.005701 -0.001941 0.012
v 0.005701 -0.001941 0.01202
v 0.005641 -0.001796 0.01202
v 0.005641 -0.001796 0.012
v 0.005701 -0.001941 0.01202
v 0.005559 -0.001662 0.012
v 0.005641 -0.001796 0.012
v 0.005641 -0.001796 0.01202
v 0.005559 -0.001662 0.01202
v 0.005559 -0.001662 0.012
v 0.005641 -0.001796 0.01202
v 0.005457 -0.001543 0.012
v 0.005559 -0.001662 0.012
v 0.005559 -0.001662 0.01202
v 0.005457 -0.001543 0.01202
v 0.005457 -0.001543 0.012
v 0.005559 -0.001662 0.01202
v 0.005338 -0.001441 0.012
v 0.005457 -0.001543 0.012
v 0.005457 -0.001543 0.01202
v 0.005059 -0.001299 0.012
v 0.005204 -0.001359 0.012
v 0.005204 -0.001359 0.01202
v -0.005338 -0.001441 0.012
v -0.005204 -0.001359 0.012
v -0.005204 -0.001359 0.01202
v -0.005559 -0.001662 0.01202
v -0.005559 -0.001662 0.012
v -0.005457 -0.001543 0.01202
v -0.005641 -0.001796 0.012
v -0.005559 -0.001662 0.012
v -0.005559 -0.001662 0.01202
v -0.005641 -0.001796 0.01202
v -0.005641 -0.001796 0.012
v -0.005559 -0.001662 0.01202
v -0.005701 -0.001941 0.012
v -0.005641 -0.001796 0.012
v -0.005641 -0.001796 0.01202
v -0.005701 -0.001941 0.01202
v -0.005701 -0.001941 0.012
v -0.005641 -0.001796 0.01202
v -0.005738 -0.002094 0.012
v -0.005701 -0.001941 0.012
v -0.005701 -0.001941 0.01202
v -0.005738 -0.002094 0.01202
v -0.005738 -0.002094 0.012
v -0.005701 -0.001941 0.01202
v -0.00575 -0.00225 0.012
v -0.005738 -0.002094 0.012
v -0.005738 -0.002094 0.01202
v -0.00575 -0.00225 0.01202
v -0.00575 -0.00225 0.012
v -0.005738 -0.002094 0.01202
v -0.005641 -0.001796 0.01202
v -0.005559 -0.001662 0.01202
v -0.005457 -0.001543 0.01202
v 0.005457 -0.001543 0.01202
v 0.005559 -0.001662 0.01202
v 0.005641 -0.001796 0.01202
v 0.005641 -0.001796 0.01202
v 0.005338 -0.001441 0.01202
v 0.005457 -0.001543 0.01202

#	               Face list

usemtl None
f 3 2 1
f 6 5 4
f 9 8 7
f 12 11 10
f 15 14 13
f 18 17 16
f 21 20 19
f 24 23 22
f 27 26 25
f 30 29 28
f 33 32 31
f 36 35 34
f 39 38 37
f 42 41 40
f 45 44 43
f 48 47 46
f 51 50 49
f 54 53 52
f 57 56 55
f 60 59 58
f 63 62 61
f 66 65 64
f 69 68 67
f 72 71 70
f 75 74 73
f 78 77 76
f 81 80 79
f 84 83 82
f 87 86 85
f 90 89 88
f 93 92 91
f 96 95 94
f 99 98 97
f 102 101 100
f 105 104 103
f 108 107 106
f 111 110 109
f 114 113 112
f 117 116 115
f 120 119 118
f 123 122 121
f 126 125 124
f 129 128 127
f 132 131 130
f 135 134 133
f 138 137 136
f 141 140 139
f 144 143 142
f 147 146 145
f 150 149 148
f 153 152 151
f 156 155 154
f 159 158 157
f 162 161 160
f 165 164 163
f 168 167 166
f 171 170 169
f 174 173 172
f 177 176 175
f 180 179 178
f 183 182 181
f 186 185 184
f 189 188 187
f 192 191 190
f 195 194 193
f 198 197 196
f 201 200 199
f 204 203 202
f 207 206 205
f 210 209 208
f 213 212 211
f 216 215 214
f 219 218 217
f 222 221 220
f 225 224 223
f 228 227 226
f 231 230 229
f 234 233 232
f 237 236 235
f 240 239 238
f 243 242 241
f 246 245 244
f 249 248 247
f 252 251 250
f 255 254 253
f 258 257 256
f 261 260 259
f 264 263 262
f 267 266 265
f 270 269 268
f 273 272 271
f 276 275 274
f 279 278 277
f 282 281 280
f 285 284 283
f 288 287 286
f 291 290 289
f 294 293 292
f 297 296 295
f 300 299 298
f 303 302 301
f 306 305 304
f 309 308 307
f 312 311 310
f 315 314 313
f 318 317 316
f 321 320 319
f 324 323 322
f 327 326 325
f 330 329 328
f 333 332 331
f 336 335 334
f 339 338 337
f 342 341 340
f 345 344 343
f 348 347 346
f 351 350 349
f 354 353 352
f 357 356 355
f 360 359 358
f 363 362 361
f 366 365 364
f 369 368 367
f 372 371 370
f 375 374 373
f 378 377 376
f 381 380 379
f 384 383 382
f 387 386 385
f 390 389 388
f 393 392 391
f 396 395 394
f 399 398 397
f 402 401 400
f 405 404 403
f 408 407 406
f 411 410 409
f 414 413 412
f 417 416 415
f 420 419 418
f 423 422 421
f 426 425 424
f 429 428 427
f 432 431 430
f 435 434 433
f 438 437 436
f 441 440 439
f 444 443 442
f 447 446 445
f 450 449 448
f 453 452 451
f 456 455 454
f 459 458 457
f 462 461 460
f 465 464 463
f 468 467 466
f 471 470 469
f 474 473 472
f 477 476 475
f 480 479 478
f 483 482 481
f 486 485 484
f 489 488 487
f 492 491 490
f 495 494 493
f 498 497 496
f 501 500 499
f 504 503 502
f 507 506 505
f 510 509 508
f 513 512 511
f 516 515 514
f 519 518 517
f 522 521 520
f 525 524 523
f 528 527 526
f 531 530 529
f 534 533 532
f 537 536 535
f 540 539 538
f 543 542 541
f 546 545 544
f 549 548 547
f 552 551 550
f 555 554 553
f 558 557 556
f 561 560 559
f 564 563 562
f 567 566 565
f 570 569 568
f 573 572 571
f 576 575 574
f 579 578 577
f 582 581 580
f 585 584 583
f 588 587 586
f 591 590 589
f 594 593 592
f 597 596 595
f 600 599 598
f 603 602 601
f 606 605 604
f 609 608 607
f 612 611 610
f 615 614 613
f 618 617 616
f 621 620 619
f 624 623 622
f 627 626 625
f 630 629 628
f 633 632 631
f 636 635 634
f 639 638 637
f 642 641 640
f 645 644 643
f 648 647 646
f 651 650 649
f 654 653 652
f 657 656 655
f 660 659 658
f 663 662 661
f 666 665 664
f 669 668 667
f 672 671 670
f 675 674 673
f 678 677 676
f 681 680 679
f 684 683 682
f 687 686 685
f 690 689 688
f 693 692 691
f 696 695 694
f 699 698 697
f 702 701 700
f 705 704 703
f 708 707 706
f 711 710 709
f 714 713 712
f 717 716 715
f 720 719 718
f 723 722 721
f 726 725 724
f 729 728 727
f 732 731 730
f 735 734 733
f 738 737 736
f 741 740 739
f 744 743 742
f 747 746 745
f 750 749 748
f 753 752 751
f 756 755 754
f 759 758 757
f 762 761 760
f 765 764 763
f 768 767 766
f 771 770 769
f 774 773 772
f 777 776 775
f 780 779 778
f 783 782 781
f 786 785 784
f 789 788 787
f 792 791 790
f 795 794 793
f 798 797 796
f 801 800 799
f 804 803 802
f 807 806 805
f 810 809 808
f 813 812 811
f 816 815 814
f 819 818 817
f 822 821 820
f 825 824 823
f 828 827 826
f 831 830 829
f 834 833 832
f 837 836 835
f 840 839 838
f 843 842 841
f 846 845 844
f 849 848 847
f 852 851 850
f 855 854 853
f 858 857 856
f 861 860 859
f 864 863 862
f 867 866 865
f 870 869 868
f 873 872 871
f 876 875 874
f 879 878 877
f 882 881 880
f 885 884 883
f 888 887 886
f 891 890 889
f 894 893 892
f 897 896 895
f 900 899 898
f 903 902 901
f 906 905 904
f 909 908 907
f 912 911 910
f 915 914 913
f 918 917 916
f 921 920 919
f 924 923 922
f 927 926 925
f 930 929 928
f 933 932 931
f 936 935 934
f 939 938 937
f 942 941 940
f 945 944 943
f 948 947 946
f 951 950 949
f 954 953 952
f 957 956 955
f 960 959 958
f 963 962 961
f 966 965 964
f 969 968 967
f 972 971 970
f 975 974 973
f 978 977 976
f 981 980 979
f 984 983 982
f 987 986 985
f 990 989 988
f 993 992 991
f 996 995 994
f 999 998 997
f 1002 1001 1000
f 1005 1004 1003
f 1008 1007 1006
f 1011 1010 1009
f 1014 1013 1012
f 1017 1016 1015
f 1020 1019 1018
f 1023 1022 1021
f 1026 1025 1024
f 1029 1028 1027
f 1032 1031 1030
f 1035 1034 1033
f 1038 1037 1036
f 1041 1040 1039
f 1044 1043 1042
f 1047 1046 1045
f 1050 1049 1048
f 1053 1052 1051
f 1056 1055 1054
f 1059 1058 1057
f 1062 1061 1060
f 1065 1064 1063
f 1068 1067 1066
f 1071 1070 1069
f 1074 1073 1072
f 1077 1076 1075
f 1080 1079 1078
f 1083 1082 1081
f 1086 1085 1084
f 1089 1088 1087
f 1092 1091 1090
f 1095 1094 1093
f 1098 1097 1096
f 1101 1100 1099
f 1104 1103 1102
f 1107 1106 1105
f 1110 1109 1108
f 1113 1112 1111
f 1116 1115 1114
f 1119 1118 1117
f 1122 1121 1120
f 1125 1124 1123
f 1128 1127 1126
f 1131 1130 1129
f 1134 1133 1132
f 1137 1136 1135
f 1140 1139 1138
f 1143 1142 1141
f 1146 1145 1144
f 1149 1148 1147
f 1152 1151 1150
f 1155 1154 1153
f 1158 1157 1156
f 1161 1160 1159
f 1164 1163 1162
f 1167 1166 1165
f 1170 1169 1168
f 1173 1172 1171
f 1176 1175 1174
f 1179 1178 1177
f 1182 1181 1180
f 1185 1184 1183
f 1188 1187 1186
f 1191 1190 1189
f 1194 1193 1192
f 1197 1196 1195
f 1200 1199 1198
f 1203 1202 1201
f 1206 1205 1204
f 1209 1208 1207
f 1212 1211 1210
f 1215 1214 1213
f 1218 1217 1216
f 1221 1220 1219
f 1224 1223 1222
f 1227 1226 1225
f 1230 1229 1228
f 1233 1232 1231
f 1236 1235 1234
f 1239 1238 1237
f 1242 1241 1240
f 1245 1244 1243
f 1248 1247 1246
f 1251 1250 1249
f 1254 1253 1252
f 1257 1256 1255
f 1260 1259 1258
f 1263 1262 1261
f 1266 1265 1264
f 1269 1268 1267
f 1272 1271 1270
f 1275 1274 1273
f 1278 1277 1276
f 1281 1280 1279
f 1284 1283 1282
f 1287 1286 1285
f 1290 1289 1288
f 1293 1292 1291
f 1296 1295 1294
f 1299 1298 1297
f 1302 1301 1300
f 1305 1304 1303
f 1308 1307 1306
f 1311 1310 1309
f 1314 1313 1312
f 1317 1316 1315
f 1320 1319 1318
f 1323 1322 1321
f 1326 1325 1324
f 1329 1328 1327
f 1332 1331 1330
f 1335 1334 1333
f 1338 1337 1336
f 1341 1340 1339
f 1344 1343 1342
f 1347 1346 1345
f 1350 1349 1348
f 1353 1352 1351
f 1356 1355 1354
f 1359 1358 1357
f 1362 1361 1360
f 1365 1364 1363
f 1368 1367 1366
f 1371 1370 1369
f 1374 1373 1372
f 1377 1376 1375
f 1380 1379 1378
f 1383 1382 1381
f 1386 1385 1384
f 1389 1388 1387
f 1392 1391 1390
f 1395 1394 1393
f 1398 1397 1396
f 1401 1400 1399
f 1404 1403 1402
f 1407 1406 1405
f 1410 1409 1408
f 1413 1412 1411
f 1416 1415 1414
f 1419 1418 1417
f 1422 1421 1420
f 1425 1424 1423
f 1428 1427 1426
f 1431 1430 1429
f 1434 1433 1432
f 1437 1436 1435
f 1440 1439 1438
f 1443 1442 1441
f 1446 1445 1444
f 1449 1448 1447
f 1452 1451 1450
f 1455 1454 1453
f 1458 1457 1456
f 1461 1460 1459
f 1464 1463 1462
f 1467 1466 1465
f 1470 1469 1468
f 1473 1472 1471
f 1476 1475 1474
f 1479 1478 1477
f 1482 1481 1480
f 1485 1484 1483
f 1488 1487 1486
f 1491 1490 1489
f 1494 1493 1492
f 1497 1496 1495
f 1500 1499 1498
f 1503 1502 1501
f 1506 1505 1504
f 1509 1508 1507
f 1512 1511 1510
f 1515 1514 1513
f 1518 1517 1516
f 1521 1520 1519
f 1524 1523 1522
f 1527 1526 1525
f 1530 1529 1528
f 1533 1532 1531
f 1536 1535 1534
f 1539 1538 1537
f 1542 1541 1540
f 1545 1544 1543
f 1548 1547 1546
f 1551 1550 1549
f 1554 1553 1552
f 1557 1556 1555
f 1560 1559 1558
f 1563 1562 1561
f 1566 1565 1564
f 1569 1568 1567
f 1572 1571 1570
f 1575 1574 1573
f 1578 1577 1576
f 1581 1580 1579
f 1584 1583 1582
f 1587 1586 1585
f 1590 1589 1588
f 1593 1592 1591
f 1596 1595 1594
f 1599 1598 1597
f 1602 1601 1600
f 1605 1604 1603
f 1608 1607 1606
f 1611 1610 1609
f 1614 1613 1612
f 1617 1616 1615
f 1620 1619 1618
f 1623 1622 1621
f 1626 1625 1624
f 1629 1628 1627
f 1632 1631 1630
f 1635 1634 1633
f 1638 1637 1636
f 1641 1640 1639
f 1644 1643 1642
f 1647 1646 1645
f 1650 1649 1648
f 1653 1652 1651
f 1656 1655 1654
f 1659 1658 1657
f 1662 1661 1660
f 1665 1664 1663
f 1668 1667 1666
f 1671 1670 1669
f 1674 1673 1672
f 1677 1676 1675
f 1680 1679 1678
f 1683 1682 1681
f 1686 1685 1684
f 1689 1688 1687
f 1692 1691 1690
f 1695 1694 1693
f 1698 1697 1696
f 1701 1700 1699
f 1704 1703 1702
f 1707 1706 1705
f 1710 1709 1708
f 1713 1712 1711
f 1716 1715 1714
f 1719 1718 1717
f 1722 1721 1720
f 1725 1724 1723
f 1728 1727 1726
f 1731 1730 1729
f 1734 1733 1732
f 1737 1736 1735
f 1740 1739 1738
f 1743 1742 1741
f 1746 1745 1744
f 1749 1748 1747
f 1752 1751 1750
f 1755 1754 1753
f 1758 1757 1756
f 1761 1760 1759
f 1764 1763 1762
f 1767 1766 1765
f 1770 1769 1768
f 1773 1772 1771
f 1776 1775 1774
f 1779 1778 1777
f 1782 1781 1780
f 1785 1784 1783
f 1788 1787 1786
f 1791 1790 1789
f 1794 1793 1792
f 1797 1796 1795
f 1800 1799 1798
f 1803 1802 1801
f 1806 1805 1804
f 1809 1808 1807
f 1812 1811 1810
f 1815 1814 1813
f 1818 1817 1816
f 1821 1820 1819
f 1824 1823 1822
f 1827 1826 1825
f 1830 1829 1828
f 1833 1832 1831
f 1836 1835 1834
f 1839 1838 1837
f 1842 1841 1840
f 1845 1844 1843
f 1848 1847 1846
f 1851 1850 1849
f 1854 1853 1852
f 1857 1856 1855
f 1860 1859 1858
f 1863 1862 1861
f 1866 1865 1864
f 1869 1868 1867
f 1872 1871 1870
f 1875 1874 1873
f 1878 1877 1876
f 1881 1880 1879
f 1884 1883 1882
f 1887 1886 1885
f 1890 1889 1888
f 1893 1892 1891
f 1896 1895 1894
f 1899 1898 1897
f 1902 1901 1900
f 1905 1904 1903
f 1908 1907 1906
f 1911 1910 1909
f 1914 1913 1912
f 1917 1916 1915
f 1920 1919 1918
f 1923 1922 1921
f 1926 1925 1924
f 1929 1928 1927
f 1932 1931 1930
f 1935 1934 1933
f 1938 1937 1936
f 1941 1940 1939
f 1944 1943 1942
f 1947 1946 1945
f 1950 1949 1948
f 1953 1952 1951
f 1956 1955 1954
f 1959 1958 1957
f 1962 1961 1960
f 1965 1964 1963
f 1968 1967 1966
f 1971 1970 1969
f 1974 1973 1972
f 1977 1976 1975
f 1980 1979 1978
f 1983 1982 1981
f 1986 1985 1984
f 1989 1988 1987
f 1992 1991 1990
f 1995 1994 1993
f 1998 1997 1996
f 2001 2000 1999
f 2004 2003 2002
f 2007 2006 2005
f 2010 2009 2008
f 2013 2012 2011
f 2016 2015 2014
f 2019 2018 2017
f 2022 2021 2020
f 2025 2024 2023
f 2028 2027 2026
f 2031 2030 2029
f 2034 2033 2032
f 2037 2036 2035
f 2040 2039 2038
f 2043 2042 2041
f 2046 2045 2044
f 2049 2048 2047
f 2052 2051 2050
f 2055 2054 2053
f 2058 2057 2056
f 2061 2060 2059
f 2064 2063 2062
f 2067 2066 2065
f 2070 2069 2068
f 2073 2072 2071
f 2076 2075 2074
f 2079 2078 2077
f 2082 2081 2080
f 2085 2084 2083
f 2088 2087 2086
f 2091 2090 2089
f 2094 2093 2092
f 2097 2096 2095
f 2100 2099 2098
f 2103 2102 2101
f 2106 2105 2104
f 2109 2108 2107
f 2112 2111 2110
f 2115 2114 2113
f 2118 2117 2116
f 2121 2120 2119
f 2124 2123 2122
f 2127 2126 2125
f 2130 2129 2128
f 2133 2132 2131
f 2136 2135 2134
f 2139 2138 2137
f 2142 2141 2140
f 2145 2144 2143
f 2148 2147 2146
f 2151 2150 2149
f 2154 2153 2152
f 2157 2156 2155
f 2160 2159 2158
f 2163 2162 2161
f 2166 2165 2164
f 2169 2168 2167
f 2172 2171 2170
f 2175 2174 2173
f 2178 2177 2176
f 2181 2180 2179
f 2184 2183 2182
f 2187 2186 2185
f 2190 2189 2188
f 2193 2192 2191
f 2196 2195 2194
f 2199 2198 2197
f 2202 2201 2200
f 2205 2204 2203
f 2208 2207 2206
f 2211 2210 2209
f 2214 2213 2212
f 2217 2216 2215
f 2220 2219 2218
f 2223 2222 2221
f 2226 2225 2224
f 2229 2228 2227
f 2232 2231 2230
f 2235 2234 2233
f 2238 2237 2236
f 2241 2240 2239
f 2244 2243 2242
f 2247 2246 2245
f 2250 2249 2248
f 2253 2252 2251
f 2256 2255 2254
f 2259 2258 2257
f 2262 2261 2260
f 2265 2264 2263
f 2268 2267 2266
f 2271 2270 2269
f 2274 2273 2272
f 2277 2276 2275
f 2280 2279 2278
f 2283 2282 2281
f 2286 2285 2284
f 2289 2288 2287
f 2292 2291 2290
f 2295 2294 2293
f 2298 2297 2296
f 2301 2300 2299
f 2304 2303 2302
f 2307 2306 2305
f 2310 2309 2308
f 2313 2312 2311
f 2316 2315 2314
f 2319 2318 2317
f 2322 2321 2320
f 2325 2324 2323
f 2328 2327 2326
f 2331 2330 2329
f 2334 2333 2332
f 2337 2336 2335
f 2340 2339 2338
f 2343 2342 2341
f 2346 2345 2344
f 2349 2348 2347
f 2352 2351 2350
f 2355 2354 2353
f 2358 2357 2356
f 2361 2360 2359
f 2364 2363 2362
f 2367 2366 2365
f 2370 2369 2368
f 2373 2372 2371
f 2376 2375 2374
f 2379 2378 2377
f 2382 2381 2380
f 2385 2384 2383
f 2388 2387 2386
f 2391 2390 2389
f 2394 2393 2392
f 2397 2396 2395
f 2400 2399 2398
f 2403 2402 2401
f 2406 2405 2404
f 2409 2408 2407
f 2412 2411 2410
f 2415 2414 2413
f 2418 2417 2416
f 2421 2420 2419
f 2424 2423 2422
f 2427 2426 2425
f 2430 2429 2428
f 2433 2432 2431
f 2436 2435 2434
f 2439 2438 2437
f 2442 2441 2440
f 2445 2444 2443
f 2448 2447 2446
f 2451 2450 2449
f 2454 2453 2452
f 2457 2456 2455
f 2460 2459 2458
f 2463 2462 2461
f 2466 2465 2464
f 2469 2468 2467
f 2472 2471 2470
f 2475 2474 2473
f 2478 2477 2476
f 2481 2480 2479
f 2484 2483 2482
f 2487 2486 2485
f 2490 2489 2488
f 2493 2492 2491
f 2496 2495 2494
f 2499 2498 2497
f 2502 2501 2500
f 2505 2504 2503
f 2508 2507 2506
f 2511 2510 2509
f 2514 2513 2512
f 2517 2516 2515
f 2520 2519 2518
f 2523 2522 2521
f 2526 2525 2524
f 2529 2528 2527
f 2532 2531 2530
f 2535 2534 2533
f 2538 2537 2536
f 2541 2540 2539
f 2544 2543 2542
f 2547 2546 2545
f 2550 2549 2548
f 2553 2552 2551
f 2556 2555 2554
f 2559 2558 2557
f 2562 2561 2560
f 2565 2564 2563
f 2568 2567 2566
f 2571 2570 2569
f 2574 2573 2572
f 2577 2576 2575
f 2580 2579 2578
f 2583 2582 2581
f 2586 2585 2584
f 2589 2588 2587
f 2592 2591 2590
f 2595 2594 2593
f 2598 2597 2596
f 2601 2600 2599
f 2604 2603 2602
f 2607 2606 2605
f 2610 2609 2608
f 2613 2612 2611
f 2616 2615 2614
f 2619 2618 2617
f 2622 2621 2620
f 2625 2624 2623
f 2628 2627 2626
f 2631 2630 2629
f 2634 2633 2632
f 2637 2636 2635
f 2640 2639 2638
f 2643 2642 2641
f 2646 2645 2644
f 2649 2648 2647
f 2652 2651 2650
f 2655 2654 2653
f 2658 2657 2656
f 2661 2660 2659
f 2664 2663 2662
f 2667 2666 2665
f 2670 2669 2668
f 2673 2672 2671
f 2676 2675 2674
f 2679 2678 2677
f 2682 2681 2680
f 2685 2684 2683
f 2688 2687 2686
f 2691 2690 2689
f 2694 2693 2692
f 2697 2696 2695
f 2700 2699 2698
f 2703 2702 2701
f 2706 2705 2704
f 2709 2708 2707
f 2712 2711 2710
f 2715 2714 2713
f 2718 2717 2716
f 2721 2720 2719
f 2724 2723 2722
f 2727 2726 2725
f 2730 2729 2728
f 2733 2732 2731
f 2736 2735 2734
f 2739 2738 2737
f 2742 2741 2740
f 2745 2744 2743
f 2748 2747 2746
f 2751 2750 2749
f 2754 2753 2752
f 2757 2756 2755
f 2760 2759 2758
f 2763 2762 2761
f 2766 2765 2764
f 2769 2768 2767
f 2772 2771 2770
f 2775 2774 2773
f 2778 2777 2776
f 2781 2780 2779
f 2784 2783 2782
f 2787 2786 2785
f 2790 2789 2788
f 2793 2792 2791
f 2796 2795 2794
f 2799 2798 2797
f 2802 2801 2800
f 2805 2804 2803
f 2808 2807 2806
f 2811 2810 2809
f 2814 2813 2812
f 2817 2816 2815
f 2820 2819 2818
f 2823 2822 2821
f 2826 2825 2824
f 2829 2828 2827
f 2832 2831 2830
f 2835 2834 2833
f 2838 2837 2836
f 2841 2840 2839
f 2844 2843 2842
f 2847 2846 2845
f 2850 2849 2848
f 2853 2852 2851

#	             End of file
