solid OpenSCAD_Model
  facet normal 0 0.156435 -0.987688
    outer loop
      vertex -500 0 -4.5
      vertex 500 1.39058 -4.27975
      vertex 500 0 -4.5
    endloop
  endfacet
  facet normal 0 0.156435 -0.987688
    outer loop
      vertex 500 1.39058 -4.27975
      vertex -500 0 -4.5
      vertex -500 1.39058 -4.27975
    endloop
  endfacet
  facet normal 0 0.45399 -0.891007
    outer loop
      vertex -500 1.39058 -4.27975
      vertex 500 2.64503 -3.64058
      vertex 500 1.39058 -4.27975
    endloop
  endfacet
  facet normal 0 0.45399 -0.891007
    outer loop
      vertex 500 2.64503 -3.64058
      vertex -500 1.39058 -4.27975
      vertex -500 2.64503 -3.64058
    endloop
  endfacet
  facet normal 0 0.707107 -0.707107
    outer loop
      vertex 500 2.64503 -3.64058
      vertex -500 3.64058 -2.64503
      vertex 500 3.64058 -2.64503
    endloop
  endfacet
  facet normal 0 0.707107 -0.707107
    outer loop
      vertex -500 3.64058 -2.64503
      vertex 500 2.64503 -3.64058
      vertex -500 2.64503 -3.64058
    endloop
  endfacet
  facet normal 0 0.891007 -0.45399
    outer loop
      vertex 500 3.64058 -2.64503
      vertex -500 4.27975 -1.39058
      vertex 500 4.27975 -1.39058
    endloop
  endfacet
  facet normal 0 0.891007 -0.45399
    outer loop
      vertex -500 4.27975 -1.39058
      vertex 500 3.64058 -2.64503
      vertex -500 3.64058 -2.64503
    endloop
  endfacet
  facet normal 9.58102e-018 0.987688 -0.156435
    outer loop
      vertex 500 4.27975 -1.39058
      vertex -500 4.5 -3.08907e-014
      vertex 500 4.5 3.03396e-014
    endloop
  endfacet
  facet normal 0 0.987688 -0.156435
    outer loop
      vertex -500 4.5 -3.08907e-014
      vertex 500 4.27975 -1.39058
      vertex -500 4.27975 -1.39058
    endloop
  endfacet
  facet normal 0 0.987688 0.156435
    outer loop
      vertex 500 4.5 3.03396e-014
      vertex -500 4.27975 1.39058
      vertex 500 4.27975 1.39058
    endloop
  endfacet
  facet normal -9.58102e-018 0.987688 0.156435
    outer loop
      vertex -500 4.27975 1.39058
      vertex 500 4.5 3.03396e-014
      vertex -500 4.5 -3.08907e-014
    endloop
  endfacet
  facet normal 0 0.891007 0.45399
    outer loop
      vertex 500 4.27975 1.39058
      vertex -500 3.64058 2.64503
      vertex 500 3.64058 2.64503
    endloop
  endfacet
  facet normal 0 0.891007 0.45399
    outer loop
      vertex -500 3.64058 2.64503
      vertex 500 4.27975 1.39058
      vertex -500 4.27975 1.39058
    endloop
  endfacet
  facet normal 0 0.707107 0.707107
    outer loop
      vertex 500 3.64058 2.64503
      vertex -500 2.64503 3.64058
      vertex 500 2.64503 3.64058
    endloop
  endfacet
  facet normal 0 0.707107 0.707107
    outer loop
      vertex -500 2.64503 3.64058
      vertex 500 3.64058 2.64503
      vertex -500 3.64058 2.64503
    endloop
  endfacet
  facet normal -0 0.45399 0.891007
    outer loop
      vertex -500 2.64503 3.64058
      vertex 500 1.39058 4.27975
      vertex 500 2.64503 3.64058
    endloop
  endfacet
  facet normal 0 0.45399 0.891007
    outer loop
      vertex 500 1.39058 4.27975
      vertex -500 2.64503 3.64058
      vertex -500 1.39058 4.27975
    endloop
  endfacet
  facet normal -0 0.156435 0.987688
    outer loop
      vertex -500 1.39058 4.27975
      vertex 500 5.51073e-016 4.5
      vertex 500 1.39058 4.27975
    endloop
  endfacet
  facet normal 0 0.156435 0.987688
    outer loop
      vertex 500 5.51073e-016 4.5
      vertex -500 1.39058 4.27975
      vertex -500 5.51073e-016 4.5
    endloop
  endfacet
  facet normal 0 -0.156435 0.987688
    outer loop
      vertex -500 5.51073e-016 4.5
      vertex 500 -1.39058 4.27975
      vertex 500 5.51073e-016 4.5
    endloop
  endfacet
  facet normal 0 -0.156435 0.987688
    outer loop
      vertex 500 -1.39058 4.27975
      vertex -500 5.51073e-016 4.5
      vertex -500 -1.39058 4.27975
    endloop
  endfacet
  facet normal 0 -0.45399 0.891007
    outer loop
      vertex -500 -1.39058 4.27975
      vertex 500 -2.64503 3.64058
      vertex 500 -1.39058 4.27975
    endloop
  endfacet
  facet normal 0 -0.45399 0.891007
    outer loop
      vertex 500 -2.64503 3.64058
      vertex -500 -1.39058 4.27975
      vertex -500 -2.64503 3.64058
    endloop
  endfacet
  facet normal 0 -0.707107 0.707107
    outer loop
      vertex -500 -3.64058 2.64503
      vertex 500 -2.64503 3.64058
      vertex -500 -2.64503 3.64058
    endloop
  endfacet
  facet normal 0 -0.707107 0.707107
    outer loop
      vertex 500 -2.64503 3.64058
      vertex -500 -3.64058 2.64503
      vertex 500 -3.64058 2.64503
    endloop
  endfacet
  facet normal 0 -0.891007 0.45399
    outer loop
      vertex -500 -4.27975 1.39058
      vertex 500 -3.64058 2.64503
      vertex -500 -3.64058 2.64503
    endloop
  endfacet
  facet normal 0 -0.891007 0.45399
    outer loop
      vertex 500 -3.64058 2.64503
      vertex -500 -4.27975 1.39058
      vertex 500 -4.27975 1.39058
    endloop
  endfacet
  facet normal 0 -0.987688 0.156435
    outer loop
      vertex -500 -4.27975 1.39058
      vertex 500 -4.5 3.14418e-014
      vertex 500 -4.27975 1.39058
    endloop
  endfacet
  facet normal -9.57854e-018 -0.987688 0.156435
    outer loop
      vertex 500 -4.5 3.14418e-014
      vertex -500 -4.27975 1.39058
      vertex -500 -4.5 -2.97885e-014
    endloop
  endfacet
  facet normal 9.58102e-018 -0.987688 -0.156435
    outer loop
      vertex -500 -4.27975 -1.39058
      vertex 500 -4.5 3.14418e-014
      vertex -500 -4.5 -2.97885e-014
    endloop
  endfacet
  facet normal 0 -0.987688 -0.156435
    outer loop
      vertex 500 -4.5 3.14418e-014
      vertex -500 -4.27975 -1.39058
      vertex 500 -4.27975 -1.39058
    endloop
  endfacet
  facet normal 0 -0.891007 -0.45399
    outer loop
      vertex -500 -3.64058 -2.64503
      vertex 500 -4.27975 -1.39058
      vertex -500 -4.27975 -1.39058
    endloop
  endfacet
  facet normal 0 -0.891007 -0.45399
    outer loop
      vertex 500 -4.27975 -1.39058
      vertex -500 -3.64058 -2.64503
      vertex 500 -3.64058 -2.64503
    endloop
  endfacet
  facet normal 0 -0.707107 -0.707107
    outer loop
      vertex -500 -2.64503 -3.64058
      vertex 500 -3.64058 -2.64503
      vertex -500 -3.64058 -2.64503
    endloop
  endfacet
  facet normal 0 -0.707107 -0.707107
    outer loop
      vertex 500 -3.64058 -2.64503
      vertex -500 -2.64503 -3.64058
      vertex 500 -2.64503 -3.64058
    endloop
  endfacet
  facet normal 0 -0.45399 -0.891007
    outer loop
      vertex -500 -2.64503 -3.64058
      vertex 500 -1.39058 -4.27975
      vertex 500 -2.64503 -3.64058
    endloop
  endfacet
  facet normal -0 -0.45399 -0.891007
    outer loop
      vertex 500 -1.39058 -4.27975
      vertex -500 -2.64503 -3.64058
      vertex -500 -1.39058 -4.27975
    endloop
  endfacet
  facet normal 0 -0.156435 -0.987688
    outer loop
      vertex -500 -1.39058 -4.27975
      vertex 500 0 -4.5
      vertex 500 -1.39058 -4.27975
    endloop
  endfacet
  facet normal -0 -0.156435 -0.987688
    outer loop
      vertex 500 0 -4.5
      vertex -500 -1.39058 -4.27975
      vertex -500 0 -4.5
    endloop
  endfacet
  facet normal -1 0 0
    outer loop
      vertex -500 4.27975 -1.39058
      vertex -500 4.27975 1.39058
      vertex -500 4.5 -3.08907e-014
    endloop
  endfacet
  facet normal -1 0 0
    outer loop
      vertex -500 3.64058 -2.64503
      vertex -500 4.27975 1.39058
      vertex -500 4.27975 -1.39058
    endloop
  endfacet
  facet normal -1 0 0
    outer loop
      vertex -500 3.64058 -2.64503
      vertex -500 3.64058 2.64503
      vertex -500 4.27975 1.39058
    endloop
  endfacet
  facet normal -1 0 0
    outer loop
      vertex -500 2.64503 -3.64058
      vertex -500 3.64058 2.64503
      vertex -500 3.64058 -2.64503
    endloop
  endfacet
  facet normal -1 0 0
    outer loop
      vertex -500 2.64503 -3.64058
      vertex -500 2.64503 3.64058
      vertex -500 3.64058 2.64503
    endloop
  endfacet
  facet normal -1 0 0
    outer loop
      vertex -500 1.39058 -4.27975
      vertex -500 2.64503 3.64058
      vertex -500 2.64503 -3.64058
    endloop
  endfacet
  facet normal -1 0 0
    outer loop
      vertex -500 1.39058 -4.27975
      vertex -500 1.39058 4.27975
      vertex -500 2.64503 3.64058
    endloop
  endfacet
  facet normal -1 0 0
    outer loop
      vertex -500 1.39058 -4.27975
      vertex -500 5.51073e-016 4.5
      vertex -500 1.39058 4.27975
    endloop
  endfacet
  facet normal -1 0 0
    outer loop
      vertex -500 0 -4.5
      vertex -500 5.51073e-016 4.5
      vertex -500 1.39058 -4.27975
    endloop
  endfacet
  facet normal -1 0 0
    outer loop
      vertex -500 -1.39058 -4.27975
      vertex -500 5.51073e-016 4.5
      vertex -500 0 -4.5
    endloop
  endfacet
  facet normal -1 0 0
    outer loop
      vertex -500 -1.39058 -4.27975
      vertex -500 -1.39058 4.27975
      vertex -500 5.51073e-016 4.5
    endloop
  endfacet
  facet normal -1 0 0
    outer loop
      vertex -500 -2.64503 -3.64058
      vertex -500 -1.39058 4.27975
      vertex -500 -1.39058 -4.27975
    endloop
  endfacet
  facet normal -1 0 0
    outer loop
      vertex -500 -2.64503 -3.64058
      vertex -500 -2.64503 3.64058
      vertex -500 -1.39058 4.27975
    endloop
  endfacet
  facet normal -1 0 0
    outer loop
      vertex -500 -3.64058 -2.64503
      vertex -500 -2.64503 3.64058
      vertex -500 -2.64503 -3.64058
    endloop
  endfacet
  facet normal -1 0 0
    outer loop
      vertex -500 -3.64058 -2.64503
      vertex -500 -3.64058 2.64503
      vertex -500 -2.64503 3.64058
    endloop
  endfacet
  facet normal -1 0 0
    outer loop
      vertex -500 -4.27975 -1.39058
      vertex -500 -3.64058 2.64503
      vertex -500 -3.64058 -2.64503
    endloop
  endfacet
  facet normal -1 0 0
    outer loop
      vertex -500 -4.27975 -1.39058
      vertex -500 -4.27975 1.39058
      vertex -500 -3.64058 2.64503
    endloop
  endfacet
  facet normal -1 0 -0
    outer loop
      vertex -500 -4.27975 1.39058
      vertex -500 -4.27975 -1.39058
      vertex -500 -4.5 -2.97885e-014
    endloop
  endfacet
  facet normal 1 0 0
    outer loop
      vertex 500 4.27975 1.39058
      vertex 500 4.27975 -1.39058
      vertex 500 4.5 3.03396e-014
    endloop
  endfacet
  facet normal 1 0 0
    outer loop
      vertex 500 3.64058 2.64503
      vertex 500 4.27975 -1.39058
      vertex 500 4.27975 1.39058
    endloop
  endfacet
  facet normal 1 0 0
    outer loop
      vertex 500 3.64058 2.64503
      vertex 500 3.64058 -2.64503
      vertex 500 4.27975 -1.39058
    endloop
  endfacet
  facet normal 1 0 0
    outer loop
      vertex 500 2.64503 3.64058
      vertex 500 3.64058 -2.64503
      vertex 500 3.64058 2.64503
    endloop
  endfacet
  facet normal 1 0 0
    outer loop
      vertex 500 2.64503 3.64058
      vertex 500 2.64503 -3.64058
      vertex 500 3.64058 -2.64503
    endloop
  endfacet
  facet normal 1 0 0
    outer loop
      vertex 500 1.39058 4.27975
      vertex 500 2.64503 -3.64058
      vertex 500 2.64503 3.64058
    endloop
  endfacet
  facet normal 1 0 0
    outer loop
      vertex 500 1.39058 4.27975
      vertex 500 1.39058 -4.27975
      vertex 500 2.64503 -3.64058
    endloop
  endfacet
  facet normal 1 0 0
    outer loop
      vertex 500 5.51073e-016 4.5
      vertex 500 1.39058 -4.27975
      vertex 500 1.39058 4.27975
    endloop
  endfacet
  facet normal 1 0 0
    outer loop
      vertex 500 5.51073e-016 4.5
      vertex 500 0 -4.5
      vertex 500 1.39058 -4.27975
    endloop
  endfacet
  facet normal 1 -0 0
    outer loop
      vertex 500 -1.39058 4.27975
      vertex 500 0 -4.5
      vertex 500 5.51073e-016 4.5
    endloop
  endfacet
  facet normal 1 0 0
    outer loop
      vertex 500 -1.39058 4.27975
      vertex 500 -1.39058 -4.27975
      vertex 500 0 -4.5
    endloop
  endfacet
  facet normal 1 -0 0
    outer loop
      vertex 500 -2.64503 3.64058
      vertex 500 -1.39058 -4.27975
      vertex 500 -1.39058 4.27975
    endloop
  endfacet
  facet normal 1 0 0
    outer loop
      vertex 500 -2.64503 3.64058
      vertex 500 -2.64503 -3.64058
      vertex 500 -1.39058 -4.27975
    endloop
  endfacet
  facet normal 1 -0 0
    outer loop
      vertex 500 -3.64058 2.64503
      vertex 500 -2.64503 -3.64058
      vertex 500 -2.64503 3.64058
    endloop
  endfacet
  facet normal 1 0 0
    outer loop
      vertex 500 -3.64058 2.64503
      vertex 500 -3.64058 -2.64503
      vertex 500 -2.64503 -3.64058
    endloop
  endfacet
  facet normal 1 -0 0
    outer loop
      vertex 500 -4.27975 1.39058
      vertex 500 -3.64058 -2.64503
      vertex 500 -3.64058 2.64503
    endloop
  endfacet
  facet normal 1 0 0
    outer loop
      vertex 500 -4.27975 1.39058
      vertex 500 -4.27975 -1.39058
      vertex 500 -3.64058 -2.64503
    endloop
  endfacet
  facet normal 1 0 -0
    outer loop
      vertex 500 -4.27975 -1.39058
      vertex 500 -4.27975 1.39058
      vertex 500 -4.5 3.14418e-014
    endloop
  endfacet
endsolid OpenSCAD_Model
