solid OpenSCAD_Model
  facet normal -1 0 0
    outer loop
      vertex -10 3.64058 -2.64503
      vertex -10 10 0
      vertex -10 10 -20
    endloop
  endfacet
  facet normal -1 0 -0
    outer loop
      vertex -10 4.27975 -1.39058
      vertex -10 10 0
      vertex -10 3.64058 -2.64503
    endloop
  endfacet
  facet normal -1 0 0
    outer loop
      vertex -10 10 0
      vertex -10 4.5 0
      vertex -10 9.51056 3.09017
    endloop
  endfacet
  facet normal -1 -0 0
    outer loop
      vertex -10 9.51056 3.09017
      vertex -10 4.27975 1.39058
      vertex -10 8.09017 5.87785
    endloop
  endfacet
  facet normal -1 0 0
    outer loop
      vertex -10 4.27975 1.39058
      vertex -10 9.51056 3.09017
      vertex -10 4.5 0
    endloop
  endfacet
  facet normal -1 0 -0
    outer loop
      vertex -10 4.5 0
      vertex -10 10 0
      vertex -10 4.27975 -1.39058
    endloop
  endfacet
  facet normal -1 0 0
    outer loop
      vertex -10 10 -20
      vertex -10 2.64503 -3.64058
      vertex -10 3.64058 -2.64503
    endloop
  endfacet
  facet normal -1 0 0
    outer loop
      vertex -10 10 -20
      vertex -10 1.39058 -4.27975
      vertex -10 2.64503 -3.64058
    endloop
  endfacet
  facet normal -1 0 0
    outer loop
      vertex -10 10 -20
      vertex -10 0.347644 -4.44494
      vertex -10 1.39058 -4.27975
    endloop
  endfacet
  facet normal -1 0 0
    outer loop
      vertex -10 10 -20
      vertex -10 0 -4.5
      vertex -10 0.347644 -4.44494
    endloop
  endfacet
  facet normal -1 0 0
    outer loop
      vertex -10 -10 -20
      vertex -10 0 -4.5
      vertex -10 10 -20
    endloop
  endfacet
  facet normal -1 -0 0
    outer loop
      vertex -10 0 -4.5
      vertex -10 -10 -20
      vertex -10 -0.347644 -4.44494
    endloop
  endfacet
  facet normal -1 -0 0
    outer loop
      vertex -10 -0.347644 -4.44494
      vertex -10 -10 -20
      vertex -10 -1.39058 -4.27975
    endloop
  endfacet
  facet normal -1 -0 0
    outer loop
      vertex -10 -1.39058 -4.27975
      vertex -10 -10 -20
      vertex -10 -2.64503 -3.64058
    endloop
  endfacet
  facet normal -1 0 0
    outer loop
      vertex -10 -10 0
      vertex -10 -4.5 0
      vertex -10 -4.27975 -1.39058
    endloop
  endfacet
  facet normal -1 0 0
    outer loop
      vertex -10 -4.5 0
      vertex -10 -8.09017 5.87785
      vertex -10 -5.87785 8.09017
    endloop
  endfacet
  facet normal -1 0 0
    outer loop
      vertex -10 -10 0
      vertex -10 -4.27975 -1.39058
      vertex -10 -3.64058 -2.64503
    endloop
  endfacet
  facet normal -1 0 0
    outer loop
      vertex -10 -4.5 0
      vertex -10 -9.51056 3.09017
      vertex -10 -8.09017 5.87785
    endloop
  endfacet
  facet normal -1 -0 0
    outer loop
      vertex -10 -2.64503 -3.64058
      vertex -10 -10 -20
      vertex -10 -3.64058 -2.64503
    endloop
  endfacet
  facet normal -1 -0 0
    outer loop
      vertex -10 -3.64058 -2.64503
      vertex -10 -10 -20
      vertex -10 -10 0
    endloop
  endfacet
  facet normal -1 0 0
    outer loop
      vertex -10 -4.5 0
      vertex -10 -10 0
      vertex -10 -9.51056 3.09017
    endloop
  endfacet
  facet normal -1 0 0
    outer loop
      vertex -10 3.64058 2.64503
      vertex -10 8.09017 5.87785
      vertex -10 4.27975 1.39058
    endloop
  endfacet
  facet normal -1 -0 0
    outer loop
      vertex -10 8.09017 5.87785
      vertex -10 3.64058 2.64503
      vertex -10 5.87785 8.09017
    endloop
  endfacet
  facet normal -1 0 0
    outer loop
      vertex -10 2.64503 3.64058
      vertex -10 5.87785 8.09017
      vertex -10 3.64058 2.64503
    endloop
  endfacet
  facet normal -1 -0 0
    outer loop
      vertex -10 5.87785 8.09017
      vertex -10 2.64503 3.64058
      vertex -10 3.09017 9.51056
    endloop
  endfacet
  facet normal -1 0 0
    outer loop
      vertex -10 1.39058 4.27975
      vertex -10 3.09017 9.51056
      vertex -10 2.64503 3.64058
    endloop
  endfacet
  facet normal -1 0 0
    outer loop
      vertex -10 1.04293 4.33482
      vertex -10 3.09017 9.51056
      vertex -10 1.39058 4.27975
    endloop
  endfacet
  facet normal -1 0 0
    outer loop
      vertex -10 0 10
      vertex -10 1.04293 4.33482
      vertex -10 0 4.5
    endloop
  endfacet
  facet normal -1 0 0
    outer loop
      vertex -10 1.04293 4.33482
      vertex -10 0 10
      vertex -10 3.09017 9.51056
    endloop
  endfacet
  facet normal -1 0 0
    outer loop
      vertex -10 -1.04293 4.33482
      vertex -10 0 10
      vertex -10 0 4.5
    endloop
  endfacet
  facet normal -1 0 0
    outer loop
      vertex -10 -3.09017 9.51056
      vertex -10 -1.04293 4.33482
      vertex -10 -1.39058 4.27975
    endloop
  endfacet
  facet normal -1 0 0
    outer loop
      vertex -10 -3.09017 9.51056
      vertex -10 -1.39058 4.27975
      vertex -10 -2.64503 3.64058
    endloop
  endfacet
  facet normal -1 0 0
    outer loop
      vertex -10 -1.04293 4.33482
      vertex -10 -3.09017 9.51056
      vertex -10 0 10
    endloop
  endfacet
  facet normal -1 0 0
    outer loop
      vertex -10 -5.87785 8.09017
      vertex -10 -2.64503 3.64058
      vertex -10 -3.64058 2.64503
    endloop
  endfacet
  facet normal -1 0 0
    outer loop
      vertex -10 -5.87785 8.09017
      vertex -10 -3.64058 2.64503
      vertex -10 -4.27975 1.39058
    endloop
  endfacet
  facet normal -1 0 0
    outer loop
      vertex -10 -5.87785 8.09017
      vertex -10 -4.27975 1.39058
      vertex -10 -4.5 0
    endloop
  endfacet
  facet normal -1 0 0
    outer loop
      vertex -10 -2.64503 3.64058
      vertex -10 -5.87785 8.09017
      vertex -10 -3.09017 9.51056
    endloop
  endfacet
  facet normal 1 0 0
    outer loop
      vertex 10 9.51056 3.09017
      vertex 10 4.27975 1.39058
      vertex 10 4.5 0
    endloop
  endfacet
  facet normal 1 0 0
    outer loop
      vertex 10 8.09017 5.87785
      vertex 10 3.64058 2.64503
      vertex 10 4.27975 1.39058
    endloop
  endfacet
  facet normal 1 0 0
    outer loop
      vertex 10 2.64503 3.64058
      vertex 10 5.87785 8.09017
      vertex 10 3.09017 9.51056
    endloop
  endfacet
  facet normal 1 0 0
    outer loop
      vertex 10 5.87785 8.09017
      vertex 10 2.64503 3.64058
      vertex 10 3.64058 2.64503
    endloop
  endfacet
  facet normal 1 0 0
    outer loop
      vertex 10 3.09017 9.51056
      vertex 10 1.39058 4.27975
      vertex 10 2.64503 3.64058
    endloop
  endfacet
  facet normal 1 0 0
    outer loop
      vertex 10 3.09017 9.51056
      vertex 10 0.347644 4.44494
      vertex 10 1.39058 4.27975
    endloop
  endfacet
  facet normal 1 0 0
    outer loop
      vertex 10 0 10
      vertex 10 0.347644 4.44494
      vertex 10 3.09017 9.51056
    endloop
  endfacet
  facet normal 1 0 0
    outer loop
      vertex 10 0 10
      vertex 10 0 4.5
      vertex 10 0.347644 4.44494
    endloop
  endfacet
  facet normal 1 0 0
    outer loop
      vertex 10 0 10
      vertex 10 -0.347644 4.44494
      vertex 10 0 4.5
    endloop
  endfacet
  facet normal 1 -0 0
    outer loop
      vertex 10 -3.09017 9.51056
      vertex 10 -0.347644 4.44494
      vertex 10 0 10
    endloop
  endfacet
  facet normal 1 0 0
    outer loop
      vertex 10 -0.347644 4.44494
      vertex 10 -3.09017 9.51056
      vertex 10 -1.39058 4.27975
    endloop
  endfacet
  facet normal 1 0 0
    outer loop
      vertex 10 -1.39058 4.27975
      vertex 10 -3.09017 9.51056
      vertex 10 -2.64503 3.64058
    endloop
  endfacet
  facet normal 1 -0 0
    outer loop
      vertex 10 -5.87785 8.09017
      vertex 10 -2.64503 3.64058
      vertex 10 -3.09017 9.51056
    endloop
  endfacet
  facet normal 1 0 0
    outer loop
      vertex 10 -2.64503 3.64058
      vertex 10 -5.87785 8.09017
      vertex 10 -3.64058 2.64503
    endloop
  endfacet
  facet normal 1 -0 0
    outer loop
      vertex 10 -8.09017 5.87785
      vertex 10 -3.64058 2.64503
      vertex 10 -5.87785 8.09017
    endloop
  endfacet
  facet normal 1 0 0
    outer loop
      vertex 10 -3.64058 2.64503
      vertex 10 -8.09017 5.87785
      vertex 10 -4.27975 1.39058
    endloop
  endfacet
  facet normal 1 0 0
    outer loop
      vertex 10 4.5 0
      vertex 10 10 0
      vertex 10 9.51056 3.09017
    endloop
  endfacet
  facet normal 1 0 0
    outer loop
      vertex 10 4.27975 1.39058
      vertex 10 9.51056 3.09017
      vertex 10 8.09017 5.87785
    endloop
  endfacet
  facet normal 1 0 0
    outer loop
      vertex 10 3.64058 2.64503
      vertex 10 8.09017 5.87785
      vertex 10 5.87785 8.09017
    endloop
  endfacet
  facet normal 1 0 0
    outer loop
      vertex 10 10 0
      vertex 10 4.5 0
      vertex 10 4.27975 -1.39058
    endloop
  endfacet
  facet normal 1 0 0
    outer loop
      vertex 10 10 0
      vertex 10 4.27975 -1.39058
      vertex 10 3.64058 -2.64503
    endloop
  endfacet
  facet normal 1 0 0
    outer loop
      vertex 10 10 0
      vertex 10 3.64058 -2.64503
      vertex 10 10 -20
    endloop
  endfacet
  facet normal 1 -0 0
    outer loop
      vertex 10 2.64503 -3.64058
      vertex 10 10 -20
      vertex 10 3.64058 -2.64503
    endloop
  endfacet
  facet normal 1 -0 0
    outer loop
      vertex 10 1.39058 -4.27975
      vertex 10 10 -20
      vertex 10 2.64503 -3.64058
    endloop
  endfacet
  facet normal 1 -0 0
    outer loop
      vertex 10 1.04293 -4.33482
      vertex 10 10 -20
      vertex 10 1.39058 -4.27975
    endloop
  endfacet
  facet normal 1 -0 0
    outer loop
      vertex 10 0 -4.5
      vertex 10 10 -20
      vertex 10 1.04293 -4.33482
    endloop
  endfacet
  facet normal 1 0 0
    outer loop
      vertex 10 -10 -20
      vertex 10 0 -4.5
      vertex 10 -1.04293 -4.33482
    endloop
  endfacet
  facet normal 1 0 0
    outer loop
      vertex 10 -10 -20
      vertex 10 -1.04293 -4.33482
      vertex 10 -1.39058 -4.27975
    endloop
  endfacet
  facet normal 1 0 0
    outer loop
      vertex 10 -10 -20
      vertex 10 -1.39058 -4.27975
      vertex 10 -2.64503 -3.64058
    endloop
  endfacet
  facet normal 1 0 0
    outer loop
      vertex 10 -10 -20
      vertex 10 -2.64503 -3.64058
      vertex 10 -3.64058 -2.64503
    endloop
  endfacet
  facet normal 1 -0 0
    outer loop
      vertex 10 -9.51056 3.09017
      vertex 10 -4.27975 1.39058
      vertex 10 -8.09017 5.87785
    endloop
  endfacet
  facet normal 1 0 0
    outer loop
      vertex 10 -4.27975 1.39058
      vertex 10 -9.51056 3.09017
      vertex 10 -4.5 0
    endloop
  endfacet
  facet normal 1 0 0
    outer loop
      vertex 10 -10 0
      vertex 10 -4.5 0
      vertex 10 -9.51056 3.09017
    endloop
  endfacet
  facet normal 1 0 0
    outer loop
      vertex 10 -4.5 0
      vertex 10 -10 0
      vertex 10 -4.27975 -1.39058
    endloop
  endfacet
  facet normal 1 0 0
    outer loop
      vertex 10 -4.27975 -1.39058
      vertex 10 -10 0
      vertex 10 -3.64058 -2.64503
    endloop
  endfacet
  facet normal 1 0 0
    outer loop
      vertex 10 -10 -20
      vertex 10 -3.64058 -2.64503
      vertex 10 -10 0
    endloop
  endfacet
  facet normal 1 0 0
    outer loop
      vertex 10 0 -4.5
      vertex 10 -10 -20
      vertex 10 10 -20
    endloop
  endfacet
  facet normal 0 0 -1
    outer loop
      vertex -10 -10 -20
      vertex -6.68 10 -20
      vertex -6.68 -10 -20
    endloop
  endfacet
  facet normal -0 0 -1
    outer loop
      vertex -6.68 10 -20
      vertex -10 -10 -20
      vertex -10 10 -20
    endloop
  endfacet
  facet normal 0 0 -1
    outer loop
      vertex 6.68 -10 -20
      vertex 10 10 -20
      vertex 10 -10 -20
    endloop
  endfacet
  facet normal -0 0 -1
    outer loop
      vertex 10 10 -20
      vertex 6.68 -10 -20
      vertex 6.68 10 -20
    endloop
  endfacet
  facet normal 0 -1 0
    outer loop
      vertex 6.68 -10 -20
      vertex 10 -10 0
      vertex 6.68 -10 0
    endloop
  endfacet
  facet normal 0 -1 -0
    outer loop
      vertex 10 -10 0
      vertex 6.68 -10 -20
      vertex 10 -10 -20
    endloop
  endfacet
  facet normal 0 -1 0
    outer loop
      vertex -10 -10 -20
      vertex -6.68 -10 0
      vertex -10 -10 0
    endloop
  endfacet
  facet normal 0 -1 -0
    outer loop
      vertex -6.68 -10 0
      vertex -10 -10 -20
      vertex -6.68 -10 -20
    endloop
  endfacet
  facet normal 0 1 -0
    outer loop
      vertex -6.68 10 -20
      vertex -10 10 0
      vertex -6.68 10 0
    endloop
  endfacet
  facet normal 0 1 0
    outer loop
      vertex -10 10 0
      vertex -6.68 10 -20
      vertex -10 10 -20
    endloop
  endfacet
  facet normal 0 1 -0
    outer loop
      vertex 10 10 -20
      vertex 6.68 10 0
      vertex 10 10 0
    endloop
  endfacet
  facet normal 0 1 0
    outer loop
      vertex 6.68 10 0
      vertex 10 10 -20
      vertex 6.68 10 -20
    endloop
  endfacet
  facet normal -0 0.156435 0.987688
    outer loop
      vertex -10 3.09017 9.51056
      vertex -6.68 0 10
      vertex -6.68 3.09017 9.51056
    endloop
  endfacet
  facet normal 0 0.156435 0.987688
    outer loop
      vertex -6.68 0 10
      vertex -10 3.09017 9.51056
      vertex -10 0 10
    endloop
  endfacet
  facet normal -0 0.156435 0.987688
    outer loop
      vertex 6.68 3.09017 9.51056
      vertex 10 0 10
      vertex 10 3.09017 9.51056
    endloop
  endfacet
  facet normal 0 0.156435 0.987688
    outer loop
      vertex 10 0 10
      vertex 6.68 3.09017 9.51056
      vertex 6.68 0 10
    endloop
  endfacet
  facet normal 0 -0.987688 0.156435
    outer loop
      vertex 6.68 -10 0
      vertex 10 -9.51056 3.09017
      vertex 6.68 -9.51056 3.09017
    endloop
  endfacet
  facet normal 0 -0.987688 0.156435
    outer loop
      vertex 10 -9.51056 3.09017
      vertex 6.68 -10 0
      vertex 10 -10 0
    endloop
  endfacet
  facet normal 0 -0.987688 0.156435
    outer loop
      vertex -10 -10 0
      vertex -6.68 -9.51056 3.09017
      vertex -10 -9.51056 3.09017
    endloop
  endfacet
  facet normal 0 -0.987688 0.156435
    outer loop
      vertex -6.68 -9.51056 3.09017
      vertex -10 -10 0
      vertex -6.68 -10 0
    endloop
  endfacet
  facet normal 0 -0.45399 0.891007
    outer loop
      vertex -10 -3.09017 9.51056
      vertex -6.68 -5.87785 8.09017
      vertex -6.68 -3.09017 9.51056
    endloop
  endfacet
  facet normal 0 -0.45399 0.891007
    outer loop
      vertex -6.68 -5.87785 8.09017
      vertex -10 -3.09017 9.51056
      vertex -10 -5.87785 8.09017
    endloop
  endfacet
  facet normal 0 -0.45399 0.891007
    outer loop
      vertex 6.68 -3.09017 9.51056
      vertex 10 -5.87785 8.09017
      vertex 10 -3.09017 9.51056
    endloop
  endfacet
  facet normal 0 -0.45399 0.891007
    outer loop
      vertex 10 -5.87785 8.09017
      vertex 6.68 -3.09017 9.51056
      vertex 6.68 -5.87785 8.09017
    endloop
  endfacet
  facet normal 0 0.891007 0.45399
    outer loop
      vertex 10 9.51056 3.09017
      vertex 6.68 8.09017 5.87785
      vertex 10 8.09017 5.87785
    endloop
  endfacet
  facet normal 0 0.891007 0.45399
    outer loop
      vertex 6.68 8.09017 5.87785
      vertex 10 9.51056 3.09017
      vertex 6.68 9.51056 3.09017
    endloop
  endfacet
  facet normal 0 0.891007 0.45399
    outer loop
      vertex -6.68 9.51056 3.09017
      vertex -10 8.09017 5.87785
      vertex -6.68 8.09017 5.87785
    endloop
  endfacet
  facet normal 0 0.891007 0.45399
    outer loop
      vertex -10 8.09017 5.87785
      vertex -6.68 9.51056 3.09017
      vertex -10 9.51056 3.09017
    endloop
  endfacet
  facet normal 0 0.707107 0.707107
    outer loop
      vertex 10 8.09017 5.87785
      vertex 6.68 5.87785 8.09017
      vertex 10 5.87785 8.09017
    endloop
  endfacet
  facet normal 0 0.707107 0.707107
    outer loop
      vertex 6.68 5.87785 8.09017
      vertex 10 8.09017 5.87785
      vertex 6.68 8.09017 5.87785
    endloop
  endfacet
  facet normal 0 0.707107 0.707107
    outer loop
      vertex -6.68 8.09017 5.87785
      vertex -10 5.87785 8.09017
      vertex -6.68 5.87785 8.09017
    endloop
  endfacet
  facet normal 0 0.707107 0.707107
    outer loop
      vertex -10 5.87785 8.09017
      vertex -6.68 8.09017 5.87785
      vertex -10 8.09017 5.87785
    endloop
  endfacet
  facet normal 0 0.987688 0.156435
    outer loop
      vertex -6.68 10 0
      vertex -10 9.51056 3.09017
      vertex -6.68 9.51056 3.09017
    endloop
  endfacet
  facet normal 0 0.987688 0.156435
    outer loop
      vertex -10 9.51056 3.09017
      vertex -6.68 10 0
      vertex -10 10 0
    endloop
  endfacet
  facet normal 0 0.987688 0.156435
    outer loop
      vertex 10 10 0
      vertex 6.68 9.51056 3.09017
      vertex 10 9.51056 3.09017
    endloop
  endfacet
  facet normal 0 0.987688 0.156435
    outer loop
      vertex 6.68 9.51056 3.09017
      vertex 10 10 0
      vertex 6.68 10 0
    endloop
  endfacet
  facet normal 0 -0.707107 0.707107
    outer loop
      vertex -10 -8.09017 5.87785
      vertex -6.68 -5.87785 8.09017
      vertex -10 -5.87785 8.09017
    endloop
  endfacet
  facet normal 0 -0.707107 0.707107
    outer loop
      vertex -6.68 -5.87785 8.09017
      vertex -10 -8.09017 5.87785
      vertex -6.68 -8.09017 5.87785
    endloop
  endfacet
  facet normal 0 -0.707107 0.707107
    outer loop
      vertex 6.68 -8.09017 5.87785
      vertex 10 -5.87785 8.09017
      vertex 6.68 -5.87785 8.09017
    endloop
  endfacet
  facet normal 0 -0.707107 0.707107
    outer loop
      vertex 10 -5.87785 8.09017
      vertex 6.68 -8.09017 5.87785
      vertex 10 -8.09017 5.87785
    endloop
  endfacet
  facet normal 0 -0.156435 0.987688
    outer loop
      vertex -10 0 10
      vertex -6.68 -3.09017 9.51056
      vertex -6.68 0 10
    endloop
  endfacet
  facet normal 0 -0.156435 0.987688
    outer loop
      vertex -6.68 -3.09017 9.51056
      vertex -10 0 10
      vertex -10 -3.09017 9.51056
    endloop
  endfacet
  facet normal 0 -0.156435 0.987688
    outer loop
      vertex 6.68 0 10
      vertex 10 -3.09017 9.51056
      vertex 10 0 10
    endloop
  endfacet
  facet normal 0 -0.156435 0.987688
    outer loop
      vertex 10 -3.09017 9.51056
      vertex 6.68 0 10
      vertex 6.68 -3.09017 9.51056
    endloop
  endfacet
  facet normal -0 0.45399 0.891007
    outer loop
      vertex -10 5.87785 8.09017
      vertex -6.68 3.09017 9.51056
      vertex -6.68 5.87785 8.09017
    endloop
  endfacet
  facet normal 0 0.45399 0.891007
    outer loop
      vertex -6.68 3.09017 9.51056
      vertex -10 5.87785 8.09017
      vertex -10 3.09017 9.51056
    endloop
  endfacet
  facet normal -0 0.45399 0.891007
    outer loop
      vertex 6.68 5.87785 8.09017
      vertex 10 3.09017 9.51056
      vertex 10 5.87785 8.09017
    endloop
  endfacet
  facet normal 0 0.45399 0.891007
    outer loop
      vertex 10 3.09017 9.51056
      vertex 6.68 5.87785 8.09017
      vertex 6.68 3.09017 9.51056
    endloop
  endfacet
  facet normal 0 -0.891007 0.45399
    outer loop
      vertex -10 -9.51056 3.09017
      vertex -6.68 -8.09017 5.87785
      vertex -10 -8.09017 5.87785
    endloop
  endfacet
  facet normal 0 -0.891007 0.45399
    outer loop
      vertex -6.68 -8.09017 5.87785
      vertex -10 -9.51056 3.09017
      vertex -6.68 -9.51056 3.09017
    endloop
  endfacet
  facet normal 0 -0.891007 0.45399
    outer loop
      vertex 6.68 -9.51056 3.09017
      vertex 10 -8.09017 5.87785
      vertex 6.68 -8.09017 5.87785
    endloop
  endfacet
  facet normal 0 -0.891007 0.45399
    outer loop
      vertex 10 -8.09017 5.87785
      vertex 6.68 -9.51056 3.09017
      vertex 10 -9.51056 3.09017
    endloop
  endfacet
  facet normal 1 0 0
    outer loop
      vertex -6.68 9.51056 3.09017
      vertex -6.68 4.27975 1.39058
      vertex -6.68 4.5 0
    endloop
  endfacet
  facet normal 1 0 0
    outer loop
      vertex -6.68 8.09017 5.87785
      vertex -6.68 3.64058 2.64503
      vertex -6.68 4.27975 1.39058
    endloop
  endfacet
  facet normal 1 0 0
    outer loop
      vertex -6.68 2.64503 3.64058
      vertex -6.68 5.87785 8.09017
      vertex -6.68 3.09017 9.51056
    endloop
  endfacet
  facet normal 1 0 0
    outer loop
      vertex -6.68 5.87785 8.09017
      vertex -6.68 2.64503 3.64058
      vertex -6.68 3.64058 2.64503
    endloop
  endfacet
  facet normal 1 0 0
    outer loop
      vertex -6.68 3.09017 9.51056
      vertex -6.68 1.39058 4.27975
      vertex -6.68 2.64503 3.64058
    endloop
  endfacet
  facet normal 1 0 0
    outer loop
      vertex -6.68 3.09017 9.51056
      vertex -6.68 0.927514 4.3531
      vertex -6.68 1.39058 4.27975
    endloop
  endfacet
  facet normal 1 0 0
    outer loop
      vertex -6.68 0 10
      vertex -6.68 0.927514 4.3531
      vertex -6.68 3.09017 9.51056
    endloop
  endfacet
  facet normal 1 0 0
    outer loop
      vertex -6.68 0 10
      vertex -6.68 0 4.5
      vertex -6.68 0.927514 4.3531
    endloop
  endfacet
  facet normal 1 0 0
    outer loop
      vertex -6.68 0 10
      vertex -6.68 -0.927514 4.3531
      vertex -6.68 0 4.5
    endloop
  endfacet
  facet normal 1 -0 0
    outer loop
      vertex -6.68 -3.09017 9.51056
      vertex -6.68 -0.927514 4.3531
      vertex -6.68 0 10
    endloop
  endfacet
  facet normal 1 0 0
    outer loop
      vertex -6.68 -0.927514 4.3531
      vertex -6.68 -3.09017 9.51056
      vertex -6.68 -1.39058 4.27975
    endloop
  endfacet
  facet normal 1 0 0
    outer loop
      vertex -6.68 -1.39058 4.27975
      vertex -6.68 -3.09017 9.51056
      vertex -6.68 -2.64503 3.64058
    endloop
  endfacet
  facet normal 1 -0 0
    outer loop
      vertex -6.68 -5.87785 8.09017
      vertex -6.68 -2.64503 3.64058
      vertex -6.68 -3.09017 9.51056
    endloop
  endfacet
  facet normal 1 0 0
    outer loop
      vertex -6.68 -2.64503 3.64058
      vertex -6.68 -5.87785 8.09017
      vertex -6.68 -3.64058 2.64503
    endloop
  endfacet
  facet normal 1 -0 0
    outer loop
      vertex -6.68 -8.09017 5.87785
      vertex -6.68 -3.64058 2.64503
      vertex -6.68 -5.87785 8.09017
    endloop
  endfacet
  facet normal 1 0 0
    outer loop
      vertex -6.68 -3.64058 2.64503
      vertex -6.68 -8.09017 5.87785
      vertex -6.68 -4.27975 1.39058
    endloop
  endfacet
  facet normal 1 0 0
    outer loop
      vertex -6.68 4.5 0
      vertex -6.68 10 0
      vertex -6.68 9.51056 3.09017
    endloop
  endfacet
  facet normal 1 0 0
    outer loop
      vertex -6.68 4.27975 1.39058
      vertex -6.68 9.51056 3.09017
      vertex -6.68 8.09017 5.87785
    endloop
  endfacet
  facet normal 1 0 0
    outer loop
      vertex -6.68 3.64058 2.64503
      vertex -6.68 8.09017 5.87785
      vertex -6.68 5.87785 8.09017
    endloop
  endfacet
  facet normal 1 0 0
    outer loop
      vertex -6.68 10 0
      vertex -6.68 4.5 0
      vertex -6.68 4.27975 -1.39058
    endloop
  endfacet
  facet normal 1 0 0
    outer loop
      vertex -6.68 10 0
      vertex -6.68 4.27975 -1.39058
      vertex -6.68 3.64058 -2.64503
    endloop
  endfacet
  facet normal 1 0 0
    outer loop
      vertex -6.68 10 0
      vertex -6.68 3.64058 -2.64503
      vertex -6.68 10 -20
    endloop
  endfacet
  facet normal 1 -0 0
    outer loop
      vertex -6.68 2.64503 -3.64058
      vertex -6.68 10 -20
      vertex -6.68 3.64058 -2.64503
    endloop
  endfacet
  facet normal 1 -0 0
    outer loop
      vertex -6.68 1.39058 -4.27975
      vertex -6.68 10 -20
      vertex -6.68 2.64503 -3.64058
    endloop
  endfacet
  facet normal 1 -0 0
    outer loop
      vertex -6.68 0.463062 -4.42666
      vertex -6.68 10 -20
      vertex -6.68 1.39058 -4.27975
    endloop
  endfacet
  facet normal 1 -0 0
    outer loop
      vertex -6.68 0 -4.5
      vertex -6.68 10 -20
      vertex -6.68 0.463062 -4.42666
    endloop
  endfacet
  facet normal 1 0 0
    outer loop
      vertex -6.68 -10 -20
      vertex -6.68 0 -4.5
      vertex -6.68 -0.463062 -4.42666
    endloop
  endfacet
  facet normal 1 0 0
    outer loop
      vertex -6.68 -10 -20
      vertex -6.68 -0.463062 -4.42666
      vertex -6.68 -1.39058 -4.27975
    endloop
  endfacet
  facet normal 1 0 0
    outer loop
      vertex -6.68 -10 -20
      vertex -6.68 -1.39058 -4.27975
      vertex -6.68 -2.64503 -3.64058
    endloop
  endfacet
  facet normal 1 0 0
    outer loop
      vertex -6.68 -10 -20
      vertex -6.68 -2.64503 -3.64058
      vertex -6.68 -3.64058 -2.64503
    endloop
  endfacet
  facet normal 1 -0 0
    outer loop
      vertex -6.68 -9.51056 3.09017
      vertex -6.68 -4.27975 1.39058
      vertex -6.68 -8.09017 5.87785
    endloop
  endfacet
  facet normal 1 0 0
    outer loop
      vertex -6.68 -4.27975 1.39058
      vertex -6.68 -9.51056 3.09017
      vertex -6.68 -4.5 0
    endloop
  endfacet
  facet normal 1 0 0
    outer loop
      vertex -6.68 -10 0
      vertex -6.68 -4.5 0
      vertex -6.68 -9.51056 3.09017
    endloop
  endfacet
  facet normal 1 0 0
    outer loop
      vertex -6.68 -4.5 0
      vertex -6.68 -10 0
      vertex -6.68 -4.27975 -1.39058
    endloop
  endfacet
  facet normal 1 0 0
    outer loop
      vertex -6.68 -4.27975 -1.39058
      vertex -6.68 -10 0
      vertex -6.68 -3.64058 -2.64503
    endloop
  endfacet
  facet normal 1 0 0
    outer loop
      vertex -6.68 -10 -20
      vertex -6.68 -3.64058 -2.64503
      vertex -6.68 -10 0
    endloop
  endfacet
  facet normal 1 0 0
    outer loop
      vertex -6.68 0 -4.5
      vertex -6.68 -10 -20
      vertex -6.68 10 -20
    endloop
  endfacet
  facet normal -1 0 0
    outer loop
      vertex 6.68 3.64058 -2.64503
      vertex 6.68 10 0
      vertex 6.68 10 -20
    endloop
  endfacet
  facet normal -1 0 -0
    outer loop
      vertex 6.68 4.27975 -1.39058
      vertex 6.68 10 0
      vertex 6.68 3.64058 -2.64503
    endloop
  endfacet
  facet normal -1 0 0
    outer loop
      vertex 6.68 10 0
      vertex 6.68 4.5 0
      vertex 6.68 9.51056 3.09017
    endloop
  endfacet
  facet normal -1 -0 0
    outer loop
      vertex 6.68 9.51056 3.09017
      vertex 6.68 4.27975 1.39058
      vertex 6.68 8.09017 5.87785
    endloop
  endfacet
  facet normal -1 0 0
    outer loop
      vertex 6.68 4.27975 1.39058
      vertex 6.68 9.51056 3.09017
      vertex 6.68 4.5 0
    endloop
  endfacet
  facet normal -1 0 -0
    outer loop
      vertex 6.68 4.5 0
      vertex 6.68 10 0
      vertex 6.68 4.27975 -1.39058
    endloop
  endfacet
  facet normal -1 0 0
    outer loop
      vertex 6.68 10 -20
      vertex 6.68 2.64503 -3.64058
      vertex 6.68 3.64058 -2.64503
    endloop
  endfacet
  facet normal -1 0 0
    outer loop
      vertex 6.68 10 -20
      vertex 6.68 1.39058 -4.27975
      vertex 6.68 2.64503 -3.64058
    endloop
  endfacet
  facet normal -1 0 0
    outer loop
      vertex 6.68 10 -20
      vertex 6.68 0.927514 -4.3531
      vertex 6.68 1.39058 -4.27975
    endloop
  endfacet
  facet normal -1 0 0
    outer loop
      vertex 6.68 10 -20
      vertex 6.68 0 -4.5
      vertex 6.68 0.927514 -4.3531
    endloop
  endfacet
  facet normal -1 0 0
    outer loop
      vertex 6.68 -10 -20
      vertex 6.68 0 -4.5
      vertex 6.68 10 -20
    endloop
  endfacet
  facet normal -1 -0 0
    outer loop
      vertex 6.68 0 -4.5
      vertex 6.68 -10 -20
      vertex 6.68 -0.927514 -4.3531
    endloop
  endfacet
  facet normal -1 -0 0
    outer loop
      vertex 6.68 -0.927514 -4.3531
      vertex 6.68 -10 -20
      vertex 6.68 -1.39058 -4.27975
    endloop
  endfacet
  facet normal -1 -0 0
    outer loop
      vertex 6.68 -1.39058 -4.27975
      vertex 6.68 -10 -20
      vertex 6.68 -2.64503 -3.64058
    endloop
  endfacet
  facet normal -1 0 0
    outer loop
      vertex 6.68 -10 0
      vertex 6.68 -4.5 0
      vertex 6.68 -4.27975 -1.39058
    endloop
  endfacet
  facet normal -1 0 0
    outer loop
      vertex 6.68 -4.5 0
      vertex 6.68 -8.09017 5.87785
      vertex 6.68 -5.87785 8.09017
    endloop
  endfacet
  facet normal -1 0 0
    outer loop
      vertex 6.68 -10 0
      vertex 6.68 -4.27975 -1.39058
      vertex 6.68 -3.64058 -2.64503
    endloop
  endfacet
  facet normal -1 0 0
    outer loop
      vertex 6.68 -4.5 0
      vertex 6.68 -9.51056 3.09017
      vertex 6.68 -8.09017 5.87785
    endloop
  endfacet
  facet normal -1 -0 0
    outer loop
      vertex 6.68 -2.64503 -3.64058
      vertex 6.68 -10 -20
      vertex 6.68 -3.64058 -2.64503
    endloop
  endfacet
  facet normal -1 -0 0
    outer loop
      vertex 6.68 -3.64058 -2.64503
      vertex 6.68 -10 -20
      vertex 6.68 -10 0
    endloop
  endfacet
  facet normal -1 0 0
    outer loop
      vertex 6.68 -4.5 0
      vertex 6.68 -10 0
      vertex 6.68 -9.51056 3.09017
    endloop
  endfacet
  facet normal -1 0 0
    outer loop
      vertex 6.68 3.64058 2.64503
      vertex 6.68 8.09017 5.87785
      vertex 6.68 4.27975 1.39058
    endloop
  endfacet
  facet normal -1 -0 0
    outer loop
      vertex 6.68 8.09017 5.87785
      vertex 6.68 3.64058 2.64503
      vertex 6.68 5.87785 8.09017
    endloop
  endfacet
  facet normal -1 0 0
    outer loop
      vertex 6.68 2.64503 3.64058
      vertex 6.68 5.87785 8.09017
      vertex 6.68 3.64058 2.64503
    endloop
  endfacet
  facet normal -1 -0 0
    outer loop
      vertex 6.68 5.87785 8.09017
      vertex 6.68 2.64503 3.64058
      vertex 6.68 3.09017 9.51056
    endloop
  endfacet
  facet normal -1 0 0
    outer loop
      vertex 6.68 1.39058 4.27975
      vertex 6.68 3.09017 9.51056
      vertex 6.68 2.64503 3.64058
    endloop
  endfacet
  facet normal -1 0 0
    outer loop
      vertex 6.68 0.463062 4.42666
      vertex 6.68 3.09017 9.51056
      vertex 6.68 1.39058 4.27975
    endloop
  endfacet
  facet normal -1 0 0
    outer loop
      vertex 6.68 0 10
      vertex 6.68 0.463062 4.42666
      vertex 6.68 0 4.5
    endloop
  endfacet
  facet normal -1 0 0
    outer loop
      vertex 6.68 0.463062 4.42666
      vertex 6.68 0 10
      vertex 6.68 3.09017 9.51056
    endloop
  endfacet
  facet normal -1 0 0
    outer loop
      vertex 6.68 -0.463062 4.42666
      vertex 6.68 0 10
      vertex 6.68 0 4.5
    endloop
  endfacet
  facet normal -1 0 0
    outer loop
      vertex 6.68 -3.09017 9.51056
      vertex 6.68 -0.463062 4.42666
      vertex 6.68 -1.39058 4.27975
    endloop
  endfacet
  facet normal -1 0 0
    outer loop
      vertex 6.68 -3.09017 9.51056
      vertex 6.68 -1.39058 4.27975
      vertex 6.68 -2.64503 3.64058
    endloop
  endfacet
  facet normal -1 0 0
    outer loop
      vertex 6.68 -0.463062 4.42666
      vertex 6.68 -3.09017 9.51056
      vertex 6.68 0 10
    endloop
  endfacet
  facet normal -1 0 0
    outer loop
      vertex 6.68 -5.87785 8.09017
      vertex 6.68 -2.64503 3.64058
      vertex 6.68 -3.64058 2.64503
    endloop
  endfacet
  facet normal -1 0 0
    outer loop
      vertex 6.68 -5.87785 8.09017
      vertex 6.68 -3.64058 2.64503
      vertex 6.68 -4.27975 1.39058
    endloop
  endfacet
  facet normal -1 0 0
    outer loop
      vertex 6.68 -5.87785 8.09017
      vertex 6.68 -4.27975 1.39058
      vertex 6.68 -4.5 0
    endloop
  endfacet
  facet normal -1 0 0
    outer loop
      vertex 6.68 -2.64503 3.64058
      vertex 6.68 -5.87785 8.09017
      vertex 6.68 -3.09017 9.51056
    endloop
  endfacet
  facet normal 0 -0.156435 0.987688
    outer loop
      vertex -10 1.39058 -4.27975
      vertex -6.68 0.463062 -4.42666
      vertex -6.68 1.39058 -4.27975
    endloop
  endfacet
  facet normal -9.18776e-009 -0.156435 0.987688
    outer loop
      vertex -6.68 0.463062 -4.42666
      vertex -10 1.39058 -4.27975
      vertex -10 0.347644 -4.44494
    endloop
  endfacet
  facet normal 0 -0.156434 0.987688
    outer loop
      vertex 6.68 1.39058 -4.27975
      vertex 10 1.04293 -4.33482
      vertex 10 1.39058 -4.27975
    endloop
  endfacet
  facet normal -3.15239e-008 -0.156435 0.987688
    outer loop
      vertex 10 1.04293 -4.33482
      vertex 6.68 1.39058 -4.27975
      vertex 6.68 0.927514 -4.3531
    endloop
  endfacet
  facet normal -6.58275e-008 -0.156434 0.987688
    outer loop
      vertex -10 0.347644 -4.44494
      vertex -6.68 0 -4.5
      vertex -6.68 0.463062 -4.42666
    endloop
  endfacet
  facet normal -1.41857e-007 -0.156434 0.987688
    outer loop
      vertex -6.68 0 -4.5
      vertex -10 0.347644 -4.44494
      vertex -10 0 -4.5
    endloop
  endfacet
  facet normal -4.19898e-008 -0.156434 0.987688
    outer loop
      vertex 6.68 0.927514 -4.3531
      vertex 10 0 -4.5
      vertex 10 1.04293 -4.33482
    endloop
  endfacet
  facet normal -1.41857e-007 -0.156435 0.987688
    outer loop
      vertex 10 0 -4.5
      vertex 6.68 0.927514 -4.3531
      vertex 6.68 0 -4.5
    endloop
  endfacet
  facet normal 4.19898e-008 0.156434 -0.987688
    outer loop
      vertex -10 0 4.5
      vertex -6.68 -0.927514 4.3531
      vertex -10 -1.04293 4.33482
    endloop
  endfacet
  facet normal 1.41857e-007 0.156435 -0.987688
    outer loop
      vertex -6.68 -0.927514 4.3531
      vertex -10 0 4.5
      vertex -6.68 0 4.5
    endloop
  endfacet
  facet normal 6.58275e-008 0.156434 -0.987688
    outer loop
      vertex 6.68 0 4.5
      vertex 10 -0.347644 4.44494
      vertex 6.68 -0.463062 4.42666
    endloop
  endfacet
  facet normal 1.41857e-007 0.156434 -0.987688
    outer loop
      vertex 10 -0.347644 4.44494
      vertex 6.68 0 4.5
      vertex 10 0 4.5
    endloop
  endfacet
  facet normal 0 -0.891007 -0.45399
    outer loop
      vertex -10 4.27975 1.39058
      vertex -6.68 3.64058 2.64503
      vertex -10 3.64058 2.64503
    endloop
  endfacet
  facet normal 0 -0.891007 -0.45399
    outer loop
      vertex -6.68 3.64058 2.64503
      vertex -10 4.27975 1.39058
      vertex -6.68 4.27975 1.39058
    endloop
  endfacet
  facet normal 0 -0.891007 -0.45399
    outer loop
      vertex 6.68 4.27975 1.39058
      vertex 10 3.64058 2.64503
      vertex 6.68 3.64058 2.64503
    endloop
  endfacet
  facet normal 0 -0.891007 -0.45399
    outer loop
      vertex 10 3.64058 2.64503
      vertex 6.68 4.27975 1.39058
      vertex 10 4.27975 1.39058
    endloop
  endfacet
  facet normal 0 -0.891007 0.45399
    outer loop
      vertex -10 3.64058 -2.64503
      vertex -6.68 4.27975 -1.39058
      vertex -10 4.27975 -1.39058
    endloop
  endfacet
  facet normal 0 -0.891007 0.45399
    outer loop
      vertex -6.68 4.27975 -1.39058
      vertex -10 3.64058 -2.64503
      vertex -6.68 3.64058 -2.64503
    endloop
  endfacet
  facet normal 0 -0.891007 0.45399
    outer loop
      vertex 6.68 3.64058 -2.64503
      vertex 10 4.27975 -1.39058
      vertex 6.68 4.27975 -1.39058
    endloop
  endfacet
  facet normal 0 -0.891007 0.45399
    outer loop
      vertex 10 4.27975 -1.39058
      vertex 6.68 3.64058 -2.64503
      vertex 10 3.64058 -2.64503
    endloop
  endfacet
  facet normal 0 -0.45399 0.891007
    outer loop
      vertex -10 2.64503 -3.64058
      vertex -6.68 1.39058 -4.27975
      vertex -6.68 2.64503 -3.64058
    endloop
  endfacet
  facet normal 0 -0.45399 0.891007
    outer loop
      vertex -6.68 1.39058 -4.27975
      vertex -10 2.64503 -3.64058
      vertex -10 1.39058 -4.27975
    endloop
  endfacet
  facet normal 0 -0.45399 0.891007
    outer loop
      vertex 6.68 2.64503 -3.64058
      vertex 10 1.39058 -4.27975
      vertex 10 2.64503 -3.64058
    endloop
  endfacet
  facet normal 0 -0.45399 0.891007
    outer loop
      vertex 10 1.39058 -4.27975
      vertex 6.68 2.64503 -3.64058
      vertex 6.68 1.39058 -4.27975
    endloop
  endfacet
  facet normal 0 0.707107 0.707107
    outer loop
      vertex -6.68 -2.64503 -3.64058
      vertex -10 -3.64058 -2.64503
      vertex -6.68 -3.64058 -2.64503
    endloop
  endfacet
  facet normal 0 0.707107 0.707107
    outer loop
      vertex -10 -3.64058 -2.64503
      vertex -6.68 -2.64503 -3.64058
      vertex -10 -2.64503 -3.64058
    endloop
  endfacet
  facet normal 0 0.707107 0.707107
    outer loop
      vertex 10 -2.64503 -3.64058
      vertex 6.68 -3.64058 -2.64503
      vertex 10 -3.64058 -2.64503
    endloop
  endfacet
  facet normal 0 0.707107 0.707107
    outer loop
      vertex 6.68 -3.64058 -2.64503
      vertex 10 -2.64503 -3.64058
      vertex 6.68 -2.64503 -3.64058
    endloop
  endfacet
  facet normal 0 -0.987688 0.156435
    outer loop
      vertex -10 4.27975 -1.39058
      vertex -6.68 4.5 0
      vertex -10 4.5 0
    endloop
  endfacet
  facet normal 0 -0.987688 0.156435
    outer loop
      vertex -6.68 4.5 0
      vertex -10 4.27975 -1.39058
      vertex -6.68 4.27975 -1.39058
    endloop
  endfacet
  facet normal 0 -0.987688 0.156435
    outer loop
      vertex 6.68 4.27975 -1.39058
      vertex 10 4.5 0
      vertex 6.68 4.5 0
    endloop
  endfacet
  facet normal 0 -0.987688 0.156435
    outer loop
      vertex 10 4.5 0
      vertex 6.68 4.27975 -1.39058
      vertex 10 4.27975 -1.39058
    endloop
  endfacet
  facet normal 0 -0.707107 0.707107
    outer loop
      vertex -10 2.64503 -3.64058
      vertex -6.68 3.64058 -2.64503
      vertex -10 3.64058 -2.64503
    endloop
  endfacet
  facet normal 0 -0.707107 0.707107
    outer loop
      vertex -6.68 3.64058 -2.64503
      vertex -10 2.64503 -3.64058
      vertex -6.68 2.64503 -3.64058
    endloop
  endfacet
  facet normal 0 -0.707107 0.707107
    outer loop
      vertex 6.68 2.64503 -3.64058
      vertex 10 3.64058 -2.64503
      vertex 6.68 3.64058 -2.64503
    endloop
  endfacet
  facet normal 0 -0.707107 0.707107
    outer loop
      vertex 10 3.64058 -2.64503
      vertex 6.68 2.64503 -3.64058
      vertex 10 2.64503 -3.64058
    endloop
  endfacet
  facet normal 0 0.156434 -0.987688
    outer loop
      vertex -10 -1.04293 4.33482
      vertex -6.68 -1.39058 4.27975
      vertex -10 -1.39058 4.27975
    endloop
  endfacet
  facet normal 3.15239e-008 0.156435 -0.987688
    outer loop
      vertex -6.68 -1.39058 4.27975
      vertex -10 -1.04293 4.33482
      vertex -6.68 -0.927514 4.3531
    endloop
  endfacet
  facet normal 0 0.156435 -0.987688
    outer loop
      vertex 6.68 -0.463062 4.42666
      vertex 10 -1.39058 4.27975
      vertex 6.68 -1.39058 4.27975
    endloop
  endfacet
  facet normal 9.18776e-009 0.156435 -0.987688
    outer loop
      vertex 10 -1.39058 4.27975
      vertex 6.68 -0.463062 4.42666
      vertex 10 -0.347644 4.44494
    endloop
  endfacet
  facet normal 0 0.987688 0.156435
    outer loop
      vertex -6.68 -4.27975 -1.39058
      vertex -10 -4.5 0
      vertex -6.68 -4.5 0
    endloop
  endfacet
  facet normal 0 0.987688 0.156435
    outer loop
      vertex -10 -4.5 0
      vertex -6.68 -4.27975 -1.39058
      vertex -10 -4.27975 -1.39058
    endloop
  endfacet
  facet normal 0 0.987688 0.156435
    outer loop
      vertex 10 -4.27975 -1.39058
      vertex 6.68 -4.5 0
      vertex 10 -4.5 0
    endloop
  endfacet
  facet normal 0 0.987688 0.156435
    outer loop
      vertex 6.68 -4.5 0
      vertex 10 -4.27975 -1.39058
      vertex 6.68 -4.27975 -1.39058
    endloop
  endfacet
  facet normal -0 0.45399 0.891007
    outer loop
      vertex -10 -1.39058 -4.27975
      vertex -6.68 -2.64503 -3.64058
      vertex -6.68 -1.39058 -4.27975
    endloop
  endfacet
  facet normal 0 0.45399 0.891007
    outer loop
      vertex -6.68 -2.64503 -3.64058
      vertex -10 -1.39058 -4.27975
      vertex -10 -2.64503 -3.64058
    endloop
  endfacet
  facet normal -0 0.45399 0.891007
    outer loop
      vertex 6.68 -1.39058 -4.27975
      vertex 10 -2.64503 -3.64058
      vertex 10 -1.39058 -4.27975
    endloop
  endfacet
  facet normal 0 0.45399 0.891007
    outer loop
      vertex 10 -2.64503 -3.64058
      vertex 6.68 -1.39058 -4.27975
      vertex 6.68 -2.64503 -3.64058
    endloop
  endfacet
  facet normal 0 -0.987688 -0.156435
    outer loop
      vertex -10 4.5 0
      vertex -6.68 4.27975 1.39058
      vertex -10 4.27975 1.39058
    endloop
  endfacet
  facet normal 0 -0.987688 -0.156435
    outer loop
      vertex -6.68 4.27975 1.39058
      vertex -10 4.5 0
      vertex -6.68 4.5 0
    endloop
  endfacet
  facet normal 0 -0.987688 -0.156435
    outer loop
      vertex 6.68 4.5 0
      vertex 10 4.27975 1.39058
      vertex 6.68 4.27975 1.39058
    endloop
  endfacet
  facet normal 0 -0.987688 -0.156435
    outer loop
      vertex 10 4.27975 1.39058
      vertex 6.68 4.5 0
      vertex 10 4.5 0
    endloop
  endfacet
  facet normal 0 -0.45399 -0.891007
    outer loop
      vertex -10 1.39058 4.27975
      vertex -6.68 2.64503 3.64058
      vertex -6.68 1.39058 4.27975
    endloop
  endfacet
  facet normal -0 -0.45399 -0.891007
    outer loop
      vertex -6.68 2.64503 3.64058
      vertex -10 1.39058 4.27975
      vertex -10 2.64503 3.64058
    endloop
  endfacet
  facet normal 0 -0.45399 -0.891007
    outer loop
      vertex 6.68 1.39058 4.27975
      vertex 10 2.64503 3.64058
      vertex 10 1.39058 4.27975
    endloop
  endfacet
  facet normal -0 -0.45399 -0.891007
    outer loop
      vertex 10 2.64503 3.64058
      vertex 6.68 1.39058 4.27975
      vertex 6.68 2.64503 3.64058
    endloop
  endfacet
  facet normal 1.41857e-007 -0.156435 -0.987688
    outer loop
      vertex -10 0 4.5
      vertex -6.68 0.927514 4.3531
      vertex -6.68 0 4.5
    endloop
  endfacet
  facet normal 4.19898e-008 -0.156434 -0.987688
    outer loop
      vertex -6.68 0.927514 4.3531
      vertex -10 0 4.5
      vertex -10 1.04293 4.33482
    endloop
  endfacet
  facet normal 1.41857e-007 -0.156434 -0.987688
    outer loop
      vertex 6.68 0 4.5
      vertex 10 0.347644 4.44494
      vertex 10 0 4.5
    endloop
  endfacet
  facet normal 6.58275e-008 -0.156434 -0.987688
    outer loop
      vertex 10 0.347644 4.44494
      vertex 6.68 0 4.5
      vertex 6.68 0.463062 4.42666
    endloop
  endfacet
  facet normal 0 0.987688 -0.156435
    outer loop
      vertex -6.68 -4.5 0
      vertex -10 -4.27975 1.39058
      vertex -6.68 -4.27975 1.39058
    endloop
  endfacet
  facet normal 0 0.987688 -0.156435
    outer loop
      vertex -10 -4.27975 1.39058
      vertex -6.68 -4.5 0
      vertex -10 -4.5 0
    endloop
  endfacet
  facet normal 0 0.987688 -0.156435
    outer loop
      vertex 10 -4.5 0
      vertex 6.68 -4.27975 1.39058
      vertex 10 -4.27975 1.39058
    endloop
  endfacet
  facet normal 0 0.987688 -0.156435
    outer loop
      vertex 6.68 -4.27975 1.39058
      vertex 10 -4.5 0
      vertex 6.68 -4.5 0
    endloop
  endfacet
  facet normal 0 0.45399 -0.891007
    outer loop
      vertex -10 -2.64503 3.64058
      vertex -6.68 -1.39058 4.27975
      vertex -6.68 -2.64503 3.64058
    endloop
  endfacet
  facet normal 0 0.45399 -0.891007
    outer loop
      vertex -6.68 -1.39058 4.27975
      vertex -10 -2.64503 3.64058
      vertex -10 -1.39058 4.27975
    endloop
  endfacet
  facet normal 0 0.45399 -0.891007
    outer loop
      vertex 6.68 -2.64503 3.64058
      vertex 10 -1.39058 4.27975
      vertex 10 -2.64503 3.64058
    endloop
  endfacet
  facet normal 0 0.45399 -0.891007
    outer loop
      vertex 10 -1.39058 4.27975
      vertex 6.68 -2.64503 3.64058
      vertex 6.68 -1.39058 4.27975
    endloop
  endfacet
  facet normal 0 0.891007 0.45399
    outer loop
      vertex -6.68 -3.64058 -2.64503
      vertex -10 -4.27975 -1.39058
      vertex -6.68 -4.27975 -1.39058
    endloop
  endfacet
  facet normal 0 0.891007 0.45399
    outer loop
      vertex -10 -4.27975 -1.39058
      vertex -6.68 -3.64058 -2.64503
      vertex -10 -3.64058 -2.64503
    endloop
  endfacet
  facet normal 0 0.891007 0.45399
    outer loop
      vertex 10 -3.64058 -2.64503
      vertex 6.68 -4.27975 -1.39058
      vertex 10 -4.27975 -1.39058
    endloop
  endfacet
  facet normal 0 0.891007 0.45399
    outer loop
      vertex 6.68 -4.27975 -1.39058
      vertex 10 -3.64058 -2.64503
      vertex 6.68 -3.64058 -2.64503
    endloop
  endfacet
  facet normal -9.18776e-009 0.156435 0.987688
    outer loop
      vertex -10 -1.39058 -4.27975
      vertex -6.68 -0.463062 -4.42666
      vertex -10 -0.347644 -4.44494
    endloop
  endfacet
  facet normal 0 0.156435 0.987688
    outer loop
      vertex -6.68 -0.463062 -4.42666
      vertex -10 -1.39058 -4.27975
      vertex -6.68 -1.39058 -4.27975
    endloop
  endfacet
  facet normal -3.15239e-008 0.156435 0.987688
    outer loop
      vertex 6.68 -1.39058 -4.27975
      vertex 10 -1.04293 -4.33482
      vertex 6.68 -0.927514 -4.3531
    endloop
  endfacet
  facet normal 0 0.156434 0.987688
    outer loop
      vertex 10 -1.04293 -4.33482
      vertex 6.68 -1.39058 -4.27975
      vertex 10 -1.39058 -4.27975
    endloop
  endfacet
  facet normal -1.41857e-007 0.156434 0.987688
    outer loop
      vertex -10 -0.347644 -4.44494
      vertex -6.68 0 -4.5
      vertex -10 0 -4.5
    endloop
  endfacet
  facet normal -6.58275e-008 0.156434 0.987688
    outer loop
      vertex -6.68 0 -4.5
      vertex -10 -0.347644 -4.44494
      vertex -6.68 -0.463062 -4.42666
    endloop
  endfacet
  facet normal -1.41857e-007 0.156435 0.987688
    outer loop
      vertex 6.68 -0.927514 -4.3531
      vertex 10 0 -4.5
      vertex 6.68 0 -4.5
    endloop
  endfacet
  facet normal -4.19898e-008 0.156434 0.987688
    outer loop
      vertex 10 0 -4.5
      vertex 6.68 -0.927514 -4.3531
      vertex 10 -1.04293 -4.33482
    endloop
  endfacet
  facet normal 0 -0.707107 -0.707107
    outer loop
      vertex -10 3.64058 2.64503
      vertex -6.68 2.64503 3.64058
      vertex -10 2.64503 3.64058
    endloop
  endfacet
  facet normal 0 -0.707107 -0.707107
    outer loop
      vertex -6.68 2.64503 3.64058
      vertex -10 3.64058 2.64503
      vertex -6.68 3.64058 2.64503
    endloop
  endfacet
  facet normal 0 -0.707107 -0.707107
    outer loop
      vertex 6.68 3.64058 2.64503
      vertex 10 2.64503 3.64058
      vertex 6.68 2.64503 3.64058
    endloop
  endfacet
  facet normal 0 -0.707107 -0.707107
    outer loop
      vertex 10 2.64503 3.64058
      vertex 6.68 3.64058 2.64503
      vertex 10 3.64058 2.64503
    endloop
  endfacet
  facet normal 3.15239e-008 -0.156435 -0.987688
    outer loop
      vertex -10 1.04293 4.33482
      vertex -6.68 1.39058 4.27975
      vertex -6.68 0.927514 4.3531
    endloop
  endfacet
  facet normal -0 -0.156434 -0.987688
    outer loop
      vertex -6.68 1.39058 4.27975
      vertex -10 1.04293 4.33482
      vertex -10 1.39058 4.27975
    endloop
  endfacet
  facet normal 9.18776e-009 -0.156435 -0.987688
    outer loop
      vertex 6.68 0.463062 4.42666
      vertex 10 1.39058 4.27975
      vertex 10 0.347644 4.44494
    endloop
  endfacet
  facet normal -0 -0.156435 -0.987688
    outer loop
      vertex 10 1.39058 4.27975
      vertex 6.68 0.463062 4.42666
      vertex 6.68 1.39058 4.27975
    endloop
  endfacet
  facet normal 0 0.707107 -0.707107
    outer loop
      vertex -6.68 -3.64058 2.64503
      vertex -10 -2.64503 3.64058
      vertex -6.68 -2.64503 3.64058
    endloop
  endfacet
  facet normal 0 0.707107 -0.707107
    outer loop
      vertex -10 -2.64503 3.64058
      vertex -6.68 -3.64058 2.64503
      vertex -10 -3.64058 2.64503
    endloop
  endfacet
  facet normal 0 0.707107 -0.707107
    outer loop
      vertex 10 -3.64058 2.64503
      vertex 6.68 -2.64503 3.64058
      vertex 10 -2.64503 3.64058
    endloop
  endfacet
  facet normal 0 0.707107 -0.707107
    outer loop
      vertex 6.68 -2.64503 3.64058
      vertex 10 -3.64058 2.64503
      vertex 6.68 -3.64058 2.64503
    endloop
  endfacet
  facet normal 0 0.891007 -0.45399
    outer loop
      vertex -6.68 -4.27975 1.39058
      vertex -10 -3.64058 2.64503
      vertex -6.68 -3.64058 2.64503
    endloop
  endfacet
  facet normal 0 0.891007 -0.45399
    outer loop
      vertex -10 -3.64058 2.64503
      vertex -6.68 -4.27975 1.39058
      vertex -10 -4.27975 1.39058
    endloop
  endfacet
  facet normal 0 0.891007 -0.45399
    outer loop
      vertex 10 -4.27975 1.39058
      vertex 6.68 -3.64058 2.64503
      vertex 10 -3.64058 2.64503
    endloop
  endfacet
  facet normal 0 0.891007 -0.45399
    outer loop
      vertex 6.68 -3.64058 2.64503
      vertex 10 -4.27975 1.39058
      vertex 6.68 -4.27975 1.39058
    endloop
  endfacet
endsolid OpenSCAD_Model
