####
#
# OBJ File Generated by Meshlab
#
####
# Object HingeJointPlug.obj
#
# Vertices: 74
# Faces: 148
#
####
v -6.400000 10.000000 -20.000000
v -6.400000 4.500000 0.000000
v -6.400000 9.510560 3.090170
v -6.400000 4.279750 -1.390580
v -6.400000 1.390580 -4.279750
v -6.400000 0.472796 -4.425120
v -6.400000 0.000000 -4.500000
v -6.400000 -8.090170 5.877850
v -6.400000 -5.877850 8.090170
v -6.400000 -9.510560 3.090170
v -6.400000 -2.645030 -3.640580
v -6.400000 -10.000000 -20.000000
v -6.400000 -3.640580 -2.645030
v -6.400000 -10.000000 0.000000
v -6.400000 8.090170 5.877850
v -6.400000 4.279750 1.390580
v -6.400000 0.000000 4.500000
v -6.400000 0.917780 4.354640
v -6.400000 -1.390580 4.279750
v -6.400000 -2.645030 3.640580
v -6.400000 -3.640580 2.645030
v -6.400000 -4.279750 1.390580
v 6.400000 8.090170 5.877850
v 6.400000 5.877850 8.090170
v 6.400000 3.640580 2.645030
v 6.400000 1.390580 4.279750
v 6.400000 3.090170 9.510560
v 6.400000 0.000000 10.000000
v 6.400000 0.472796 4.425120
v 6.400000 0.000000 4.500000
v 6.400000 -3.090170 9.510560
v 6.400000 -0.472796 4.425120
v 6.400000 -5.877850 8.090170
v 6.400000 -8.090170 5.877850
v 6.400000 4.500000 0.000000
v 6.400000 9.510560 3.090170
v 6.400000 4.279750 1.390580
v 6.400000 3.640580 -2.645030
v 6.400000 1.390580 -4.279750
v 6.400000 0.000000 -4.500000
v 6.400000 -0.917780 -4.354640
v 6.400000 -4.279750 1.390580
v 6.400000 -4.500000 0.000000
v 6.400000 -10.000000 0.000000
v 6.400000 10.000000 -20.000000
v 6.400000 10.000000 0.000000
v -6.400000 10.000000 0.000000
v 6.400000 -10.000000 -20.000000
v -6.400000 3.090170 9.510560
v 6.400000 -9.510560 3.090170
v -6.400000 -3.090170 9.510560
v -6.400000 0.000000 10.000000
v -6.400000 5.877850 8.090170
v 6.400000 0.917780 -4.354640
v -6.400000 3.640580 -2.645030
v 6.400000 2.645030 -3.640580
v -6.400000 2.645030 -3.640580
v 6.400000 4.279750 -1.390580
v -6.400000 -4.500000 0.000000
v -6.400000 -1.390580 -4.279750
v 6.400000 -2.645030 -3.640580
v 6.400000 -1.390580 -4.279750
v -6.400000 3.640580 2.645030
v -6.400000 2.645030 3.640580
v -6.400000 1.390580 4.279750
v 6.400000 2.645030 3.640580
v 6.400000 -1.390580 4.279750
v -6.400000 -0.917780 4.354640
v 6.400000 -2.645030 3.640580
v 6.400000 -3.640580 2.645030
v 6.400000 -3.640580 -2.645030
v 6.400000 -4.279750 -1.390580
v -6.400000 -4.279750 -1.390580
v -6.400000 -0.472796 -4.425120
# 74 vertices, 0 vertices normals

f 55 47 1
f 4 47 55
f 47 2 3
f 3 16 15
f 16 3 2
f 2 47 4
f 1 57 55
f 1 5 57
f 1 6 5
f 1 7 6
f 12 7 1
f 7 12 74
f 74 12 60
f 60 12 11
f 14 59 73
f 59 8 9
f 14 73 13
f 59 10 8
f 11 12 13
f 13 12 14
f 59 14 10
f 63 15 16
f 15 63 53
f 64 53 63
f 53 64 49
f 65 49 64
f 18 49 65
f 52 18 17
f 18 52 49
f 68 52 17
f 51 68 19
f 51 19 20
f 68 51 52
f 9 20 21
f 9 21 22
f 9 22 59
f 20 9 51
f 36 37 35
f 23 25 37
f 66 24 27
f 24 66 25
f 27 26 66
f 27 29 26
f 28 29 27
f 28 30 29
f 28 32 30
f 31 32 28
f 32 31 67
f 67 31 69
f 33 69 31
f 69 33 70
f 34 70 33
f 70 34 42
f 35 46 36
f 37 36 23
f 25 23 24
f 46 35 58
f 46 58 38
f 46 38 45
f 56 45 38
f 39 45 56
f 54 45 39
f 40 45 54
f 48 40 41
f 48 41 62
f 48 62 61
f 48 61 71
f 50 42 34
f 42 50 43
f 44 43 50
f 43 44 72
f 72 44 71
f 48 71 44
f 40 48 45
f 45 47 46
f 47 45 1
f 12 45 48
f 45 12 1
f 12 44 14
f 44 12 48
f 49 28 27
f 28 49 52
f 14 50 10
f 50 14 44
f 51 33 31
f 33 51 9
f 36 15 23
f 15 36 3
f 23 53 24
f 53 23 15
f 46 3 36
f 3 46 47
f 8 33 9
f 33 8 34
f 52 31 28
f 31 52 51
f 53 27 24
f 27 53 49
f 10 34 8
f 34 10 50
f 5 54 39
f 54 5 6
f 6 40 54
f 40 6 7
f 2 37 16
f 37 2 35
f 17 32 68
f 32 17 30
f 17 29 30
f 29 17 18
f 55 58 4
f 58 55 38
f 57 38 55
f 38 57 56
f 57 39 56
f 39 57 5
f 20 67 69
f 67 20 19
f 4 35 2
f 35 4 58
f 72 59 43
f 59 72 73
f 60 61 62
f 61 60 11
f 63 66 64
f 66 63 25
f 65 66 26
f 66 65 64
f 68 67 19
f 67 68 32
f 70 20 69
f 20 70 21
f 71 73 72
f 73 71 13
f 61 13 71
f 13 61 11
f 74 40 7
f 40 74 41
f 16 25 63
f 25 16 37
f 18 26 29
f 26 18 65
f 42 21 70
f 21 42 22
f 60 41 74
f 41 60 62
f 43 22 42
f 22 43 59
# 148 faces, 0 coords texture

# End of File
