v -0.014687 -0.015000 -0.065552
v -0.014687 0.015000 -0.065552
v -0.014671 -0.006673 -0.069041
v -0.014671 -0.006000 -0.068952
v -0.014671 -0.005327 -0.069041
v -0.014671 -0.000673 -0.069041
v -0.014671 0.000000 -0.068952
v -0.014671 0.000673 -0.069041
v -0.014671 0.005327 -0.069041
v -0.014671 0.006000 -0.068952
v -0.014671 0.006673 -0.069041
v -0.014670 -0.007300 -0.069300
v -0.014670 -0.004700 -0.069300
v -0.014670 -0.001300 -0.069300
v -0.014670 0.001300 -0.069300
v -0.014670 0.004700 -0.069300
v -0.014670 0.007300 -0.069300
v -0.014668 -0.007838 -0.069714
v -0.014668 -0.004162 -0.069714
v -0.014668 -0.001838 -0.069714
v -0.014668 0.001838 -0.069714
v -0.014668 0.004162 -0.069714
v -0.014668 0.007838 -0.069714
v -0.014665 -0.008252 -0.070252
v -0.014665 -0.003748 -0.070252
v -0.014665 -0.002252 -0.070252
v -0.014665 0.002252 -0.070252
v -0.014665 0.003748 -0.070252
v -0.014665 0.008252 -0.070252
v -0.014662 -0.008511 -0.070879
v -0.014662 -0.003489 -0.070879
v -0.014662 -0.002511 -0.070879
v -0.014662 0.002511 -0.070879
v -0.014662 0.003489 -0.070879
v -0.014662 0.008511 -0.070879
v -0.014659 -0.008600 -0.071552
v -0.014659 -0.003400 -0.071552
v -0.014659 -0.002600 -0.071552
v -0.014659 0.002600 -0.071552
v -0.014659 0.003400 -0.071552
v -0.014659 0.008600 -0.071552
v -0.014656 -0.008511 -0.072225
v -0.014656 -0.003489 -0.072225
v -0.014656 -0.002511 -0.072225
v -0.014656 0.002511 -0.072225
v -0.014656 0.003489 -0.072225
v -0.014656 0.008511 -0.072225
v -0.014653 -0.008252 -0.072852
v -0.014653 -0.003748 -0.072852
v -0.014653 -0.002252 -0.072852
v -0.014653 0.002252 -0.072852
v -0.014653 0.003748 -0.072852
v -0.014653 0.008252 -0.072852
v -0.014650 -0.007838 -0.073390
v -0.014650 -0.004162 -0.073390
v -0.014650 -0.001838 -0.073390
v -0.014650 0.001838 -0.073390
v -0.014650 0.004162 -0.073390
v -0.014650 0.007838 -0.073390
v -0.014648 -0.007300 -0.073804
v -0.014648 -0.004700 -0.073804
v -0.014648 -0.001300 -0.073804
v -0.014648 0.001300 -0.073804
v -0.014648 0.004700 -0.073804
v -0.014648 0.007300 -0.073804
v -0.014647 -0.006673 -0.074063
v -0.014647 -0.005327 -0.074063
v -0.014647 -0.000673 -0.074063
v -0.014647 0.000673 -0.074063
v -0.014647 0.005327 -0.074063
v -0.014647 0.006673 -0.074063
v -0.014646 -0.006000 -0.074152
v -0.014646 0.000000 -0.074152
v -0.014646 0.006000 -0.074152
v -0.014625 -0.015000 -0.078586
v -0.014625 -0.012000 -0.078586
v -0.014625 -0.012000 -0.078552
v -0.014625 0.012000 -0.078586
v -0.014625 0.012000 -0.078552
v -0.014625 0.015000 -0.078586
v -0.014169 -0.006673 -0.069039
v -0.014169 -0.006000 -0.068950
v -0.014169 -0.005327 -0.069039
v -0.014169 -0.000673 -0.069039
v -0.014169 0.000000 -0.068950
v -0.014169 0.000673 -0.069039
v -0.014169 0.005327 -0.069039
v -0.014169 0.006000 -0.068950
v -0.014169 0.006673 -0.069039
v -0.014168 -0.007300 -0.069298
v -0.014168 -0.004700 -0.069298
v -0.014168 -0.001300 -0.069298
v -0.014168 0.001300 -0.069298
v -0.014168 0.004700 -0.069298
v -0.014168 0.007300 -0.069298
v -0.014167 -0.006000 -0.069450
v -0.014167 0.000000 -0.069450
v -0.014167 0.006000 -0.069450
v -0.014166 -0.007838 -0.069712
v -0.014166 -0.006544 -0.069522
v -0.014166 -0.005456 -0.069522
v -0.014166 -0.004162 -0.069712
v -0.014166 -0.001838 -0.069712
v -0.014166 -0.000544 -0.069522
v -0.014166 0.000544 -0.069522
v -0.014166 0.001838 -0.069712
v -0.014166 0.004162 -0.069712
v -0.014166 0.005456 -0.069522
v -0.014166 0.006544 -0.069522
v -0.014166 0.007838 -0.069712
v -0.014165 -0.007050 -0.069731
v -0.014165 -0.004950 -0.069731
v -0.014165 -0.001050 -0.069731
v -0.014165 0.001050 -0.069731
v -0.014165 0.004950 -0.069731
v -0.014165 0.007050 -0.069731
v -0.014164 -0.007485 -0.070065
v -0.014164 -0.004515 -0.070065
v -0.014164 -0.001485 -0.070065
v -0.014164 0.001485 -0.070065
v -0.014164 0.004515 -0.070065
v -0.014164 0.007485 -0.070065
v -0.014163 -0.008252 -0.070250
v -0.014163 -0.003748 -0.070250
v -0.014163 -0.002252 -0.070250
v -0.014163 0.002252 -0.070250
v -0.014163 0.003748 -0.070250
v -0.014163 0.008252 -0.070250
v -0.014162 -0.007819 -0.070500
v -0.014162 -0.004181 -0.070500
v -0.014162 -0.001819 -0.070500
v -0.014162 0.001819 -0.070500
v -0.014162 0.004181 -0.070500
v -0.014162 0.007819 -0.070500
v -0.014160 -0.008511 -0.070877
v -0.014160 -0.003489 -0.070877
v -0.014160 -0.002511 -0.070877
v -0.014160 0.002511 -0.070877
v -0.014160 0.003489 -0.070877
v -0.014160 0.008511 -0.070877
v -0.014159 -0.008028 -0.071006
v -0.014159 -0.003972 -0.071006
v -0.014159 -0.002028 -0.071006
v -0.014159 0.002028 -0.071006
v -0.014159 0.003972 -0.071006
v -0.014159 0.008028 -0.071006
v -0.014157 -0.008600 -0.071550
v -0.014157 -0.008100 -0.071550
v -0.014157 -0.003900 -0.071550
v -0.014157 -0.003400 -0.071550
v -0.014157 -0.002600 -0.071550
v -0.014157 -0.002100 -0.071550
v -0.014157 0.002100 -0.071550
v -0.014157 0.002600 -0.071550
v -0.014157 0.003400 -0.071550
v -0.014157 0.003900 -0.071550
v -0.014157 0.008100 -0.071550
v -0.014157 0.008600 -0.071550
v -0.014154 -0.008511 -0.072223
v -0.014154 -0.008028 -0.072094
v -0.014154 -0.003972 -0.072094
v -0.014154 -0.003489 -0.072223
v -0.014154 -0.002511 -0.072223
v -0.014154 -0.002028 -0.072094
v -0.014154 0.002028 -0.072094
v -0.014154 0.002511 -0.072223
v -0.014154 0.003489 -0.072223
v -0.014154 0.003972 -0.072094
v -0.014154 0.008028 -0.072094
v -0.014154 0.008511 -0.072223
v -0.014152 -0.007819 -0.072600
v -0.014152 -0.004181 -0.072600
v -0.014152 -0.001819 -0.072600
v -0.014152 0.001819 -0.072600
v -0.014152 0.004181 -0.072600
v -0.014152 0.007819 -0.072600
v -0.014151 -0.008252 -0.072850
v -0.014151 -0.003748 -0.072850
v -0.014151 -0.002252 -0.072850
v -0.014151 0.002252 -0.072850
v -0.014151 0.003748 -0.072850
v -0.014151 0.008252 -0.072850
v -0.014150 -0.007485 -0.073035
v -0.014150 -0.004515 -0.073035
v -0.014150 -0.001485 -0.073035
v -0.014150 0.001485 -0.073035
v -0.014150 0.004515 -0.073035
v -0.014150 0.007485 -0.073035
v -0.014148 -0.007838 -0.073388
v -0.014148 -0.007050 -0.073369
v -0.014148 -0.004950 -0.073369
v -0.014148 -0.004162 -0.073388
v -0.014148 -0.001838 -0.073388
v -0.014148 -0.001050 -0.073369
v -0.014148 0.001050 -0.073369
v -0.014148 0.001838 -0.073388
v -0.014148 0.004162 -0.073388
v -0.014148 0.004950 -0.073369
v -0.014148 0.007050 -0.073369
v -0.014148 0.007838 -0.073388
v -0.014147 -0.006544 -0.073578
v -0.014147 -0.006000 -0.073650
v -0.014147 -0.005456 -0.073578
v -0.014147 -0.000544 -0.073578
v -0.014147 0.000000 -0.073650
v -0.014147 0.000544 -0.073578
v -0.014147 0.005456 -0.073578
v -0.014147 0.006000 -0.073650
v -0.014147 0.006544 -0.073578
v -0.014146 -0.007300 -0.073802
v -0.014146 -0.004700 -0.073802
v -0.014146 -0.001300 -0.073802
v -0.014146 0.001300 -0.073802
v -0.014146 0.004700 -0.073802
v -0.014146 0.007300 -0.073802
v -0.014145 -0.006673 -0.074061
v -0.014145 -0.005327 -0.074061
v -0.014145 -0.000673 -0.074061
v -0.014145 0.000673 -0.074061
v -0.014145 0.005327 -0.074061
v -0.014145 0.006673 -0.074061
v -0.014144 -0.006000 -0.074150
v -0.014144 0.000000 -0.074150
v -0.014144 0.006000 -0.074150
v -0.013188 -0.013500 -0.065545
v -0.013188 -0.013500 -0.065505
v -0.013188 0.001491 -0.065545
v -0.013188 0.001507 -0.065545
v -0.013188 0.013125 -0.065545
v -0.013188 0.013500 -0.065545
v -0.013188 0.013500 -0.065505
v -0.013187 -0.013500 -0.065545
v -0.013187 0.013500 -0.065545
v -0.012813 -0.013500 -0.065543
v -0.012292 -0.012000 0.040218
v -0.012292 0.012000 0.040218
v -0.011674 -0.012000 -0.068378
v -0.011674 -0.010316 -0.068378
v -0.011674 -0.010276 -0.068378
v -0.011674 -0.010154 -0.068378
v -0.011674 -0.009932 -0.068378
v -0.011674 -0.009601 -0.068378
v -0.011674 -0.009160 -0.068378
v -0.011674 -0.008638 -0.068378
v -0.011674 -0.008099 -0.068378
v -0.011674 -0.007631 -0.068378
v -0.011674 -0.003262 -0.068378
v -0.011674 0.001108 -0.068378
v -0.011674 0.001259 -0.068378
v -0.011674 0.008099 -0.068378
v -0.011674 0.008638 -0.068378
v -0.011674 0.009160 -0.068378
v -0.011674 0.009601 -0.068378
v -0.011674 0.009932 -0.068378
v -0.011674 0.010154 -0.068378
v -0.011674 0.010276 -0.068378
v -0.011674 0.010316 -0.068378
v -0.011674 0.012000 -0.068378
v -0.011669 -0.006000 -0.069438
v -0.011669 0.000000 -0.069438
v -0.011669 0.006000 -0.069438
v -0.011668 -0.006544 -0.069510
v -0.011668 -0.005456 -0.069510
v -0.011668 -0.000544 -0.069510
v -0.011668 0.000544 -0.069510
v -0.011668 0.005456 -0.069510
v -0.011668 0.006544 -0.069510
v -0.011667 -0.007050 -0.069719
v -0.011667 -0.004950 -0.069719
v -0.011667 -0.001050 -0.069719
v -0.011667 0.001050 -0.069719
v -0.011667 0.004950 -0.069719
v -0.011667 0.007050 -0.069719
v -0.011666 -0.007485 -0.070053
v -0.011666 -0.004515 -0.070053
v -0.011666 -0.001485 -0.070053
v -0.011666 0.001485 -0.070053
v -0.011666 0.004515 -0.070053
v -0.011666 0.007485 -0.070053
v -0.011664 -0.007819 -0.070488
v -0.011664 -0.004181 -0.070488
v -0.011664 -0.001819 -0.070488
v -0.011664 0.001819 -0.070488
v -0.011664 0.004181 -0.070488
v -0.011664 0.007819 -0.070488
v -0.011661 -0.008028 -0.070994
v -0.011661 -0.003972 -0.070994
v -0.011661 -0.002028 -0.070994
v -0.011661 0.002028 -0.070994
v -0.011661 0.003972 -0.070994
v -0.011661 0.008028 -0.070994
v -0.011659 -0.008100 -0.071538
v -0.011659 -0.003900 -0.071538
v -0.011659 -0.002100 -0.071538
v -0.011659 0.002100 -0.071538
v -0.011659 0.003900 -0.071538
v -0.011659 0.008100 -0.071538
v -0.011656 -0.008028 -0.072082
v -0.011656 -0.003972 -0.072082
v -0.011656 -0.002028 -0.072082
v -0.011656 0.002028 -0.072082
v -0.011656 0.003972 -0.072082
v -0.011656 0.008028 -0.072082
v -0.011654 -0.007819 -0.072588
v -0.011654 -0.004181 -0.072588
v -0.011654 -0.001819 -0.072588
v -0.011654 0.001819 -0.072588
v -0.011654 0.004181 -0.072588
v -0.011654 0.007819 -0.072588
v -0.011652 -0.007485 -0.073023
v -0.011652 -0.004515 -0.073023
v -0.011652 -0.001485 -0.073023
v -0.011652 0.001485 -0.073023
v -0.011652 0.004515 -0.073023
v -0.011652 0.007485 -0.073023
v -0.011650 -0.007050 -0.073357
v -0.011650 -0.004950 -0.073357
v -0.011650 -0.001050 -0.073357
v -0.011650 0.001050 -0.073357
v -0.011650 0.004950 -0.073357
v -0.011650 0.007050 -0.073357
v -0.011649 -0.006544 -0.073566
v -0.011649 -0.006000 -0.073638
v -0.011649 -0.005456 -0.073566
v -0.011649 -0.000544 -0.073566
v -0.011649 0.000000 -0.073638
v -0.011649 0.000544 -0.073566
v -0.011649 0.005456 -0.073566
v -0.011649 0.006000 -0.073638
v -0.011649 0.006544 -0.073566
v -0.011625 -0.012000 -0.078538
v -0.011625 0.012000 -0.078538
v -0.011623 0.003654 0.040221
v -0.011622 0.003633 0.040221
v -0.011606 0.003676 0.040221
v -0.011588 -0.003739 0.040221
v -0.011588 -0.003763 0.040221
v -0.011586 -0.003765 0.040221
v -0.011576 -0.003778 0.040221
v -0.011575 -0.003780 0.040221
v -0.011575 -0.003780 0.040221
v -0.011391 0.003654 -0.008180
v -0.011373 0.003654 -0.011986
v -0.011367 0.003654 -0.013311
v -0.011366 0.000136 -0.009925
v -0.011364 0.002325 -0.012645
v -0.011349 0.003654 -0.017129
v -0.011340 -0.000231 -0.015181
v -0.011339 -0.003763 -0.011858
v -0.011331 -0.003763 -0.013410
v -0.011118 0.003654 -0.065495
v -0.011104 0.003673 -0.065495
v -0.011094 -0.004096 -0.011953
v -0.011084 0.003700 -0.065495
v -0.011083 -0.003763 -0.065495
v -0.011083 -0.003739 -0.065495
v -0.011083 -0.003711 -0.065495
v -0.011080 -0.004106 -0.013309
v -0.009433 0.006304 -0.019005
v -0.009424 -0.015000 -0.083027
v -0.009424 -0.012000 -0.083027
v -0.009424 0.012000 -0.083027
v -0.009424 0.015000 -0.083027
v -0.009359 -0.006455 -0.012620
v -0.009301 0.006512 -0.015335
v -0.009167 0.006735 -0.009806
v -0.009147 0.006724 -0.015486
v -0.009100 0.006828 -0.009741
v -0.008958 0.007053 -0.005777
v -0.008798 0.007250 -0.009443
v -0.008779 0.007239 -0.015126
v -0.008777 0.007237 -0.015849
v -0.008723 -0.002601 -0.068364
v -0.008723 0.004386 -0.068364
v -0.008674 0.003944 -0.068364
v -0.008397 0.008137 0.040237
v -0.008230 -0.015000 -0.077521
v -0.008230 -0.014498 -0.077521
v -0.008230 0.014498 -0.077521
v -0.008230 0.015000 -0.077521
v -0.008144 -0.015000 -0.076848
v -0.008144 -0.014498 -0.076848
v -0.008144 0.014498 -0.076848
v -0.008144 0.015000 -0.076848
v -0.008138 -0.015000 -0.078194
v -0.008138 -0.014498 -0.078194
v -0.008138 0.014498 -0.078194
v -0.008138 0.015000 -0.078194
v -0.008013 -0.003244 -0.068360
v -0.008013 0.004907 -0.068360
v -0.007888 -0.015000 -0.076220
v -0.007888 -0.014498 -0.076220
v -0.007888 0.014498 -0.076220
v -0.007888 0.015000 -0.076220
v -0.007876 -0.015000 -0.078820
v -0.007876 -0.014498 -0.078820
v -0.007876 0.014498 -0.078820
v -0.007876 0.015000 -0.078820
v -0.007852 -0.008164 -0.065480
v -0.007730 -0.014498 -0.077519
v -0.007730 -0.012000 -0.077519
v -0.007730 0.012000 -0.077519
v -0.007730 0.014498 -0.077519
v -0.007661 -0.014498 -0.076975
v -0.007661 -0.012000 -0.076975
v -0.007661 0.012000 -0.076975
v -0.007661 0.014498 -0.076975
v -0.007656 -0.014498 -0.078063
v -0.007656 -0.012000 -0.078063
v -0.007656 0.012000 -0.078063
v -0.007656 0.014498 -0.078063
v -0.007477 -0.015000 -0.075680
v -0.007477 -0.014498 -0.075680
v -0.007477 0.014498 -0.075680
v -0.007477 0.015000 -0.075680
v -0.007474 -0.015000 -0.075677
v -0.007474 0.015000 -0.075677
v -0.007459 -0.015000 -0.079356
v -0.007459 -0.014498 -0.079356
v -0.007459 0.014498 -0.079356
v -0.007459 0.015000 -0.079356
v -0.007454 -0.014498 -0.076468
v -0.007454 -0.012000 -0.076468
v -0.007454 0.012000 -0.076468
v -0.007454 0.014498 -0.076468
v -0.007444 -0.014498 -0.078568
v -0.007444 -0.012000 -0.078568
v -0.007444 0.012000 -0.078568
v -0.007444 0.014498 -0.078568
v -0.007304 0.009657 0.040242
v -0.007292 0.009674 0.040242
v -0.007289 0.009675 0.040242
v -0.007201 -0.003273 -0.068356
v -0.007201 0.004931 -0.068356
v -0.007200 -0.009742 0.040242
v -0.007179 -0.009748 0.040243
v -0.007179 -0.009749 0.040243
v -0.007122 -0.014498 -0.076031
v -0.007122 -0.012000 -0.076031
v -0.007122 0.012000 -0.076031
v -0.007122 0.014498 -0.076031
v -0.007108 -0.014498 -0.079001
v -0.007108 -0.012000 -0.079001
v -0.007108 0.012000 -0.079001
v -0.007108 0.014498 -0.079001
v -0.007081 0.009674 -0.003923
v -0.007005 -0.004948 -0.068356
v -0.007005 0.006288 -0.068356
v -0.006998 0.009674 -0.021392
v -0.006941 -0.015000 -0.075263
v -0.006941 -0.014498 -0.075263
v -0.006941 0.014498 -0.075263
v -0.006941 0.015000 -0.075263
v -0.006919 -0.015000 -0.079767
v -0.006919 -0.014498 -0.079767
v -0.006919 0.014498 -0.079767
v -0.006919 0.015000 -0.079767
v -0.006788 0.009674 -0.065474
v -0.006785 0.009675 -0.065474
v -0.006765 0.009681 -0.065474
v -0.006723 -0.009703 -0.065474
v -0.006721 -0.009706 -0.065474
v -0.006710 -0.009721 -0.065474
v -0.006709 -0.009723 -0.065474
v -0.006695 -0.009742 -0.065474
v -0.006689 -0.014498 -0.075695
v -0.006689 -0.012000 -0.075695
v -0.006689 0.012000 -0.075695
v -0.006689 0.014498 -0.075695
v -0.006672 0.012000 -0.079333
v -0.006672 0.014498 -0.079333
v -0.006671 -0.014498 -0.079333
v -0.006671 -0.012000 -0.079333
v -0.006646 0.009818 -0.003724
v -0.006643 0.009816 -0.005630
v -0.006615 0.009800 -0.021564
v -0.006594 -0.005492 -0.068354
v -0.006594 0.006728 -0.068354
v -0.006525 -0.003717 -0.068353
v -0.006525 0.005290 -0.068353
v -0.006315 -0.015000 -0.075001
v -0.006315 -0.014498 -0.075001
v -0.006315 0.014498 -0.075001
v -0.006315 0.015000 -0.075001
v -0.006291 -0.015000 -0.080023
v -0.006291 -0.014498 -0.080023
v -0.006291 0.014498 -0.080023
v -0.006291 0.015000 -0.080023
v -0.006184 -0.014498 -0.075484
v -0.006184 -0.012000 -0.075484
v -0.006184 0.012000 -0.075484
v -0.006184 0.014498 -0.075484
v -0.006165 0.012000 -0.079540
v -0.006165 0.014498 -0.079540
v -0.006164 -0.014498 -0.079540
v -0.006164 -0.012000 -0.079540
v -0.006063 -0.006389 -0.068351
v -0.005978 -0.006304 -0.068351
v -0.005948 -0.006274 -0.068350
v -0.005911 -0.006237 -0.068350
v -0.005770 -0.006096 -0.068350
v -0.005716 -0.006042 -0.068349
v -0.005688 0.013500 -0.065509
v -0.005687 -0.013500 -0.065509
v -0.005643 -0.015000 -0.074909
v -0.005643 -0.014498 -0.074909
v -0.005643 0.014498 -0.074909
v -0.005643 0.015000 -0.074909
v -0.005640 -0.014498 -0.075409
v -0.005640 -0.012000 -0.075409
v -0.005640 0.012000 -0.075409
v -0.005640 0.014498 -0.075409
v -0.005620 -0.014498 -0.079609
v -0.005620 -0.012000 -0.079609
v -0.005620 0.012000 -0.079609
v -0.005620 0.014498 -0.079609
v -0.005618 -0.015000 -0.080109
v -0.005618 -0.014498 -0.080109
v -0.005618 0.014498 -0.080109
v -0.005618 0.015000 -0.080109
v -0.005142 -0.005468 -0.068347
v -0.005096 -0.014498 -0.075479
v -0.005096 -0.012000 -0.075479
v -0.005096 0.012000 -0.075478
v -0.005096 0.014498 -0.075478
v -0.005090 -0.008920 -0.012600
v -0.005080 -0.005406 -0.068346
v -0.005077 -0.014498 -0.079534
v -0.005077 -0.012000 -0.079534
v -0.005077 0.012000 -0.079534
v -0.005077 0.014498 -0.079534
v -0.004990 -0.007087 -0.068346
v -0.004990 0.008020 -0.068346
v -0.004969 -0.015000 -0.074995
v -0.004969 -0.014498 -0.074995
v -0.004969 0.014498 -0.074995
v -0.004969 0.015000 -0.074995
v -0.004952 -0.005278 -0.068346
v -0.004945 -0.015000 -0.080017
v -0.004945 -0.014498 -0.080017
v -0.004945 0.014498 -0.080017
v -0.004945 0.015000 -0.080017
v -0.004926 -0.005252 -0.068346
v -0.004589 -0.014498 -0.075685
v -0.004589 -0.012000 -0.075685
v -0.004589 0.012000 -0.075685
v -0.004589 0.014498 -0.075685
v -0.004572 -0.014498 -0.079323
v -0.004572 -0.012000 -0.079323
v -0.004572 0.012000 -0.079323
v -0.004572 0.014498 -0.079323
v -0.004341 -0.015000 -0.075251
v -0.004341 -0.014498 -0.075251
v -0.004341 0.014498 -0.075251
v -0.004341 0.015000 -0.075251
v -0.004319 -0.015000 -0.079755
v -0.004319 -0.014498 -0.079755
v -0.004319 0.014498 -0.079755
v -0.004319 0.015000 -0.079755
v -0.004152 -0.014498 -0.076017
v -0.004152 -0.012000 -0.076017
v -0.004152 0.012000 -0.076017
v -0.004152 0.014498 -0.076017
v -0.004138 -0.014498 -0.078987
v -0.004138 -0.012000 -0.078987
v -0.004138 0.012000 -0.078987
v -0.004138 0.014498 -0.078987
v -0.003816 -0.014498 -0.076450
v -0.003816 -0.012000 -0.076450
v -0.003816 0.012000 -0.076450
v -0.003816 0.014498 -0.076450
v -0.003806 -0.014498 -0.078550
v -0.003806 -0.012000 -0.078550
v -0.003806 0.012000 -0.078550
v -0.003806 0.014498 -0.078550
v -0.003801 -0.015000 -0.075662
v -0.003801 -0.014498 -0.075662
v -0.003801 0.014498 -0.075662
v -0.003801 0.015000 -0.075662
v -0.003783 -0.015000 -0.079338
v -0.003783 -0.014498 -0.079338
v -0.003783 0.014498 -0.079338
v -0.003783 0.015000 -0.079338
v -0.003617 -0.012000 -0.068339
v -0.003617 -0.010132 -0.068339
v -0.003617 0.010487 -0.068339
v -0.003617 0.012000 -0.068339
v -0.003605 -0.014498 -0.076955
v -0.003605 -0.012000 -0.076955
v -0.003605 0.012000 -0.076955
v -0.003605 0.014498 -0.076955
v -0.003600 -0.014498 -0.078043
v -0.003600 -0.012000 -0.078043
v -0.003600 0.012000 -0.078043
v -0.003600 0.014498 -0.078043
v -0.003530 -0.014498 -0.077499
v -0.003530 -0.012000 -0.077499
v -0.003530 0.012000 -0.077499
v -0.003530 0.014498 -0.077499
v -0.003384 -0.015000 -0.076198
v -0.003384 -0.014498 -0.076198
v -0.003384 0.014498 -0.076198
v -0.003384 0.015000 -0.076198
v -0.003372 -0.015000 -0.078798
v -0.003372 -0.014498 -0.078798
v -0.003372 0.014498 -0.078798
v -0.003372 0.015000 -0.078798
v -0.003122 -0.015000 -0.076824
v -0.003122 -0.014498 -0.076824
v -0.003122 0.014498 -0.076824
v -0.003122 0.015000 -0.076824
v -0.003116 -0.015000 -0.078170
v -0.003116 -0.014498 -0.078170
v -0.003116 0.014498 -0.078170
v -0.003116 0.015000 -0.078170
v -0.003030 -0.015000 -0.077497
v -0.003030 -0.014498 -0.077497
v -0.003030 0.014498 -0.077497
v -0.003030 0.015000 -0.077497
v -0.003013 -0.006963 -0.068336
v -0.003013 0.007919 -0.068336
v -0.002339 -0.007873 -0.068333
v -0.002339 0.008656 -0.068333
v -0.002296 -0.012000 -0.068333
v -0.002296 0.012000 -0.068333
v -0.001789 -0.003203 -0.012599
v -0.001702 -0.012000 -0.068330
v -0.001702 0.012000 -0.068330
v -0.001696 -0.012000 -0.068330
v -0.001696 0.012000 -0.068330
v -0.001662 -0.012000 -0.068330
v -0.001662 0.012000 -0.068330
v -0.001641 -0.012000 -0.068330
v -0.001641 0.012000 -0.068330
v -0.001620 -0.012000 -0.068330
v -0.001620 0.012000 -0.068330
v -0.001546 -0.001200 0.070280
v -0.001546 0.001200 0.070280
v -0.001538 -0.012000 -0.068329
v -0.001538 0.012000 -0.068329
v -0.001453 -0.012000 -0.068329
v -0.001453 0.012000 -0.068329
v -0.001395 -0.012000 -0.068329
v -0.001395 0.012000 -0.068329
v -0.001228 -0.012000 -0.068328
v -0.001228 0.012000 -0.068328
v -0.001153 -0.012000 -0.068328
v -0.001153 0.012000 -0.068328
v -0.001055 -0.012000 -0.068327
v -0.001055 0.012000 -0.068327
v -0.000893 -0.012000 -0.068326
v -0.000893 0.012000 -0.068326
v -0.000825 -0.012000 -0.068326
v -0.000825 0.012000 -0.068326
v -0.000758 -0.012000 -0.068326
v -0.000758 0.012000 -0.068326
v -0.000584 0.011890 0.040579
v -0.000480 -0.011890 0.040579
v -0.000334 0.012000 -0.068324
v -0.000295 0.011985 0.040276
v -0.000293 0.011986 0.040276
v -0.000290 0.011987 0.040312
v -0.000288 0.011987 0.040311
v -0.000282 0.011989 0.040276
v -0.000279 0.011990 0.040303
v -0.000270 0.011993 0.040276
v -0.000269 0.011994 0.040293
v -0.000251 0.012000 0.040581
v -0.000250 0.012000 0.040276
v -0.000249 0.012000 0.040276
v -0.000249 0.012000 0.040276
v -0.000137 -0.012000 0.040581
v -0.000136 -0.012000 0.040276
v -0.000117 -0.011994 0.040294
v -0.000117 -0.011994 0.040294
v -0.000115 -0.011993 0.040276
v -0.000115 -0.011993 0.040276
v -0.000102 -0.011890 0.040581
v 0.000093 0.011890 0.040583
v 0.000195 -0.011890 0.040583
v 0.000255 0.012000 -0.065441
v 0.000278 0.011993 -0.065441
v 0.000312 -0.015000 -0.065481
v 0.000312 -0.013500 -0.065481
v 0.000312 0.013500 -0.065481
v 0.000312 0.015000 -0.065481
v 0.000326 -0.012000 -0.068321
v 0.000326 -0.005371 -0.068320
v 0.000326 -0.004529 -0.068320
v 0.000326 -0.004509 -0.068320
v 0.000326 -0.004448 -0.068320
v 0.000326 -0.004337 -0.068320
v 0.000326 -0.004171 -0.068320
v 0.000326 -0.003951 -0.068320
v 0.000326 -0.003690 -0.068320
v 0.000326 -0.003420 -0.068320
v 0.000326 0.000000 -0.068320
v 0.000326 0.000075 -0.068320
v 0.000326 0.002260 -0.068320
v 0.000326 0.004445 -0.068320
v 0.000326 0.004679 -0.068320
v 0.000326 0.004948 -0.068320
v 0.000326 0.005209 -0.068320
v 0.000326 0.005430 -0.068320
v 0.000326 0.005595 -0.068320
v 0.000326 0.005706 -0.068320
v 0.000326 0.005768 -0.068320
v 0.000326 0.005788 -0.068320
v 0.000326 0.006629 -0.068320
v 0.000326 0.012000 -0.068320
v 0.000347 -0.011993 -0.065440
v 0.000369 -0.012000 -0.065440
v 0.000396 -0.015000 -0.082980
v 0.000396 -0.012000 -0.082980
v 0.000396 0.012000 -0.082980
v 0.000396 0.015000 -0.082980
v 0.000874 -0.001200 0.070292
v 0.000874 0.001200 0.070292
v 0.000973 0.001608 -0.009396
v 0.000986 -0.012000 -0.068317
v 0.000996 0.001595 -0.015802
v 0.001410 -0.012000 -0.068315
v 0.001410 0.012000 -0.068315
v 0.001477 -0.012000 -0.068315
v 0.001477 0.012000 -0.068315
v 0.001545 -0.012000 -0.068315
v 0.001545 0.012000 -0.068315
v 0.001707 -0.012000 -0.068314
v 0.001707 0.012000 -0.068314
v 0.001805 -0.012000 -0.068313
v 0.001805 0.012000 -0.068313
v 0.001880 -0.012000 -0.068313
v 0.001880 0.012000 -0.068313
v 0.002047 -0.012000 -0.068312
v 0.002047 0.012000 -0.068312
v 0.002105 -0.012000 -0.068312
v 0.002105 0.012000 -0.068312
v 0.002190 -0.012000 -0.068312
v 0.002190 0.012000 -0.068312
v 0.002272 -0.012000 -0.068311
v 0.002272 0.012000 -0.068311
v 0.002293 -0.012000 -0.068311
v 0.002293 0.012000 -0.068311
v 0.002314 -0.012000 -0.068311
v 0.002314 0.012000 -0.068311
v 0.002348 -0.012000 -0.068311
v 0.002348 0.012000 -0.068311
v 0.002354 -0.012000 -0.068311
v 0.002354 0.012000 -0.068311
v 0.002603 0.004478 -0.003680
v 0.002667 0.004441 -0.021520
v 0.002948 -0.012000 -0.068308
v 0.002948 0.012000 -0.068308
v 0.003770 -0.015000 -0.077464
v 0.003770 -0.014498 -0.077464
v 0.003770 0.014498 -0.077464
v 0.003770 0.015000 -0.077464
v 0.003855 -0.014498 -0.076791
v 0.003855 0.014498 -0.076791
v 0.003855 0.015000 -0.076791
v 0.003856 -0.015000 -0.076791
v 0.003862 -0.015000 -0.078137
v 0.003862 -0.014498 -0.078137
v 0.003862 0.014498 -0.078137
v 0.003862 0.015000 -0.078137
v 0.004111 0.014498 -0.076163
v 0.004111 0.015000 -0.076163
v 0.004112 -0.015000 -0.076163
v 0.004112 -0.014498 -0.076163
v 0.004124 -0.015000 -0.078763
v 0.004124 -0.014498 -0.078763
v 0.004124 0.014498 -0.078762
v 0.004124 0.015000 -0.078762
v 0.004269 -0.012000 -0.068302
v 0.004269 0.012000 -0.068302
v 0.004270 -0.014498 -0.077462
v 0.004270 -0.012000 -0.077462
v 0.004270 0.012000 -0.077462
v 0.004270 0.014498 -0.077462
v 0.004339 -0.014498 -0.076917
v 0.004339 -0.012000 -0.076917
v 0.004339 0.012000 -0.076917
v 0.004339 0.014498 -0.076917
v 0.004344 -0.014498 -0.078005
v 0.004344 -0.012000 -0.078005
v 0.004344 0.012000 -0.078005
v 0.004344 0.014498 -0.078005
v 0.004523 -0.015000 -0.075623
v 0.004523 -0.014498 -0.075623
v 0.004523 0.014498 -0.075623
v 0.004523 0.015000 -0.075623
v 0.004540 -0.015000 -0.079299
v 0.004540 -0.014498 -0.079299
v 0.004540 0.014498 -0.079299
v 0.004540 0.015000 -0.079298
v 0.004546 -0.014498 -0.076410
v 0.004546 -0.012000 -0.076410
v 0.004546 0.012000 -0.076410
v 0.004546 0.014498 -0.076410
v 0.004556 -0.014498 -0.078510
v 0.004556 -0.012000 -0.078510
v 0.004556 0.012000 -0.078510
v 0.004556 0.014498 -0.078510
v 0.004878 -0.014498 -0.075974
v 0.004878 -0.012000 -0.075974
v 0.004878 0.012000 -0.075974
v 0.004878 0.014498 -0.075974
v 0.004892 -0.014498 -0.078944
v 0.004892 -0.012000 -0.078944
v 0.004892 0.012000 -0.078944
v 0.004892 0.014498 -0.078944
v 0.005059 -0.015000 -0.075206
v 0.005059 -0.014498 -0.075206
v 0.005059 0.014498 -0.075206
v 0.005059 0.015000 -0.075206
v 0.005080 -0.015000 -0.079710
v 0.005080 -0.014498 -0.079710
v 0.005080 0.014498 -0.079710
v 0.005080 0.015000 -0.079710
v 0.005311 -0.014498 -0.075638
v 0.005311 -0.012000 -0.075638
v 0.005311 0.012000 -0.075638
v 0.005311 0.014498 -0.075638
v 0.005328 -0.014498 -0.079276
v 0.005328 -0.012000 -0.079276
v 0.005328 0.012000 -0.079276
v 0.005328 0.014498 -0.079276
v 0.005685 -0.015000 -0.074944
v 0.005685 -0.014498 -0.074944
v 0.005685 0.014498 -0.074944
v 0.005685 0.015000 -0.074944
v 0.005709 -0.015000 -0.079966
v 0.005709 -0.014498 -0.079966
v 0.005709 0.014498 -0.079966
v 0.005709 0.015000 -0.079966
v 0.005816 -0.014498 -0.075426
v 0.005816 -0.012000 -0.075426
v 0.005816 0.012000 -0.075426
v 0.005816 0.014498 -0.075426
v 0.005835 -0.014498 -0.079482
v 0.005835 -0.012000 -0.079482
v 0.005835 0.012000 -0.079482
v 0.005835 0.014498 -0.079482
v 0.006312 -0.013500 -0.065452
v 0.006312 0.013500 -0.065452
v 0.006357 -0.015000 -0.074852
v 0.006357 -0.014498 -0.074852
v 0.006357 0.014498 -0.074852
v 0.006357 0.015000 -0.074852
v 0.006360 -0.014498 -0.075352
v 0.006360 -0.012000 -0.075352
v 0.006360 0.012000 -0.075352
v 0.006360 0.014498 -0.075352
v 0.006380 -0.014498 -0.079552
v 0.006380 -0.012000 -0.079552
v 0.006380 0.012000 -0.079552
v 0.006380 0.014498 -0.079552
v 0.006382 -0.015000 -0.080052
v 0.006382 -0.014498 -0.080052
v 0.006382 0.014498 -0.080052
v 0.006382 0.015000 -0.080052
v 0.006794 0.009748 0.040309
v 0.006814 0.009742 0.040310
v 0.006814 0.009742 0.040310
v 0.006904 -0.014498 -0.075421
v 0.006904 -0.012000 -0.075421
v 0.006904 0.012000 -0.075421
v 0.006904 0.014498 -0.075421
v 0.006907 -0.009674 0.040310
v 0.006920 -0.009657 0.040310
v 0.006920 -0.009657 0.040310
v 0.006923 -0.014498 -0.079477
v 0.006923 -0.012000 -0.079477
v 0.006923 0.012000 -0.079477
v 0.006923 0.014498 -0.079477
v 0.007031 -0.015000 -0.074938
v 0.007031 -0.014498 -0.074938
v 0.007031 0.014498 -0.074938
v 0.007031 0.015000 -0.074938
v 0.007055 -0.015000 -0.079960
v 0.007055 -0.014498 -0.079960
v 0.007055 0.014498 -0.079960
v 0.007055 0.015000 -0.079960
v 0.007319 0.009742 -0.065407
v 0.007333 0.009723 -0.065407
v 0.007389 -0.009681 -0.065407
v 0.007411 -0.014498 -0.075628
v 0.007411 -0.012000 -0.075628
v 0.007411 -0.009674 -0.065407
v 0.007411 0.012000 -0.075628
v 0.007411 0.014498 -0.075628
v 0.007428 -0.014498 -0.079266
v 0.007428 -0.012000 -0.079266
v 0.007428 0.012000 -0.079266
v 0.007428 0.014498 -0.079266
v 0.007659 -0.015000 -0.075194
v 0.007659 -0.014498 -0.075194
v 0.007659 0.014498 -0.075194
v 0.007659 0.015000 -0.075194
v 0.007680 -0.015000 -0.079698
v 0.007680 -0.014498 -0.079698
v 0.007680 0.014498 -0.079698
v 0.007680 0.015000 -0.079698
v 0.007848 -0.014498 -0.075960
v 0.007848 -0.012000 -0.075960
v 0.007848 0.012000 -0.075960
v 0.007848 0.014498 -0.075960
v 0.007862 -0.014498 -0.078930
v 0.007862 -0.012000 -0.078930
v 0.007862 0.012000 -0.078930
v 0.007862 0.014498 -0.078930
v 0.008013 -0.008137 0.040315
v 0.008184 -0.014498 -0.076393
v 0.008184 -0.012000 -0.076393
v 0.008184 0.012000 -0.076393
v 0.008184 0.014498 -0.076393
v 0.008194 -0.014498 -0.078493
v 0.008194 -0.012000 -0.078493
v 0.008194 0.012000 -0.078493
v 0.008194 0.014498 -0.078493
v 0.008195 -0.015000 -0.075602
v 0.008195 0.015000 -0.075602
v 0.008199 -0.015000 -0.075605
v 0.008199 -0.014498 -0.075605
v 0.008199 0.014498 -0.075605
v 0.008199 0.015000 -0.075605
v 0.008216 -0.015000 -0.079281
v 0.008216 -0.014498 -0.079281
v 0.008216 0.014498 -0.079281
v 0.008216 0.015000 -0.079281
v 0.008395 -0.014498 -0.076898
v 0.008395 -0.012000 -0.076898
v 0.008395 0.012000 -0.076898
v 0.008395 0.014498 -0.076898
v 0.008400 -0.014498 -0.077986
v 0.008400 -0.012000 -0.077986
v 0.008400 0.012000 -0.077986
v 0.008400 0.014498 -0.077986
v 0.008470 -0.014498 -0.077442
v 0.008470 -0.012000 -0.077442
v 0.008470 0.012000 -0.077442
v 0.008470 0.014498 -0.077442
v 0.008477 0.008165 -0.065401
v 0.008615 -0.015000 -0.076141
v 0.008615 -0.014498 -0.076141
v 0.008615 0.014498 -0.076141
v 0.008615 0.015000 -0.076141
v 0.008628 -0.015000 -0.078741
v 0.008628 -0.014498 -0.078741
v 0.008628 0.014498 -0.078741
v 0.008628 0.015000 -0.078741
v 0.008877 -0.015000 -0.076767
v 0.008877 -0.014498 -0.076767
v 0.008877 0.014498 -0.076767
v 0.008877 0.015000 -0.076767
v 0.008884 -0.015000 -0.078113
v 0.008884 -0.014498 -0.078113
v 0.008884 0.014498 -0.078113
v 0.008884 0.015000 -0.078113
v 0.008970 -0.015000 -0.077439
v 0.008970 -0.014498 -0.077439
v 0.008970 0.014498 -0.077439
v 0.008970 0.015000 -0.077439
v 0.010216 -0.015000 -0.082933
v 0.010216 -0.012000 -0.082933
v 0.010216 0.012000 -0.082933
v 0.010216 0.015000 -0.082933
v 0.011190 0.003780 0.040331
v 0.011193 0.003776 0.040331
v 0.011202 0.003763 0.040331
v 0.011202 0.003763 0.040331
v 0.011237 -0.003633 0.040331
v 0.011237 -0.003654 0.040331
v 0.011707 0.003739 -0.065386
v 0.011707 0.003763 -0.065386
v 0.011729 -0.003673 -0.065386
v 0.011742 -0.003654 -0.065386
v 0.011907 0.012000 0.040334
v 0.011908 -0.012000 0.040334
v 0.012326 -0.012000 -0.068263
v 0.012326 -0.010316 -0.068263
v 0.012326 -0.010276 -0.068263
v 0.012326 -0.010154 -0.068263
v 0.012326 -0.009932 -0.068263
v 0.012326 -0.009601 -0.068263
v 0.012326 -0.009160 -0.068263
v 0.012326 -0.008638 -0.068263
v 0.012326 -0.008099 -0.068263
v 0.012326 -0.001260 -0.068263
v 0.012326 -0.001109 -0.068263
v 0.012326 0.003261 -0.068263
v 0.012326 0.007630 -0.068263
v 0.012326 0.007631 -0.068263
v 0.012326 0.008099 -0.068263
v 0.012326 0.008638 -0.068263
v 0.012326 0.009160 -0.068263
v 0.012326 0.009601 -0.068263
v 0.012326 0.009932 -0.068263
v 0.012326 0.010154 -0.068263
v 0.012326 0.010276 -0.068263
v 0.012326 0.010316 -0.068263
v 0.012326 0.012000 -0.068263
v 0.012331 -0.006544 -0.069395
v 0.012331 -0.006000 -0.069323
v 0.012331 -0.005456 -0.069395
v 0.012331 -0.000544 -0.069395
v 0.012331 0.000000 -0.069323
v 0.012331 0.000544 -0.069395
v 0.012331 0.005456 -0.069395
v 0.012331 0.006000 -0.069323
v 0.012331 0.006544 -0.069395
v 0.012332 -0.007050 -0.069604
v 0.012332 -0.004950 -0.069604
v 0.012332 -0.001050 -0.069604
v 0.012332 0.001050 -0.069604
v 0.012332 0.004950 -0.069604
v 0.012332 0.007050 -0.069604
v 0.012334 -0.007485 -0.069938
v 0.012334 -0.004515 -0.069938
v 0.012334 -0.001485 -0.069938
v 0.012334 0.001485 -0.069938
v 0.012334 0.004515 -0.069938
v 0.012334 0.007485 -0.069938
v 0.012336 -0.007819 -0.070373
v 0.012336 -0.004181 -0.070373
v 0.012336 -0.001819 -0.070373
v 0.012336 0.001819 -0.070373
v 0.012336 0.004181 -0.070373
v 0.012336 0.007819 -0.070373
v 0.012338 -0.008028 -0.070879
v 0.012338 -0.003972 -0.070879
v 0.012338 -0.002028 -0.070879
v 0.012338 0.002028 -0.070879
v 0.012338 0.003972 -0.070879
v 0.012338 0.008028 -0.070879
v 0.012341 -0.008100 -0.071423
v 0.012341 -0.003900 -0.071423
v 0.012341 -0.002100 -0.071423
v 0.012341 0.002100 -0.071423
v 0.012341 0.003900 -0.071423
v 0.012341 0.008100 -0.071423
v 0.012344 -0.008028 -0.071967
v 0.012344 -0.003972 -0.071967
v 0.012344 -0.002028 -0.071967
v 0.012344 0.002028 -0.071967
v 0.012344 0.003972 -0.071967
v 0.012344 0.008028 -0.071967
v 0.012346 -0.007819 -0.072473
v 0.012346 -0.004181 -0.072473
v 0.012346 -0.001819 -0.072473
v 0.012346 0.001819 -0.072473
v 0.012346 0.004181 -0.072473
v 0.012346 0.007819 -0.072473
v 0.012348 -0.007485 -0.072908
v 0.012348 -0.004515 -0.072908
v 0.012348 -0.001485 -0.072908
v 0.012348 0.001485 -0.072908
v 0.012348 0.004515 -0.072908
v 0.012348 0.007485 -0.072908
v 0.012350 -0.007050 -0.073242
v 0.012350 -0.004950 -0.073242
v 0.012350 -0.001050 -0.073242
v 0.012350 0.001050 -0.073242
v 0.012350 0.004950 -0.073242
v 0.012350 0.007050 -0.073242
v 0.012351 -0.006544 -0.073451
v 0.012351 -0.006000 -0.073523
v 0.012351 -0.005456 -0.073451
v 0.012351 -0.000544 -0.073451
v 0.012351 0.000000 -0.073523
v 0.012351 0.000544 -0.073451
v 0.012351 0.005456 -0.073451
v 0.012351 0.006000 -0.073523
v 0.012351 0.006544 -0.073451
v 0.012374 -0.012000 -0.078423
v 0.012374 0.012000 -0.078423
v 0.013437 0.013500 -0.065418
v 0.013812 -0.013500 -0.065416
v 0.013812 -0.013500 -0.065376
v 0.013812 -0.013125 -0.065416
v 0.013812 -0.001502 -0.065416
v 0.013812 -0.001498 -0.065416
v 0.013812 0.013500 -0.065416
v 0.013812 0.013500 -0.065376
v 0.014826 0.006000 -0.068811
v 0.014827 -0.006673 -0.068900
v 0.014827 -0.006000 -0.068811
v 0.014827 -0.005327 -0.068900
v 0.014827 -0.000673 -0.068900
v 0.014827 0.000000 -0.068811
v 0.014827 0.000673 -0.068900
v 0.014827 0.005327 -0.068900
v 0.014827 0.006673 -0.068900
v 0.014828 -0.007300 -0.069159
v 0.014828 -0.004700 -0.069159
v 0.014828 -0.001300 -0.069159
v 0.014828 0.001300 -0.069159
v 0.014828 0.004700 -0.069159
v 0.014828 0.007300 -0.069159
v 0.014829 -0.006544 -0.069383
v 0.014829 -0.006000 -0.069311
v 0.014829 -0.005456 -0.069383
v 0.014829 -0.000544 -0.069383
v 0.014829 0.000000 -0.069311
v 0.014829 0.000544 -0.069383
v 0.014829 0.005456 -0.069383
v 0.014829 0.006000 -0.069311
v 0.014829 0.006544 -0.069383
v 0.014830 -0.007838 -0.069573
v 0.014830 -0.007050 -0.069592
v 0.014830 -0.004950 -0.069592
v 0.014830 -0.004162 -0.069573
v 0.014830 -0.001838 -0.069573
v 0.014830 -0.001050 -0.069592
v 0.014830 0.001050 -0.069592
v 0.014830 0.001838 -0.069573
v 0.014830 0.004162 -0.069573
v 0.014830 0.004950 -0.069592
v 0.014830 0.007050 -0.069592
v 0.014830 0.007838 -0.069573
v 0.014832 -0.007485 -0.069926
v 0.014832 -0.004515 -0.069926
v 0.014832 -0.001485 -0.069926
v 0.014832 0.001485 -0.069926
v 0.014832 0.004515 -0.069926
v 0.014832 0.007485 -0.069926
v 0.014833 -0.008252 -0.070111
v 0.014833 -0.003748 -0.070111
v 0.014833 -0.002252 -0.070111
v 0.014833 0.002252 -0.070111
v 0.014833 0.003748 -0.070111
v 0.014833 0.008252 -0.070111
v 0.014834 -0.007819 -0.070361
v 0.014834 -0.004181 -0.070361
v 0.014834 -0.001819 -0.070361
v 0.014834 0.001819 -0.070361
v 0.014834 0.004181 -0.070361
v 0.014834 0.007819 -0.070361
v 0.014836 -0.008511 -0.070738
v 0.014836 -0.008028 -0.070867
v 0.014836 -0.003972 -0.070867
v 0.014836 -0.003489 -0.070738
v 0.014836 -0.002511 -0.070738
v 0.014836 -0.002028 -0.070867
v 0.014836 0.002028 -0.070867
v 0.014836 0.002511 -0.070738
v 0.014836 0.003489 -0.070738
v 0.014836 0.003972 -0.070867
v 0.014836 0.008028 -0.070867
v 0.014836 0.008511 -0.070738
v 0.014839 -0.008600 -0.071411
v 0.014839 -0.008100 -0.071411
v 0.014839 -0.003900 -0.071411
v 0.014839 -0.003400 -0.071411
v 0.014839 -0.002600 -0.071411
v 0.014839 -0.002100 -0.071411
v 0.014839 0.002100 -0.071411
v 0.014839 0.002600 -0.071411
v 0.014839 0.003400 -0.071411
v 0.014839 0.003900 -0.071411
v 0.014839 0.008100 -0.071411
v 0.014839 0.008600 -0.071411
v 0.014842 -0.008511 -0.072084
v 0.014842 -0.008028 -0.071955
v 0.014842 -0.003972 -0.071955
v 0.014842 -0.003489 -0.072084
v 0.014842 -0.002511 -0.072084
v 0.014842 -0.002028 -0.071955
v 0.014842 0.002028 -0.071955
v 0.014842 0.002511 -0.072084
v 0.014842 0.003489 -0.072084
v 0.014842 0.003972 -0.071955
v 0.014842 0.008028 -0.071955
v 0.014842 0.008511 -0.072084
v 0.014844 -0.007819 -0.072461
v 0.014844 -0.004181 -0.072461
v 0.014844 -0.001819 -0.072461
v 0.014844 0.001819 -0.072461
v 0.014844 0.004181 -0.072461
v 0.014844 0.007819 -0.072461
v 0.014845 -0.008252 -0.072711
v 0.014845 -0.003748 -0.072711
v 0.014845 -0.002252 -0.072711
v 0.014845 0.002252 -0.072711
v 0.014845 0.003748 -0.072711
v 0.014845 0.008252 -0.072711
v 0.014846 -0.007485 -0.072896
v 0.014846 -0.004515 -0.072896
v 0.014846 -0.001485 -0.072896
v 0.014846 0.001485 -0.072896
v 0.014846 0.004515 -0.072896
v 0.014846 0.007485 -0.072896
v 0.014848 -0.007838 -0.073249
v 0.014848 -0.007050 -0.073230
v 0.014848 -0.004950 -0.073230
v 0.014848 -0.004162 -0.073249
v 0.014848 -0.001838 -0.073249
v 0.014848 -0.001050 -0.073230
v 0.014848 0.001050 -0.073230
v 0.014848 0.001838 -0.073249
v 0.014848 0.004162 -0.073249
v 0.014848 0.004950 -0.073230
v 0.014848 0.007050 -0.073230
v 0.014848 0.007838 -0.073249
v 0.014849 -0.006544 -0.073439
v 0.014849 -0.006000 -0.073511
v 0.014849 -0.005456 -0.073439
v 0.014849 -0.000544 -0.073439
v 0.014849 0.000000 -0.073511
v 0.014849 0.000544 -0.073439
v 0.014849 0.005456 -0.073439
v 0.014849 0.006000 -0.073511
v 0.014849 0.006544 -0.073439
v 0.014850 -0.007300 -0.073663
v 0.014850 -0.004700 -0.073663
v 0.014850 -0.001300 -0.073663
v 0.014850 0.001300 -0.073663
v 0.014850 0.004700 -0.073663
v 0.014850 0.007300 -0.073663
v 0.014851 -0.006673 -0.073922
v 0.014851 -0.006000 -0.074011
v 0.014851 -0.005327 -0.073922
v 0.014851 -0.000673 -0.073922
v 0.014851 0.000000 -0.074011
v 0.014851 0.000673 -0.073922
v 0.014851 0.005327 -0.073922
v 0.014851 0.006000 -0.074011
v 0.014851 0.006673 -0.073922
v 0.015312 -0.015000 -0.065409
v 0.015312 0.015000 -0.065409
v 0.015328 0.006000 -0.068809
v 0.015329 -0.006673 -0.068898
v 0.015329 -0.006000 -0.068809
v 0.015329 -0.005327 -0.068898
v 0.015329 -0.000673 -0.068898
v 0.015329 0.000000 -0.068809
v 0.015329 0.000673 -0.068898
v 0.015329 0.005327 -0.068898
v 0.015329 0.006673 -0.068898
v 0.015330 -0.007300 -0.069157
v 0.015330 -0.004700 -0.069157
v 0.015330 -0.001300 -0.069157
v 0.015330 0.001300 -0.069157
v 0.015330 0.004700 -0.069157
v 0.015330 0.007300 -0.069157
v 0.015332 -0.007838 -0.069571
v 0.015332 -0.004162 -0.069571
v 0.015332 -0.001838 -0.069571
v 0.015332 0.001838 -0.069571
v 0.015332 0.004162 -0.069571
v 0.015332 0.007838 -0.069571
v 0.015335 -0.008252 -0.070109
v 0.015335 -0.003748 -0.070109
v 0.015335 -0.002252 -0.070109
v 0.015335 0.002252 -0.070109
v 0.015335 0.003748 -0.070109
v 0.015335 0.008252 -0.070109
v 0.015338 -0.008511 -0.070736
v 0.015338 -0.003489 -0.070736
v 0.015338 -0.002511 -0.070736
v 0.015338 0.002511 -0.070736
v 0.015338 0.003489 -0.070736
v 0.015338 0.008511 -0.070736
v 0.015341 -0.008600 -0.071409
v 0.015341 -0.003400 -0.071409
v 0.015341 -0.002600 -0.071409
v 0.015341 0.002600 -0.071409
v 0.015341 0.003400 -0.071409
v 0.015341 0.008600 -0.071409
v 0.015344 -0.008511 -0.072082
v 0.015344 -0.003489 -0.072082
v 0.015344 -0.002511 -0.072082
v 0.015344 0.002511 -0.072082
v 0.015344 0.003489 -0.072082
v 0.015344 0.008511 -0.072082
v 0.015347 -0.008252 -0.072709
v 0.015347 -0.003748 -0.072709
v 0.015347 -0.002252 -0.072709
v 0.015347 0.002252 -0.072709
v 0.015347 0.003748 -0.072709
v 0.015347 0.008252 -0.072709
v 0.015350 -0.007838 -0.073247
v 0.015350 -0.004162 -0.073247
v 0.015350 -0.001838 -0.073247
v 0.015350 0.001838 -0.073247
v 0.015350 0.004162 -0.073247
v 0.015350 0.007838 -0.073247
v 0.015352 -0.007300 -0.073661
v 0.015352 -0.004700 -0.073661
v 0.015352 -0.001300 -0.073661
v 0.015352 0.001300 -0.073661
v 0.015352 0.004700 -0.073661
v 0.015352 0.007300 -0.073661
v 0.015353 -0.006673 -0.073920
v 0.015353 -0.006000 -0.074009
v 0.015353 -0.005327 -0.073920
v 0.015353 -0.000673 -0.073920
v 0.015353 0.000000 -0.074009
v 0.015353 0.000673 -0.073920
v 0.015353 0.005327 -0.073920
v 0.015353 0.006000 -0.074009
v 0.015353 0.006673 -0.073920
v 0.015374 -0.012000 -0.078409
v 0.015374 0.012000 -0.078443
v 0.015374 0.012000 -0.078409
v 0.015374 0.015000 -0.078443
v 0.015375 -0.015000 -0.078443
v 0.015375 -0.012000 -0.078443

f 3 1 2 
f 227 2 1 
f 3 12 1 
f 12 18 1 
f 18 24 1 
f 24 77 1 
f 76 75 1 
f 1 75 683 
f 77 76 1 
f 227 1 225 
f 225 1 232 
f 232 1 683 
f 4 3 2 
f 7 4 2 
f 10 7 2 
f 11 10 2 
f 17 11 2 
f 23 17 2 
f 29 23 2 
f 79 29 2 
f 78 79 2 
f 80 78 2 
f 80 2 686 
f 228 2 227 
f 229 2 228 
f 230 2 229 
f 233 2 230 
f 503 2 233 
f 503 686 2 
f 82 3 4 
f 81 12 3 
f 81 3 82 
f 6 5 4 
f 5 82 4 
f 6 4 7 
f 13 5 6 
f 13 83 5 
f 5 83 82 
f 85 6 7 
f 14 13 6 
f 84 14 6 
f 84 6 85 
f 10 8 7 
f 8 85 7 
f 9 8 10 
f 9 16 8 
f 16 15 8 
f 15 86 8 
f 8 86 85 
f 88 9 10 
f 87 16 9 
f 87 9 88 
f 11 88 10 
f 17 89 11 
f 11 89 88 
f 90 18 12 
f 90 12 81 
f 19 13 14 
f 19 91 13 
f 13 91 83 
f 20 19 14 
f 92 20 14 
f 92 14 84 
f 16 22 15 
f 22 21 15 
f 21 93 15 
f 15 93 86 
f 94 22 16 
f 94 16 87 
f 23 95 17 
f 17 95 89 
f 99 24 18 
f 99 18 90 
f 26 19 20 
f 26 25 19 
f 25 102 19 
f 19 102 91 
f 103 26 20 
f 103 20 92 
f 22 27 21 
f 27 106 21 
f 21 106 93 
f 28 27 22 
f 107 28 22 
f 107 22 94 
f 29 110 23 
f 23 110 95 
f 30 77 24 
f 123 30 24 
f 123 24 99 
f 32 25 26 
f 32 31 25 
f 31 124 25 
f 25 124 102 
f 125 32 26 
f 125 26 103 
f 28 34 27 
f 34 33 27 
f 33 126 27 
f 27 126 106 
f 127 34 28 
f 127 28 107 
f 79 35 29 
f 35 128 29 
f 29 128 110 
f 36 77 30 
f 135 36 30 
f 135 30 123 
f 38 31 32 
f 38 37 31 
f 37 136 31 
f 31 136 124 
f 137 38 32 
f 137 32 125 
f 34 40 33 
f 40 39 33 
f 39 138 33 
f 33 138 126 
f 139 40 34 
f 139 34 127 
f 79 41 35 
f 41 140 35 
f 35 140 128 
f 42 77 36 
f 147 42 36 
f 147 36 135 
f 44 37 38 
f 44 43 37 
f 43 150 37 
f 37 150 136 
f 151 44 38 
f 151 38 137 
f 40 46 39 
f 46 45 39 
f 45 154 39 
f 39 154 138 
f 155 46 40 
f 155 40 139 
f 79 47 41 
f 47 158 41 
f 41 158 140 
f 48 77 42 
f 159 48 42 
f 159 42 147 
f 50 43 44 
f 50 49 43 
f 49 162 43 
f 43 162 150 
f 163 50 44 
f 163 44 151 
f 46 52 45 
f 52 51 45 
f 51 166 45 
f 45 166 154 
f 167 52 46 
f 167 46 155 
f 79 53 47 
f 53 170 47 
f 47 170 158 
f 54 77 48 
f 177 54 48 
f 177 48 159 
f 55 49 50 
f 55 178 49 
f 49 178 162 
f 56 55 50 
f 179 56 50 
f 179 50 163 
f 52 58 51 
f 58 57 51 
f 57 180 51 
f 51 180 166 
f 181 58 52 
f 181 52 167 
f 79 59 53 
f 59 182 53 
f 53 182 170 
f 60 77 54 
f 189 60 54 
f 189 54 177 
f 62 55 56 
f 62 61 55 
f 61 192 55 
f 55 192 178 
f 193 62 56 
f 193 56 179 
f 58 63 57 
f 63 196 57 
f 57 196 180 
f 64 63 58 
f 197 64 58 
f 197 58 181 
f 79 65 59 
f 65 200 59 
f 59 200 182 
f 66 77 60 
f 210 66 60 
f 210 60 189 
f 68 61 62 
f 68 67 61 
f 67 211 61 
f 61 211 192 
f 212 68 62 
f 212 62 193 
f 64 69 63 
f 69 213 63 
f 63 213 196 
f 70 69 64 
f 214 70 64 
f 214 64 197 
f 79 71 65 
f 71 215 65 
f 65 215 200 
f 72 77 66 
f 216 72 66 
f 216 66 210 
f 72 67 68 
f 72 217 67 
f 67 217 211 
f 73 72 68 
f 218 73 68 
f 218 68 212 
f 70 74 69 
f 74 73 69 
f 73 223 69 
f 69 219 213 
f 223 219 69 
f 220 74 70 
f 220 70 214 
f 77 74 71 
f 74 221 71 
f 79 77 71 
f 71 221 215 
f 77 72 73 
f 222 72 216 
f 72 222 217 
f 74 77 73 
f 223 73 218 
f 224 74 220 
f 74 224 221 
f 361 75 76 
f 361 360 75 
f 360 454 75 
f 75 377 381 
f 75 385 377 
f 75 381 391 
f 75 395 385 
f 75 391 412 
f 418 395 75 
f 75 412 683 
f 454 418 75 
f 496 76 77 
f 714 361 76 
f 496 714 76 
f 332 77 79 
f 332 331 77 
f 331 473 77 
f 473 496 77 
f 78 493 79 
f 80 362 78 
f 362 715 78 
f 715 493 78 
f 470 332 79 
f 493 470 79 
f 363 362 80 
f 457 363 80 
f 380 80 384 
f 388 80 380 
f 384 80 394 
f 398 80 388 
f 394 80 415 
f 398 421 80 
f 415 80 686 
f 421 457 80 
f 96 81 82 
f 100 90 81 
f 96 100 81 
f 83 96 82 
f 91 101 83 
f 101 96 83 
f 97 84 85 
f 104 92 84 
f 97 104 84 
f 86 97 85 
f 93 105 86 
f 105 97 86 
f 98 87 88 
f 108 94 87 
f 98 108 87 
f 89 98 88 
f 95 109 89 
f 109 98 89 
f 111 99 90 
f 100 111 90 
f 112 101 91 
f 102 112 91 
f 113 103 92 
f 104 113 92 
f 114 105 93 
f 106 114 93 
f 115 107 94 
f 108 115 94 
f 116 109 95 
f 110 116 95 
f 259 100 96 
f 101 259 96 
f 264 104 97 
f 105 260 97 
f 260 264 97 
f 261 108 98 
f 109 261 98 
f 111 117 99 
f 117 123 99 
f 262 111 100 
f 262 100 259 
f 112 263 101 
f 101 263 259 
f 118 112 102 
f 130 118 102 
f 124 130 102 
f 113 119 103 
f 119 131 103 
f 131 125 103 
f 264 113 104 
f 114 265 105 
f 105 265 260 
f 120 114 106 
f 126 120 106 
f 115 121 107 
f 121 133 107 
f 133 127 107 
f 266 115 108 
f 266 108 261 
f 116 267 109 
f 109 267 261 
f 122 116 110 
f 128 122 110 
f 268 117 111 
f 268 111 262 
f 118 269 112 
f 112 269 263 
f 270 119 113 
f 270 113 264 
f 120 271 114 
f 114 271 265 
f 272 121 115 
f 272 115 266 
f 122 273 116 
f 116 273 267 
f 129 123 117 
f 274 129 117 
f 274 117 268 
f 130 275 118 
f 118 275 269 
f 276 131 119 
f 276 119 270 
f 126 132 120 
f 132 277 120 
f 120 277 271 
f 278 133 121 
f 278 121 272 
f 128 134 122 
f 134 279 122 
f 122 279 273 
f 129 135 123 
f 142 130 124 
f 136 142 124 
f 131 143 125 
f 143 137 125 
f 138 132 126 
f 133 145 127 
f 145 139 127 
f 140 134 128 
f 141 135 129 
f 280 141 129 
f 280 129 274 
f 142 281 130 
f 130 281 275 
f 282 143 131 
f 282 131 276 
f 138 144 132 
f 144 283 132 
f 132 283 277 
f 284 145 133 
f 284 133 278 
f 140 146 134 
f 146 285 134 
f 134 285 279 
f 141 147 135 
f 149 142 136 
f 150 149 136 
f 143 152 137 
f 152 151 137 
f 154 144 138 
f 145 156 139 
f 156 155 139 
f 158 146 140 
f 148 147 141 
f 286 148 141 
f 286 141 280 
f 149 287 142 
f 142 287 281 
f 288 152 143 
f 288 143 282 
f 154 153 144 
f 153 289 144 
f 144 289 283 
f 290 156 145 
f 290 145 284 
f 158 157 146 
f 157 291 146 
f 146 291 285 
f 159 147 148 
f 160 159 148 
f 292 160 148 
f 292 148 286 
f 161 149 150 
f 161 293 149 
f 149 293 287 
f 162 161 150 
f 164 151 152 
f 164 163 151 
f 294 164 152 
f 294 152 288 
f 154 166 153 
f 166 165 153 
f 165 295 153 
f 153 295 289 
f 156 168 155 
f 168 167 155 
f 296 168 156 
f 296 156 290 
f 158 170 157 
f 170 169 157 
f 169 297 157 
f 157 297 291 
f 177 159 160 
f 171 177 160 
f 298 171 160 
f 298 160 292 
f 162 172 161 
f 172 299 161 
f 161 299 293 
f 178 172 162 
f 173 163 164 
f 173 179 163 
f 300 173 164 
f 300 164 294 
f 166 180 165 
f 180 174 165 
f 174 301 165 
f 165 301 295 
f 175 167 168 
f 175 181 167 
f 302 175 168 
f 302 168 296 
f 170 182 169 
f 182 176 169 
f 176 303 169 
f 169 303 297 
f 189 177 171 
f 183 189 171 
f 304 183 171 
f 304 171 298 
f 178 184 172 
f 184 305 172 
f 172 305 299 
f 185 179 173 
f 306 185 173 
f 306 173 300 
f 180 196 174 
f 196 186 174 
f 186 307 174 
f 174 307 301 
f 187 181 175 
f 308 187 175 
f 308 175 302 
f 182 200 176 
f 200 188 176 
f 188 309 176 
f 176 309 303 
f 192 184 178 
f 185 193 179 
f 187 197 181 
f 210 189 183 
f 190 210 183 
f 310 190 183 
f 310 183 304 
f 192 191 184 
f 191 311 184 
f 184 311 305 
f 194 193 185 
f 312 194 185 
f 312 185 306 
f 213 195 186 
f 195 313 186 
f 196 213 186 
f 186 313 307 
f 198 197 187 
f 314 198 187 
f 314 187 308 
f 215 199 188 
f 199 315 188 
f 200 215 188 
f 188 315 309 
f 201 216 190 
f 316 201 190 
f 216 210 190 
f 316 190 310 
f 192 211 191 
f 211 203 191 
f 203 317 191 
f 191 317 311 
f 212 193 194 
f 204 212 194 
f 318 204 194 
f 318 194 312 
f 219 206 195 
f 206 319 195 
f 213 219 195 
f 195 319 313 
f 214 197 198 
f 207 214 198 
f 320 207 198 
f 320 198 314 
f 221 209 199 
f 209 321 199 
f 215 221 199 
f 199 321 315 
f 202 222 201 
f 322 202 201 
f 222 216 201 
f 322 201 316 
f 217 202 203 
f 202 324 203 
f 217 222 202 
f 323 202 322 
f 202 323 324 
f 211 217 203 
f 203 324 317 
f 205 218 204 
f 326 205 204 
f 218 212 204 
f 325 204 318 
f 325 326 204 
f 223 205 206 
f 205 327 206 
f 223 218 205 
f 205 326 327 
f 219 223 206 
f 206 327 319 
f 208 220 207 
f 328 208 207 
f 220 214 207 
f 328 207 320 
f 224 208 209 
f 208 330 209 
f 224 220 208 
f 329 208 328 
f 208 329 330 
f 221 224 209 
f 209 330 321 
f 227 225 226 
f 226 225 232 
f 231 227 226 
f 351 231 226 
f 226 232 234 
f 504 226 234 
f 357 351 226 
f 355 356 226 
f 399 355 226 
f 356 357 226 
f 399 226 461 
f 461 226 462 
f 462 226 463 
f 463 226 464 
f 464 226 465 
f 465 226 711 
f 684 226 504 
f 684 844 226 
f 711 226 712 
f 712 226 1079 
f 1078 226 844 
f 226 1078 1079 
f 231 228 227 
f 231 229 228 
f 231 230 229 
f 230 231 233 
f 1084 233 231 
f 352 231 351 
f 354 231 352 
f 458 231 354 
f 459 231 458 
f 460 231 459 
f 681 231 460 
f 1084 231 681 
f 232 683 234 
f 233 1084 503 
f 234 683 504 
f 236 333 235 
f 638 236 235 
f 235 333 334 
f 235 334 336 
f 336 337 235 
f 337 338 235 
f 338 339 235 
f 235 339 340 
f 235 340 341 
f 341 435 235 
f 435 436 235 
f 436 437 235 
f 437 673 235 
f 638 235 637 
f 235 717 637 
f 235 673 658 
f 235 658 717 
f 236 335 333 
f 236 376 335 
f 236 430 376 
f 236 431 430 
f 236 432 431 
f 236 660 432 
f 718 236 638 
f 657 662 236 
f 718 657 236 
f 236 661 660 
f 236 664 661 
f 662 663 236 
f 663 665 236 
f 236 666 664 
f 236 665 667 
f 236 669 666 
f 667 669 236 
f 237 304 238 
f 238 584 237 
f 237 331 304 
f 584 331 237 
f 238 298 239 
f 239 585 238 
f 238 304 298 
f 238 585 584 
f 239 292 240 
f 240 585 239 
f 239 298 292 
f 240 286 241 
f 241 585 240 
f 240 292 286 
f 241 280 242 
f 242 585 241 
f 241 286 280 
f 242 274 243 
f 243 585 242 
f 242 280 274 
f 243 268 244 
f 244 585 243 
f 243 274 268 
f 244 262 245 
f 245 585 244 
f 244 268 262 
f 245 259 246 
f 246 585 245 
f 245 262 259 
f 246 260 247 
f 247 585 246 
f 246 259 260 
f 247 261 248 
f 248 585 247 
f 247 260 261 
f 248 267 249 
f 249 585 248 
f 248 261 267 
f 249 267 250 
f 249 250 586 
f 249 373 499 
f 249 500 373 
f 249 634 374 
f 249 374 644 
f 249 375 434 
f 249 656 375 
f 249 389 501 
f 249 655 389 
f 249 533 390 
f 249 390 656 
f 249 433 687 
f 249 726 433 
f 249 434 727 
f 249 477 447 
f 249 447 497 
f 249 448 478 
f 249 586 448 
f 249 498 477 
f 249 478 634 
f 249 479 538 
f 249 738 479 
f 249 623 480 
f 249 480 739 
f 249 497 585 
f 249 633 498 
f 249 499 633 
f 249 643 500 
f 249 501 532 
f 249 532 645 
f 249 646 533 
f 249 538 622 
f 249 620 738 
f 249 746 620 
f 249 739 621 
f 249 621 747 
f 249 622 728 
f 249 729 623 
f 249 645 643 
f 249 644 646 
f 249 687 655 
f 249 689 688 
f 249 688 752 
f 249 690 689 
f 249 691 690 
f 249 692 691 
f 249 693 692 
f 249 694 693 
f 249 695 694 
f 249 696 695 
f 249 697 696 
f 249 698 697 
f 249 699 698 
f 249 700 699 
f 249 701 700 
f 249 702 701 
f 249 703 702 
f 249 704 703 
f 249 705 704 
f 249 706 705 
f 249 707 706 
f 249 708 707 
f 249 709 708 
f 249 753 709 
f 249 728 726 
f 249 727 729 
f 249 748 746 
f 249 747 749 
f 249 752 748 
f 249 749 753 
f 250 273 251 
f 586 250 251 
f 250 267 273 
f 251 279 252 
f 586 251 252 
f 251 273 279 
f 252 285 253 
f 586 252 253 
f 252 279 285 
f 253 291 254 
f 586 253 254 
f 253 285 291 
f 254 297 255 
f 586 254 255 
f 254 291 297 
f 255 303 256 
f 586 255 256 
f 255 297 303 
f 256 309 257 
f 586 256 257 
f 256 303 309 
f 257 332 258 
f 586 257 258 
f 257 309 332 
f 258 332 587 
f 586 258 587 
f 259 264 260 
f 263 264 259 
f 265 261 260 
f 265 266 261 
f 263 269 264 
f 269 270 264 
f 272 266 265 
f 271 272 265 
f 269 275 270 
f 275 276 270 
f 278 272 271 
f 277 278 271 
f 275 282 276 
f 281 282 275 
f 283 278 277 
f 283 284 278 
f 281 287 282 
f 287 288 282 
f 290 284 283 
f 289 290 283 
f 287 293 288 
f 293 294 288 
f 295 290 289 
f 295 296 290 
f 293 299 294 
f 299 300 294 
f 301 296 295 
f 301 302 296 
f 299 306 300 
f 305 306 299 
f 307 302 301 
f 307 308 302 
f 331 310 304 
f 305 311 306 
f 311 312 306 
f 314 308 307 
f 313 314 307 
f 315 332 309 
f 331 316 310 
f 311 318 312 
f 317 318 311 
f 319 314 313 
f 319 320 314 
f 321 332 315 
f 331 322 316 
f 317 325 318 
f 324 325 317 
f 327 320 319 
f 327 328 320 
f 330 332 321 
f 331 323 322 
f 324 323 325 
f 323 326 325 
f 323 331 326 
f 326 329 327 
f 331 329 326 
f 329 328 327 
f 329 331 330 
f 331 332 330 
f 401 331 405 
f 409 331 401 
f 405 331 423 
f 427 331 409 
f 627 423 331 
f 427 443 331 
f 443 473 331 
f 624 331 584 
f 627 331 624 
f 332 402 406 
f 332 410 402 
f 332 406 424 
f 332 428 410 
f 625 332 424 
f 444 428 332 
f 470 444 332 
f 587 332 625 
f 334 333 342 
f 369 333 335 
f 369 342 333 
f 345 336 334 
f 345 334 342 
f 369 335 376 
f 337 336 345 
f 338 337 349 
f 349 337 345 
f 339 338 353 
f 353 338 349 
f 340 339 364 
f 364 339 353 
f 340 465 341 
f 464 340 364 
f 464 465 340 
f 465 435 341 
f 526 345 342 
f 750 342 369 
f 750 526 342 
f 344 346 343 
f 344 343 365 
f 626 343 346 
f 365 343 366 
f 343 719 366 
f 626 719 343 
f 626 346 344 
f 344 365 721 
f 626 344 721 
f 345 526 349 
f 347 356 348 
f 347 348 526 
f 351 357 347 
f 351 347 359 
f 347 357 356 
f 751 359 347 
f 751 347 526 
f 355 350 348 
f 348 350 526 
f 356 355 348 
f 349 526 353 
f 399 350 355 
f 350 462 358 
f 350 358 526 
f 461 350 399 
f 350 461 462 
f 352 351 359 
f 354 352 449 
f 352 359 449 
f 364 353 526 
f 354 449 458 
f 463 364 358 
f 364 526 358 
f 462 463 358 
f 751 449 359 
f 713 360 361 
f 360 713 454 
f 714 713 361 
f 363 716 362 
f 716 715 362 
f 716 363 457 
f 463 464 364 
f 365 366 368 
f 367 365 371 
f 365 367 721 
f 365 368 371 
f 368 366 719 
f 372 367 371 
f 372 721 367 
f 371 368 370 
f 370 368 719 
f 369 376 430 
f 369 430 446 
f 750 369 446 
f 719 371 370 
f 372 371 721 
f 719 721 371 
f 373 500 499 
f 374 634 636 
f 640 374 636 
f 642 374 640 
f 644 374 642 
f 375 659 434 
f 375 656 659 
f 377 378 382 
f 377 385 378 
f 381 377 382 
f 378 404 382 
f 385 386 378 
f 386 400 378 
f 378 400 404 
f 379 380 383 
f 388 380 379 
f 407 379 383 
f 387 388 379 
f 403 387 379 
f 403 379 407 
f 380 384 383 
f 381 382 392 
f 391 381 392 
f 382 422 392 
f 382 404 422 
f 383 384 393 
f 425 383 393 
f 407 383 425 
f 384 394 393 
f 385 395 386 
f 395 396 386 
f 386 396 408 
f 386 408 400 
f 398 388 387 
f 397 398 387 
f 397 387 411 
f 411 387 403 
f 389 502 501 
f 389 655 502 
f 654 390 533 
f 656 390 654 
f 391 392 413 
f 412 391 413 
f 392 438 413 
f 392 422 438 
f 393 394 414 
f 441 393 414 
f 425 393 441 
f 394 415 414 
f 395 418 396 
f 396 426 408 
f 418 419 396 
f 396 419 426 
f 421 398 397 
f 429 397 411 
f 420 421 397 
f 420 397 429 
f 400 401 405 
f 400 408 401 
f 404 400 405 
f 408 409 401 
f 402 403 406 
f 411 403 402 
f 410 411 402 
f 403 407 406 
f 404 405 423 
f 422 404 423 
f 406 407 424 
f 407 425 424 
f 408 426 409 
f 426 427 409 
f 429 411 410 
f 428 429 410 
f 412 413 451 
f 416 412 451 
f 412 416 683 
f 438 466 413 
f 413 466 451 
f 414 415 452 
f 469 441 414 
f 469 414 452 
f 415 417 452 
f 417 415 686 
f 450 416 451 
f 416 450 683 
f 417 453 452 
f 453 417 686 
f 418 454 419 
f 419 442 426 
f 419 455 442 
f 454 455 419 
f 457 421 420 
f 445 420 429 
f 456 420 445 
f 456 457 420 
f 422 423 439 
f 438 422 439 
f 629 439 423 
f 629 423 627 
f 424 425 440 
f 628 424 440 
f 625 424 628 
f 425 441 440 
f 426 442 427 
f 442 443 427 
f 445 429 428 
f 444 445 428 
f 430 431 446 
f 474 431 432 
f 474 446 431 
f 474 432 660 
f 433 527 521 
f 687 433 521 
f 433 726 527 
f 710 434 659 
f 723 434 710 
f 725 434 723 
f 727 434 725 
f 711 436 435 
f 711 435 465 
f 436 712 437 
f 711 712 436 
f 712 673 437 
f 438 439 467 
f 466 438 467 
f 633 467 439 
f 631 439 629 
f 633 439 631 
f 440 441 468 
f 630 440 468 
f 628 440 630 
f 441 469 468 
f 442 472 443 
f 455 472 442 
f 472 473 443 
f 471 445 444 
f 470 471 444 
f 471 456 445 
f 750 446 474 
f 497 447 477 
f 586 478 448 
f 458 449 476 
f 751 476 449 
f 450 451 482 
f 481 450 482 
f 450 481 683 
f 466 489 451 
f 451 489 482 
f 452 453 483 
f 492 469 452 
f 492 452 483 
f 453 484 483 
f 484 453 686 
f 454 485 455 
f 713 485 454 
f 455 486 472 
f 485 486 455 
f 488 457 456 
f 487 456 471 
f 487 488 456 
f 488 716 457 
f 459 458 476 
f 459 476 460 
f 460 476 666 
f 460 666 681 
f 466 467 490 
f 489 466 490 
f 639 490 467 
f 635 467 633 
f 639 467 635 
f 468 469 491 
f 634 468 491 
f 630 468 632 
f 632 468 634 
f 469 492 491 
f 494 471 470 
f 493 494 470 
f 494 487 471 
f 472 495 473 
f 486 495 472 
f 495 496 473 
f 661 475 474 
f 474 475 750 
f 661 474 660 
f 664 476 475 
f 751 475 476 
f 661 664 475 
f 751 750 475 
f 666 476 664 
f 477 498 497 
f 632 478 586 
f 634 478 632 
f 543 538 479 
f 479 738 543 
f 737 480 623 
f 739 480 737 
f 481 482 506 
f 505 481 506 
f 481 505 683 
f 489 509 482 
f 482 509 506 
f 483 484 507 
f 512 492 483 
f 512 483 507 
f 484 508 507 
f 508 484 686 
f 485 517 486 
f 713 517 485 
f 486 518 495 
f 517 518 486 
f 520 488 487 
f 519 487 494 
f 519 520 487 
f 520 716 488 
f 489 490 510 
f 509 489 510 
f 643 510 490 
f 641 490 639 
f 643 490 641 
f 491 492 511 
f 640 491 511 
f 634 491 636 
f 636 491 640 
f 492 512 511 
f 516 494 493 
f 515 516 493 
f 715 515 493 
f 516 519 494 
f 495 513 496 
f 518 513 495 
f 513 514 496 
f 514 714 496 
f 585 497 498 
f 498 631 585 
f 498 633 631 
f 635 499 500 
f 499 635 633 
f 500 639 635 
f 500 641 639 
f 500 643 641 
f 502 532 501 
f 502 653 532 
f 502 655 653 
f 685 686 503 
f 685 503 1084 
f 504 683 684 
f 534 505 506 
f 505 534 683 
f 509 535 506 
f 535 534 506 
f 508 537 507 
f 536 512 507 
f 537 536 507 
f 537 508 686 
f 522 509 510 
f 509 522 535 
f 523 522 510 
f 645 523 510 
f 645 510 643 
f 512 525 511 
f 525 524 511 
f 644 511 524 
f 640 511 642 
f 642 511 644 
f 525 512 536 
f 514 513 529 
f 518 540 513 
f 513 528 529 
f 513 540 528 
f 714 514 529 
f 516 515 530 
f 515 715 530 
f 541 519 516 
f 531 516 530 
f 541 516 531 
f 518 517 540 
f 517 539 540 
f 517 713 539 
f 520 519 541 
f 542 520 541 
f 716 520 542 
f 720 521 527 
f 521 720 687 
f 544 522 523 
f 522 553 535 
f 522 544 553 
f 545 544 523 
f 649 545 523 
f 647 523 645 
f 649 523 647 
f 525 547 524 
f 547 546 524 
f 646 524 546 
f 644 524 646 
f 554 525 536 
f 547 525 554 
f 721 526 626 
f 750 626 526 
f 526 721 751 
f 527 722 720 
f 527 724 722 
f 527 726 724 
f 529 528 549 
f 540 557 528 
f 528 548 549 
f 528 557 548 
f 714 529 549 
f 531 530 550 
f 530 715 550 
f 558 541 531 
f 551 531 550 
f 558 531 551 
f 645 532 647 
f 532 649 647 
f 532 651 649 
f 532 653 651 
f 533 646 648 
f 650 533 648 
f 652 533 650 
f 654 533 652 
f 552 534 535 
f 534 552 683 
f 553 552 535 
f 537 555 536 
f 555 554 536 
f 555 537 686 
f 622 538 543 
f 540 539 557 
f 539 556 557 
f 539 713 556 
f 542 541 558 
f 559 542 558 
f 716 542 559 
f 543 736 622 
f 543 738 736 
f 560 544 545 
f 544 577 553 
f 544 560 577 
f 561 560 545 
f 651 561 545 
f 651 545 649 
f 547 563 546 
f 563 562 546 
f 650 546 562 
f 646 546 648 
f 648 546 650 
f 578 547 554 
f 563 547 578 
f 549 548 565 
f 557 581 548 
f 548 564 565 
f 548 581 564 
f 714 549 565 
f 551 550 566 
f 550 715 566 
f 582 558 551 
f 567 551 566 
f 582 551 567 
f 576 552 553 
f 552 576 683 
f 577 576 553 
f 555 579 554 
f 579 578 554 
f 579 555 686 
f 557 556 581 
f 556 580 581 
f 556 713 580 
f 559 558 582 
f 583 559 582 
f 716 559 583 
f 568 560 561 
f 560 568 577 
f 569 568 561 
f 655 569 561 
f 653 561 651 
f 655 561 653 
f 563 571 562 
f 571 570 562 
f 652 562 570 
f 650 562 652 
f 571 563 578 
f 565 564 573 
f 564 572 573 
f 564 605 572 
f 564 581 605 
f 714 565 573 
f 567 566 574 
f 566 715 574 
f 575 567 574 
f 606 567 575 
f 582 567 606 
f 588 568 569 
f 568 601 577 
f 568 588 601 
f 589 588 569 
f 714 589 569 
f 687 569 655 
f 687 714 569 
f 571 591 570 
f 591 590 570 
f 590 715 570 
f 652 570 654 
f 654 570 656 
f 656 570 715 
f 602 571 578 
f 591 571 602 
f 573 572 593 
f 572 592 593 
f 572 613 592 
f 572 605 613 
f 714 573 593 
f 575 574 594 
f 574 715 594 
f 595 575 594 
f 614 575 595 
f 606 575 614 
f 600 576 577 
f 576 600 683 
f 601 600 577 
f 579 603 578 
f 603 602 578 
f 603 579 686 
f 581 580 605 
f 580 604 605 
f 580 713 604 
f 583 582 606 
f 607 583 606 
f 716 583 607 
f 585 624 584 
f 585 627 624 
f 585 629 627 
f 585 631 629 
f 625 586 587 
f 625 628 586 
f 628 630 586 
f 630 632 586 
f 596 588 589 
f 588 596 609 
f 588 609 601 
f 597 596 589 
f 714 597 589 
f 591 599 590 
f 599 598 590 
f 598 715 590 
f 599 591 610 
f 610 591 602 
f 593 592 597 
f 592 596 597 
f 592 617 596 
f 592 613 617 
f 714 593 597 
f 595 594 598 
f 594 715 598 
f 599 595 598 
f 618 595 599 
f 614 595 618 
f 596 617 609 
f 618 599 610 
f 608 600 601 
f 608 713 600 
f 600 713 683 
f 609 608 601 
f 603 611 602 
f 611 610 602 
f 716 611 603 
f 716 603 686 
f 605 604 613 
f 604 612 613 
f 604 713 612 
f 607 606 614 
f 615 607 614 
f 716 607 615 
f 616 608 609 
f 616 713 608 
f 617 616 609 
f 611 619 610 
f 619 618 610 
f 716 619 611 
f 613 612 617 
f 612 616 617 
f 612 713 616 
f 615 614 618 
f 619 615 618 
f 716 615 619 
f 738 620 740 
f 620 742 740 
f 620 744 742 
f 620 746 744 
f 621 739 741 
f 743 621 741 
f 745 621 743 
f 747 621 745 
f 728 622 730 
f 622 732 730 
f 622 734 732 
f 622 736 734 
f 623 729 731 
f 731 733 623 
f 733 735 623 
f 735 737 623 
f 719 626 750 
f 717 638 637 
f 717 718 638 
f 656 715 659 
f 662 657 668 
f 679 668 657 
f 718 679 657 
f 673 672 658 
f 678 658 672 
f 678 680 658 
f 658 680 717 
f 715 710 659 
f 663 662 668 
f 668 665 663 
f 667 665 668 
f 681 666 669 
f 667 668 669 
f 669 668 670 
f 670 668 679 
f 670 978 669 
f 682 669 671 
f 669 978 671 
f 681 669 682 
f 670 679 978 
f 682 671 862 
f 671 978 862 
f 674 672 673 
f 674 675 672 
f 675 680 672 
f 678 672 680 
f 673 979 674 
f 676 677 673 
f 886 676 673 
f 677 979 673 
f 886 673 712 
f 674 979 675 
f 680 675 979 
f 676 889 677 
f 676 886 889 
f 889 869 677 
f 869 979 677 
f 718 978 679 
f 680 979 717 
f 1084 681 682 
f 682 862 884 
f 1084 682 884 
f 684 683 844 
f 713 768 683 
f 768 788 683 
f 788 812 683 
f 812 828 683 
f 828 846 683 
f 844 683 1229 
f 846 876 683 
f 876 896 683 
f 683 896 921 
f 923 683 921 
f 683 923 1307 
f 1307 1229 683 
f 845 686 685 
f 685 1084 845 
f 767 716 686 
f 791 767 686 
f 815 791 686 
f 831 815 686 
f 849 831 686 
f 1077 686 845 
f 879 849 686 
f 899 879 686 
f 922 899 686 
f 686 926 922 
f 926 686 1306 
f 1083 686 1077 
f 1083 1230 686 
f 1230 1306 686 
f 722 714 687 
f 720 722 687 
f 774 688 689 
f 752 688 774 
f 774 689 690 
f 774 690 691 
f 774 691 692 
f 774 692 693 
f 774 693 694 
f 774 694 695 
f 774 695 696 
f 774 696 697 
f 775 697 698 
f 1002 774 697 
f 1002 697 775 
f 775 698 699 
f 775 699 700 
f 775 700 701 
f 775 701 702 
f 775 702 703 
f 775 703 704 
f 775 704 705 
f 775 705 706 
f 775 706 707 
f 775 707 708 
f 775 708 709 
f 709 753 775 
f 710 715 798 
f 710 798 723 
f 886 712 1079 
f 965 713 714 
f 713 754 761 
f 713 762 754 
f 713 761 768 
f 713 770 762 
f 713 792 770 
f 713 816 792 
f 713 832 816 
f 713 858 832 
f 858 713 880 
f 880 713 900 
f 713 964 900 
f 965 964 713 
f 722 797 714 
f 777 714 781 
f 785 714 777 
f 781 714 797 
f 801 714 785 
f 809 714 801 
f 825 714 809 
f 841 714 825 
f 855 714 841 
f 714 855 873 
f 714 873 1308 
f 965 714 1308 
f 716 966 715 
f 715 778 782 
f 715 786 778 
f 715 782 798 
f 715 802 786 
f 715 810 802 
f 715 826 810 
f 715 842 826 
f 715 856 842 
f 856 715 874 
f 874 715 1304 
f 715 966 1304 
f 757 716 760 
f 765 716 757 
f 760 716 767 
f 773 716 765 
f 795 716 773 
f 819 716 795 
f 835 716 819 
f 861 716 835 
f 716 861 883 
f 716 883 903 
f 967 716 903 
f 967 966 716 
f 979 718 717 
f 979 978 718 
f 719 750 721 
f 750 751 721 
f 724 797 722 
f 723 806 725 
f 723 798 806 
f 726 797 724 
f 725 806 727 
f 728 805 726 
f 726 805 797 
f 727 822 729 
f 727 806 822 
f 730 732 728 
f 732 821 728 
f 728 821 805 
f 729 733 731 
f 729 838 733 
f 729 822 838 
f 734 837 732 
f 732 837 821 
f 733 852 735 
f 733 838 852 
f 736 851 734 
f 734 851 837 
f 735 867 737 
f 735 852 867 
f 738 851 736 
f 737 867 739 
f 740 742 738 
f 742 866 738 
f 738 866 851 
f 739 743 741 
f 739 890 743 
f 739 867 890 
f 744 888 742 
f 742 888 866 
f 743 906 745 
f 743 890 906 
f 746 888 744 
f 745 906 747 
f 748 905 746 
f 746 905 888 
f 747 915 749 
f 747 906 915 
f 752 914 748 
f 748 914 905 
f 749 1076 753 
f 749 915 1076 
f 774 1075 752 
f 752 1075 914 
f 753 1076 775 
f 754 755 758 
f 754 762 755 
f 761 754 758 
f 755 776 758 
f 762 763 755 
f 763 784 755 
f 784 776 755 
f 756 757 759 
f 765 757 756 
f 779 756 759 
f 764 765 756 
f 787 764 756 
f 779 787 756 
f 757 760 759 
f 761 758 769 
f 758 780 769 
f 776 780 758 
f 759 760 766 
f 783 759 766 
f 783 779 759 
f 760 767 766 
f 768 761 769 
f 762 770 763 
f 770 771 763 
f 771 800 763 
f 763 800 784 
f 773 765 764 
f 772 773 764 
f 803 772 764 
f 803 764 787 
f 766 767 790 
f 799 783 766 
f 799 766 790 
f 767 791 790 
f 768 769 789 
f 788 768 789 
f 780 796 769 
f 769 796 789 
f 770 792 771 
f 792 793 771 
f 793 808 771 
f 771 808 800 
f 795 773 772 
f 794 795 772 
f 811 794 772 
f 811 772 803 
f 981 980 774 
f 980 1075 774 
f 774 982 981 
f 774 983 982 
f 774 984 983 
f 774 985 984 
f 774 986 985 
f 774 987 986 
f 774 988 987 
f 988 774 989 
f 774 990 989 
f 990 774 991 
f 774 992 991 
f 774 993 992 
f 774 994 993 
f 995 994 774 
f 996 995 774 
f 997 996 774 
f 998 997 774 
f 999 998 774 
f 1000 999 774 
f 1001 1000 774 
f 1002 1001 774 
f 775 1076 1002 
f 776 777 781 
f 776 784 777 
f 780 776 781 
f 784 785 777 
f 778 779 782 
f 787 779 778 
f 786 787 778 
f 779 783 782 
f 780 781 797 
f 796 780 797 
f 782 783 798 
f 783 799 798 
f 784 800 785 
f 800 801 785 
f 803 787 786 
f 802 803 786 
f 788 789 813 
f 812 788 813 
f 796 804 789 
f 804 820 789 
f 789 820 813 
f 790 791 814 
f 807 799 790 
f 823 807 790 
f 823 790 814 
f 791 815 814 
f 792 816 793 
f 793 824 808 
f 816 817 793 
f 793 817 824 
f 819 795 794 
f 827 794 811 
f 818 819 794 
f 818 794 827 
f 796 797 805 
f 804 796 805 
f 798 799 806 
f 799 807 806 
f 800 808 801 
f 808 809 801 
f 811 803 802 
f 810 811 802 
f 804 805 821 
f 820 804 821 
f 806 807 822 
f 807 823 822 
f 808 824 809 
f 824 825 809 
f 827 811 810 
f 826 827 810 
f 812 813 829 
f 828 812 829 
f 820 836 813 
f 813 836 829 
f 814 815 830 
f 839 823 814 
f 839 814 830 
f 815 831 830 
f 816 832 817 
f 817 840 824 
f 832 833 817 
f 817 833 840 
f 835 819 818 
f 843 818 827 
f 834 835 818 
f 834 818 843 
f 820 821 837 
f 836 820 837 
f 822 823 838 
f 823 839 838 
f 824 840 825 
f 840 841 825 
f 843 827 826 
f 842 843 826 
f 828 829 847 
f 846 828 847 
f 836 850 829 
f 829 850 847 
f 830 831 848 
f 853 839 830 
f 853 830 848 
f 831 849 848 
f 832 858 833 
f 833 854 840 
f 833 859 854 
f 858 859 833 
f 861 835 834 
f 857 834 843 
f 860 834 857 
f 860 861 834 
f 836 837 851 
f 850 836 851 
f 838 839 852 
f 839 853 852 
f 840 854 841 
f 854 855 841 
f 857 843 842 
f 856 857 842 
f 844 1229 1078 
f 845 1084 1077 
f 876 846 847 
f 850 877 847 
f 877 876 847 
f 849 879 848 
f 878 853 848 
f 879 878 848 
f 865 850 851 
f 850 865 877 
f 866 865 851 
f 853 868 852 
f 868 867 852 
f 868 853 878 
f 855 854 873 
f 854 859 872 
f 854 872 873 
f 857 856 874 
f 860 857 875 
f 875 857 874 
f 859 858 881 
f 858 880 881 
f 859 881 872 
f 861 860 882 
f 882 860 875 
f 883 861 882 
f 862 863 884 
f 862 978 863 
f 863 864 885 
f 863 978 864 
f 884 863 885 
f 885 864 968 
f 864 978 968 
f 887 865 866 
f 865 897 877 
f 865 887 897 
f 888 887 866 
f 868 891 867 
f 891 890 867 
f 898 868 878 
f 891 868 898 
f 976 870 869 
f 870 979 869 
f 976 869 889 
f 870 977 871 
f 871 979 870 
f 976 977 870 
f 977 912 871 
f 912 979 871 
f 873 872 893 
f 872 881 892 
f 872 892 893 
f 873 893 1303 
f 1308 873 1303 
f 875 874 894 
f 894 874 1305 
f 874 1304 1305 
f 882 875 895 
f 895 875 894 
f 896 876 877 
f 897 896 877 
f 879 899 878 
f 899 898 878 
f 881 880 901 
f 880 900 901 
f 881 901 892 
f 883 882 902 
f 902 882 895 
f 903 883 902 
f 1084 884 885 
f 885 968 943 
f 1084 885 943 
f 889 886 1079 
f 904 887 888 
f 887 924 897 
f 887 904 924 
f 905 904 888 
f 976 889 1079 
f 891 907 890 
f 907 906 890 
f 925 891 898 
f 907 891 925 
f 893 892 909 
f 892 901 908 
f 892 908 909 
f 893 909 1075 
f 1303 893 1075 
f 895 894 910 
f 910 894 1076 
f 894 1305 1076 
f 902 895 911 
f 911 895 910 
f 921 896 897 
f 923 921 897 
f 924 923 897 
f 899 922 898 
f 922 926 898 
f 926 925 898 
f 901 900 928 
f 900 927 928 
f 927 900 1307 
f 900 964 1307 
f 901 928 908 
f 903 902 929 
f 929 902 911 
f 930 903 929 
f 903 930 1306 
f 967 903 1306 
f 913 904 905 
f 913 945 904 
f 904 945 924 
f 914 913 905 
f 907 916 906 
f 916 915 906 
f 946 916 907 
f 946 907 925 
f 909 908 918 
f 908 917 918 
f 908 928 917 
f 909 918 1075 
f 911 910 919 
f 919 910 1076 
f 920 911 919 
f 929 911 920 
f 977 973 912 
f 912 973 979 
f 931 913 914 
f 931 953 913 
f 913 953 945 
f 932 931 914 
f 1075 932 914 
f 916 934 915 
f 934 933 915 
f 933 1076 915 
f 954 934 916 
f 954 916 946 
f 918 917 936 
f 928 949 917 
f 917 935 936 
f 917 949 935 
f 1075 918 936 
f 920 919 937 
f 919 1076 937 
f 950 929 920 
f 938 920 937 
f 950 920 938 
f 944 923 924 
f 944 1307 923 
f 945 944 924 
f 926 947 925 
f 947 946 925 
f 1306 947 926 
f 928 927 949 
f 927 948 949 
f 948 927 1307 
f 930 929 950 
f 951 930 950 
f 930 951 1306 
f 939 931 932 
f 939 961 931 
f 931 961 953 
f 940 939 932 
f 1075 940 932 
f 934 942 933 
f 942 941 933 
f 941 1076 933 
f 962 942 934 
f 962 934 954 
f 936 935 940 
f 935 939 940 
f 935 957 939 
f 949 957 935 
f 1075 936 940 
f 938 937 941 
f 937 1076 941 
f 942 938 941 
f 958 938 942 
f 958 950 938 
f 957 961 939 
f 962 958 942 
f 968 969 943 
f 943 969 975 
f 1084 943 975 
f 952 944 945 
f 952 1307 944 
f 953 952 945 
f 947 955 946 
f 955 954 946 
f 1306 955 947 
f 949 948 957 
f 948 956 957 
f 948 1307 956 
f 951 950 958 
f 959 951 958 
f 1306 951 959 
f 960 952 953 
f 960 1307 952 
f 961 960 953 
f 955 963 954 
f 963 962 954 
f 1306 963 955 
f 957 956 961 
f 956 960 961 
f 956 1307 960 
f 959 958 962 
f 963 959 962 
f 1306 959 963 
f 964 965 1307 
f 1307 965 1308 
f 966 967 1306 
f 966 1306 1304 
f 968 978 969 
f 969 970 975 
f 969 978 970 
f 972 971 970 
f 975 970 971 
f 970 978 972 
f 974 971 972 
f 975 971 974 
f 972 973 977 
f 972 978 973 
f 974 972 977 
f 973 978 979 
f 1084 975 974 
f 1084 974 977 
f 977 976 1079 
f 1084 977 1079 
f 981 1075 980 
f 982 1048 981 
f 981 1048 1075 
f 983 1042 982 
f 982 1042 1048 
f 984 1036 983 
f 983 1036 1042 
f 985 1030 984 
f 984 1030 1036 
f 986 1024 985 
f 985 1024 1030 
f 987 1018 986 
f 986 1018 1024 
f 988 1012 987 
f 987 1012 1018 
f 989 1003 988 
f 988 1003 1012 
f 990 1003 989 
f 991 1004 990 
f 990 1004 1003 
f 992 1007 991 
f 991 1007 1004 
f 992 993 1010 
f 992 1010 1007 
f 994 1010 993 
f 995 1011 994 
f 994 1011 1010 
f 996 1017 995 
f 995 1017 1011 
f 997 1023 996 
f 996 1023 1017 
f 998 1029 997 
f 997 1029 1023 
f 999 1035 998 
f 998 1035 1029 
f 1000 1041 999 
f 999 1041 1035 
f 1001 1047 1000 
f 1000 1047 1041 
f 1002 1053 1001 
f 1001 1053 1047 
f 1002 1076 1053 
f 1100 1003 1004 
f 1110 1012 1003 
f 1100 1110 1003 
f 1006 1005 1004 
f 1005 1102 1004 
f 1006 1004 1007 
f 1101 1100 1004 
f 1102 1101 1004 
f 1013 1005 1006 
f 1013 1111 1005 
f 1111 1102 1005 
f 1104 1006 1007 
f 1014 1013 1006 
f 1114 1014 1006 
f 1103 1006 1104 
f 1103 1114 1006 
f 1010 1008 1007 
f 1008 1105 1007 
f 1105 1104 1007 
f 1009 1008 1010 
f 1009 1016 1008 
f 1016 1015 1008 
f 1015 1115 1008 
f 1115 1105 1008 
f 1106 1009 1010 
f 1118 1016 1009 
f 1106 1118 1009 
f 1011 1108 1010 
f 1107 1106 1010 
f 1108 1107 1010 
f 1017 1119 1011 
f 1119 1108 1011 
f 1121 1018 1012 
f 1110 1121 1012 
f 1019 1013 1014 
f 1019 1122 1013 
f 1122 1111 1013 
f 1020 1019 1014 
f 1123 1020 1014 
f 1114 1123 1014 
f 1016 1022 1015 
f 1022 1021 1015 
f 1021 1124 1015 
f 1124 1115 1015 
f 1125 1022 1016 
f 1118 1125 1016 
f 1023 1126 1017 
f 1126 1119 1017 
f 1133 1024 1018 
f 1121 1133 1018 
f 1026 1019 1020 
f 1026 1025 1019 
f 1025 1134 1019 
f 1134 1122 1019 
f 1135 1026 1020 
f 1123 1135 1020 
f 1022 1027 1021 
f 1027 1136 1021 
f 1136 1124 1021 
f 1028 1027 1022 
f 1137 1028 1022 
f 1125 1137 1022 
f 1029 1138 1023 
f 1138 1126 1023 
f 1140 1030 1024 
f 1133 1140 1024 
f 1031 1025 1026 
f 1031 1141 1025 
f 1141 1134 1025 
f 1032 1031 1026 
f 1144 1032 1026 
f 1135 1144 1026 
f 1028 1034 1027 
f 1034 1033 1027 
f 1033 1145 1027 
f 1145 1136 1027 
f 1148 1034 1028 
f 1137 1148 1028 
f 1035 1149 1029 
f 1149 1138 1029 
f 1152 1036 1030 
f 1140 1152 1030 
f 1038 1031 1032 
f 1038 1037 1031 
f 1037 1153 1031 
f 1153 1141 1031 
f 1156 1038 1032 
f 1144 1156 1032 
f 1034 1040 1033 
f 1040 1039 1033 
f 1039 1157 1033 
f 1157 1145 1033 
f 1160 1040 1034 
f 1148 1160 1034 
f 1041 1161 1035 
f 1161 1149 1035 
f 1164 1042 1036 
f 1152 1164 1036 
f 1044 1037 1038 
f 1044 1043 1037 
f 1043 1165 1037 
f 1165 1153 1037 
f 1168 1044 1038 
f 1156 1168 1038 
f 1040 1046 1039 
f 1046 1045 1039 
f 1045 1169 1039 
f 1169 1157 1039 
f 1172 1046 1040 
f 1160 1172 1040 
f 1047 1173 1041 
f 1173 1161 1041 
f 1175 1048 1042 
f 1164 1175 1042 
f 1050 1043 1044 
f 1050 1049 1043 
f 1049 1176 1043 
f 1176 1165 1043 
f 1177 1050 1044 
f 1168 1177 1044 
f 1046 1051 1045 
f 1051 1178 1045 
f 1178 1169 1045 
f 1052 1051 1046 
f 1179 1052 1046 
f 1172 1179 1046 
f 1053 1180 1047 
f 1180 1173 1047 
f 1054 1075 1048 
f 1187 1054 1048 
f 1175 1187 1048 
f 1055 1049 1050 
f 1055 1188 1049 
f 1188 1176 1049 
f 1056 1055 1050 
f 1189 1056 1050 
f 1177 1189 1050 
f 1052 1058 1051 
f 1058 1057 1051 
f 1057 1190 1051 
f 1190 1178 1051 
f 1191 1058 1052 
f 1179 1191 1052 
f 1076 1059 1053 
f 1059 1192 1053 
f 1192 1180 1053 
f 1060 1075 1054 
f 1194 1060 1054 
f 1187 1194 1054 
f 1062 1055 1056 
f 1062 1061 1055 
f 1061 1195 1055 
f 1195 1188 1055 
f 1198 1062 1056 
f 1189 1198 1056 
f 1058 1063 1057 
f 1063 1199 1057 
f 1199 1190 1057 
f 1064 1063 1058 
f 1202 1064 1058 
f 1191 1202 1058 
f 1076 1065 1059 
f 1065 1203 1059 
f 1203 1192 1059 
f 1066 1075 1060 
f 1205 1066 1060 
f 1194 1205 1060 
f 1069 1061 1062 
f 1069 1068 1061 
f 1068 1207 1061 
f 1207 1195 1061 
f 1208 1069 1062 
f 1198 1208 1062 
f 1064 1071 1063 
f 1071 1210 1063 
f 1210 1199 1063 
f 1072 1071 1064 
f 1211 1072 1064 
f 1202 1211 1064 
f 1076 1074 1065 
f 1074 1213 1065 
f 1213 1203 1065 
f 1067 1075 1066 
f 1206 1067 1066 
f 1205 1206 1066 
f 1067 1068 1069 
f 1067 1206 1068 
f 1070 1067 1069 
f 1075 1067 1070 
f 1206 1207 1068 
f 1209 1070 1069 
f 1208 1209 1069 
f 1073 1070 1071 
f 1070 1209 1071 
f 1073 1075 1070 
f 1072 1073 1071 
f 1209 1210 1071 
f 1212 1073 1072 
f 1211 1212 1072 
f 1075 1073 1074 
f 1073 1212 1074 
f 1076 1075 1074 
f 1212 1213 1074 
f 1305 1075 1076 
f 1305 1303 1075 
f 1084 1083 1077 
f 1080 1079 1078 
f 1229 1080 1078 
f 1080 1081 1079 
f 1081 1082 1079 
f 1082 1084 1079 
f 1229 1081 1080 
f 1081 1229 1082 
f 1083 1084 1082 
f 1082 1230 1083 
f 1082 1229 1230 
f 1092 1107 1085 
f 1238 1092 1085 
f 1107 1093 1085 
f 1093 1239 1085 
f 1231 1238 1085 
f 1239 1231 1085 
f 1086 1101 1087 
f 1232 1086 1087 
f 1094 1100 1086 
f 1240 1094 1086 
f 1100 1101 1086 
f 1232 1240 1086 
f 1101 1088 1087 
f 1088 1234 1087 
f 1233 1232 1087 
f 1234 1233 1087 
f 1102 1095 1088 
f 1095 1241 1088 
f 1101 1102 1088 
f 1241 1234 1088 
f 1089 1104 1090 
f 1235 1089 1090 
f 1096 1103 1089 
f 1242 1096 1089 
f 1103 1104 1089 
f 1235 1242 1089 
f 1104 1091 1090 
f 1091 1236 1090 
f 1236 1235 1090 
f 1105 1097 1091 
f 1097 1243 1091 
f 1104 1105 1091 
f 1091 1237 1236 
f 1243 1237 1091 
f 1098 1106 1092 
f 1244 1098 1092 
f 1106 1107 1092 
f 1238 1244 1092 
f 1108 1099 1093 
f 1099 1245 1093 
f 1107 1108 1093 
f 1245 1239 1093 
f 1110 1100 1094 
f 1109 1110 1094 
f 1246 1109 1094 
f 1240 1246 1094 
f 1102 1111 1095 
f 1111 1112 1095 
f 1112 1247 1095 
f 1247 1241 1095 
f 1114 1103 1096 
f 1113 1114 1096 
f 1248 1113 1096 
f 1242 1248 1096 
f 1105 1115 1097 
f 1115 1116 1097 
f 1116 1249 1097 
f 1249 1243 1097 
f 1118 1106 1098 
f 1117 1118 1098 
f 1250 1117 1098 
f 1244 1250 1098 
f 1108 1119 1099 
f 1119 1120 1099 
f 1120 1251 1099 
f 1251 1245 1099 
f 1121 1110 1109 
f 1127 1121 1109 
f 1252 1127 1109 
f 1246 1252 1109 
f 1111 1122 1112 
f 1122 1134 1112 
f 1134 1128 1112 
f 1128 1253 1112 
f 1253 1247 1112 
f 1123 1114 1113 
f 1129 1123 1113 
f 1254 1129 1113 
f 1248 1254 1113 
f 1115 1124 1116 
f 1124 1136 1116 
f 1136 1130 1116 
f 1130 1255 1116 
f 1255 1249 1116 
f 1125 1118 1117 
f 1137 1125 1117 
f 1131 1137 1117 
f 1256 1131 1117 
f 1250 1256 1117 
f 1119 1126 1120 
f 1126 1132 1120 
f 1132 1257 1120 
f 1257 1251 1120 
f 1127 1133 1121 
f 1129 1135 1123 
f 1138 1132 1126 
f 1139 1133 1127 
f 1258 1139 1127 
f 1252 1258 1127 
f 1134 1141 1128 
f 1141 1142 1128 
f 1142 1259 1128 
f 1259 1253 1128 
f 1143 1135 1129 
f 1260 1143 1129 
f 1254 1260 1129 
f 1136 1145 1130 
f 1145 1146 1130 
f 1146 1261 1130 
f 1261 1255 1130 
f 1148 1137 1131 
f 1147 1148 1131 
f 1262 1147 1131 
f 1256 1262 1131 
f 1138 1150 1132 
f 1150 1263 1132 
f 1263 1257 1132 
f 1139 1140 1133 
f 1143 1144 1135 
f 1149 1150 1138 
f 1151 1140 1139 
f 1264 1151 1139 
f 1258 1264 1139 
f 1151 1152 1140 
f 1141 1153 1142 
f 1153 1154 1142 
f 1154 1265 1142 
f 1265 1259 1142 
f 1155 1144 1143 
f 1266 1155 1143 
f 1260 1266 1143 
f 1155 1156 1144 
f 1145 1157 1146 
f 1157 1158 1146 
f 1158 1267 1146 
f 1267 1261 1146 
f 1160 1148 1147 
f 1159 1160 1147 
f 1268 1159 1147 
f 1262 1268 1147 
f 1149 1162 1150 
f 1161 1162 1149 
f 1162 1269 1150 
f 1269 1263 1150 
f 1151 1163 1152 
f 1270 1163 1151 
f 1264 1270 1151 
f 1163 1164 1152 
f 1153 1165 1154 
f 1165 1166 1154 
f 1166 1271 1154 
f 1271 1265 1154 
f 1155 1167 1156 
f 1272 1167 1155 
f 1266 1272 1155 
f 1167 1168 1156 
f 1169 1158 1157 
f 1169 1170 1158 
f 1170 1273 1158 
f 1273 1267 1158 
f 1172 1160 1159 
f 1171 1172 1159 
f 1274 1171 1159 
f 1268 1274 1159 
f 1174 1162 1161 
f 1173 1174 1161 
f 1174 1275 1162 
f 1275 1269 1162 
f 1163 1181 1164 
f 1276 1181 1163 
f 1270 1276 1163 
f 1181 1175 1164 
f 1176 1166 1165 
f 1176 1182 1166 
f 1182 1277 1166 
f 1277 1271 1166 
f 1167 1183 1168 
f 1278 1183 1167 
f 1272 1278 1167 
f 1183 1177 1168 
f 1178 1170 1169 
f 1178 1184 1170 
f 1184 1279 1170 
f 1279 1273 1170 
f 1171 1179 1172 
f 1185 1179 1171 
f 1280 1185 1171 
f 1274 1280 1171 
f 1186 1174 1173 
f 1180 1186 1173 
f 1186 1281 1174 
f 1281 1275 1174 
f 1181 1193 1175 
f 1193 1187 1175 
f 1188 1182 1176 
f 1183 1197 1177 
f 1197 1189 1177 
f 1190 1184 1178 
f 1185 1191 1179 
f 1204 1186 1180 
f 1192 1204 1180 
f 1282 1193 1181 
f 1276 1282 1181 
f 1188 1196 1182 
f 1196 1283 1182 
f 1283 1277 1182 
f 1284 1197 1183 
f 1278 1284 1183 
f 1190 1200 1184 
f 1200 1285 1184 
f 1285 1279 1184 
f 1201 1191 1185 
f 1286 1201 1185 
f 1280 1286 1185 
f 1204 1287 1186 
f 1287 1281 1186 
f 1193 1214 1187 
f 1214 1194 1187 
f 1195 1196 1188 
f 1197 1216 1189 
f 1216 1198 1189 
f 1199 1200 1190 
f 1201 1202 1191 
f 1203 1219 1192 
f 1219 1204 1192 
f 1288 1214 1193 
f 1282 1288 1193 
f 1220 1205 1194 
f 1214 1220 1194 
f 1215 1196 1195 
f 1207 1215 1195 
f 1215 1289 1196 
f 1289 1283 1196 
f 1290 1216 1197 
f 1284 1290 1197 
f 1223 1208 1198 
f 1216 1223 1198 
f 1217 1200 1199 
f 1210 1217 1199 
f 1217 1291 1200 
f 1291 1285 1200 
f 1201 1218 1202 
f 1292 1218 1201 
f 1286 1292 1201 
f 1218 1211 1202 
f 1213 1228 1203 
f 1228 1219 1203 
f 1219 1293 1204 
f 1293 1287 1204 
f 1221 1206 1205 
f 1220 1221 1205 
f 1206 1222 1207 
f 1221 1222 1206 
f 1222 1215 1207 
f 1224 1209 1208 
f 1223 1224 1208 
f 1209 1225 1210 
f 1224 1225 1209 
f 1225 1217 1210 
f 1226 1212 1211 
f 1218 1226 1211 
f 1212 1227 1213 
f 1226 1227 1212 
f 1227 1228 1213 
f 1294 1220 1214 
f 1288 1294 1214 
f 1222 1296 1215 
f 1296 1289 1215 
f 1297 1223 1216 
f 1290 1297 1216 
f 1225 1299 1217 
f 1299 1291 1217 
f 1300 1226 1218 
f 1292 1300 1218 
f 1228 1302 1219 
f 1302 1293 1219 
f 1295 1221 1220 
f 1294 1295 1220 
f 1221 1295 1222 
f 1295 1296 1222 
f 1298 1224 1223 
f 1297 1298 1223 
f 1224 1299 1225 
f 1224 1298 1299 
f 1301 1227 1226 
f 1300 1301 1226 
f 1227 1301 1228 
f 1301 1302 1228 
f 1239 1230 1229 
f 1236 1231 1229 
f 1231 1239 1229 
f 1232 1233 1229 
f 1240 1232 1229 
f 1233 1236 1229 
f 1246 1240 1229 
f 1252 1246 1229 
f 1303 1252 1229 
f 1308 1303 1229 
f 1307 1308 1229 
f 1239 1245 1230 
f 1245 1251 1230 
f 1251 1257 1230 
f 1257 1305 1230 
f 1305 1304 1230 
f 1304 1306 1230 
f 1237 1231 1236 
f 1237 1238 1231 
f 1234 1235 1233 
f 1233 1235 1236 
f 1234 1241 1235 
f 1241 1242 1235 
f 1244 1238 1237 
f 1243 1244 1237 
f 1241 1247 1242 
f 1247 1248 1242 
f 1250 1244 1243 
f 1249 1250 1243 
f 1247 1254 1248 
f 1253 1254 1247 
f 1255 1250 1249 
f 1255 1256 1250 
f 1303 1258 1252 
f 1253 1259 1254 
f 1259 1260 1254 
f 1261 1256 1255 
f 1261 1262 1256 
f 1263 1305 1257 
f 1303 1264 1258 
f 1259 1265 1260 
f 1265 1266 1260 
f 1267 1262 1261 
f 1267 1268 1262 
f 1269 1305 1263 
f 1303 1270 1264 
f 1265 1271 1266 
f 1271 1272 1266 
f 1273 1268 1267 
f 1273 1274 1268 
f 1275 1305 1269 
f 1303 1276 1270 
f 1271 1277 1272 
f 1277 1278 1272 
f 1279 1274 1273 
f 1279 1280 1274 
f 1281 1305 1275 
f 1303 1282 1276 
f 1277 1283 1278 
f 1283 1284 1278 
f 1286 1280 1279 
f 1285 1286 1279 
f 1287 1305 1281 
f 1303 1288 1282 
f 1283 1290 1284 
f 1289 1290 1283 
f 1291 1286 1285 
f 1291 1292 1286 
f 1293 1305 1287 
f 1303 1294 1288 
f 1289 1297 1290 
f 1296 1297 1289 
f 1299 1292 1291 
f 1299 1300 1292 
f 1302 1305 1293 
f 1303 1295 1294 
f 1296 1295 1297 
f 1295 1298 1297 
f 1295 1303 1298 
f 1298 1301 1299 
f 1303 1301 1298 
f 1301 1300 1299 
f 1301 1303 1302 
f 1303 1305 1302 


