####
#
# OBJ File Generated by Meshlab
#
####
# Object MX-28-childSupport-2.obj
#
# Vertices: 164
# Faces: 324
#
####
vn 0.000000 0.948866 0.000000
v 0.017806 0.025485 0.024840 0.752941 0.752941 0.752941
vn 0.000000 -1.570796 0.000000
v 0.017806 0.020734 0.020705 0.752941 0.752941 0.752941
vn 1.444366 -0.617420 0.000000
v 0.015457 -0.002847 0.024840 0.752941 0.752941 0.752941
vn 0.853377 -0.364791 0.000000
v 0.016674 0.000000 0.024840 0.752941 0.752941 0.752941
vn -1.444366 -0.617420 0.000000
v -0.015457 -0.002847 0.024840 0.752941 0.752941 0.752941
vn -0.853377 -0.364791 0.000000
v -0.016674 0.000000 0.024840 0.752941 0.752941 0.752941
vn -1.237295 -0.967730 0.000000
v -0.013382 -0.005500 0.024840 0.752941 0.752941 0.752941
vn -0.860655 -1.314029 0.000000
v -0.009904 -0.007778 0.024840 0.752941 0.752941 0.752941
vn 0.428833 -0.654733 0.000000
v 0.013382 -0.005500 0.024840 0.752941 0.752941 0.752941
vn 0.698880 -0.546618 0.000000
v 0.013382 -0.005500 0.020705 0.752941 0.752941 0.752941
vn 1.237295 -0.967730 0.000000
v 0.015457 -0.002847 0.020705 0.752941 0.752941 0.752941
vn -0.538415 -0.421112 0.000000
v -0.013382 -0.005500 -0.020705 0.752941 0.752941 0.752941
vn -0.860655 -1.314029 0.000000
v -0.009904 -0.007778 -0.024840 0.752941 0.752941 0.752941
vn -0.428833 -0.654733 0.000000
v -0.013382 -0.005500 -0.024840 0.752941 0.752941 0.752941
vn -0.428833 -0.654733 0.000000
v -0.009904 -0.007778 -0.020705 0.752941 0.752941 0.752941
vn 0.860655 -1.314029 0.000000
v 0.013382 -0.005500 -0.020705 0.752941 0.752941 0.752941
vn 1.237295 -0.967730 0.000000
v 0.013382 -0.005500 -0.024840 0.752941 0.752941 0.752941
vn 1.237295 -0.967730 0.000000
v 0.015457 -0.002847 -0.020705 0.752941 0.752941 0.752941
vn 0.538415 -0.421112 0.000000
v 0.015457 -0.002847 -0.024840 0.752941 0.752941 0.752941
vn -0.103938 0.000000 0.000000
v -0.017806 0.020734 -0.020705 0.752941 0.752941 0.752941
vn -0.854610 0.000000 0.000000
v -0.017806 0.025485 -0.024840 0.752941 0.752941 0.752941
vn 0.000000 0.000000 -1.390669
v -0.017806 0.019000 -0.024840 0.752941 0.752941 0.752941
vn 0.000000 0.000000 -0.180128
v 0.017806 0.025485 -0.024840 0.752941 0.752941 0.752941
vn 0.000000 0.000000 -1.570796
v 0.017806 0.019000 0.020705 0.752941 0.752941 0.752941
vn 0.000000 0.000000 1.570796
v 0.017806 0.020734 -0.020705 0.752941 0.752941 0.752941
vn -1.251683 0.000000 0.000000
v -0.017806 0.020734 0.020705 0.752941 0.752941 0.752941
vn -0.716186 0.000000 0.000000
v -0.017806 0.025485 0.024840 0.752941 0.752941 0.752941
vn -1.570796 0.000000 0.000000
v -0.017806 0.019000 0.020705 0.752941 0.752941 0.752941
vn 1.570308 -0.039159 0.000000
v 0.017806 0.019000 -0.024840 0.752941 0.752941 0.752941
vn 0.623155 -0.152257 0.000000
v 0.016674 0.000000 -0.024840 0.752941 0.752941 0.752941
vn -0.902754 -0.220573 0.000000
v -0.017407 0.003000 -0.024840 0.752941 0.752941 0.752941
vn 0.294586 -0.968877 0.000000
v 0.009904 -0.007778 0.024840 0.752941 0.752941 0.752941
vn 0.456944 -1.502865 0.000000
v 0.007434 -0.008529 0.024840 0.752941 0.752941 0.752941
vn 0.294586 -0.968877 0.000000
v 0.007434 -0.008529 0.020705 0.752941 0.752941 0.752941
vn 0.000000 0.000000 0.559400
v -0.004600 0.000000 0.024840 0.752941 0.752941 0.752941
vn 0.000000 0.000000 0.407586
v -0.004862 -0.006699 0.024840 0.752941 0.752941 0.752941
vn 0.000000 0.000000 -0.303067
v 0.004600 0.000000 0.020705 0.752941 0.752941 0.752941
vn 0.000000 0.000000 -0.505989
v 0.009904 -0.007778 0.020705 0.752941 0.752941 0.752941
vn 0.000000 0.000000 -1.718302
v -0.015457 -0.002847 0.020705 0.752941 0.752941 0.752941
vn 0.000000 0.000000 -1.675028
v -0.013382 -0.005500 0.020705 0.752941 0.752941 0.752941
vn 0.000000 0.000000 -1.589423
v -0.009904 -0.007778 0.020705 0.752941 0.752941 0.752941
vn -0.456944 -1.502865 0.000000
v -0.007434 -0.008529 -0.024840 0.752941 0.752941 0.752941
vn -0.294586 -0.968877 0.000000
v -0.007434 -0.008529 -0.020705 0.752941 0.752941 0.752941
vn 0.162358 -0.533988 0.000000
v 0.009904 -0.007778 -0.020705 0.752941 0.752941 0.752941
vn 0.456944 -1.502865 0.000000
v 0.009904 -0.007778 -0.024840 0.752941 0.752941 0.752941
vn 0.000000 0.000000 -2.228018
v 0.007434 -0.008529 -0.024840 0.752941 0.752941 0.752941
vn 0.000000 0.000000 -0.407586
v 0.004862 -0.006699 -0.024840 0.752941 0.752941 0.752941
vn 0.000000 0.000000 -1.718302
v -0.015457 -0.002847 -0.024840 0.752941 0.752941 0.752941
vn 0.000000 0.000000 1.718302
v -0.015457 -0.002847 -0.020705 0.752941 0.752941 0.752941
vn 0.000000 0.000000 1.166837
v -0.016674 0.000000 -0.020705 0.752941 0.752941 0.752941
vn 0.000000 0.000000 0.256453
v -0.004600 0.000000 -0.020705 0.752941 0.752941 0.752941
vn 0.000000 0.000000 0.256453
v 0.004600 0.000000 -0.020705 0.752941 0.752941 0.752941
vn 0.000000 0.000000 1.166837
v 0.016674 0.000000 -0.020705 0.752941 0.752941 0.752941
vn 0.000000 0.000000 0.407586
v 0.004862 -0.006699 -0.020705 0.752941 0.752941 0.752941
vn 0.000000 0.000000 2.173077
v 0.003984 0.002300 0.024840 0.752941 0.752941 0.752941
vn 0.000000 0.000000 0.916414
v -0.003447 0.003000 0.024840 0.752941 0.752941 0.752941
vn 0.000000 0.000000 1.169240
v -0.017407 0.003000 0.024840 0.752941 0.752941 0.752941
vn 0.000000 0.000000 1.545864
v -0.017806 0.019000 0.024840 0.752941 0.752941 0.752941
vn 0.000000 0.000000 1.595729
v 0.017407 0.003000 0.024840 0.752941 0.752941 0.752941
vn 0.000000 0.000000 0.898758
v -0.003253 0.003253 0.024840 0.752941 0.752941 0.752941
vn 0.000000 0.000000 1.423671
v 0.002300 0.003984 0.024840 0.752941 0.752941 0.752941
vn 0.000000 0.000000 1.111893
v 0.001191 0.004443 0.024840 0.752941 0.752941 0.752941
vn 0.000000 0.000000 0.039439
v 0.017806 0.019000 0.024840 0.752941 0.752941 0.752941
vn 0.000000 0.000000 2.880174
v -0.001191 0.004443 0.024840 0.752941 0.752941 0.752941
vn 0.000000 0.000000 -0.230098
v -0.004600 0.000000 -0.024840 0.752941 0.752941 0.752941
vn 0.000000 0.000000 -1.810434
v -0.016674 0.000000 -0.024840 0.752941 0.752941 0.752941
vn 0.000000 0.000000 -1.824571
v -0.004443 0.001191 -0.024840 0.752941 0.752941 0.752941
vn 0.000000 0.000000 -1.169240
v 0.017407 0.003000 -0.024840 0.752941 0.752941 0.752941
vn 0.000000 0.000000 -2.505141
v 0.003253 0.003253 -0.024840 0.752941 0.752941 0.752941
vn 0.000000 0.000000 -1.423671
v -0.002300 0.003984 -0.024840 0.752941 0.752941 0.752941
vn 0.000000 0.000000 -2.291053
v -0.001191 0.004443 -0.024840 0.752941 0.752941 0.752941
vn 0.000000 0.000000 -0.249057
v 0.002300 0.003984 -0.024840 0.752941 0.752941 0.752941
vn 0.000000 0.000000 -1.101060
v -0.017407 0.003000 0.020705 0.752941 0.752941 0.752941
vn 0.000000 0.000000 -1.810434
v -0.016674 0.000000 0.020705 0.752941 0.752941 0.752941
vn 0.000000 0.000000 -1.824571
v -0.004443 0.001191 0.020705 0.752941 0.752941 0.752941
vn 0.000000 0.000000 -1.810434
v 0.016674 0.000000 0.020705 0.752941 0.752941 0.752941
vn 0.000000 0.000000 -1.578375
v 0.004443 0.001191 0.020705 0.752941 0.752941 0.752941
vn 0.000000 0.000000 -0.047170
v 0.017407 0.003000 0.020705 0.752941 0.752941 0.752941
vn 0.000000 0.000000 -1.385563
v -0.003447 0.003000 0.020705 0.752941 0.752941 0.752941
vn 0.000000 0.000000 -1.423671
v -0.002300 0.003984 0.020705 0.752941 0.752941 0.752941
vn 0.000000 0.000000 0.086543
v 0.017407 0.003000 -0.020705 0.752941 0.752941 0.752941
vn 0.000000 0.000000 1.545864
v -0.017806 0.019000 -0.020705 0.752941 0.752941 0.752941
vn 0.000000 0.000000 2.224962
v -0.003447 0.003000 -0.020705 0.752941 0.752941 0.752941
vn 0.000000 0.000000 0.017874
v -0.017407 0.003000 -0.020705 0.752941 0.752941 0.752941
vn 0.000000 0.000000 1.385563
v 0.003447 0.003000 -0.020705 0.752941 0.752941 0.752941
vn 0.000000 0.000000 0.049872
v 0.017806 0.019000 -0.020705 0.752941 0.752941 0.752941
vn -0.205290 -1.557324 0.000000
v 0.000000 0.004600 0.024840 0.752941 0.752941 0.752941
vn -0.205290 -1.557324 0.000000
v 0.000000 0.004600 -0.020705 0.752941 0.752941 0.752941
vn 0.205290 -1.557324 0.000000
v 0.000000 0.004600 0.020705 0.752941 0.752941 0.752941
vn 0.205290 -1.557324 0.000000
v 0.000000 0.004600 -0.024840 0.752941 0.752941 0.752941
vn 0.600712 -1.451395 0.000000
v -0.001191 0.004443 0.020705 0.752941 0.752941 0.752941
vn 0.108035 -0.261025 0.000000
v -0.001191 0.004443 -0.020705 0.752941 0.752941 0.752941
vn 0.783975 -1.022063 0.000000
v -0.003253 0.003253 0.020705 0.752941 0.752941 0.752941
vn 0.172049 -0.224300 0.000000
v -0.002300 0.003984 0.024840 0.752941 0.752941 0.752941
vn 0.783975 -1.022063 0.000000
v -0.003253 0.003253 -0.024840 0.752941 0.752941 0.752941
vn 0.956024 -1.246362 0.000000
v -0.003253 0.003253 -0.020705 0.752941 0.752941 0.752941
vn 0.783975 -1.022063 0.000000
v -0.002300 0.003984 -0.020705 0.752941 0.752941 0.752941
vn 0.166786 -0.127948 0.000000
v -0.003984 0.002300 -0.020705 0.752941 0.752941 0.752941
vn 1.079522 -0.828147 0.000000
v -0.003447 0.003000 -0.024840 0.752941 0.752941 0.752941
vn 1.246307 -0.956096 0.000000
v -0.003984 0.002300 -0.024840 0.752941 0.752941 0.752941
vn 1.451395 -0.600712 0.000000
v -0.004443 0.001191 0.024840 0.752941 0.752941 0.752941
vn 1.190369 -0.492678 0.000000
v -0.003984 0.002300 0.024840 0.752941 0.752941 0.752941
vn 1.451395 -0.600712 0.000000
v -0.003984 0.002300 0.020705 0.752941 0.752941 0.752941
vn 0.280313 -0.036951 0.000000
v -0.004600 0.000000 0.020705 0.752941 0.752941 0.752941
vn 0.280313 -0.036951 0.000000
v -0.004443 0.001191 -0.020705 0.752941 0.752941 0.752941
vn -0.552248 -0.021599 0.000000
v 0.004862 -0.006699 0.020705 0.752941 0.752941 0.752941
vn -1.569596 -0.061387 0.000000
v 0.004600 0.000000 -0.024840 0.752941 0.752941 0.752941
vn -1.277011 -0.168338 0.000000
v 0.004600 0.000000 0.024840 0.752941 0.752941 0.752941
vn -1.277011 -0.168338 0.000000
v 0.004443 0.001191 -0.024840 0.752941 0.752941 0.752941
vn -0.261025 -0.108035 0.000000
v 0.004443 0.001191 0.024840 0.752941 0.752941 0.752941
vn -1.190369 -0.492678 0.000000
v 0.004443 0.001191 -0.020705 0.752941 0.752941 0.752941
vn -1.079522 -0.828147 0.000000
v 0.003984 0.002300 0.020705 0.752941 0.752941 0.752941
vn -1.246307 -0.956096 0.000000
v 0.003447 0.003000 0.020705 0.752941 0.752941 0.752941
vn -0.166786 -0.127948 0.000000
v 0.003447 0.003000 0.024840 0.752941 0.752941 0.752941
vn -0.061064 -0.046824 0.000000
v 0.003253 0.003253 0.020705 0.752941 0.752941 0.752941
vn -1.246515 -0.955825 0.000000
v 0.003253 0.003253 0.024840 0.752941 0.752941 0.752941
vn -0.166786 -0.127948 0.000000
v 0.003984 0.002300 -0.020705 0.752941 0.752941 0.752941
vn -1.246307 -0.956096 0.000000
v 0.003984 0.002300 -0.024840 0.752941 0.752941 0.752941
vn -1.079522 -0.828147 0.000000
v 0.003447 0.003000 -0.024840 0.752941 0.752941 0.752941
vn -1.185451 -0.909001 0.000000
v 0.003253 0.003253 -0.020705 0.752941 0.752941 0.752941
vn -0.783975 -1.022063 0.000000
v 0.002300 0.003984 0.020705 0.752941 0.752941 0.752941
vn -0.956024 -1.246362 0.000000
v 0.002300 0.003984 -0.020705 0.752941 0.752941 0.752941
vn -0.108035 -0.261025 0.000000
v 0.001191 0.004443 0.020705 0.752941 0.752941 0.752941
vn -0.492678 -1.190369 0.000000
v 0.001191 0.004443 -0.024840 0.752941 0.752941 0.752941
vn -0.600712 -1.451395 0.000000
v 0.001191 0.004443 -0.020705 0.752941 0.752941 0.752941
vn 1.162619 -0.775080 0.000000
v -0.005423 -0.008009 0.024840 0.752941 0.752941 0.752941
vn 1.306981 -0.871322 0.000000
v -0.005423 -0.008009 0.020705 0.752941 0.752941 0.752941
vn 1.162619 -0.775080 0.000000
v -0.005021 -0.007406 0.020705 0.752941 0.752941 0.752941
vn 0.909513 -1.280698 0.000000
v -0.006013 -0.008428 0.020705 0.752941 0.752941 0.752941
vn 0.394737 -1.520389 0.000000
v -0.006013 -0.008428 0.024840 0.752941 0.752941 0.752941
vn 0.043573 -0.167826 0.000000
v -0.006714 -0.008610 0.024840 0.752941 0.752941 0.752941
vn -0.156215 -1.388576 0.000000
v -0.007434 -0.008529 0.024840 0.752941 0.752941 0.752941
vn 0.175607 -1.560950 0.000000
v 0.006714 -0.008610 0.020705 0.752941 0.752941 0.752941
vn -0.394737 -1.520389 0.000000
v 0.006714 -0.008610 0.024840 0.752941 0.752941 0.752941
vn -0.809199 -1.139444 0.000000
v 0.005423 -0.008009 0.024840 0.752941 0.752941 0.752941
vn -0.909513 -1.280698 0.000000
v 0.006013 -0.008428 0.024840 0.752941 0.752941 0.752941
vn -0.909513 -1.280698 0.000000
v 0.005423 -0.008009 0.020705 0.752941 0.752941 0.752941
vn -0.175607 -1.560950 0.000000
v -0.006714 -0.008610 -0.020705 0.752941 0.752941 0.752941
vn -0.019392 -0.172374 0.000000
v -0.006714 -0.008610 -0.024840 0.752941 0.752941 0.752941
vn 0.394737 -1.520389 0.000000
v -0.006013 -0.008428 -0.020705 0.752941 0.752941 0.752941
vn 0.909513 -1.280698 0.000000
v -0.006013 -0.008428 -0.024840 0.752941 0.752941 0.752941
vn 0.909513 -1.280698 0.000000
v -0.005423 -0.008009 -0.020705 0.752941 0.752941 0.752941
vn 1.162619 -0.775080 0.000000
v -0.005021 -0.007406 -0.024840 0.752941 0.752941 0.752941
vn 1.532519 -0.344654 0.000000
v -0.004862 -0.006699 -0.020705 0.752941 0.752941 0.752941
vn -1.306981 -0.871322 0.000000
v 0.005021 -0.007406 -0.024840 0.752941 0.752941 0.752941
vn -1.162619 -0.775080 0.000000
v 0.005021 -0.007406 -0.020705 0.752941 0.752941 0.752941
vn -0.809199 -1.139444 0.000000
v 0.006013 -0.008428 -0.024840 0.752941 0.752941 0.752941
vn -0.909513 -1.280698 0.000000
v 0.005423 -0.008009 -0.024840 0.752941 0.752941 0.752941
vn -0.809199 -1.139444 0.000000
v 0.005423 -0.008009 -0.020705 0.752941 0.752941 0.752941
vn -0.351165 -1.352563 0.000000
v 0.006013 -0.008428 -0.020705 0.752941 0.752941 0.752941
vn 0.019392 -0.172374 0.000000
v 0.006714 -0.008610 -0.020705 0.752941 0.752941 0.752941
vn 0.000000 0.000000 0.182596
v -0.005021 -0.007406 0.024840 0.752941 0.752941 0.752941
vn 0.000000 0.000000 -0.731175
v -0.004862 -0.006699 0.020705 0.752941 0.752941 0.752941
vn 0.000000 0.000000 -0.182987
v -0.007434 -0.008529 0.020705 0.752941 0.752941 0.752941
vn 0.000000 0.000000 -2.775543
v -0.006714 -0.008610 0.020705 0.752941 0.752941 0.752941
vn 0.000000 0.000000 2.227593
v 0.005021 -0.007406 0.024840 0.752941 0.752941 0.752941
vn 0.000000 0.000000 0.731175
v 0.004862 -0.006699 0.024840 0.752941 0.752941 0.752941
vn 0.000000 0.000000 -0.182596
v 0.005021 -0.007406 0.020705 0.752941 0.752941 0.752941
vn 0.000000 0.000000 -0.182774
v 0.006013 -0.008428 0.020705 0.752941 0.752941 0.752941
vn 0.000000 0.000000 -0.731175
v -0.004862 -0.006699 -0.024840 0.752941 0.752941 0.752941
vn 0.000000 0.000000 -2.411835
v -0.005423 -0.008009 -0.024840 0.752941 0.752941 0.752941
vn 0.000000 0.000000 0.182596
v -0.005021 -0.007406 -0.020705 0.752941 0.752941 0.752941
vn 0.000000 0.000000 -2.411385
v 0.006714 -0.008610 -0.024840 0.752941 0.752941 0.752941
vn 0.000000 0.000000 0.182078
v 0.007434 -0.008529 -0.020705 0.752941 0.752941 0.752941
# 164 vertices, 0 vertices normals

f 21//21 27//27 1//1
f 23//23 21//21 1//1
f 25//25 2//2 26//26
f 20//20 25//25 26//26
f 11//11 4//4 3//3
f 76//76 4//4 11//11
f 6//6 39//39 5//5
f 6//6 74//74 39//39
f 5//5 40//40 7//7
f 5//5 39//39 40//40
f 7//7 41//41 8//8
f 7//7 40//40 41//41
f 38//38 9//9 32//32
f 10//10 9//9 38//38
f 10//10 3//3 9//9
f 11//11 3//3 10//10
f 19//19 30//30 18//18
f 30//30 53//53 18//18
f 66//66 48//48 49//49
f 50//50 66//66 49//49
f 48//48 14//14 12//12
f 49//49 48//48 12//12
f 14//14 13//13 15//15
f 12//12 14//14 15//15
f 45//45 17//17 44//44
f 17//17 16//16 44//44
f 17//17 19//19 16//16
f 19//19 18//18 16//16
f 27//27 20//20 26//26
f 27//27 21//21 20//20
f 25//25 1//1 2//2
f 23//23 1//1 25//25
f 1//1 27//27 63//63
f 27//27 58//58 63//63
f 21//21 23//23 22//22
f 23//23 29//29 22//22
f 26//26 2//2 28//28
f 2//2 24//24 28//28
f 25//25 20//20 86//86
f 20//20 82//82 86//86
f 2//2 1//1 63//63
f 24//24 2//2 63//63
f 27//27 26//26 58//58
f 26//26 28//28 58//58
f 23//23 25//25 29//29
f 29//29 25//25 86//86
f 20//20 21//21 22//22
f 20//20 22//22 82//82
f 24//24 63//63 78//78
f 78//78 63//63 59//59
f 76//76 59//59 4//4
f 78//78 59//59 76//76
f 58//58 28//28 57//57
f 28//28 73//73 57//57
f 73//73 74//74 6//6
f 57//57 73//73 6//6
f 29//29 86//86 68//68
f 68//68 86//86 81//81
f 30//30 81//81 53//53
f 68//68 81//81 30//30
f 82//82 22//22 84//84
f 22//22 31//31 84//84
f 31//31 66//66 50//50
f 84//84 31//31 50//50
f 8//8 41//41 132//132
f 132//132 41//41 154//154
f 33//33 34//34 32//32
f 32//32 34//34 38//38
f 35//35 6//6 5//5
f 35//35 5//5 7//7
f 35//35 8//8 36//36
f 36//36 8//8 132//132
f 35//35 7//7 8//8
f 4//4 108//108 3//3
f 3//3 108//108 9//9
f 9//9 108//108 32//32
f 108//108 157//157 32//32
f 32//32 157//157 33//33
f 37//37 76//76 11//11
f 37//37 11//11 10//10
f 37//37 38//38 106//106
f 106//106 38//38 34//34
f 37//37 10//10 38//38
f 74//74 104//104 39//39
f 39//39 104//104 40//40
f 40//40 104//104 41//41
f 104//104 153//153 41//41
f 41//41 153//153 154//154
f 42//42 43//43 13//13
f 13//13 43//43 15//15
f 45//45 44//44 46//46
f 46//46 44//44 164//164
f 107//107 30//30 19//19
f 107//107 19//19 17//17
f 107//107 45//45 47//47
f 47//47 45//45 46//46
f 107//107 17//17 45//45
f 66//66 65//65 48//48
f 48//48 65//65 14//14
f 14//14 65//65 13//13
f 65//65 160//160 13//13
f 13//13 160//160 42//42
f 51//51 50//50 49//49
f 51//51 49//49 12//12
f 51//51 15//15 144//144
f 144//144 15//15 43//43
f 51//51 12//12 15//15
f 53//53 52//52 18//18
f 18//18 52//52 16//16
f 16//16 52//52 44//44
f 52//52 54//54 44//44
f 44//44 54//54 164//164
f 4//4 59//59 108//108
f 59//59 110//110 108//108
f 59//59 55//55 110//110
f 59//59 114//114 55//55
f 57//57 6//6 35//35
f 101//101 57//57 35//35
f 56//56 57//57 102//102
f 102//102 57//57 101//101
f 63//63 58//58 57//57
f 59//59 63//63 114//114
f 60//60 57//57 56//56
f 60//60 94//94 57//57
f 94//94 63//63 57//57
f 63//63 116//116 114//114
f 63//63 61//61 116//116
f 63//63 62//62 61//61
f 63//63 87//87 62//62
f 87//87 63//63 64//64
f 64//64 63//63 94//94
f 66//66 31//31 65//65
f 31//31 67//67 65//65
f 31//31 100//100 67//67
f 31//31 99//99 100//100
f 68//68 30//30 107//107
f 109//109 68//68 107//107
f 119//119 68//68 118//118
f 118//118 68//68 109//109
f 22//22 29//29 68//68
f 31//31 22//22 99//99
f 69//69 68//68 119//119
f 69//69 72//72 68//68
f 72//72 22//22 68//68
f 22//22 95//95 99//99
f 22//22 70//70 95//95
f 22//22 71//71 70//70
f 22//22 90//90 71//71
f 90//90 22//22 124//124
f 124//124 22//22 72//72
f 74//74 73//73 104//104
f 73//73 75//75 104//104
f 73//73 103//103 75//75
f 73//73 79//79 103//103
f 78//78 76//76 37//37
f 77//77 78//78 37//37
f 113//113 78//78 112//112
f 112//112 78//78 77//77
f 28//28 24//24 78//78
f 73//73 28//28 79//79
f 115//115 78//78 113//113
f 115//115 121//121 78//78
f 121//121 28//28 78//78
f 28//28 93//93 79//79
f 28//28 80//80 93//93
f 28//28 91//91 80//80
f 28//28 89//89 91//91
f 89//89 28//28 123//123
f 123//123 28//28 121//121
f 53//53 81//81 52//52
f 81//81 111//111 52//52
f 81//81 117//117 111//111
f 81//81 85//85 117//117
f 84//84 50//50 51//51
f 105//105 84//84 51//51
f 83//83 84//84 98//98
f 98//98 84//84 105//105
f 86//86 82//82 84//84
f 81//81 86//86 85//85
f 96//96 84//84 83//83
f 96//96 97//97 84//84
f 97//97 86//86 84//84
f 86//86 120//120 85//85
f 86//86 122//122 120//120
f 86//86 125//125 122//122
f 86//86 88//88 125//125
f 88//88 86//86 92//92
f 92//92 86//86 97//97
f 87//87 89//89 62//62
f 89//89 123//123 62//62
f 90//90 124//124 125//125
f 88//88 90//90 125//125
f 91//91 87//87 64//64
f 89//89 87//87 91//91
f 90//90 88//88 71//71
f 71//71 88//88 92//92
f 80//80 64//64 94//94
f 91//91 64//64 80//80
f 71//71 92//92 70//70
f 70//70 92//92 97//97
f 93//93 94//94 60//60
f 80//80 94//94 93//93
f 70//70 97//97 95//95
f 95//95 97//97 96//96
f 103//103 56//56 102//102
f 93//93 60//60 56//56
f 79//79 93//93 56//56
f 79//79 56//56 103//103
f 100//100 99//99 98//98
f 99//99 83//83 98//98
f 99//99 96//96 83//83
f 95//95 96//96 99//99
f 75//75 102//102 101//101
f 103//103 102//102 75//75
f 100//100 98//98 67//67
f 67//67 98//98 105//105
f 104//104 101//101 35//35
f 75//75 101//101 104//104
f 65//65 105//105 51//51
f 67//67 105//105 65//65
f 35//35 36//36 104//104
f 104//104 36//36 153//153
f 51//51 144//144 65//65
f 65//65 144//144 160//160
f 37//37 106//106 108//108
f 108//108 106//106 157//157
f 107//107 47//47 52//52
f 52//52 47//47 54//54
f 77//77 37//37 108//108
f 110//110 77//77 108//108
f 109//109 107//107 52//52
f 111//111 109//109 52//52
f 55//55 112//112 110//110
f 112//112 77//77 110//110
f 118//118 109//109 111//111
f 117//117 118//118 111//111
f 114//114 112//112 55//55
f 114//114 113//113 112//112
f 115//115 113//113 114//114
f 116//116 115//115 114//114
f 119//119 118//118 117//117
f 120//120 69//69 119//119
f 120//120 119//119 85//85
f 85//85 119//119 117//117
f 61//61 121//121 116//116
f 121//121 115//115 116//116
f 72//72 69//69 120//120
f 122//122 72//72 120//120
f 62//62 123//123 61//61
f 123//123 121//121 61//61
f 124//124 72//72 122//122
f 125//125 124//124 122//122
f 36//36 152//152 153//153
f 153//153 152//152 128//128
f 152//152 126//126 128//128
f 128//128 126//126 127//127
f 126//126 130//130 127//127
f 127//127 130//130 129//129
f 130//130 131//131 129//129
f 129//129 131//131 155//155
f 131//131 132//132 155//155
f 155//155 132//132 154//154
f 33//33 134//134 34//34
f 34//34 134//134 133//133
f 134//134 136//136 133//133
f 133//133 136//136 159//159
f 136//136 135//135 159//159
f 159//159 135//135 137//137
f 135//135 156//156 137//137
f 137//137 156//156 158//158
f 156//156 157//157 158//158
f 158//158 157//157 106//106
f 42//42 139//139 43//43
f 43//43 139//139 138//138
f 139//139 141//141 138//138
f 138//138 141//141 140//140
f 141//141 161//161 140//140
f 140//140 161//161 142//142
f 161//161 143//143 142//142
f 142//142 143//143 162//162
f 143//143 160//160 162//162
f 162//162 160//160 144//144
f 47//47 145//145 54//54
f 54//54 145//145 146//146
f 145//145 148//148 146//146
f 146//146 148//148 149//149
f 148//148 147//147 149//149
f 149//149 147//147 150//150
f 147//147 163//163 150//150
f 150//150 163//163 151//151
f 163//163 46//46 151//151
f 151//151 46//46 164//164
f 36//36 132//132 152//152
f 132//132 131//131 152//152
f 131//131 130//130 152//152
f 130//130 126//126 152//152
f 153//153 128//128 154//154
f 128//128 127//127 154//154
f 127//127 129//129 154//154
f 129//129 155//155 154//154
f 157//157 156//156 33//33
f 156//156 135//135 33//33
f 135//135 136//136 33//33
f 136//136 134//134 33//33
f 106//106 34//34 158//158
f 34//34 133//133 158//158
f 133//133 159//159 158//158
f 159//159 137//137 158//158
f 160//160 143//143 42//42
f 143//143 161//161 42//42
f 161//161 141//141 42//42
f 141//141 139//139 42//42
f 144//144 43//43 162//162
f 43//43 138//138 162//162
f 138//138 140//140 162//162
f 140//140 142//142 162//162
f 47//47 46//46 145//145
f 46//46 163//163 145//145
f 163//163 147//147 145//145
f 147//147 148//148 145//145
f 54//54 146//146 164//164
f 146//146 149//149 164//164
f 149//149 150//150 164//164
f 150//150 151//151 164//164
# 324 faces, 0 coords texture

# End of File
