####
#
# OBJ File Generated by Meshlab
#
####
# Object XL-320_straightSocket_BB.obj
#
# Vertices: 8
# Faces: 12
#
####
v -0.012240 -0.015305 0.012342
v 0.012240 -0.015305 0.012342
v 0.012240 -0.015305 -0.012342
v -0.012240 -0.015305 -0.012342
v -0.012240 0.015305 0.012342
v 0.012240 0.015305 0.012342
v 0.012240 0.015305 -0.012342
v -0.012240 0.015305 -0.012342
# 8 vertices, 0 vertices normals

f 4 3 2
f 4 2 1
f 2 6 5
f 2 5 1
f 3 7 6
f 3 6 2
f 8 7 3
f 8 3 4
f 5 8 4
f 5 4 1
f 6 7 8
f 6 8 5
# 12 faces, 0 coords texture

# End of File
