####
#
#	OBJ File Generated by LightWave3D
#	LightWave3D OBJ Export v2.2
#
####
#	Object: 1
#
#	                Vertices: 906
#	                  Points: 0
#	                   Lines: 0
#	                   Faces: 238
#	               Materials: 1
#
####

o 1

#	             Vertex list

v 0 -0.015 0
v 0.000618927 -0.0147645 -0.00230987
v 0 -0.0147645 -0.00239135
v 0 -0.015 0
v 0.00119567 -0.0147645 -0.00207097
v 0.000618927 -0.0147645 -0.00230987
v 0 -0.015 0
v 0.00169094 -0.0147645 -0.00169094
v 0.00119567 -0.0147645 -0.00207097
v 0 -0.015 0
v 0.00207097 -0.0147645 -0.00119567
v 0.00169094 -0.0147645 -0.00169094
v 0 -0.015 0
v 0.00230987 -0.0147645 -0.000618927
v 0.00207097 -0.0147645 -0.00119567
v 0 -0.015 0
v 0.00239135 -0.0147645 -6.77409e-019
v 0.00230987 -0.0147645 -0.000618927
v 0.000618927 -0.0147645 -0.00230987
v 0.00121407 -0.0140669 -0.00453096
v 0 -0.0140669 -0.0046908
v 0 -0.0147645 -0.00239135
v 0.00119567 -0.0147645 -0.00207097
v 0.0023454 -0.0140669 -0.00406235
v 0.00121407 -0.0140669 -0.00453096
v 0.000618927 -0.0147645 -0.00230987
v 0.00169094 -0.0147645 -0.00169094
v 0.0033169 -0.0140669 -0.0033169
v 0.0023454 -0.0140669 -0.00406235
v 0.00119567 -0.0147645 -0.00207097
v 0.00207097 -0.0147645 -0.00119567
v 0.00406235 -0.0140669 -0.0023454
v 0.0033169 -0.0140669 -0.0033169
v 0.00169094 -0.0147645 -0.00169094
v 0.00230987 -0.0147645 -0.000618927
v 0.00453096 -0.0140669 -0.00121407
v 0.00406235 -0.0140669 -0.0023454
v 0.00207097 -0.0147645 -0.00119567
v 0.00239135 -0.0147645 -6.77409e-019
v 0.0046908 -0.0140669 -1.32879e-018
v 0.00453096 -0.0140669 -0.00121407
v 0.00230987 -0.0147645 -0.000618927
v 0.00121407 -0.0140669 -0.00453096
v 0.00176255 -0.0129342 -0.00657794
v 0 -0.0129342 -0.00680999
v 0 -0.0140669 -0.0046908
v 0.0023454 -0.0140669 -0.00406235
v 0.00340499 -0.0129342 -0.00589762
v 0.00176255 -0.0129342 -0.00657794
v 0.00121407 -0.0140669 -0.00453096
v 0.0033169 -0.0140669 -0.0033169
v 0.00481539 -0.0129342 -0.00481539
v 0.00340499 -0.0129342 -0.00589762
v 0.0023454 -0.0140669 -0.00406235
v 0.00406235 -0.0140669 -0.0023454
v 0.00589762 -0.0129342 -0.00340499
v 0.00481539 -0.0129342 -0.00481539
v 0.0033169 -0.0140669 -0.0033169
v 0.00453096 -0.0140669 -0.00121407
v 0.00657794 -0.0129342 -0.00176255
v 0.00589762 -0.0129342 -0.00340499
v 0.00406235 -0.0140669 -0.0023454
v 0.0046908 -0.0140669 -1.32879e-018
v 0.00680999 -0.0129342 -1.9291e-018
v 0.00657794 -0.0129342 -0.00176255
v 0.00453096 -0.0140669 -0.00121407
v 0.00176255 -0.0129342 -0.00657794
v 0.00224331 -0.0114098 -0.00837213
v 0 -0.0114098 -0.00866747
v 0 -0.0129342 -0.00680999
v 0.00340499 -0.0129342 -0.00589762
v 0.00433373 -0.0114098 -0.00750625
v 0.00224331 -0.0114098 -0.00837213
v 0.00176255 -0.0129342 -0.00657794
v 0.00481539 -0.0129342 -0.00481539
v 0.00612883 -0.0114098 -0.00612883
v 0.00433373 -0.0114098 -0.00750625
v 0.00340499 -0.0129342 -0.00589762
v 0.00589762 -0.0129342 -0.00340499
v 0.00750625 -0.0114098 -0.00433373
v 0.00612883 -0.0114098 -0.00612883
v 0.00481539 -0.0129342 -0.00481539
v 0.00657794 -0.0129342 -0.00176255
v 0.00837213 -0.0114098 -0.00224331
v 0.00750625 -0.0114098 -0.00433373
v 0.00589762 -0.0129342 -0.00340499
v 0.00680999 -0.0129342 -1.9291e-018
v 0.00866747 -0.0114098 -2.45528e-018
v 0.00837213 -0.0114098 -0.00224331
v 0.00657794 -0.0129342 -0.00176255
v 0.00224331 -0.0114098 -0.00837213
v 0.00263785 -0.00955234 -0.00984458
v 0 -0.00955234 -0.0101919
v 0 -0.0114098 -0.00866747
v 0.00433373 -0.0114098 -0.00750625
v 0.00509593 -0.00955234 -0.00882641
v 0.00263785 -0.00955234 -0.00984458
v 0.00224331 -0.0114098 -0.00837213
v 0.00612883 -0.0114098 -0.00612883
v 0.00720674 -0.00955234 -0.00720674
v 0.00509593 -0.00955234 -0.00882641
v 0.00433373 -0.0114098 -0.00750625
v 0.00750625 -0.0114098 -0.00433373
v 0.00882641 -0.00955234 -0.00509593
v 0.00720674 -0.00955234 -0.00720674
v 0.00612883 -0.0114098 -0.00612883
v 0.00837213 -0.0114098 -0.00224331
v 0.00984458 -0.00955234 -0.00263785
v 0.00882641 -0.00955234 -0.00509593
v 0.00750625 -0.0114098 -0.00433373
v 0.00866747 -0.0114098 -2.45528e-018
v 0.0101919 -0.00955234 -2.8871e-018
v 0.00984458 -0.00955234 -0.00263785
v 0.00837213 -0.0114098 -0.00224331
v 0.00263785 -0.00955234 -0.00984458
v 0.00293102 -0.00743315 -0.0109387
v 0 -0.00743315 -0.0113246
v 0 -0.00955234 -0.0101919
v 0.00509593 -0.00955234 -0.00882641
v 0.0056623 -0.00743315 -0.00980738
v 0.00293102 -0.00743315 -0.0109387
v 0.00263785 -0.00955234 -0.00984458
v 0.00720674 -0.00955234 -0.00720674
v 0.0080077 -0.00743315 -0.0080077
v 0.0056623 -0.00743315 -0.00980738
v 0.00509593 -0.00955234 -0.00882641
v 0.00882641 -0.00955234 -0.00509593
v 0.00980738 -0.00743315 -0.0056623
v 0.0080077 -0.00743315 -0.0080077
v 0.00720674 -0.00955234 -0.00720674
v 0.00984458 -0.00955234 -0.00263785
v 0.0109387 -0.00743315 -0.00293102
v 0.00980738 -0.00743315 -0.0056623
v 0.00882641 -0.00955234 -0.00509593
v 0.0101919 -0.00955234 -2.8871e-018
v 0.0113246 -0.00743315 -3.20797e-018
v 0.0109387 -0.00743315 -0.00293102
v 0.00984458 -0.00955234 -0.00263785
v 0.00293102 -0.00743315 -0.0109387
v 0.00311155 -0.0051337 -0.0116125
v 0 -0.0051337 -0.0120221
v 0 -0.00743315 -0.0113246
v 0.0056623 -0.00743315 -0.00980738
v 0.00601106 -0.0051337 -0.0104115
v 0.00311155 -0.0051337 -0.0116125
v 0.00293102 -0.00743315 -0.0109387
v 0.0080077 -0.00743315 -0.0080077
v 0.00850093 -0.0051337 -0.00850093
v 0.00601106 -0.0051337 -0.0104115
v 0.0056623 -0.00743315 -0.00980738
v 0.00980738 -0.00743315 -0.0056623
v 0.0104115 -0.0051337 -0.00601106
v 0.00850093 -0.0051337 -0.00850093
v 0.0080077 -0.00743315 -0.0080077
v 0.0109387 -0.00743315 -0.00293102
v 0.0116125 -0.0051337 -0.00311155
v 0.0104115 -0.0051337 -0.00601106
v 0.00980738 -0.00743315 -0.0056623
v 0.0113246 -0.00743315 -3.20797e-018
v 0.0120221 -0.0051337 -3.40557e-018
v 0.0116125 -0.0051337 -0.00311155
v 0.0109387 -0.00743315 -0.00293102
v 0.00311155 -0.0051337 -0.0116125
v 0.00317251 -0.00274235 -0.01184
v 0 -0.00274235 -0.0122577
v 0 -0.0051337 -0.0120221
v 0.00601106 -0.0051337 -0.0104115
v 0.00612883 -0.00274235 -0.0106154
v 0.00317251 -0.00274235 -0.01184
v 0.00311155 -0.0051337 -0.0116125
v 0.00850093 -0.0051337 -0.00850093
v 0.00880475 -0.00274235 -0.00880475
v 0.00612883 -0.00274235 -0.0106154
v 0.00601106 -0.0051337 -0.0104115
v 0.0104115 -0.0051337 -0.00601106
v 0.0106154 -0.00274235 -0.00612883
v 0.00880475 -0.00274235 -0.00880475
v 0.00850093 -0.0051337 -0.00850093
v 0.0116125 -0.0051337 -0.00311155
v 0.01184 -0.00274235 -0.00317251
v 0.0106154 -0.00274235 -0.00612883
v 0.0104115 -0.0051337 -0.00601106
v 0.0120221 -0.0051337 -3.40557e-018
v 0.0122577 -0.00274235 -3.47229e-018
v 0.01184 -0.00274235 -0.00317251
v 0.0116125 -0.0051337 -0.00311155
v 0.00317251 -0.00274235 -0.01184
v 0.00347251 0.015 -0.0125
v 0 0.015 -0.0125
v 0 -0.00274235 -0.0122577
v 0.00612883 -0.00274235 -0.0106154
v 0.00702883 0.015 -0.0125
v 0.00347251 0.015 -0.0125
v 0.00317251 -0.00274235 -0.01184
v 0.00880475 -0.00274235 -0.00880475
v 0.0123997 0.015 -0.0125
v 0.00702883 0.015 -0.0125
v 0.00612883 -0.00274235 -0.0106154
v 0.0106154 -0.00274235 -0.00612883
v 0.0124002 0.015 -0.00812883
v 0.0123997 0.015 -0.0125
v 0.00880475 -0.00274235 -0.00880475
v 0.01184 -0.00274235 -0.00317251
v 0.0123994 0.015 -0.00417251
v 0.0124002 0.015 -0.00812883
v 0.0106154 -0.00274235 -0.00612883
v 0.0122577 -0.00274235 -3.47229e-018
v 0.0123996 0.015 -3.47229e-018
v 0.0123994 0.015 -0.00417251
v 0.01184 -0.00274235 -0.00317251
v 0 -0.015 0
v 0 -0.0147645 -0.00239135
v -0.000618927 -0.0147645 -0.00230987
v 0 -0.015 0
v -0.000618927 -0.0147645 -0.00230987
v -0.00119567 -0.0147645 -0.00207097
v 0 -0.015 0
v -0.00119567 -0.0147645 -0.00207097
v -0.00169094 -0.0147645 -0.00169094
v 0 -0.015 0
v -0.00169094 -0.0147645 -0.00169094
v -0.00207097 -0.0147645 -0.00119567
v 0 -0.015 0
v -0.00207097 -0.0147645 -0.00119567
v -0.00230987 -0.0147645 -0.000618927
v 0 -0.015 0
v -0.00230987 -0.0147645 -0.000618927
v -0.00239135 -0.0147645 -6.77409e-019
v -0.000618927 -0.0147645 -0.00230987
v 0 -0.0147645 -0.00239135
v 0 -0.0140669 -0.0046908
v -0.00121407 -0.0140669 -0.00453096
v -0.00119567 -0.0147645 -0.00207097
v -0.000618927 -0.0147645 -0.00230987
v -0.00121407 -0.0140669 -0.00453096
v -0.0023454 -0.0140669 -0.00406235
v -0.00169094 -0.0147645 -0.00169094
v -0.00119567 -0.0147645 -0.00207097
v -0.0023454 -0.0140669 -0.00406235
v -0.0033169 -0.0140669 -0.0033169
v -0.00207097 -0.0147645 -0.00119567
v -0.00169094 -0.0147645 -0.00169094
v -0.0033169 -0.0140669 -0.0033169
v -0.00406235 -0.0140669 -0.0023454
v -0.00230987 -0.0147645 -0.000618927
v -0.00207097 -0.0147645 -0.00119567
v -0.00406235 -0.0140669 -0.0023454
v -0.00453096 -0.0140669 -0.00121407
v -0.00239135 -0.0147645 -6.77409e-019
v -0.00230987 -0.0147645 -0.000618927
v -0.00453096 -0.0140669 -0.00121407
v -0.0046908 -0.0140669 -1.32879e-018
v -0.00121407 -0.0140669 -0.00453096
v 0 -0.0140669 -0.0046908
v 0 -0.0129342 -0.00680999
v -0.00176255 -0.0129342 -0.00657794
v -0.0023454 -0.0140669 -0.00406235
v -0.00121407 -0.0140669 -0.00453096
v -0.00176255 -0.0129342 -0.00657794
v -0.00340499 -0.0129342 -0.00589762
v -0.0033169 -0.0140669 -0.0033169
v -0.0023454 -0.0140669 -0.00406235
v -0.00340499 -0.0129342 -0.00589762
v -0.00481539 -0.0129342 -0.00481539
v -0.00406235 -0.0140669 -0.0023454
v -0.0033169 -0.0140669 -0.0033169
v -0.00481539 -0.0129342 -0.00481539
v -0.00589762 -0.0129342 -0.00340499
v -0.00453096 -0.0140669 -0.00121407
v -0.00406235 -0.0140669 -0.0023454
v -0.00589762 -0.0129342 -0.00340499
v -0.00657794 -0.0129342 -0.00176255
v -0.0046908 -0.0140669 -1.32879e-018
v -0.00453096 -0.0140669 -0.00121407
v -0.00657794 -0.0129342 -0.00176255
v -0.00680999 -0.0129342 -1.9291e-018
v -0.00176255 -0.0129342 -0.00657794
v 0 -0.0129342 -0.00680999
v 0 -0.0114098 -0.00866747
v -0.00224331 -0.0114098 -0.00837213
v -0.00340499 -0.0129342 -0.00589762
v -0.00176255 -0.0129342 -0.00657794
v -0.00224331 -0.0114098 -0.00837213
v -0.00433373 -0.0114098 -0.00750625
v -0.00481539 -0.0129342 -0.00481539
v -0.00340499 -0.0129342 -0.00589762
v -0.00433373 -0.0114098 -0.00750625
v -0.00612883 -0.0114098 -0.00612883
v -0.00589762 -0.0129342 -0.00340499
v -0.00481539 -0.0129342 -0.00481539
v -0.00612883 -0.0114098 -0.00612883
v -0.00750625 -0.0114098 -0.00433373
v -0.00657794 -0.0129342 -0.00176255
v -0.00589762 -0.0129342 -0.00340499
v -0.00750625 -0.0114098 -0.00433373
v -0.00837213 -0.0114098 -0.00224331
v -0.00680999 -0.0129342 -1.9291e-018
v -0.00657794 -0.0129342 -0.00176255
v -0.00837213 -0.0114098 -0.00224331
v -0.00866747 -0.0114098 -2.45528e-018
v -0.00224331 -0.0114098 -0.00837213
v 0 -0.0114098 -0.00866747
v 0 -0.00955234 -0.0101919
v -0.00263785 -0.00955234 -0.00984458
v -0.00433373 -0.0114098 -0.00750625
v -0.00224331 -0.0114098 -0.00837213
v -0.00263785 -0.00955234 -0.00984458
v -0.00509593 -0.00955234 -0.00882641
v -0.00612883 -0.0114098 -0.00612883
v -0.00433373 -0.0114098 -0.00750625
v -0.00509593 -0.00955234 -0.00882641
v -0.00720674 -0.00955234 -0.00720674
v -0.00750625 -0.0114098 -0.00433373
v -0.00612883 -0.0114098 -0.00612883
v -0.00720674 -0.00955234 -0.00720674
v -0.00882641 -0.00955234 -0.00509593
v -0.00837213 -0.0114098 -0.00224331
v -0.00750625 -0.0114098 -0.00433373
v -0.00882641 -0.00955234 -0.00509593
v -0.00984458 -0.00955234 -0.00263785
v -0.00866747 -0.0114098 -2.45528e-018
v -0.00837213 -0.0114098 -0.00224331
v -0.00984458 -0.00955234 -0.00263785
v -0.0101919 -0.00955234 -2.8871e-018
v -0.00263785 -0.00955234 -0.00984458
v 0 -0.00955234 -0.0101919
v 0 -0.00743315 -0.0113246
v -0.00293102 -0.00743315 -0.0109387
v -0.00509593 -0.00955234 -0.00882641
v -0.00263785 -0.00955234 -0.00984458
v -0.00293102 -0.00743315 -0.0109387
v -0.0056623 -0.00743315 -0.00980738
v -0.00720674 -0.00955234 -0.00720674
v -0.00509593 -0.00955234 -0.00882641
v -0.0056623 -0.00743315 -0.00980738
v -0.0080077 -0.00743315 -0.0080077
v -0.00882641 -0.00955234 -0.00509593
v -0.00720674 -0.00955234 -0.00720674
v -0.0080077 -0.00743315 -0.0080077
v -0.00980738 -0.00743315 -0.0056623
v -0.00984458 -0.00955234 -0.00263785
v -0.00882641 -0.00955234 -0.00509593
v -0.00980738 -0.00743315 -0.0056623
v -0.0109387 -0.00743315 -0.00293102
v -0.0101919 -0.00955234 -2.8871e-018
v -0.00984458 -0.00955234 -0.00263785
v -0.0109387 -0.00743315 -0.00293102
v -0.0113246 -0.00743315 -3.20797e-018
v -0.00293102 -0.00743315 -0.0109387
v 0 -0.00743315 -0.0113246
v 0 -0.0051337 -0.0120221
v -0.00311155 -0.0051337 -0.0116125
v -0.0056623 -0.00743315 -0.00980738
v -0.00293102 -0.00743315 -0.0109387
v -0.00311155 -0.0051337 -0.0116125
v -0.00601106 -0.0051337 -0.0104115
v -0.0080077 -0.00743315 -0.0080077
v -0.0056623 -0.00743315 -0.00980738
v -0.00601106 -0.0051337 -0.0104115
v -0.00850093 -0.0051337 -0.00850093
v -0.00980738 -0.00743315 -0.0056623
v -0.0080077 -0.00743315 -0.0080077
v -0.00850093 -0.0051337 -0.00850093
v -0.0104115 -0.0051337 -0.00601106
v -0.0109387 -0.00743315 -0.00293102
v -0.00980738 -0.00743315 -0.0056623
v -0.0104115 -0.0051337 -0.00601106
v -0.0116125 -0.0051337 -0.00311155
v -0.0113246 -0.00743315 -3.20797e-018
v -0.0109387 -0.00743315 -0.00293102
v -0.0116125 -0.0051337 -0.00311155
v -0.0120221 -0.0051337 -3.40557e-018
v -0.00311155 -0.0051337 -0.0116125
v 0 -0.0051337 -0.0120221
v 0 -0.00274235 -0.0122577
v -0.00317251 -0.00274235 -0.01184
v -0.00601106 -0.0051337 -0.0104115
v -0.00311155 -0.0051337 -0.0116125
v -0.00317251 -0.00274235 -0.01184
v -0.00612883 -0.00274235 -0.0106154
v -0.00850093 -0.0051337 -0.00850093
v -0.00601106 -0.0051337 -0.0104115
v -0.00612883 -0.00274235 -0.0106154
v -0.00880475 -0.00274235 -0.00880475
v -0.0104115 -0.0051337 -0.00601106
v -0.00850093 -0.0051337 -0.00850093
v -0.00880475 -0.00274235 -0.00880475
v -0.0106154 -0.00274235 -0.00612883
v -0.0116125 -0.0051337 -0.00311155
v -0.0104115 -0.0051337 -0.00601106
v -0.0106154 -0.00274235 -0.00612883
v -0.01184 -0.00274235 -0.00317251
v -0.0120221 -0.0051337 -3.40557e-018
v -0.0116125 -0.0051337 -0.00311155
v -0.01184 -0.00274235 -0.00317251
v -0.0122577 -0.00274235 -3.47229e-018
v -0.00317251 -0.00274235 -0.01184
v 0 -0.00274235 -0.0122577
v 0 0.015 -0.0125
v -0.00347251 0.015 -0.0125
v -0.00612883 -0.00274235 -0.0106154
v -0.00317251 -0.00274235 -0.01184
v -0.00347251 0.015 -0.0125
v -0.00702883 0.015 -0.0125
v -0.00880475 -0.00274235 -0.00880475
v -0.00612883 -0.00274235 -0.0106154
v -0.00702883 0.015 -0.0125
v -0.0123997 0.015 -0.0125
v -0.0106154 -0.00274235 -0.00612883
v -0.00880475 -0.00274235 -0.00880475
v -0.0123997 0.015 -0.0125
v -0.0124002 0.015 -0.00812883
v -0.01184 -0.00274235 -0.00317251
v -0.0106154 -0.00274235 -0.00612883
v -0.0124002 0.015 -0.00812883
v -0.0123994 0.015 -0.00417251
v -0.0122577 -0.00274235 -3.47229e-018
v -0.01184 -0.00274235 -0.00317251
v -0.0123994 0.015 -0.00417251
v -0.0123996 0.015 -3.47229e-018
v 0 -0.015 0
v 0 -0.0147645 0.00239135
v 0.000618927 -0.0147645 0.00230987
v 0 -0.015 0
v 0.000618927 -0.0147645 0.00230987
v 0.00119567 -0.0147645 0.00207097
v 0 -0.015 0
v 0.00119567 -0.0147645 0.00207097
v 0.00169094 -0.0147645 0.00169094
v 0 -0.015 0
v 0.00169094 -0.0147645 0.00169094
v 0.00207097 -0.0147645 0.00119567
v 0 -0.015 0
v 0.00207097 -0.0147645 0.00119567
v 0.00230987 -0.0147645 0.000618927
v 0 -0.015 0
v 0.00230987 -0.0147645 0.000618927
v 0.00239135 -0.0147645 -6.77409e-019
v 0.000618927 -0.0147645 0.00230987
v 0 -0.0147645 0.00239135
v 0 -0.0140669 0.0046908
v 0.00121407 -0.0140669 0.00453096
v 0.00119567 -0.0147645 0.00207097
v 0.000618927 -0.0147645 0.00230987
v 0.00121407 -0.0140669 0.00453096
v 0.0023454 -0.0140669 0.00406235
v 0.00169094 -0.0147645 0.00169094
v 0.00119567 -0.0147645 0.00207097
v 0.0023454 -0.0140669 0.00406235
v 0.0033169 -0.0140669 0.0033169
v 0.00207097 -0.0147645 0.00119567
v 0.00169094 -0.0147645 0.00169094
v 0.0033169 -0.0140669 0.0033169
v 0.00406235 -0.0140669 0.0023454
v 0.00230987 -0.0147645 0.000618927
v 0.00207097 -0.0147645 0.00119567
v 0.00406235 -0.0140669 0.0023454
v 0.00453096 -0.0140669 0.00121407
v 0.00239135 -0.0147645 -6.77409e-019
v 0.00230987 -0.0147645 0.000618927
v 0.00453096 -0.0140669 0.00121407
v 0.0046908 -0.0140669 -1.32879e-018
v 0.00121407 -0.0140669 0.00453096
v 0 -0.0140669 0.0046908
v 0 -0.0129342 0.00680999
v 0.00176255 -0.0129342 0.00657794
v 0.0023454 -0.0140669 0.00406235
v 0.00121407 -0.0140669 0.00453096
v 0.00176255 -0.0129342 0.00657794
v 0.00340499 -0.0129342 0.00589762
v 0.0033169 -0.0140669 0.0033169
v 0.0023454 -0.0140669 0.00406235
v 0.00340499 -0.0129342 0.00589762
v 0.00481539 -0.0129342 0.00481539
v 0.00406235 -0.0140669 0.0023454
v 0.0033169 -0.0140669 0.0033169
v 0.00481539 -0.0129342 0.00481539
v 0.00589762 -0.0129342 0.00340499
v 0.00453096 -0.0140669 0.00121407
v 0.00406235 -0.0140669 0.0023454
v 0.00589762 -0.0129342 0.00340499
v 0.00657794 -0.0129342 0.00176255
v 0.0046908 -0.0140669 -1.32879e-018
v 0.00453096 -0.0140669 0.00121407
v 0.00657794 -0.0129342 0.00176255
v 0.00680999 -0.0129342 -1.9291e-018
v 0.00176255 -0.0129342 0.00657794
v 0 -0.0129342 0.00680999
v 0 -0.0114098 0.00866747
v 0.00224331 -0.0114098 0.00837213
v 0.00340499 -0.0129342 0.00589762
v 0.00176255 -0.0129342 0.00657794
v 0.00224331 -0.0114098 0.00837213
v 0.00433373 -0.0114098 0.00750625
v 0.00481539 -0.0129342 0.00481539
v 0.00340499 -0.0129342 0.00589762
v 0.00433373 -0.0114098 0.00750625
v 0.00612883 -0.0114098 0.00612883
v 0.00589762 -0.0129342 0.00340499
v 0.00481539 -0.0129342 0.00481539
v 0.00612883 -0.0114098 0.00612883
v 0.00750625 -0.0114098 0.00433373
v 0.00657794 -0.0129342 0.00176255
v 0.00589762 -0.0129342 0.00340499
v 0.00750625 -0.0114098 0.00433373
v 0.00837213 -0.0114098 0.00224331
v 0.00680999 -0.0129342 -1.9291e-018
v 0.00657794 -0.0129342 0.00176255
v 0.00837213 -0.0114098 0.00224331
v 0.00866747 -0.0114098 -2.45528e-018
v 0.00224331 -0.0114098 0.00837213
v 0 -0.0114098 0.00866747
v 0 -0.00955234 0.0101919
v 0.00263785 -0.00955234 0.00984458
v 0.00433373 -0.0114098 0.00750625
v 0.00224331 -0.0114098 0.00837213
v 0.00263785 -0.00955234 0.00984458
v 0.00509593 -0.00955234 0.00882641
v 0.00612883 -0.0114098 0.00612883
v 0.00433373 -0.0114098 0.00750625
v 0.00509593 -0.00955234 0.00882641
v 0.00720674 -0.00955234 0.00720674
v 0.00750625 -0.0114098 0.00433373
v 0.00612883 -0.0114098 0.00612883
v 0.00720674 -0.00955234 0.00720674
v 0.00882641 -0.00955234 0.00509593
v 0.00837213 -0.0114098 0.00224331
v 0.00750625 -0.0114098 0.00433373
v 0.00882641 -0.00955234 0.00509593
v 0.00984458 -0.00955234 0.00263785
v 0.00866747 -0.0114098 -2.45528e-018
v 0.00837213 -0.0114098 0.00224331
v 0.00984458 -0.00955234 0.00263785
v 0.0101919 -0.00955234 -2.8871e-018
v 0.00263785 -0.00955234 0.00984458
v 0 -0.00955234 0.0101919
v 0 -0.00743315 0.0113246
v 0.00293102 -0.00743315 0.0109387
v 0.00509593 -0.00955234 0.00882641
v 0.00263785 -0.00955234 0.00984458
v 0.00293102 -0.00743315 0.0109387
v 0.0056623 -0.00743315 0.00980738
v 0.00720674 -0.00955234 0.00720674
v 0.00509593 -0.00955234 0.00882641
v 0.0056623 -0.00743315 0.00980738
v 0.0080077 -0.00743315 0.0080077
v 0.00882641 -0.00955234 0.00509593
v 0.00720674 -0.00955234 0.00720674
v 0.0080077 -0.00743315 0.0080077
v 0.00980738 -0.00743315 0.0056623
v 0.00984458 -0.00955234 0.00263785
v 0.00882641 -0.00955234 0.00509593
v 0.00980738 -0.00743315 0.0056623
v 0.0109387 -0.00743315 0.00293102
v 0.0101919 -0.00955234 -2.8871e-018
v 0.00984458 -0.00955234 0.00263785
v 0.0109387 -0.00743315 0.00293102
v 0.0113246 -0.00743315 -3.20797e-018
v 0.00293102 -0.00743315 0.0109387
v 0 -0.00743315 0.0113246
v 0 -0.0051337 0.0120221
v 0.00311155 -0.0051337 0.0116125
v 0.0056623 -0.00743315 0.00980738
v 0.00293102 -0.00743315 0.0109387
v 0.00311155 -0.0051337 0.0116125
v 0.00601106 -0.0051337 0.0104115
v 0.0080077 -0.00743315 0.0080077
v 0.0056623 -0.00743315 0.00980738
v 0.00601106 -0.0051337 0.0104115
v 0.00850093 -0.0051337 0.00850093
v 0.00980738 -0.00743315 0.0056623
v 0.0080077 -0.00743315 0.0080077
v 0.00850093 -0.0051337 0.00850093
v 0.0104115 -0.0051337 0.00601106
v 0.0109387 -0.00743315 0.00293102
v 0.00980738 -0.00743315 0.0056623
v 0.0104115 -0.0051337 0.00601106
v 0.0116125 -0.0051337 0.00311155
v 0.0113246 -0.00743315 -3.20797e-018
v 0.0109387 -0.00743315 0.00293102
v 0.0116125 -0.0051337 0.00311155
v 0.0120221 -0.0051337 -3.40557e-018
v 0.00311155 -0.0051337 0.0116125
v 0 -0.0051337 0.0120221
v 0 -0.00274235 0.0122577
v 0.00317251 -0.00274235 0.01184
v 0.00601106 -0.0051337 0.0104115
v 0.00311155 -0.0051337 0.0116125
v 0.00317251 -0.00274235 0.01184
v 0.00612883 -0.00274235 0.0106154
v 0.00850093 -0.0051337 0.00850093
v 0.00601106 -0.0051337 0.0104115
v 0.00612883 -0.00274235 0.0106154
v 0.00880475 -0.00274235 0.00880475
v 0.0104115 -0.0051337 0.00601106
v 0.00850093 -0.0051337 0.00850093
v 0.00880475 -0.00274235 0.00880475
v 0.0106154 -0.00274235 0.00612883
v 0.0116125 -0.0051337 0.00311155
v 0.0104115 -0.0051337 0.00601106
v 0.0106154 -0.00274235 0.00612883
v 0.01184 -0.00274235 0.00317251
v 0.0120221 -0.0051337 -3.40557e-018
v 0.0116125 -0.0051337 0.00311155
v 0.01184 -0.00274235 0.00317251
v 0.0122577 -0.00274235 -3.47229e-018
v 0.00317251 -0.00274235 0.01184
v 0 -0.00274235 0.0122577
v 0 0.015 0.0125
v 0.00347251 0.015 0.0125
v 0.00612883 -0.00274235 0.0106154
v 0.00317251 -0.00274235 0.01184
v 0.00347251 0.015 0.0125
v 0.00702883 0.015 0.0125
v 0.00880475 -0.00274235 0.00880475
v 0.00612883 -0.00274235 0.0106154
v 0.00702883 0.015 0.0125
v 0.0123997 0.015 0.0125
v 0.0106154 -0.00274235 0.00612883
v 0.00880475 -0.00274235 0.00880475
v 0.0123997 0.015 0.0125
v 0.0124002 0.015 0.00812883
v 0.01184 -0.00274235 0.00317251
v 0.0106154 -0.00274235 0.00612883
v 0.0124002 0.015 0.00812883
v 0.0123994 0.015 0.00417251
v 0.0122577 -0.00274235 -3.47229e-018
v 0.01184 -0.00274235 0.00317251
v 0.0123994 0.015 0.00417251
v 0.0123996 0.015 -3.47229e-018
v 0 -0.015 0
v -0.000618927 -0.0147645 0.00230987
v 0 -0.0147645 0.00239135
v 0 -0.015 0
v -0.00119567 -0.0147645 0.00207097
v -0.000618927 -0.0147645 0.00230987
v 0 -0.015 0
v -0.00169094 -0.0147645 0.00169094
v -0.00119567 -0.0147645 0.00207097
v 0 -0.015 0
v -0.00207097 -0.0147645 0.00119567
v -0.00169094 -0.0147645 0.00169094
v 0 -0.015 0
v -0.00230987 -0.0147645 0.000618927
v -0.00207097 -0.0147645 0.00119567
v 0 -0.015 0
v -0.00239135 -0.0147645 -6.77409e-019
v -0.00230987 -0.0147645 0.000618927
v -0.000618927 -0.0147645 0.00230987
v -0.00121407 -0.0140669 0.00453096
v 0 -0.0140669 0.0046908
v 0 -0.0147645 0.00239135
v -0.00119567 -0.0147645 0.00207097
v -0.0023454 -0.0140669 0.00406235
v -0.00121407 -0.0140669 0.00453096
v -0.000618927 -0.0147645 0.00230987
v -0.00169094 -0.0147645 0.00169094
v -0.0033169 -0.0140669 0.0033169
v -0.0023454 -0.0140669 0.00406235
v -0.00119567 -0.0147645 0.00207097
v -0.00207097 -0.0147645 0.00119567
v -0.00406235 -0.0140669 0.0023454
v -0.0033169 -0.0140669 0.0033169
v -0.00169094 -0.0147645 0.00169094
v -0.00230987 -0.0147645 0.000618927
v -0.00453096 -0.0140669 0.00121407
v -0.00406235 -0.0140669 0.0023454
v -0.00207097 -0.0147645 0.00119567
v -0.00239135 -0.0147645 -6.77409e-019
v -0.0046908 -0.0140669 -1.32879e-018
v -0.00453096 -0.0140669 0.00121407
v -0.00230987 -0.0147645 0.000618927
v -0.00121407 -0.0140669 0.00453096
v -0.00176255 -0.0129342 0.00657794
v 0 -0.0129342 0.00680999
v 0 -0.0140669 0.0046908
v -0.0023454 -0.0140669 0.00406235
v -0.00340499 -0.0129342 0.00589762
v -0.00176255 -0.0129342 0.00657794
v -0.00121407 -0.0140669 0.00453096
v -0.0033169 -0.0140669 0.0033169
v -0.00481539 -0.0129342 0.00481539
v -0.00340499 -0.0129342 0.00589762
v -0.0023454 -0.0140669 0.00406235
v -0.00406235 -0.0140669 0.0023454
v -0.00589762 -0.0129342 0.00340499
v -0.00481539 -0.0129342 0.00481539
v -0.0033169 -0.0140669 0.0033169
v -0.00453096 -0.0140669 0.00121407
v -0.00657794 -0.0129342 0.00176255
v -0.00589762 -0.0129342 0.00340499
v -0.00406235 -0.0140669 0.0023454
v -0.0046908 -0.0140669 -1.32879e-018
v -0.00680999 -0.0129342 -1.9291e-018
v -0.00657794 -0.0129342 0.00176255
v -0.00453096 -0.0140669 0.00121407
v -0.00176255 -0.0129342 0.00657794
v -0.00224331 -0.0114098 0.00837213
v 0 -0.0114098 0.00866747
v 0 -0.0129342 0.00680999
v -0.00340499 -0.0129342 0.00589762
v -0.00433373 -0.0114098 0.00750625
v -0.00224331 -0.0114098 0.00837213
v -0.00176255 -0.0129342 0.00657794
v -0.00481539 -0.0129342 0.00481539
v -0.00612883 -0.0114098 0.00612883
v -0.00433373 -0.0114098 0.00750625
v -0.00340499 -0.0129342 0.00589762
v -0.00589762 -0.0129342 0.00340499
v -0.00750625 -0.0114098 0.00433373
v -0.00612883 -0.0114098 0.00612883
v -0.00481539 -0.0129342 0.00481539
v -0.00657794 -0.0129342 0.00176255
v -0.00837213 -0.0114098 0.00224331
v -0.00750625 -0.0114098 0.00433373
v -0.00589762 -0.0129342 0.00340499
v -0.00680999 -0.0129342 -1.9291e-018
v -0.00866747 -0.0114098 -2.45528e-018
v -0.00837213 -0.0114098 0.00224331
v -0.00657794 -0.0129342 0.00176255
v -0.00224331 -0.0114098 0.00837213
v -0.00263785 -0.00955234 0.00984458
v 0 -0.00955234 0.0101919
v 0 -0.0114098 0.00866747
v -0.00433373 -0.0114098 0.00750625
v -0.00509593 -0.00955234 0.00882641
v -0.00263785 -0.00955234 0.00984458
v -0.00224331 -0.0114098 0.00837213
v -0.00612883 -0.0114098 0.00612883
v -0.00720674 -0.00955234 0.00720674
v -0.00509593 -0.00955234 0.00882641
v -0.00433373 -0.0114098 0.00750625
v -0.00750625 -0.0114098 0.00433373
v -0.00882641 -0.00955234 0.00509593
v -0.00720674 -0.00955234 0.00720674
v -0.00612883 -0.0114098 0.00612883
v -0.00837213 -0.0114098 0.00224331
v -0.00984458 -0.00955234 0.00263785
v -0.00882641 -0.00955234 0.00509593
v -0.00750625 -0.0114098 0.00433373
v -0.00866747 -0.0114098 -2.45528e-018
v -0.0101919 -0.00955234 -2.8871e-018
v -0.00984458 -0.00955234 0.00263785
v -0.00837213 -0.0114098 0.00224331
v -0.00263785 -0.00955234 0.00984458
v -0.00293102 -0.00743315 0.0109387
v 0 -0.00743315 0.0113246
v 0 -0.00955234 0.0101919
v -0.00509593 -0.00955234 0.00882641
v -0.0056623 -0.00743315 0.00980738
v -0.00293102 -0.00743315 0.0109387
v -0.00263785 -0.00955234 0.00984458
v -0.00720674 -0.00955234 0.00720674
v -0.0080077 -0.00743315 0.0080077
v -0.0056623 -0.00743315 0.00980738
v -0.00509593 -0.00955234 0.00882641
v -0.00882641 -0.00955234 0.00509593
v -0.00980738 -0.00743315 0.0056623
v -0.0080077 -0.00743315 0.0080077
v -0.00720674 -0.00955234 0.00720674
v -0.00984458 -0.00955234 0.00263785
v -0.0109387 -0.00743315 0.00293102
v -0.00980738 -0.00743315 0.0056623
v -0.00882641 -0.00955234 0.00509593
v -0.0101919 -0.00955234 -2.8871e-018
v -0.0113246 -0.00743315 -3.20797e-018
v -0.0109387 -0.00743315 0.00293102
v -0.00984458 -0.00955234 0.00263785
v -0.00293102 -0.00743315 0.0109387
v -0.00311155 -0.0051337 0.0116125
v 0 -0.0051337 0.0120221
v 0 -0.00743315 0.0113246
v -0.0056623 -0.00743315 0.00980738
v -0.00601106 -0.0051337 0.0104115
v -0.00311155 -0.0051337 0.0116125
v -0.00293102 -0.00743315 0.0109387
v -0.0080077 -0.00743315 0.0080077
v -0.00850093 -0.0051337 0.00850093
v -0.00601106 -0.0051337 0.0104115
v -0.0056623 -0.00743315 0.00980738
v -0.00980738 -0.00743315 0.0056623
v -0.0104115 -0.0051337 0.00601106
v -0.00850093 -0.0051337 0.00850093
v -0.0080077 -0.00743315 0.0080077
v -0.0109387 -0.00743315 0.00293102
v -0.0116125 -0.0051337 0.00311155
v -0.0104115 -0.0051337 0.00601106
v -0.00980738 -0.00743315 0.0056623
v -0.0113246 -0.00743315 -3.20797e-018
v -0.0120221 -0.0051337 -3.40557e-018
v -0.0116125 -0.0051337 0.00311155
v -0.0109387 -0.00743315 0.00293102
v -0.00311155 -0.0051337 0.0116125
v -0.00317251 -0.00274235 0.01184
v 0 -0.00274235 0.0122577
v 0 -0.0051337 0.0120221
v -0.00601106 -0.0051337 0.0104115
v -0.00612883 -0.00274235 0.0106154
v -0.00317251 -0.00274235 0.01184
v -0.00311155 -0.0051337 0.0116125
v -0.00850093 -0.0051337 0.00850093
v -0.00880475 -0.00274235 0.00880475
v -0.00612883 -0.00274235 0.0106154
v -0.00601106 -0.0051337 0.0104115
v -0.0104115 -0.0051337 0.00601106
v -0.0106154 -0.00274235 0.00612883
v -0.00880475 -0.00274235 0.00880475
v -0.00850093 -0.0051337 0.00850093
v -0.0116125 -0.0051337 0.00311155
v -0.01184 -0.00274235 0.00317251
v -0.0106154 -0.00274235 0.00612883
v -0.0104115 -0.0051337 0.00601106
v -0.0120221 -0.0051337 -3.40557e-018
v -0.0122577 -0.00274235 -3.47229e-018
v -0.01184 -0.00274235 0.00317251
v -0.0116125 -0.0051337 0.00311155
v -0.00317251 -0.00274235 0.01184
v -0.00347251 0.015 0.0125
v 0 0.015 0.0125
v 0 -0.00274235 0.0122577
v -0.00612883 -0.00274235 0.0106154
v -0.00702883 0.015 0.0125
v -0.00347251 0.015 0.0125
v -0.00317251 -0.00274235 0.01184
v -0.00880475 -0.00274235 0.00880475
v -0.0123997 0.015 0.0125
v -0.00702883 0.015 0.0125
v -0.00612883 -0.00274235 0.0106154
v -0.0106154 -0.00274235 0.00612883
v -0.0124002 0.015 0.00812883
v -0.0123997 0.015 0.0125
v -0.00880475 -0.00274235 0.00880475
v -0.01184 -0.00274235 0.00317251
v -0.0123994 0.015 0.00417251
v -0.0124002 0.015 0.00812883
v -0.0106154 -0.00274235 0.00612883
v -0.0122577 -0.00274235 -3.47229e-018
v -0.0123996 0.015 -3.47229e-018
v -0.0123994 0.015 0.00417251
v -0.01184 -0.00274235 0.00317251
v 0.0124002 0.015 -0.00812883
v 0.00702883 0.015 -0.0125
v 0.0123997 0.015 -0.0125
v 0.00702883 0.015 0.0125
v 0.0124002 0.015 0.00812883
v 0.0123997 0.015 0.0125
v -0.00702883 0.015 0.0125
v -0.0123997 0.015 0.0125
v -0.0124002 0.015 0.00812883
v -0.0124002 0.015 -0.00812883
v -0.0123997 0.015 -0.0125
v -0.00702883 0.015 -0.0125
v 0.0123994 0.015 -0.00417251
v 0.00702883 0.015 -0.0125
v 0.0124002 0.015 -0.00812883
v 0.00702883 0.015 0.0125
v 0.0123994 0.015 0.00417251
v 0.0124002 0.015 0.00812883
v -0.00702883 0.015 0.0125
v -0.0124002 0.015 0.00812883
v -0.0123994 0.015 0.00417251
v -0.0123994 0.015 -0.00417251
v -0.0124002 0.015 -0.00812883
v -0.00702883 0.015 -0.0125
v -0.0123994 0.015 -0.00417251
v -0.00702883 0.015 -0.0125
v -0.00347251 0.015 -0.0125
v 0.0123994 0.015 -0.00417251
v 0.00347251 0.015 -0.0125
v 0.00702883 0.015 -0.0125
v 0.00347251 0.015 0.0125
v 0.0123994 0.015 0.00417251
v 0.00702883 0.015 0.0125
v -0.00347251 0.015 0.0125
v -0.00702883 0.015 0.0125
v -0.0123994 0.015 0.00417251
v 0.00347251 0.015 0.0125
v 0.0123996 0.015 -3.47229e-018
v 0.0123994 0.015 0.00417251
v -0.00347251 0.015 0.0125
v -0.0123994 0.015 0.00417251
v -0.0123996 0.015 -3.47229e-018
v 0.0123996 0.015 -3.47229e-018
v 0.00347251 0.015 -0.0125
v 0.0123994 0.015 -0.00417251
v 0.00347251 0.015 0.0125
v 0.00347251 0.015 -0.0125
v 0.0123996 0.015 -3.47229e-018
v -0.0123996 0.015 -3.47229e-018
v -0.0123994 0.015 -0.00417251
v -0.00347251 0.015 -0.0125
v -0.00347251 0.015 0.0125
v -0.0123996 0.015 -3.47229e-018
v -0.00347251 0.015 -0.0125
v -0.00347251 0.015 0.0125
v -0.00347251 0.015 -0.0125
v 0 0.015 -0.0125
v 0.00347251 0.015 0.0125
v 0 0.015 -0.0125
v 0.00347251 0.015 -0.0125
v 0 0.015 0.0125
v 0 0.015 -0.0125
v 0.00347251 0.015 0.0125
v 0 0.015 0.0125
v -0.00347251 0.015 0.0125
v 0 0.015 -0.0125

#	               Face list

usemtl Default
f 3 2 1
f 6 5 4
f 9 8 7
f 12 11 10
f 15 14 13
f 18 17 16
f 22 21 20 19
f 26 25 24 23
f 30 29 28 27
f 34 33 32 31
f 38 37 36 35
f 42 41 40 39
f 46 45 44 43
f 50 49 48 47
f 54 53 52 51
f 58 57 56 55
f 62 61 60 59
f 66 65 64 63
f 70 69 68 67
f 74 73 72 71
f 78 77 76 75
f 82 81 80 79
f 86 85 84 83
f 90 89 88 87
f 94 93 92 91
f 98 97 96 95
f 102 101 100 99
f 106 105 104 103
f 110 109 108 107
f 114 113 112 111
f 118 117 116 115
f 122 121 120 119
f 126 125 124 123
f 130 129 128 127
f 134 133 132 131
f 138 137 136 135
f 142 141 140 139
f 146 145 144 143
f 150 149 148 147
f 154 153 152 151
f 158 157 156 155
f 162 161 160 159
f 166 165 164 163
f 170 169 168 167
f 174 173 172 171
f 178 177 176 175
f 182 181 180 179
f 186 185 184 183
f 190 189 188 187
f 194 193 192 191
f 198 197 196 195
f 202 201 200 199
f 206 205 204 203
f 210 209 208 207
f 213 212 211
f 216 215 214
f 219 218 217
f 222 221 220
f 225 224 223
f 228 227 226
f 232 231 230 229
f 236 235 234 233
f 240 239 238 237
f 244 243 242 241
f 248 247 246 245
f 252 251 250 249
f 256 255 254 253
f 260 259 258 257
f 264 263 262 261
f 268 267 266 265
f 272 271 270 269
f 276 275 274 273
f 280 279 278 277
f 284 283 282 281
f 288 287 286 285
f 292 291 290 289
f 296 295 294 293
f 300 299 298 297
f 304 303 302 301
f 308 307 306 305
f 312 311 310 309
f 316 315 314 313
f 320 319 318 317
f 324 323 322 321
f 328 327 326 325
f 332 331 330 329
f 336 335 334 333
f 340 339 338 337
f 344 343 342 341
f 348 347 346 345
f 352 351 350 349
f 356 355 354 353
f 360 359 358 357
f 364 363 362 361
f 368 367 366 365
f 372 371 370 369
f 376 375 374 373
f 380 379 378 377
f 384 383 382 381
f 388 387 386 385
f 392 391 390 389
f 396 395 394 393
f 400 399 398 397
f 404 403 402 401
f 408 407 406 405
f 412 411 410 409
f 416 415 414 413
f 420 419 418 417
f 423 422 421
f 426 425 424
f 429 428 427
f 432 431 430
f 435 434 433
f 438 437 436
f 442 441 440 439
f 446 445 444 443
f 450 449 448 447
f 454 453 452 451
f 458 457 456 455
f 462 461 460 459
f 466 465 464 463
f 470 469 468 467
f 474 473 472 471
f 478 477 476 475
f 482 481 480 479
f 486 485 484 483
f 490 489 488 487
f 494 493 492 491
f 498 497 496 495
f 502 501 500 499
f 506 505 504 503
f 510 509 508 507
f 514 513 512 511
f 518 517 516 515
f 522 521 520 519
f 526 525 524 523
f 530 529 528 527
f 534 533 532 531
f 538 537 536 535
f 542 541 540 539
f 546 545 544 543
f 550 549 548 547
f 554 553 552 551
f 558 557 556 555
f 562 561 560 559
f 566 565 564 563
f 570 569 568 567
f 574 573 572 571
f 578 577 576 575
f 582 581 580 579
f 586 585 584 583
f 590 589 588 587
f 594 593 592 591
f 598 597 596 595
f 602 601 600 599
f 606 605 604 603
f 610 609 608 607
f 614 613 612 611
f 618 617 616 615
f 622 621 620 619
f 626 625 624 623
f 630 629 628 627
f 633 632 631
f 636 635 634
f 639 638 637
f 642 641 640
f 645 644 643
f 648 647 646
f 652 651 650 649
f 656 655 654 653
f 660 659 658 657
f 664 663 662 661
f 668 667 666 665
f 672 671 670 669
f 676 675 674 673
f 680 679 678 677
f 684 683 682 681
f 688 687 686 685
f 692 691 690 689
f 696 695 694 693
f 700 699 698 697
f 704 703 702 701
f 708 707 706 705
f 712 711 710 709
f 716 715 714 713
f 720 719 718 717
f 724 723 722 721
f 728 727 726 725
f 732 731 730 729
f 736 735 734 733
f 740 739 738 737
f 744 743 742 741
f 748 747 746 745
f 752 751 750 749
f 756 755 754 753
f 760 759 758 757
f 764 763 762 761
f 768 767 766 765
f 772 771 770 769
f 776 775 774 773
f 780 779 778 777
f 784 783 782 781
f 788 787 786 785
f 792 791 790 789
f 796 795 794 793
f 800 799 798 797
f 804 803 802 801
f 808 807 806 805
f 812 811 810 809
f 816 815 814 813
f 820 819 818 817
f 824 823 822 821
f 828 827 826 825
f 832 831 830 829
f 836 835 834 833
f 840 839 838 837
f 843 842 841
f 846 845 844
f 849 848 847
f 852 851 850
f 855 854 853
f 858 857 856
f 861 860 859
f 864 863 862
f 867 866 865
f 870 869 868
f 873 872 871
f 876 875 874
f 879 878 877
f 882 881 880
f 885 884 883
f 888 887 886
f 891 890 889
f 894 893 892
f 897 896 895
f 900 899 898
f 903 902 901
f 906 905 904

#	             End of file
