####
#
# OBJ File Generated by Meshlab
#
####
# Object XM-430-3DP-bottomBracket2_clean.obj
#
# Vertices: 916
# Faces: 1852
#
####
v -0.012000 0.015750 0.020000
v -0.015836 0.015750 0.020000
v 0.017750 0.011000 -0.007350
v 0.014450 0.011000 -0.007350
v 0.017750 0.011234 -0.007329
v 0.017750 0.011462 -0.007269
v 0.014450 0.011675 -0.007169
v 0.014450 0.011868 -0.007034
v 0.017750 0.012169 -0.006675
v 0.014450 0.012269 -0.006462
v 0.017750 0.012269 -0.006462
v 0.017750 0.012330 -0.006234
v 0.014450 0.012330 -0.006234
v 0.014450 0.012350 -0.006000
v 0.014450 0.012269 -0.005538
v 0.017750 0.012269 -0.005538
v 0.014450 0.012169 -0.005325
v 0.014450 0.012034 -0.005132
v 0.014450 0.011868 -0.004966
v 0.017750 0.011675 -0.004831
v 0.017750 0.011868 -0.004966
v 0.014450 0.011675 -0.004831
v 0.014450 0.011462 -0.004731
v 0.017750 0.011462 -0.004731
v 0.017750 0.011000 -0.004650
v 0.014450 0.011234 -0.004671
v 0.017750 0.010766 -0.004671
v 0.014450 0.010766 -0.004671
v 0.017750 0.010325 -0.004831
v 0.017750 0.010538 -0.004731
v 0.017750 0.010132 -0.004966
v 0.014450 0.010325 -0.004831
v 0.014450 0.010132 -0.004966
v 0.017750 0.009966 -0.005132
v 0.014450 0.009966 -0.005132
v 0.014450 0.009831 -0.005325
v 0.014450 0.009731 -0.005538
v 0.014450 0.009650 -0.006000
v 0.017750 0.009650 -0.006000
v 0.014450 0.009671 -0.006234
v 0.017750 0.009671 -0.006234
v 0.014450 0.009731 -0.006462
v 0.017750 0.009831 -0.006675
v 0.014450 0.009966 -0.006868
v 0.014450 0.010132 -0.007034
v 0.017750 0.010132 -0.007034
v 0.017750 0.010325 -0.007169
v 0.017750 0.010766 -0.007329
v 0.014450 0.010538 -0.007269
v 0.017750 0.011000 0.004650
v 0.017750 0.011234 0.004671
v 0.014450 0.011462 0.004731
v 0.014450 0.011675 0.004831
v 0.017750 0.011868 0.004966
v 0.017750 0.012034 0.005132
v 0.014450 0.012034 0.005132
v 0.014450 0.012169 0.005325
v 0.014450 0.012269 0.005538
v 0.017750 0.012330 0.005766
v 0.017750 0.012350 0.006000
v 0.014450 0.012350 0.006000
v 0.017750 0.012269 0.006462
v 0.017750 0.012169 0.006675
v 0.014450 0.012169 0.006675
v 0.014450 0.012034 0.006868
v 0.014450 0.011868 0.007034
v 0.017750 0.011462 0.007269
v 0.017750 0.011675 0.007169
v 0.014450 0.011675 0.007169
v 0.014450 0.011462 0.007269
v 0.014450 0.011000 0.007350
v 0.017750 0.010325 0.007169
v 0.017750 0.010538 0.007269
v 0.014450 0.010538 0.007269
v 0.014450 0.010325 0.007169
v 0.017750 0.010132 0.007034
v 0.014450 0.010132 0.007034
v 0.017750 0.009966 0.006868
v 0.014450 0.009966 0.006868
v 0.017750 0.009831 0.006675
v 0.017750 0.009671 0.006234
v 0.014450 0.009671 0.006234
v 0.014450 0.009731 0.006462
v 0.017750 0.009650 0.006000
v 0.014450 0.009650 0.006000
v 0.014450 0.009731 0.005538
v 0.014450 0.009831 0.005325
v 0.017750 0.009831 0.005325
v 0.014450 0.009966 0.005132
v 0.017750 0.009966 0.005132
v 0.014450 0.010132 0.004966
v 0.017750 0.010766 0.004671
v -0.017750 0.011462 0.004731
v -0.014450 0.011868 0.004966
v -0.017750 0.012034 0.005132
v -0.017750 0.012169 0.005325
v -0.017750 0.012269 0.005538
v -0.017750 0.012330 0.005766
v -0.014450 0.012330 0.006234
v -0.014450 0.012350 0.006000
v -0.017750 0.012350 0.006000
v -0.014450 0.012269 0.006462
v -0.017750 0.012169 0.006675
v -0.017750 0.012269 0.006462
v -0.017750 0.012034 0.006868
v -0.014450 0.011675 0.007169
v -0.014450 0.011868 0.007034
v -0.014450 0.011462 0.007269
v -0.014450 0.011234 0.007329
v -0.017750 0.011234 0.007329
v -0.017750 0.011000 0.007350
v -0.014450 0.010538 0.007269
v -0.014450 0.010325 0.007169
v -0.017750 0.009831 0.006675
v -0.017750 0.009966 0.006868
v -0.017750 0.009731 0.006462
v -0.014450 0.009671 0.006234
v -0.014450 0.009650 0.006000
v -0.017750 0.009671 0.006234
v -0.014450 0.009731 0.005538
v -0.017750 0.009671 0.005766
v -0.014450 0.009831 0.005325
v -0.017750 0.009731 0.005538
v -0.017750 0.010132 0.004966
v -0.017750 0.010325 0.004831
v -0.017750 0.010766 0.004671
v -0.014450 0.010766 0.004671
v -0.014450 0.011462 -0.007269
v -0.014450 0.011868 -0.007034
v -0.017750 0.012034 -0.006868
v -0.014450 0.012169 -0.006675
v -0.017750 0.012269 -0.006462
v -0.014450 0.012269 -0.006462
v -0.017750 0.012330 -0.006234
v -0.014450 0.012350 -0.006000
v -0.014450 0.012330 -0.006234
v -0.017750 0.012269 -0.005538
v -0.014450 0.012169 -0.005325
v -0.014450 0.011868 -0.004966
v -0.014450 0.011462 -0.004731
v -0.017750 0.011462 -0.004731
v -0.017750 0.011234 -0.004671
v -0.014450 0.010538 -0.004731
v -0.017750 0.010325 -0.004831
v -0.014450 0.010325 -0.004831
v -0.017750 0.010132 -0.004966
v -0.014450 0.009966 -0.005132
v -0.017750 0.009831 -0.005325
v -0.014450 0.009731 -0.005538
v -0.017750 0.009671 -0.005766
v -0.014450 0.009671 -0.005766
v -0.014450 0.009671 -0.006234
v -0.017750 0.009671 -0.006234
v -0.017750 0.009831 -0.006675
v -0.017750 0.009731 -0.006462
v -0.014450 0.009966 -0.006868
v -0.017750 0.009966 -0.006868
v -0.014450 0.010325 -0.007169
v -0.017750 0.010538 -0.007269
v -0.014450 0.010766 -0.007329
v -0.018250 0.011000 -0.003500
v -0.018250 0.011434 -0.003538
v -0.018250 0.012607 -0.004085
v -0.018250 0.008651 0.005145
v -0.018250 0.012250 0.008165
v -0.018250 0.012607 0.007915
v -0.018250 0.014750 0.019000
v -0.018250 0.013165 -0.004750
v -0.018250 0.008835 0.004750
v -0.018250 0.009085 0.004393
v -0.018250 0.009750 0.003835
v -0.018250 0.009393 0.004085
v -0.018250 0.010145 0.003651
v -0.018250 0.010566 0.003538
v -0.018250 0.013349 -0.005145
v -0.018250 0.009393 0.007915
v -0.018250 0.009750 -0.008165
v -0.018250 0.014750 -0.019000
v -0.018250 0.011434 -0.008462
v -0.018250 0.011434 0.003538
v -0.018250 0.011000 0.008500
v -0.018250 0.008500 0.006000
v -0.018250 0.008835 -0.004750
v -0.018250 0.013165 -0.007250
v -0.018250 0.008651 -0.005145
v -0.018250 0.000750 -0.019000
v -0.018250 0.012607 0.004085
v -0.018250 0.012915 0.004393
v -0.018250 0.013500 -0.006000
v -0.018250 0.013462 -0.006434
v -0.010598 0.012250 -0.021000
v -0.010298 0.011822 -0.021000
v -0.016250 0.000750 -0.021000
v -0.016250 0.014750 -0.021000
v -0.011000 0.013750 -0.021000
v -0.012000 0.014750 -0.021000
v -0.010954 0.013229 -0.021000
v 0.010598 0.012250 -0.021000
v 0.012000 0.014750 -0.021000
v -0.011658 0.014690 -0.021000
v -0.011826 0.014735 -0.021000
v -0.011134 0.014250 -0.021000
v -0.008521 0.010796 -0.021000
v -0.009026 0.010931 -0.021000
v -0.008000 0.010750 -0.021000
v -0.011500 0.014616 -0.021000
v 0.011658 0.014690 -0.021000
v 0.011015 0.013924 -0.021000
v 0.018250 0.011855 0.003651
v 0.018250 0.011434 0.003538
v 0.018250 0.012915 0.004393
v 0.018250 0.013165 0.004750
v 0.018250 0.009393 -0.004085
v 0.018250 0.010145 -0.003651
v 0.018250 0.010566 -0.003538
v 0.018250 0.012607 0.004085
v 0.018250 0.012250 0.003835
v 0.018250 0.009085 -0.007607
v 0.018250 0.008651 0.006855
v 0.018250 0.008538 0.006434
v 0.018250 0.011000 0.003500
v 0.018250 0.008651 -0.005145
v 0.018250 0.010145 0.003651
v 0.018250 0.009750 0.003835
v 0.018250 0.013462 0.005566
v 0.018250 0.008835 0.004750
v 0.018250 0.008538 0.005566
v 0.018250 0.000750 0.019000
v 0.018250 0.009085 0.007607
v 0.018250 0.013165 0.007250
v 0.018250 0.013349 -0.006855
v 0.018250 0.014750 -0.019000
v 0.018250 0.012607 -0.007915
v 0.018250 0.012250 -0.008165
v 0.018250 0.010566 0.008462
v 0.018250 0.013500 -0.006000
v 0.018250 0.013462 -0.006434
v 0.018250 0.013462 0.006434
v 0.018250 0.013500 0.006000
v 0.018250 0.014750 0.019000
v 0.011000 0.013750 0.021000
v 0.010298 0.011822 0.021000
v 0.016250 0.000750 0.021000
v -0.009928 0.011452 0.021000
v -0.016250 0.014750 0.021000
v -0.016250 0.000750 0.021000
v 0.011500 0.014616 0.021000
v 0.011234 0.014393 0.021000
v 0.012000 0.014750 0.021000
v 0.011015 0.013924 0.021000
v -0.011000 0.013750 0.021000
v -0.012000 0.014750 0.021000
v -0.011234 0.014393 0.021000
v -0.011357 0.014516 0.021000
v -0.004316 0.000750 0.017079
v -0.004653 0.000750 0.017170
v -0.005000 0.000750 0.017200
v -0.003714 0.000750 -0.016732
v 0.004316 0.000750 -0.017079
v 0.004000 0.000750 -0.016932
v 0.003468 0.000750 -0.016486
v 0.003268 0.000750 -0.016200
v -0.004000 0.000750 0.016932
v 0.004653 0.000750 0.017170
v 0.005000 0.000750 0.017200
v 0.005000 0.000750 -0.017200
v 0.004653 0.000750 -0.017170
v 0.016250 0.000750 -0.021000
v 0.003121 0.000750 0.015884
v -0.003468 0.000750 0.016486
v -0.003468 0.000750 -0.016486
v -0.003268 0.000750 -0.016200
v -0.003121 0.000750 0.015884
v 0.003030 0.000750 0.015547
v -0.003000 0.000750 0.015200
v 0.003000 0.000750 0.015200
v -0.003000 0.000750 -0.015200
v 0.017250 0.015750 -0.018586
v -0.014450 0.011000 -0.007350
v -0.014450 0.010538 -0.007269
v -0.014450 0.009731 0.006462
v -0.014450 0.009966 0.005132
v -0.014450 0.009671 0.005766
v -0.014450 0.000750 -0.017200
v -0.014450 0.000750 0.017200
v -0.014450 0.012169 0.006675
v -0.014450 0.012034 0.006868
v -0.014450 0.015750 -0.017200
v -0.014450 0.010132 -0.007034
v -0.014450 0.009731 -0.006462
v -0.014450 0.009831 -0.006675
v -0.014450 0.009650 -0.006000
v -0.014450 0.009831 0.006675
v -0.014450 0.009966 0.006868
v -0.014450 0.010132 0.007034
v -0.014450 0.011000 0.007350
v -0.014450 0.010766 0.007329
v -0.014450 0.012034 -0.006868
v -0.014450 0.011675 -0.007169
v -0.014450 0.011234 -0.007329
v -0.014450 0.010538 0.004731
v -0.014450 0.010325 0.004831
v -0.014450 0.010132 0.004966
v -0.014450 0.012269 0.005538
v -0.014450 0.012330 0.005766
v -0.014450 0.009831 -0.005325
v -0.014450 0.010132 -0.004966
v -0.014450 0.012034 0.005132
v -0.014450 0.012169 0.005325
v -0.014450 0.011675 0.004831
v -0.014450 0.012330 -0.005766
v -0.014450 0.011462 0.004731
v -0.014450 0.011675 -0.004831
v -0.014450 0.012034 -0.005132
v -0.014450 0.011234 0.004671
v -0.014450 0.012269 -0.005538
v -0.014450 0.011000 0.004650
v -0.014450 0.010766 -0.004671
v -0.014450 0.011000 -0.004650
v -0.014450 0.011234 -0.004671
v -0.005000 0.000750 -0.017200
v 0.009532 0.012464 -0.017200
v 0.011653 0.015720 -0.017200
v 0.008000 0.011750 -0.017200
v -0.008000 0.011750 -0.017200
v -0.005000 0.003750 -0.017200
v -0.009286 0.012218 -0.017200
v -0.009000 0.012018 -0.017200
v -0.009532 0.012464 -0.017200
v 0.011316 0.015629 -0.017200
v 0.011000 0.015482 -0.017200
v 0.010714 0.015282 -0.017200
v 0.010468 0.015036 -0.017200
v 0.010030 0.014097 -0.017200
v 0.010268 0.014750 -0.017200
v 0.010000 0.013750 -0.017200
v -0.010000 0.013750 -0.017200
v -0.010030 0.014097 -0.017200
v -0.010468 0.015036 -0.017200
v -0.011000 0.015482 -0.017200
v -0.010714 0.015282 -0.017200
v 0.014450 0.010325 -0.007169
v 0.014450 0.009671 -0.005766
v 0.014450 0.000750 -0.017200
v 0.014450 0.011234 -0.007329
v 0.014450 0.015750 0.017200
v 0.014450 0.012330 0.005766
v 0.014450 0.011000 -0.004650
v 0.014450 0.012330 -0.005766
v 0.014450 0.010325 0.004831
v 0.014450 0.010766 0.004671
v 0.014450 0.010538 0.004731
v 0.014450 0.012269 0.006462
v 0.014450 0.012330 0.006234
v 0.014450 0.009831 0.006675
v 0.014450 0.009671 0.005766
v 0.014450 0.009831 -0.006675
v 0.014450 0.010766 -0.007329
v 0.014450 0.011462 -0.007269
v 0.014450 0.012034 -0.006868
v 0.014450 0.012169 -0.006675
v 0.014450 0.011234 0.007329
v 0.014450 0.010766 0.007329
v 0.014450 0.010538 -0.004731
v 0.014450 0.011868 0.004966
v 0.014450 0.015750 -0.017200
v 0.014450 0.000750 0.017200
v 0.014450 0.011000 0.004650
v 0.014450 0.011234 0.004671
v -0.014450 0.015750 0.017200
v -0.005000 0.003750 0.017200
v 0.009732 0.012750 0.017200
v -0.009879 0.013066 0.017200
v -0.009970 0.013403 0.017200
v -0.008684 0.011871 0.017200
v -0.008000 0.011750 0.017200
v -0.008347 0.011780 0.017200
v 0.012000 0.015750 0.017200
v 0.010268 0.014750 0.017200
v 0.011000 0.015482 0.017200
v -0.012000 0.015750 0.017200
v -0.011653 0.015720 0.017200
v 0.010000 0.013750 0.017200
v 0.010468 0.015036 0.017200
v -0.010268 0.014750 0.017200
v -0.010030 0.014097 0.017200
v -0.017750 0.009085 -0.004393
v -0.017750 0.009750 -0.003835
v -0.017750 0.010538 -0.004731
v -0.017750 0.010145 -0.003651
v -0.017750 0.010766 -0.004671
v -0.017750 0.011000 -0.004650
v -0.017750 0.010566 -0.003538
v -0.017750 0.011434 -0.003538
v -0.017750 0.011000 -0.003500
v -0.017750 0.011675 -0.004831
v -0.017750 0.011868 -0.004966
v -0.017750 0.012915 -0.004393
v -0.017750 0.012034 -0.005132
v -0.017750 0.013165 -0.004750
v -0.017750 0.012169 -0.005325
v -0.017750 0.012330 -0.005766
v -0.017750 0.013462 -0.005566
v -0.017750 0.012350 -0.006000
v -0.017750 0.012169 -0.006675
v -0.017750 0.013349 -0.006855
v -0.017750 0.013165 -0.007250
v -0.017750 0.011868 -0.007034
v -0.017750 0.012607 -0.007915
v -0.017750 0.012250 -0.008165
v -0.017750 0.011675 -0.007169
v -0.017750 0.011462 -0.007269
v -0.017750 0.011234 -0.007329
v -0.017750 0.011000 -0.007350
v -0.017750 0.010766 -0.007329
v -0.017750 0.010145 -0.008349
v -0.017750 0.010325 -0.007169
v -0.017750 0.010132 -0.007034
v -0.017750 0.009085 -0.007607
v -0.017750 0.008500 -0.006000
v -0.017750 0.009650 -0.006000
v -0.017750 0.009731 -0.005538
v -0.017750 0.008651 -0.005145
v -0.017750 0.009966 -0.005132
v -0.017750 0.011855 -0.003651
v -0.018250 0.011855 -0.003651
v -0.017750 0.012250 -0.003835
v -0.018250 0.012250 -0.003835
v -0.018250 0.012915 -0.004393
v -0.017750 0.012607 -0.004085
v -0.017750 0.013349 -0.005145
v -0.018250 0.013462 -0.005566
v -0.017750 0.013500 -0.006000
v -0.018250 0.013349 -0.006855
v -0.017750 0.013462 -0.006434
v -0.018250 0.012915 -0.007607
v -0.017750 0.012915 -0.007607
v -0.018250 0.012250 -0.008165
v -0.018250 0.012607 -0.007915
v -0.018250 0.011855 -0.008349
v -0.017750 0.011855 -0.008349
v -0.018250 0.011000 -0.008500
v -0.017750 0.011434 -0.008462
v -0.018250 0.010566 -0.008462
v -0.017750 0.011000 -0.008500
v -0.017750 0.010566 -0.008462
v -0.018250 0.010145 -0.008349
v -0.018250 0.009393 -0.007915
v -0.017750 0.009750 -0.008165
v -0.018250 0.009085 -0.007607
v -0.017750 0.009393 -0.007915
v -0.018250 0.008835 -0.007250
v -0.017750 0.008835 -0.007250
v -0.018250 0.008651 -0.006855
v -0.017750 0.008651 -0.006855
v -0.017750 0.008538 -0.006434
v -0.018250 0.008538 -0.006434
v -0.018250 0.008500 -0.006000
v -0.018250 0.008538 -0.005566
v -0.017750 0.008538 -0.005566
v -0.018250 0.009085 -0.004393
v -0.017750 0.008835 -0.004750
v -0.018250 0.009750 -0.003835
v -0.018250 0.009393 -0.004085
v -0.017750 0.009393 -0.004085
v -0.018250 0.010145 -0.003651
v -0.018250 0.010566 -0.003538
v -0.017750 0.011855 0.008349
v -0.017750 0.011675 0.007169
v -0.017750 0.011462 0.007269
v -0.017750 0.011868 0.007034
v -0.017750 0.012250 0.008165
v -0.017750 0.012607 0.007915
v -0.017750 0.012915 0.007607
v -0.017750 0.012330 0.006234
v -0.017750 0.013500 0.006000
v -0.017750 0.013462 0.005566
v -0.017750 0.013349 0.005145
v -0.017750 0.013165 0.004750
v -0.017750 0.011868 0.004966
v -0.017750 0.011675 0.004831
v -0.017750 0.012250 0.003835
v -0.017750 0.011234 0.004671
v -0.017750 0.011434 0.003538
v -0.017750 0.011000 0.004650
v -0.017750 0.010538 0.004731
v -0.017750 0.010145 0.003651
v -0.017750 0.009750 0.003835
v -0.017750 0.009966 0.005132
v -0.017750 0.009831 0.005325
v -0.017750 0.009085 0.004393
v -0.017750 0.008651 0.005145
v -0.017750 0.008538 0.005566
v -0.017750 0.009650 0.006000
v -0.017750 0.008500 0.006000
v -0.017750 0.008835 0.007250
v -0.017750 0.009393 0.007915
v -0.017750 0.010132 0.007034
v -0.017750 0.009750 0.008165
v -0.017750 0.010325 0.007169
v -0.017750 0.010538 0.007269
v -0.017750 0.010766 0.007329
v -0.017750 0.010566 0.008462
v -0.017750 0.011434 0.008462
v -0.018250 0.011434 0.008462
v -0.017750 0.011000 0.008500
v -0.018250 0.011855 0.008349
v -0.018250 0.012915 0.007607
v -0.018250 0.013165 0.007250
v -0.017750 0.013165 0.007250
v -0.017750 0.013349 0.006855
v -0.018250 0.013349 0.006855
v -0.017750 0.013462 0.006434
v -0.018250 0.013462 0.006434
v -0.018250 0.013500 0.006000
v -0.018250 0.013462 0.005566
v -0.018250 0.013349 0.005145
v -0.018250 0.013165 0.004750
v -0.017750 0.012915 0.004393
v -0.017750 0.012607 0.004085
v -0.018250 0.012250 0.003835
v -0.018250 0.011855 0.003651
v -0.017750 0.011855 0.003651
v -0.018250 0.011000 0.003500
v -0.017750 0.011000 0.003500
v -0.017750 0.010566 0.003538
v -0.017750 0.009393 0.004085
v -0.017750 0.008835 0.004750
v -0.018250 0.008538 0.005566
v -0.017750 0.008538 0.006434
v -0.018250 0.008538 0.006434
v -0.018250 0.008651 0.006855
v -0.018250 0.008835 0.007250
v -0.017750 0.008651 0.006855
v -0.018250 0.009085 0.007607
v -0.017750 0.009085 0.007607
v -0.018250 0.009750 0.008165
v -0.017750 0.010145 0.008349
v -0.018250 0.010145 0.008349
v -0.018250 0.010566 0.008462
v 0.017750 0.011000 0.008500
v 0.017750 0.011434 0.008462
v 0.017750 0.011000 0.007350
v 0.017750 0.010566 0.008462
v 0.017750 0.010766 0.007329
v 0.017750 0.010145 0.008349
v 0.017750 0.009393 0.007915
v 0.017750 0.009085 0.007607
v 0.017750 0.009731 0.006462
v 0.017750 0.008835 0.007250
v 0.017750 0.009671 0.005766
v 0.017750 0.009731 0.005538
v 0.017750 0.008651 0.005145
v 0.017750 0.008835 0.004750
v 0.017750 0.009085 0.004393
v 0.017750 0.009393 0.004085
v 0.017750 0.010132 0.004966
v 0.017750 0.010325 0.004831
v 0.017750 0.009750 0.003835
v 0.017750 0.010145 0.003651
v 0.017750 0.010538 0.004731
v 0.017750 0.011000 0.003500
v 0.017750 0.011434 0.003538
v 0.017750 0.011462 0.004731
v 0.017750 0.012250 0.003835
v 0.017750 0.011855 0.003651
v 0.017750 0.011675 0.004831
v 0.017750 0.013165 0.004750
v 0.017750 0.012169 0.005325
v 0.017750 0.013349 0.005145
v 0.017750 0.012269 0.005538
v 0.017750 0.013462 0.005566
v 0.017750 0.012330 0.006234
v 0.017750 0.013500 0.006000
v 0.017750 0.013349 0.006855
v 0.017750 0.012034 0.006868
v 0.017750 0.011868 0.007034
v 0.017750 0.011234 0.007329
v 0.017750 0.012915 0.004393
v 0.017750 0.012607 0.004085
v 0.018250 0.013349 0.005145
v 0.017750 0.013462 0.006434
v 0.018250 0.013349 0.006855
v 0.017750 0.013165 0.007250
v 0.018250 0.012607 0.007915
v 0.018250 0.012915 0.007607
v 0.017750 0.012915 0.007607
v 0.017750 0.012607 0.007915
v 0.018250 0.012250 0.008165
v 0.018250 0.011855 0.008349
v 0.017750 0.012250 0.008165
v 0.017750 0.011855 0.008349
v 0.018250 0.011000 0.008500
v 0.018250 0.011434 0.008462
v 0.018250 0.010145 0.008349
v 0.017750 0.009750 0.008165
v 0.018250 0.009393 0.007915
v 0.018250 0.009750 0.008165
v 0.018250 0.008835 0.007250
v 0.017750 0.008651 0.006855
v 0.017750 0.008538 0.006434
v 0.018250 0.008500 0.006000
v 0.017750 0.008500 0.006000
v 0.017750 0.008538 0.005566
v 0.018250 0.008651 0.005145
v 0.018250 0.009085 0.004393
v 0.018250 0.009393 0.004085
v 0.018250 0.010566 0.003538
v 0.017750 0.010566 0.003538
v 0.017750 0.011234 -0.004671
v 0.017750 0.009750 -0.003835
v 0.017750 0.009393 -0.004085
v 0.017750 0.009085 -0.004393
v 0.017750 0.009831 -0.005325
v 0.017750 0.009731 -0.005538
v 0.017750 0.009671 -0.005766
v 0.017750 0.008500 -0.006000
v 0.017750 0.008538 -0.006434
v 0.017750 0.009731 -0.006462
v 0.017750 0.008835 -0.007250
v 0.017750 0.008651 -0.006855
v 0.017750 0.009085 -0.007607
v 0.017750 0.009966 -0.006868
v 0.017750 0.009393 -0.007915
v 0.017750 0.009750 -0.008165
v 0.017750 0.010538 -0.007269
v 0.017750 0.010145 -0.008349
v 0.017750 0.010566 -0.008462
v 0.017750 0.011855 -0.008349
v 0.017750 0.012250 -0.008165
v 0.017750 0.011675 -0.007169
v 0.017750 0.011868 -0.007034
v 0.017750 0.012607 -0.007915
v 0.017750 0.012034 -0.006868
v 0.017750 0.013462 -0.006434
v 0.017750 0.013349 -0.006855
v 0.017750 0.012350 -0.006000
v 0.017750 0.013500 -0.006000
v 0.017750 0.012330 -0.005766
v 0.017750 0.013165 -0.004750
v 0.017750 0.012169 -0.005325
v 0.017750 0.012034 -0.005132
v 0.017750 0.012915 -0.004393
v 0.017750 0.011000 -0.008500
v 0.018250 0.011000 -0.008500
v 0.017750 0.011434 -0.008462
v 0.018250 0.011434 -0.008462
v 0.018250 0.011855 -0.008349
v 0.017750 0.012915 -0.007607
v 0.018250 0.012915 -0.007607
v 0.018250 0.013165 -0.007250
v 0.017750 0.013165 -0.007250
v 0.018250 0.013462 -0.005566
v 0.018250 0.013349 -0.005145
v 0.017750 0.013462 -0.005566
v 0.017750 0.013349 -0.005145
v 0.018250 0.013165 -0.004750
v 0.018250 0.012915 -0.004393
v 0.017750 0.012607 -0.004085
v 0.018250 0.012607 -0.004085
v 0.018250 0.012250 -0.003835
v 0.017750 0.011855 -0.003651
v 0.018250 0.011855 -0.003651
v 0.017750 0.012250 -0.003835
v 0.018250 0.011000 -0.003500
v 0.018250 0.011434 -0.003538
v 0.017750 0.011434 -0.003538
v 0.017750 0.011000 -0.003500
v 0.017750 0.010145 -0.003651
v 0.017750 0.010566 -0.003538
v 0.018250 0.009750 -0.003835
v 0.018250 0.009085 -0.004393
v 0.018250 0.008835 -0.004750
v 0.017750 0.008835 -0.004750
v 0.018250 0.008538 -0.005566
v 0.017750 0.008538 -0.005566
v 0.017750 0.008651 -0.005145
v 0.018250 0.008500 -0.006000
v 0.018250 0.008538 -0.006434
v 0.018250 0.008651 -0.006855
v 0.018250 0.008835 -0.007250
v 0.018250 0.009750 -0.008165
v 0.018250 0.009393 -0.007915
v 0.018250 0.010145 -0.008349
v 0.018250 0.010566 -0.008462
v 0.008000 0.011750 0.020000
v 0.011316 0.015629 0.017200
v 0.011653 0.015720 0.017200
v 0.010714 0.015282 0.017200
v 0.010268 0.014750 0.020000
v 0.010121 0.014434 0.017200
v 0.010121 0.014434 0.020000
v 0.010030 0.014097 0.017200
v 0.010030 0.014097 0.020000
v 0.011653 0.015720 -0.020000
v 0.012000 0.015750 -0.017200
v 0.010121 0.014434 -0.020000
v 0.010030 0.014097 -0.020000
v 0.010121 0.014434 -0.017200
v -0.010121 0.014434 0.017200
v -0.010468 0.015036 0.017200
v -0.010714 0.015282 0.017200
v -0.011000 0.015482 0.017200
v -0.011316 0.015629 0.020000
v -0.011316 0.015629 0.017200
v -0.011653 0.015720 0.020000
v -0.010121 0.014434 -0.017200
v -0.010268 0.014750 -0.017200
v -0.010468 0.015036 -0.020000
v -0.010714 0.015282 -0.020000
v -0.011316 0.015629 -0.020000
v -0.011316 0.015629 -0.017200
v -0.011653 0.015720 -0.017200
v -0.011653 0.015720 -0.020000
v -0.012000 0.015750 -0.017200
v 0.009970 0.013403 0.017200
v 0.009970 0.013403 0.020000
v 0.009879 0.013066 0.017200
v 0.009532 0.012464 0.017200
v 0.009286 0.012218 0.017200
v 0.009000 0.012018 0.017200
v 0.008684 0.011871 0.017200
v 0.008347 0.011780 0.020000
v 0.008000 0.011750 0.017200
v 0.008347 0.011780 0.017200
v 0.009970 0.013403 -0.020000
v 0.009970 0.013403 -0.017200
v 0.009879 0.013066 -0.017200
v 0.009879 0.013066 -0.020000
v 0.009732 0.012750 -0.017200
v 0.009732 0.012750 -0.020000
v 0.009286 0.012218 -0.020000
v 0.009286 0.012218 -0.017200
v 0.009000 0.012018 -0.017200
v 0.008347 0.011780 -0.020000
v 0.008684 0.011871 -0.017200
v 0.008000 0.011750 -0.020000
v 0.008347 0.011780 -0.017200
v -0.008000 0.011750 -0.020000
v -0.008684 0.011871 -0.017200
v -0.008684 0.011871 -0.020000
v -0.008347 0.011780 -0.017200
v -0.009000 0.012018 -0.020000
v -0.009286 0.012218 -0.020000
v -0.009732 0.012750 -0.017200
v -0.009970 0.013403 -0.020000
v -0.009879 0.013066 -0.017200
v -0.009970 0.013403 -0.017200
v -0.009000 0.012018 0.017200
v -0.008684 0.011871 0.020000
v -0.009286 0.012218 0.017200
v -0.009732 0.012750 0.017200
v -0.009532 0.012464 0.017200
v -0.009532 0.012464 0.020000
v -0.009732 0.012750 0.020000
v -0.009970 0.013403 0.020000
v -0.010000 0.013750 0.017200
v 0.018250 0.000750 -0.019000
v -0.018250 0.000750 0.019000
v -0.004316 0.003750 0.017079
v 0.005000 0.003750 0.017200
v 0.003714 0.003750 -0.016732
v -0.004316 0.003750 -0.017079
v -0.004000 0.003750 -0.016932
v 0.005000 0.003750 -0.017200
v 0.004653 0.003750 0.017170
v 0.004316 0.003750 0.017079
v -0.003121 0.003750 -0.015884
v -0.004000 0.003750 0.016932
v 0.003714 0.003750 0.016732
v -0.003714 0.003750 0.016732
v -0.003468 0.003750 0.016486
v 0.003268 0.003750 -0.016200
v -0.003268 0.003750 -0.016200
v 0.003030 0.003750 -0.015547
v 0.003121 0.003750 0.015884
v -0.003030 0.003750 0.015547
v 0.003000 0.003750 0.015200
v -0.003000 0.003750 0.015200
v -0.003000 0.003750 -0.015200
v -0.003030 0.003750 -0.015547
v -0.003030 0.000750 -0.015547
v -0.003121 0.000750 -0.015884
v -0.003468 0.003750 -0.016486
v -0.003714 0.003750 -0.016732
v -0.004000 0.000750 -0.016932
v -0.004653 0.000750 -0.017170
v -0.004653 0.003750 -0.017170
v -0.004316 0.000750 -0.017079
v 0.004653 0.003750 -0.017170
v 0.004316 0.003750 -0.017079
v 0.004000 0.003750 -0.016932
v 0.003714 0.000750 -0.016732
v 0.003468 0.003750 -0.016486
v 0.003121 0.003750 -0.015884
v 0.003121 0.000750 -0.015884
v 0.003000 0.003750 -0.015200
v 0.003030 0.000750 -0.015547
v 0.003000 0.000750 -0.015200
v 0.003030 0.003750 0.015547
v 0.003268 0.000750 0.016200
v 0.003268 0.003750 0.016200
v 0.003468 0.000750 0.016486
v 0.003468 0.003750 0.016486
v 0.003714 0.000750 0.016732
v 0.004000 0.003750 0.016932
v 0.004000 0.000750 0.016932
v 0.004316 0.000750 0.017079
v -0.004653 0.003750 0.017170
v -0.003714 0.000750 0.016732
v -0.003268 0.003750 0.016200
v -0.003268 0.000750 0.016200
v -0.003121 0.003750 0.015884
v -0.003030 0.000750 0.015547
v 0.015836 0.015750 0.020000
v 0.016250 0.014750 0.021000
v 0.011060 0.014092 0.021000
v 0.011134 0.014250 0.021000
v 0.010714 0.015282 0.020000
v 0.010468 0.015036 0.020000
v 0.011000 0.015482 0.020000
v 0.011357 0.014516 0.021000
v 0.011658 0.014690 0.021000
v 0.011316 0.015629 0.020000
v 0.012000 0.015750 0.020000
v 0.011826 0.014735 0.021000
v 0.011653 0.015720 0.020000
v 0.017250 0.015750 0.018586
v 0.008521 0.010796 0.021000
v 0.009026 0.010931 0.021000
v 0.008684 0.011871 0.020000
v 0.009000 0.012018 0.020000
v 0.009500 0.011152 0.021000
v 0.009928 0.011452 0.021000
v 0.009286 0.012218 0.020000
v 0.009532 0.012464 0.020000
v 0.009732 0.012750 0.020000
v 0.010598 0.012250 0.021000
v 0.009879 0.013066 0.020000
v 0.010954 0.013229 0.021000
v 0.010819 0.012724 0.021000
v 0.010000 0.013750 0.020000
v 0.016250 0.014750 -0.021000
v 0.015836 0.015750 -0.020000
v -0.008000 0.010750 0.021000
v 0.008000 0.010750 0.021000
v 0.012000 0.015750 -0.020000
v -0.010000 0.013750 0.020000
v -0.009879 0.013066 0.020000
v -0.010954 0.013229 0.021000
v -0.010819 0.012724 0.021000
v -0.010598 0.012250 0.021000
v -0.010298 0.011822 0.021000
v -0.009286 0.012218 0.020000
v -0.009000 0.012018 0.020000
v -0.009026 0.010931 0.021000
v -0.009500 0.011152 0.021000
v -0.008521 0.010796 0.021000
v -0.008347 0.011780 0.020000
v -0.008000 0.011750 0.020000
v 0.011316 0.015629 -0.020000
v 0.011826 0.014735 -0.021000
v 0.011000 0.015482 -0.020000
v 0.011357 0.014516 -0.021000
v 0.011500 0.014616 -0.021000
v 0.010714 0.015282 -0.020000
v 0.011234 0.014393 -0.021000
v 0.010468 0.015036 -0.020000
v 0.010268 0.014750 -0.020000
v 0.011134 0.014250 -0.021000
v 0.011060 0.014092 -0.021000
v 0.010000 0.013750 -0.020000
v -0.011658 0.014690 0.021000
v -0.011826 0.014735 0.021000
v -0.011500 0.014616 0.021000
v -0.011000 0.015482 0.020000
v -0.010714 0.015282 0.020000
v -0.010468 0.015036 0.020000
v -0.010268 0.014750 0.020000
v -0.011134 0.014250 0.021000
v -0.010121 0.014434 0.020000
v -0.011060 0.014092 0.021000
v -0.010030 0.014097 0.020000
v -0.011015 0.013924 0.021000
v 0.011000 0.013750 -0.021000
v 0.010954 0.013229 -0.021000
v 0.010819 0.012724 -0.021000
v 0.010298 0.011822 -0.021000
v 0.009532 0.012464 -0.020000
v 0.009928 0.011452 -0.021000
v 0.009500 0.011152 -0.021000
v 0.009000 0.012018 -0.020000
v 0.008684 0.011871 -0.020000
v 0.009026 0.010931 -0.021000
v 0.008521 0.010796 -0.021000
v 0.008000 0.010750 -0.021000
v -0.008347 0.011780 -0.020000
v -0.009500 0.011152 -0.021000
v -0.009532 0.012464 -0.020000
v -0.009928 0.011452 -0.021000
v -0.009732 0.012750 -0.020000
v -0.009879 0.013066 -0.020000
v -0.010819 0.012724 -0.021000
v -0.010000 0.013750 -0.020000
v -0.017250 0.015750 0.018586
v -0.011015 0.013924 -0.021000
v -0.010030 0.014097 -0.020000
v -0.010121 0.014434 -0.020000
v -0.011060 0.014092 -0.021000
v -0.010268 0.014750 -0.020000
v -0.011234 0.014393 -0.021000
v -0.011357 0.014516 -0.021000
v -0.011000 0.015482 -0.020000
v -0.012000 0.015750 -0.020000
v -0.017250 0.015750 -0.018586
v -0.015836 0.015750 -0.020000
# 916 vertices, 0 vertices normals

f 1 381 370
f 1 370 2
f 914 916 915
f 715 914 288
f 288 914 915
f 288 915 370
f 370 915 905
f 370 905 2
f 358 3 4
f 4 3 5
f 4 5 345
f 345 5 6
f 345 6 359
f 359 6 631
f 359 631 7
f 7 631 632
f 7 632 8
f 8 632 634
f 8 634 360
f 360 634 9
f 360 9 361
f 361 9 11
f 361 11 10
f 10 11 12
f 10 12 13
f 13 12 637
f 13 637 14
f 14 637 639
f 14 639 349
f 349 639 16
f 349 16 15
f 15 16 641
f 15 641 17
f 17 641 642
f 17 642 18
f 18 642 21
f 18 21 19
f 19 21 20
f 19 20 22
f 22 20 24
f 22 24 23
f 23 24 610
f 23 610 26
f 26 610 25
f 26 25 348
f 348 25 27
f 348 27 28
f 28 27 30
f 28 30 364
f 364 30 29
f 364 29 32
f 32 29 31
f 32 31 33
f 33 31 34
f 33 34 35
f 35 34 614
f 35 614 36
f 36 614 615
f 36 615 37
f 37 615 616
f 37 616 343
f 343 616 39
f 343 39 38
f 38 39 41
f 38 41 40
f 40 41 619
f 40 619 42
f 42 619 43
f 42 43 357
f 357 43 623
f 357 623 44
f 44 623 46
f 44 46 45
f 45 46 47
f 45 47 342
f 342 47 626
f 342 626 49
f 49 626 48
f 49 48 358
f 358 48 3
f 351 50 368
f 368 50 51
f 368 51 369
f 369 51 564
f 369 564 52
f 52 564 567
f 52 567 53
f 53 567 54
f 53 54 365
f 365 54 55
f 365 55 56
f 56 55 569
f 56 569 57
f 57 569 571
f 57 571 58
f 58 571 59
f 58 59 347
f 347 59 60
f 347 60 61
f 61 60 573
f 61 573 354
f 354 573 62
f 354 62 353
f 353 62 63
f 353 63 64
f 64 63 576
f 64 576 65
f 65 576 577
f 65 577 66
f 66 577 68
f 66 68 69
f 69 68 67
f 69 67 70
f 70 67 578
f 70 578 362
f 362 578 543
f 362 543 71
f 71 543 545
f 71 545 363
f 363 545 73
f 363 73 74
f 74 73 72
f 74 72 75
f 75 72 76
f 75 76 77
f 77 76 78
f 77 78 79
f 79 78 80
f 79 80 355
f 355 80 549
f 355 549 83
f 83 549 81
f 83 81 82
f 82 81 84
f 82 84 85
f 85 84 551
f 85 551 356
f 356 551 552
f 356 552 86
f 86 552 88
f 86 88 87
f 87 88 90
f 87 90 89
f 89 90 557
f 89 557 91
f 91 557 558
f 91 558 350
f 350 558 561
f 350 561 352
f 352 561 92
f 352 92 351
f 351 92 50
f 126 317 485
f 485 317 315
f 485 315 483
f 483 315 312
f 483 312 93
f 93 312 310
f 93 310 481
f 481 310 94
f 481 94 480
f 480 94 308
f 480 308 95
f 95 308 309
f 95 309 96
f 96 309 304
f 96 304 97
f 97 304 305
f 97 305 98
f 98 305 100
f 98 100 101
f 101 100 99
f 101 99 475
f 475 99 102
f 475 102 104
f 104 102 286
f 104 286 103
f 103 286 287
f 103 287 105
f 105 287 107
f 105 107 471
f 471 107 106
f 471 106 469
f 469 106 108
f 469 108 470
f 470 108 109
f 470 109 110
f 110 109 296
f 110 296 111
f 111 296 297
f 111 297 502
f 502 297 112
f 502 112 501
f 501 112 113
f 501 113 500
f 500 113 295
f 500 295 498
f 498 295 294
f 498 294 115
f 115 294 293
f 115 293 114
f 114 293 281
f 114 281 116
f 116 281 117
f 116 117 119
f 119 117 118
f 119 118 494
f 494 118 283
f 494 283 121
f 121 283 120
f 121 120 123
f 123 120 122
f 123 122 490
f 490 122 282
f 490 282 489
f 489 282 303
f 489 303 124
f 124 303 302
f 124 302 125
f 125 302 301
f 125 301 486
f 486 301 127
f 486 127 126
f 126 127 317
f 415 279 414
f 414 279 300
f 414 300 413
f 413 300 128
f 413 128 412
f 412 128 299
f 412 299 411
f 411 299 129
f 411 129 408
f 408 129 298
f 408 298 130
f 130 298 131
f 130 131 405
f 405 131 133
f 405 133 132
f 132 133 136
f 132 136 134
f 134 136 135
f 134 135 404
f 404 135 311
f 404 311 402
f 402 311 316
f 402 316 137
f 137 316 138
f 137 138 401
f 401 138 314
f 401 314 399
f 399 314 139
f 399 139 397
f 397 139 313
f 397 313 396
f 396 313 140
f 396 140 141
f 141 140 320
f 141 320 142
f 142 320 319
f 142 319 392
f 392 319 318
f 392 318 391
f 391 318 143
f 391 143 389
f 389 143 145
f 389 145 144
f 144 145 307
f 144 307 146
f 146 307 147
f 146 147 424
f 424 147 306
f 424 306 148
f 148 306 149
f 148 149 422
f 422 149 151
f 422 151 150
f 150 151 292
f 150 292 421
f 421 292 152
f 421 152 153
f 153 152 290
f 153 290 155
f 155 290 291
f 155 291 154
f 154 291 156
f 154 156 157
f 157 156 289
f 157 289 418
f 418 289 158
f 418 158 417
f 417 158 280
f 417 280 159
f 159 280 160
f 159 160 415
f 415 160 279
f 161 164 162
f 162 164 426
f 512 509 167
f 167 509 508
f 167 508 166
f 429 163 164
f 164 163 428
f 164 428 426
f 166 165 167
f 167 165 507
f 167 507 505
f 533 532 759
f 759 532 531
f 169 175 164
f 164 175 168
f 164 168 429
f 169 170 175
f 175 170 172
f 175 172 171
f 171 173 175
f 175 173 174
f 175 174 524
f 537 176 759
f 759 176 535
f 759 535 533
f 444 178 447
f 447 178 186
f 447 186 177
f 457 454 186
f 186 454 452
f 444 442 178
f 178 442 179
f 178 179 440
f 524 180 175
f 175 180 522
f 175 522 432
f 432 522 521
f 505 181 167
f 167 181 540
f 167 540 759
f 759 540 539
f 759 539 537
f 531 182 759
f 759 182 529
f 759 529 164
f 464 461 759
f 759 461 183
f 452 450 186
f 186 450 448
f 186 448 177
f 440 438 178
f 178 438 439
f 178 439 436
f 436 184 178
f 178 184 434
f 178 434 190
f 517 516 178
f 178 516 515
f 178 515 167
f 167 515 514
f 167 514 512
f 161 467 164
f 164 467 466
f 164 466 759
f 759 466 463
f 759 463 464
f 183 185 759
f 759 185 459
f 759 459 186
f 186 459 458
f 186 458 457
f 187 188 178
f 178 188 518
f 178 518 517
f 190 189 178
f 178 189 432
f 178 432 187
f 187 432 521
f 194 903 193
f 193 903 191
f 193 191 192
f 196 195 194
f 194 195 197
f 194 197 903
f 895 894 268
f 268 894 891
f 268 891 890
f 887 843 198
f 198 843 268
f 198 268 888
f 888 268 890
f 887 886 843
f 843 886 885
f 843 885 199
f 911 202 196
f 201 200 206
f 192 900 193
f 193 900 898
f 193 898 204
f 864 865 885
f 202 909 196
f 196 909 906
f 196 906 195
f 204 203 193
f 193 203 205
f 193 205 268
f 268 205 896
f 268 896 895
f 871 870 867
f 201 206 196
f 196 206 912
f 196 912 911
f 865 207 885
f 885 207 862
f 885 862 199
f 864 885 867
f 867 885 208
f 867 208 871
f 221 222 210
f 210 222 209
f 673 581 222
f 222 581 212
f 222 212 211
f 673 672 581
f 581 672 213
f 581 213 671
f 671 214 581
f 581 214 215
f 581 215 665
f 211 216 222
f 222 216 217
f 222 217 209
f 232 645 758
f 758 645 685
f 758 685 684
f 684 682 758
f 758 682 683
f 758 683 218
f 218 681 758
f 758 681 680
f 758 680 679
f 220 219 228
f 679 678 758
f 758 678 675
f 758 675 222
f 607 606 758
f 758 606 226
f 221 608 222
f 222 608 223
f 222 223 758
f 758 223 224
f 758 224 607
f 665 666 581
f 581 666 663
f 581 663 225
f 225 663 661
f 226 605 758
f 758 605 227
f 758 227 228
f 228 227 602
f 228 602 220
f 219 599 228
f 228 599 229
f 228 229 597
f 590 240 594
f 594 240 593
f 590 589 240
f 240 589 585
f 240 585 586
f 586 230 240
f 240 230 583
f 240 583 238
f 232 231 651
f 651 650 232
f 232 650 233
f 232 233 234
f 234 648 232
f 232 648 647
f 232 647 645
f 597 598 228
f 228 598 595
f 228 595 240
f 240 595 235
f 240 235 593
f 660 658 240
f 240 658 657
f 240 657 654
f 654 653 240
f 240 653 236
f 240 236 232
f 232 236 237
f 232 237 231
f 238 239 240
f 240 239 225
f 240 225 660
f 660 225 661
f 250 241 249
f 249 241 816
f 858 856 246
f 246 856 857
f 246 857 244
f 241 840 816
f 816 840 841
f 816 841 243
f 243 841 838
f 243 838 242
f 242 834 243
f 243 834 833
f 243 833 830
f 244 853 246
f 246 853 852
f 246 852 245
f 245 852 851
f 822 826 247
f 247 826 823
f 822 248 826
f 826 248 818
f 826 818 249
f 249 818 817
f 249 817 250
f 830 829 243
f 243 829 846
f 243 846 246
f 246 846 845
f 246 845 858
f 851 850 245
f 245 850 251
f 245 251 252
f 252 251 884
f 252 884 882
f 882 880 252
f 252 880 253
f 252 253 254
f 875 873 254
f 254 873 874
f 254 874 252
f 263 243 255
f 255 243 256
f 786 789 268
f 256 243 257
f 257 243 246
f 257 246 285
f 285 246 759
f 285 759 284
f 284 759 186
f 284 186 321
f 789 787 268
f 268 787 321
f 268 321 193
f 193 321 186
f 786 268 258
f 258 268 267
f 258 267 259
f 259 260 258
f 258 260 793
f 258 793 261
f 261 262 258
f 258 262 796
f 258 796 798
f 801 803 263
f 263 803 805
f 263 805 807
f 270 812 269
f 807 808 263
f 263 808 264
f 263 264 243
f 243 264 265
f 243 265 228
f 228 265 367
f 228 367 758
f 758 367 344
f 758 344 268
f 268 344 266
f 268 266 267
f 801 263 269
f 269 263 810
f 269 810 270
f 783 272 798
f 798 272 271
f 798 271 258
f 812 273 269
f 269 273 814
f 269 814 274
f 274 814 275
f 274 275 276
f 276 275 799
f 799 275 277
f 799 277 798
f 798 277 782
f 798 782 783
f 847 696 366
f 847 366 844
f 825 815 828
f 378 825 346
f 346 825 828
f 346 828 366
f 366 828 278
f 366 278 844
f 160 284 279
f 279 284 288
f 279 288 300
f 160 280 284
f 284 280 158
f 284 158 289
f 285 117 281
f 303 282 284
f 284 282 122
f 122 120 284
f 284 120 283
f 284 283 285
f 285 283 118
f 285 118 117
f 285 295 113
f 109 108 370
f 370 108 106
f 370 106 107
f 107 287 370
f 370 287 286
f 370 286 102
f 145 143 317
f 311 135 288
f 288 135 136
f 288 136 133
f 289 156 284
f 284 156 291
f 284 291 290
f 290 152 284
f 284 152 292
f 284 292 151
f 281 293 285
f 285 293 294
f 285 294 295
f 113 112 285
f 285 112 297
f 285 297 370
f 370 297 296
f 370 296 109
f 306 317 149
f 149 317 151
f 133 131 288
f 288 131 298
f 288 298 129
f 129 299 288
f 288 299 128
f 288 128 300
f 317 127 151
f 151 127 301
f 151 301 284
f 284 301 302
f 284 302 303
f 102 99 370
f 370 99 100
f 370 100 288
f 288 100 305
f 288 305 311
f 311 305 304
f 306 147 317
f 317 147 307
f 317 307 145
f 304 309 311
f 311 309 308
f 311 308 94
f 94 310 311
f 311 310 312
f 311 312 315
f 140 313 315
f 315 313 139
f 315 139 314
f 314 138 315
f 315 138 316
f 315 316 311
f 143 318 317
f 317 318 319
f 317 319 315
f 315 319 320
f 315 320 140
f 284 321 288
f 288 321 326
f 266 344 765
f 765 344 366
f 727 728 366
f 765 734 736
f 728 730 366
f 366 730 322
f 366 322 765
f 765 322 733
f 765 733 734
f 328 326 740
f 740 326 742
f 747 748 288
f 288 748 337
f 288 337 715
f 727 366 336
f 336 366 696
f 336 696 323
f 736 738 765
f 765 738 324
f 765 324 326
f 326 324 325
f 326 325 742
f 328 327 326
f 326 327 329
f 326 329 288
f 288 329 745
f 288 745 747
f 323 330 336
f 336 330 331
f 336 331 332
f 340 712 338
f 332 333 336
f 336 333 335
f 336 335 334
f 334 335 699
f 338 712 337
f 337 712 713
f 337 713 715
f 338 707 708
f 708 339 338
f 338 339 341
f 338 341 340
f 45 342 344
f 37 343 367
f 17 350 15
f 15 350 349
f 87 348 86
f 86 348 356
f 17 18 350
f 350 18 19
f 350 19 22
f 367 343 344
f 345 359 366
f 343 38 344
f 344 38 40
f 344 40 42
f 354 346 61
f 61 346 366
f 61 366 347
f 22 23 350
f 350 23 26
f 350 26 91
f 91 26 348
f 91 348 89
f 89 348 87
f 77 367 75
f 75 367 74
f 350 352 349
f 349 352 351
f 349 351 368
f 354 353 346
f 346 353 64
f 346 64 65
f 65 66 346
f 346 66 69
f 346 69 70
f 77 79 367
f 367 79 355
f 367 355 83
f 83 82 367
f 367 82 85
f 367 85 356
f 42 357 344
f 344 357 44
f 344 44 45
f 342 49 344
f 344 49 358
f 344 358 366
f 366 358 4
f 366 4 345
f 359 7 366
f 366 7 8
f 366 8 360
f 360 361 366
f 366 361 10
f 366 10 13
f 70 362 346
f 346 362 71
f 346 71 367
f 367 71 363
f 367 363 74
f 348 28 356
f 356 28 364
f 356 364 367
f 367 364 32
f 367 32 33
f 366 369 52
f 52 53 366
f 366 53 365
f 366 365 56
f 56 57 366
f 366 57 58
f 366 58 347
f 33 35 367
f 367 35 36
f 367 36 37
f 13 14 366
f 366 14 349
f 366 349 369
f 369 349 368
f 367 265 346
f 346 265 761
f 257 285 371
f 371 285 370
f 371 749 375
f 721 761 722
f 722 761 725
f 721 720 761
f 761 720 719
f 761 719 346
f 346 719 372
f 346 372 718
f 381 757 370
f 370 757 374
f 370 374 373
f 373 752 370
f 370 752 753
f 370 753 371
f 371 753 751
f 371 751 749
f 375 377 371
f 371 377 376
f 371 376 761
f 761 376 724
f 761 724 725
f 718 716 346
f 346 716 383
f 346 383 378
f 378 383 688
f 693 691 379
f 689 380 383
f 383 380 687
f 383 687 688
f 381 382 757
f 757 382 705
f 757 705 386
f 386 705 703
f 386 703 702
f 693 379 383
f 383 379 384
f 383 384 689
f 702 701 386
f 386 701 385
f 386 385 700
f 424 387 146
f 146 387 465
f 146 465 144
f 144 465 388
f 144 388 389
f 389 388 390
f 389 390 391
f 391 390 393
f 391 393 392
f 392 393 395
f 392 395 142
f 142 395 394
f 142 394 141
f 141 394 425
f 141 425 396
f 396 425 427
f 396 427 397
f 397 427 430
f 397 430 399
f 399 430 398
f 399 398 401
f 401 398 400
f 401 400 137
f 137 400 431
f 137 431 402
f 402 431 403
f 402 403 404
f 404 403 433
f 404 433 134
f 134 433 435
f 134 435 132
f 132 435 406
f 132 406 405
f 405 406 407
f 405 407 130
f 130 407 437
f 130 437 408
f 408 437 409
f 408 409 411
f 411 409 410
f 411 410 412
f 412 410 441
f 412 441 413
f 413 441 443
f 413 443 414
f 414 443 445
f 414 445 415
f 415 445 446
f 415 446 159
f 159 446 416
f 159 416 417
f 417 416 449
f 417 449 418
f 418 449 451
f 418 451 157
f 157 451 419
f 157 419 154
f 154 419 453
f 154 453 155
f 155 453 455
f 155 455 153
f 153 455 456
f 153 456 421
f 421 456 420
f 421 420 150
f 150 420 460
f 150 460 422
f 422 460 423
f 422 423 148
f 148 423 462
f 148 462 424
f 424 462 387
f 393 161 395
f 395 161 162
f 395 162 394
f 394 162 426
f 394 426 425
f 425 426 428
f 425 428 427
f 427 428 163
f 427 163 430
f 430 163 429
f 430 429 398
f 398 429 168
f 398 168 400
f 400 168 175
f 400 175 431
f 431 175 432
f 431 432 403
f 403 432 189
f 403 189 433
f 433 189 190
f 433 190 435
f 435 190 434
f 435 434 406
f 406 434 184
f 406 184 407
f 407 184 436
f 407 436 437
f 437 436 439
f 437 439 409
f 409 439 438
f 409 438 410
f 410 438 440
f 410 440 441
f 441 440 179
f 441 179 443
f 443 179 442
f 443 442 445
f 445 442 444
f 445 444 446
f 446 444 447
f 446 447 416
f 416 447 177
f 416 177 449
f 449 177 448
f 449 448 451
f 451 448 450
f 451 450 419
f 419 450 452
f 419 452 453
f 453 452 454
f 453 454 455
f 455 454 457
f 455 457 456
f 456 457 458
f 456 458 420
f 420 458 459
f 420 459 460
f 460 459 185
f 460 185 423
f 423 185 183
f 423 183 462
f 462 183 461
f 462 461 387
f 387 461 464
f 387 464 465
f 465 464 463
f 465 463 388
f 388 463 466
f 388 466 390
f 390 466 467
f 390 467 393
f 393 467 161
f 110 504 470
f 470 504 468
f 470 468 469
f 469 468 472
f 469 472 471
f 471 472 473
f 471 473 105
f 105 473 474
f 105 474 103
f 103 474 510
f 103 510 104
f 104 510 511
f 104 511 475
f 475 511 513
f 475 513 101
f 101 513 476
f 101 476 98
f 98 476 477
f 98 477 97
f 97 477 478
f 97 478 96
f 96 478 479
f 96 479 95
f 95 479 519
f 95 519 480
f 480 519 520
f 480 520 481
f 481 520 482
f 481 482 93
f 93 482 523
f 93 523 483
f 483 523 484
f 483 484 485
f 485 484 525
f 485 525 126
f 126 525 526
f 126 526 486
f 486 526 487
f 486 487 125
f 125 487 488
f 125 488 124
f 124 488 527
f 124 527 489
f 489 527 491
f 489 491 490
f 490 491 528
f 490 528 123
f 123 528 492
f 123 492 121
f 121 492 493
f 121 493 494
f 494 493 495
f 494 495 119
f 119 495 530
f 119 530 116
f 116 530 534
f 116 534 114
f 114 534 496
f 114 496 115
f 115 496 536
f 115 536 498
f 498 536 497
f 498 497 500
f 500 497 499
f 500 499 501
f 501 499 538
f 501 538 502
f 502 538 503
f 502 503 111
f 111 503 506
f 111 506 110
f 110 506 504
f 503 181 506
f 506 181 505
f 506 505 504
f 504 505 507
f 504 507 468
f 468 507 165
f 468 165 472
f 472 165 166
f 472 166 473
f 473 166 508
f 473 508 474
f 474 508 509
f 474 509 510
f 510 509 512
f 510 512 511
f 511 512 514
f 511 514 513
f 513 514 515
f 513 515 476
f 476 515 516
f 476 516 477
f 477 516 517
f 477 517 478
f 478 517 518
f 478 518 479
f 479 518 188
f 479 188 519
f 519 188 187
f 519 187 520
f 520 187 521
f 520 521 482
f 482 521 522
f 482 522 523
f 523 522 180
f 523 180 484
f 484 180 524
f 484 524 525
f 525 524 174
f 525 174 526
f 526 174 173
f 526 173 487
f 487 173 171
f 487 171 488
f 488 171 172
f 488 172 527
f 527 172 170
f 527 170 491
f 491 170 169
f 491 169 528
f 528 169 164
f 528 164 492
f 492 164 529
f 492 529 493
f 493 529 182
f 493 182 495
f 495 182 531
f 495 531 530
f 530 531 532
f 530 532 534
f 534 532 533
f 534 533 496
f 496 533 535
f 496 535 536
f 536 535 176
f 536 176 497
f 497 176 537
f 497 537 499
f 499 537 539
f 499 539 538
f 538 539 540
f 538 540 503
f 503 540 181
f 578 542 543
f 543 542 541
f 543 541 545
f 545 541 544
f 545 544 73
f 73 544 546
f 73 546 72
f 72 546 596
f 72 596 76
f 76 596 547
f 76 547 78
f 78 547 548
f 78 548 80
f 80 548 550
f 80 550 549
f 549 550 600
f 549 600 81
f 81 600 601
f 81 601 84
f 84 601 603
f 84 603 551
f 551 603 604
f 551 604 552
f 552 604 553
f 552 553 88
f 88 553 554
f 88 554 90
f 90 554 555
f 90 555 557
f 557 555 556
f 557 556 558
f 558 556 559
f 558 559 561
f 561 559 560
f 561 560 92
f 92 560 609
f 92 609 50
f 50 609 562
f 50 562 51
f 51 562 563
f 51 563 564
f 564 563 566
f 564 566 567
f 567 566 565
f 567 565 54
f 54 565 580
f 54 580 55
f 55 580 579
f 55 579 569
f 569 579 568
f 569 568 571
f 571 568 570
f 571 570 59
f 59 570 572
f 59 572 60
f 60 572 574
f 60 574 573
f 573 574 582
f 573 582 62
f 62 582 575
f 62 575 63
f 63 575 584
f 63 584 576
f 576 584 587
f 576 587 577
f 577 587 588
f 577 588 68
f 68 588 591
f 68 591 67
f 67 591 592
f 67 592 578
f 578 592 542
f 609 221 562
f 562 221 210
f 562 210 563
f 563 210 209
f 563 209 566
f 566 209 217
f 566 217 565
f 565 217 216
f 565 216 580
f 580 216 211
f 580 211 579
f 579 211 212
f 579 212 568
f 568 212 581
f 568 581 570
f 570 581 225
f 570 225 572
f 572 225 239
f 572 239 574
f 574 239 238
f 574 238 582
f 582 238 583
f 582 583 575
f 575 583 230
f 575 230 584
f 584 230 586
f 584 586 587
f 587 586 585
f 587 585 588
f 588 585 589
f 588 589 591
f 591 589 590
f 591 590 592
f 592 590 594
f 592 594 542
f 542 594 593
f 542 593 541
f 541 593 235
f 541 235 544
f 544 235 595
f 544 595 546
f 546 595 598
f 546 598 596
f 596 598 597
f 596 597 547
f 547 597 229
f 547 229 548
f 548 229 599
f 548 599 550
f 550 599 219
f 550 219 600
f 600 219 220
f 600 220 601
f 601 220 602
f 601 602 603
f 603 602 227
f 603 227 604
f 604 227 605
f 604 605 553
f 553 605 226
f 553 226 554
f 554 226 606
f 554 606 555
f 555 606 607
f 555 607 556
f 556 607 224
f 556 224 559
f 559 224 223
f 559 223 560
f 560 223 608
f 560 608 609
f 609 608 221
f 24 662 610
f 610 662 667
f 610 667 25
f 25 667 668
f 25 668 27
f 27 668 670
f 27 670 30
f 30 670 669
f 30 669 29
f 29 669 611
f 29 611 31
f 31 611 612
f 31 612 34
f 34 612 613
f 34 613 614
f 614 613 674
f 614 674 615
f 615 674 677
f 615 677 616
f 616 677 676
f 616 676 39
f 39 676 617
f 39 617 41
f 41 617 618
f 41 618 619
f 619 618 621
f 619 621 43
f 43 621 620
f 43 620 623
f 623 620 622
f 623 622 46
f 46 622 624
f 46 624 47
f 47 624 625
f 47 625 626
f 626 625 627
f 626 627 48
f 48 627 628
f 48 628 3
f 3 628 644
f 3 644 5
f 5 644 646
f 5 646 6
f 6 646 629
f 6 629 631
f 631 629 630
f 631 630 632
f 632 630 633
f 632 633 634
f 634 633 649
f 634 649 9
f 9 649 652
f 9 652 11
f 11 652 636
f 11 636 12
f 12 636 635
f 12 635 637
f 637 635 638
f 637 638 639
f 639 638 655
f 639 655 16
f 16 655 656
f 16 656 641
f 641 656 640
f 641 640 642
f 642 640 643
f 642 643 21
f 21 643 659
f 21 659 20
f 20 659 664
f 20 664 24
f 24 664 662
f 628 645 644
f 644 645 647
f 644 647 646
f 646 647 648
f 646 648 629
f 629 648 234
f 629 234 630
f 630 234 233
f 630 233 633
f 633 233 650
f 633 650 649
f 649 650 651
f 649 651 652
f 652 651 231
f 652 231 636
f 636 231 237
f 636 237 635
f 635 237 236
f 635 236 638
f 638 236 653
f 638 653 655
f 655 653 654
f 655 654 656
f 656 654 657
f 656 657 640
f 640 657 658
f 640 658 643
f 643 658 660
f 643 660 659
f 659 660 661
f 659 661 664
f 664 661 663
f 664 663 662
f 662 663 666
f 662 666 667
f 667 666 665
f 667 665 668
f 668 665 215
f 668 215 670
f 670 215 214
f 670 214 669
f 669 214 671
f 669 671 611
f 611 671 213
f 611 213 612
f 612 213 672
f 612 672 613
f 613 672 673
f 613 673 674
f 674 673 222
f 674 222 677
f 677 222 675
f 677 675 676
f 676 675 678
f 676 678 617
f 617 678 679
f 617 679 618
f 618 679 680
f 618 680 621
f 621 680 681
f 621 681 620
f 620 681 218
f 620 218 622
f 622 218 683
f 622 683 624
f 624 683 682
f 624 682 625
f 625 682 684
f 625 684 627
f 627 684 685
f 627 685 628
f 628 685 645
f 686 724 860
f 860 724 376
f 739 325 737
f 737 325 324
f 825 378 688
f 825 688 827
f 827 688 687
f 827 687 824
f 824 687 380
f 824 380 821
f 821 380 689
f 821 689 819
f 819 689 384
f 819 384 820
f 820 384 379
f 820 379 690
f 690 379 691
f 690 691 692
f 692 691 693
f 692 693 694
f 694 693 383
f 694 383 842
f 696 847 695
f 696 695 323
f 323 695 861
f 323 861 330
f 330 861 863
f 330 863 331
f 331 863 866
f 331 866 332
f 332 866 868
f 332 868 333
f 333 868 869
f 333 869 335
f 335 869 697
f 335 697 699
f 699 697 698
f 699 698 334
f 334 698 872
f 334 872 336
f 848 757 386
f 848 386 883
f 883 386 700
f 883 700 881
f 881 700 385
f 881 385 879
f 879 385 701
f 879 701 878
f 878 701 702
f 878 702 877
f 877 702 703
f 877 703 876
f 876 703 705
f 876 705 704
f 704 705 382
f 704 382 706
f 706 382 381
f 706 381 1
f 337 904 907
f 337 907 338
f 338 907 908
f 338 908 707
f 707 908 910
f 707 910 708
f 708 910 709
f 708 709 339
f 339 709 710
f 339 710 341
f 341 710 913
f 341 913 340
f 340 913 711
f 340 711 712
f 712 711 714
f 712 714 713
f 713 714 914
f 713 914 715
f 842 383 716
f 842 716 717
f 717 716 718
f 717 718 839
f 839 718 372
f 839 372 837
f 837 372 719
f 837 719 836
f 836 719 720
f 836 720 835
f 835 720 721
f 835 721 832
f 832 721 722
f 832 722 831
f 831 722 725
f 831 725 723
f 723 725 724
f 723 724 686
f 336 872 726
f 336 726 727
f 727 726 729
f 727 729 728
f 728 729 731
f 728 731 730
f 730 731 889
f 730 889 322
f 322 889 732
f 322 732 733
f 733 732 892
f 733 892 734
f 734 892 893
f 734 893 736
f 736 893 735
f 736 735 738
f 738 735 737
f 738 737 324
f 325 739 897
f 325 897 742
f 742 897 741
f 742 741 740
f 740 741 743
f 740 743 328
f 328 743 744
f 328 744 327
f 327 744 899
f 327 899 329
f 329 899 901
f 329 901 745
f 745 901 902
f 745 902 747
f 747 902 746
f 747 746 748
f 748 746 904
f 748 904 337
f 860 376 377
f 860 377 859
f 859 377 375
f 859 375 750
f 750 375 749
f 750 749 855
f 855 749 751
f 855 751 854
f 854 751 753
f 854 753 754
f 754 753 752
f 754 752 755
f 755 752 373
f 755 373 849
f 849 373 374
f 849 374 756
f 756 374 757
f 756 757 848
f 232 758 843
f 843 758 268
f 816 243 240
f 240 243 228
f 167 759 245
f 245 759 246
f 194 193 178
f 178 193 186
f 277 275 780
f 780 275 779
f 797 778 799
f 799 778 276
f 769 760 761
f 761 760 809
f 761 809 371
f 763 765 788
f 788 765 326
f 794 762 785
f 785 762 792
f 785 792 791
f 763 764 765
f 765 764 785
f 765 785 790
f 790 785 791
f 761 766 769
f 769 766 767
f 769 767 806
f 795 773 768
f 777 804 802
f 768 773 774
f 777 813 804
f 804 813 811
f 804 811 772
f 806 770 769
f 769 770 804
f 769 804 771
f 771 804 772
f 794 785 773
f 773 785 784
f 773 784 774
f 795 768 775
f 775 768 781
f 775 781 780
f 802 776 777
f 777 776 800
f 777 800 779
f 779 800 778
f 779 778 780
f 780 778 797
f 780 797 775
f 277 780 781
f 277 781 782
f 782 781 768
f 782 768 783
f 783 768 774
f 783 774 272
f 272 774 784
f 272 784 271
f 271 784 785
f 271 785 258
f 258 785 764
f 258 764 786
f 786 764 763
f 786 763 789
f 789 763 788
f 789 788 787
f 787 788 326
f 787 326 321
f 266 765 790
f 266 790 267
f 267 790 791
f 267 791 259
f 259 791 792
f 259 792 260
f 260 792 762
f 260 762 793
f 793 762 794
f 793 794 261
f 261 794 773
f 261 773 262
f 262 773 795
f 262 795 796
f 796 795 775
f 796 775 798
f 798 775 797
f 798 797 799
f 276 778 800
f 276 800 274
f 274 800 776
f 274 776 269
f 269 776 802
f 269 802 801
f 801 802 804
f 801 804 803
f 803 804 770
f 803 770 805
f 805 770 806
f 805 806 807
f 807 806 767
f 807 767 808
f 808 767 766
f 808 766 264
f 264 766 761
f 264 761 265
f 257 371 809
f 257 809 256
f 256 809 760
f 256 760 255
f 255 760 769
f 255 769 263
f 263 769 771
f 263 771 810
f 810 771 772
f 810 772 270
f 270 772 811
f 270 811 812
f 812 811 813
f 812 813 273
f 273 813 777
f 273 777 814
f 814 777 779
f 814 779 275
f 816 815 249
f 249 815 825
f 240 828 816
f 816 828 815
f 842 241 694
f 694 241 250
f 694 250 692
f 692 250 817
f 692 817 690
f 690 817 818
f 690 818 820
f 820 818 248
f 820 248 819
f 819 248 822
f 819 822 821
f 821 822 247
f 821 247 824
f 824 247 823
f 824 823 827
f 827 823 826
f 827 826 825
f 825 826 249
f 232 278 240
f 240 278 828
f 686 846 723
f 723 846 829
f 723 829 831
f 831 829 830
f 831 830 832
f 832 830 833
f 832 833 835
f 835 833 834
f 835 834 836
f 836 834 242
f 836 242 837
f 837 242 838
f 837 838 839
f 839 838 841
f 839 841 717
f 717 841 840
f 717 840 842
f 842 840 241
f 843 844 232
f 232 844 278
f 860 845 686
f 686 845 846
f 199 847 843
f 843 847 844
f 848 251 756
f 756 251 850
f 756 850 849
f 849 850 851
f 849 851 755
f 755 851 852
f 755 852 754
f 754 852 853
f 754 853 854
f 854 853 244
f 854 244 855
f 855 244 857
f 855 857 750
f 750 857 856
f 750 856 859
f 859 856 858
f 859 858 860
f 860 858 845
f 847 199 695
f 695 199 862
f 695 862 861
f 861 862 207
f 861 207 863
f 863 207 865
f 863 865 866
f 866 865 864
f 866 864 868
f 868 864 867
f 868 867 869
f 869 867 870
f 869 870 697
f 697 870 871
f 697 871 698
f 698 871 208
f 698 208 872
f 872 208 885
f 1 252 706
f 706 252 874
f 706 874 704
f 704 874 873
f 704 873 876
f 876 873 875
f 876 875 877
f 877 875 254
f 877 254 878
f 878 254 253
f 878 253 879
f 879 253 880
f 879 880 881
f 881 880 882
f 881 882 883
f 883 882 884
f 883 884 848
f 848 884 251
f 872 885 726
f 726 885 886
f 726 886 729
f 729 886 887
f 729 887 731
f 731 887 198
f 731 198 889
f 889 198 888
f 889 888 732
f 732 888 890
f 732 890 892
f 892 890 891
f 892 891 893
f 893 891 894
f 893 894 735
f 735 894 895
f 735 895 737
f 737 895 896
f 2 245 1
f 1 245 252
f 205 739 896
f 896 739 737
f 905 167 2
f 2 167 245
f 739 205 897
f 897 205 203
f 897 203 741
f 741 203 204
f 741 204 743
f 743 204 898
f 743 898 744
f 744 898 900
f 744 900 899
f 899 900 192
f 899 192 901
f 901 192 191
f 901 191 902
f 902 191 903
f 902 903 746
f 746 903 197
f 746 197 904
f 904 197 195
f 915 178 905
f 905 178 167
f 904 195 907
f 907 195 906
f 907 906 908
f 908 906 909
f 908 909 910
f 910 909 202
f 910 202 709
f 709 202 911
f 709 911 710
f 710 911 912
f 710 912 913
f 913 912 206
f 913 206 711
f 711 206 200
f 711 200 714
f 714 200 201
f 714 201 914
f 914 201 196
f 916 194 915
f 915 194 178
f 194 916 196
f 196 916 914
# 1852 faces, 0 coords texture

# End of File
