# order is:
# Heading Axis
# Heading
# Position
# Orientation
# Velocity
# AngularVelocity

# Relative Orientation
# Relative Angular Velocity
#----------------

# Heading Axis
 0.000000 1.000000 0.000000
# Heading
0.000000

0.000000 -0.007701 0.129739
1.000000 0.000000 0.000000 0.000000
0.000000 0.000000 0.000000
0.000000 0.000000 0.000000

1.000000 -0.000000 -0.000000 -0.000000
0.000000 0.000000 0.000000

1.000000 -0.000000 0.000000 -0.000000
0.000000 0.000000 0.000000

1.000000 -0.000000 -0.000000 -0.000000
0.000000 0.000000 0.000000

1.000000 -0.000000 0.000000 -0.000000
0.000000 0.000000 0.000000

1.000000 0.000000 0.000000 -0.000000
0.000000 0.000000 0.000000

0.819152 0.405579 -0.000000 0.405581
0.000000 0.000000 0.000000

0.819152 0.405579 0.000000 -0.405580
0.000000 0.000000 0.000000

0.819152 -0.405579 -0.000000 0.405581
0.000000 0.000000 0.000000

0.819152 -0.405579 -0.000001 -0.405581
0.000000 0.000000 0.000000

0.991445 -0.130526 0.000000 0.000000
0.000000 0.000000 0.000000

0.737277 -0.477713 0.000000 -0.477716
0.000000 0.000000 0.000000

0.737277 -0.477714 -0.000001 0.477714
0.000000 0.000000 0.000000

0.737277 0.477714 0.000000 -0.477715
0.000000 0.000000 0.000000

0.737277 0.477714 0.000002 0.477714
0.000000 0.000000 0.000000

0.953717 0.300706 0.000000 -0.000001
0.000000 0.000000 0.000000

0.675590 0.521333 -0.000000 0.521335
0.000000 0.000000 0.000000

0.675590 0.521335 0.000003 -0.521333
0.000000 0.000000 0.000000

0.675590 -0.521333 -0.000000 0.521335
0.000000 0.000000 0.000000

0.675590 -0.521336 -0.000005 -0.521332
0.000000 0.000000 0.000000

