solid OpenSCAD_Model
  facet normal -1 0 0
    outer loop
      vertex -0.0119991 -0.0150042 -0.0120993
      vertex -0.0119991 0.0150042 0.0120993
      vertex -0.0119991 0.0150042 -0.0120993
    endloop
  endfacet
  facet normal -1 -0 0
    outer loop
      vertex -0.0119991 0.0150042 0.0120993
      vertex -0.0119991 -0.0150042 -0.0120993
      vertex -0.0119991 -0.0150042 0.0120993
    endloop
  endfacet
  facet normal 0 0 1
    outer loop
      vertex 0.0119991 0.0150042 0.0120993
      vertex 0.00809956 0 0.0120993
      vertex 0.0119991 -0.0150042 0.0120993
    endloop
  endfacet
  facet normal 0 0 1
    outer loop
      vertex 0.0119991 0.0150042 0.0120993
      vertex -0.0040493 0.00701427 0.0120993
      vertex 0.00809956 0 0.0120993
    endloop
  endfacet
  facet normal 0 0 1
    outer loop
      vertex -0.0040493 0.00701427 0.0120993
      vertex -0.0119991 0.0150042 0.0120993
      vertex -0.0040493 -0.00701427 0.0120993
    endloop
  endfacet
  facet normal -0 0 1
    outer loop
      vertex -0.0119991 0.0150042 0.0120993
      vertex -0.0040493 0.00701427 0.0120993
      vertex 0.0119991 0.0150042 0.0120993
    endloop
  endfacet
  facet normal -0 0 1
    outer loop
      vertex -0.0040493 -0.00701427 0.0120993
      vertex 0.0119991 -0.0150042 0.0120993
      vertex 0.00809956 0 0.0120993
    endloop
  endfacet
  facet normal 0 0 1
    outer loop
      vertex -0.0040493 -0.00701427 0.0120993
      vertex -0.0119991 -0.0150042 0.0120993
      vertex 0.0119991 -0.0150042 0.0120993
    endloop
  endfacet
  facet normal 0 0 1
    outer loop
      vertex -0.0119991 -0.0150042 0.0120993
      vertex -0.0040493 -0.00701427 0.0120993
      vertex -0.0119991 0.0150042 0.0120993
    endloop
  endfacet
  facet normal 1 -0 0
    outer loop
      vertex 0.0119991 -0.0150042 0.0120993
      vertex 0.0119991 0.0150042 -0.0120993
      vertex 0.0119991 0.0150042 0.0120993
    endloop
  endfacet
  facet normal 1 0 0
    outer loop
      vertex 0.0119991 0.0150042 -0.0120993
      vertex 0.0119991 -0.0150042 0.0120993
      vertex 0.0119991 -0.0150042 -0.0120993
    endloop
  endfacet
  facet normal 0 0 -1
    outer loop
      vertex -0.0119991 -0.0150042 -0.0120993
      vertex 0.0119991 0.0150042 -0.0120993
      vertex 0.0119991 -0.0150042 -0.0120993
    endloop
  endfacet
  facet normal -0 0 -1
    outer loop
      vertex 0.0119991 0.0150042 -0.0120993
      vertex -0.0119991 -0.0150042 -0.0120993
      vertex -0.0119991 0.0150042 -0.0120993
    endloop
  endfacet
  facet normal 0 -1 0
    outer loop
      vertex -0.0119991 -0.0150042 -0.0120993
      vertex 0.0119991 -0.0150042 0.0120993
      vertex -0.0119991 -0.0150042 0.0120993
    endloop
  endfacet
  facet normal 0 -1 -0
    outer loop
      vertex 0.0119991 -0.0150042 0.0120993
      vertex -0.0119991 -0.0150042 -0.0120993
      vertex 0.0119991 -0.0150042 -0.0120993
    endloop
  endfacet
  facet normal 0 1 -0
    outer loop
      vertex 0.0119991 0.0150042 -0.0120993
      vertex -0.0119991 0.0150042 0.0120993
      vertex 0.0119991 0.0150042 0.0120993
    endloop
  endfacet
  facet normal 0 1 0
    outer loop
      vertex -0.0119991 0.0150042 0.0120993
      vertex 0.0119991 0.0150042 -0.0120993
      vertex -0.0119991 0.0150042 -0.0120993
    endloop
  endfacet
  facet normal 1 -0 0
    outer loop
      vertex -0.0040493 -0.00701427 0.0120993
      vertex -0.0040493 0.00701427 0.00409412
      vertex -0.0040493 0.00701427 0.0120993
    endloop
  endfacet
  facet normal 1 0 0
    outer loop
      vertex -0.0040493 0.00701427 0.00409412
      vertex -0.0040493 -0.00701427 0.0120993
      vertex -0.0040493 -0.00701427 0.00409412
    endloop
  endfacet
  facet normal -0.500007 -0.866021 0
    outer loop
      vertex -0.0040493 0.00701427 0.00409412
      vertex 0.00809956 0 0.0120993
      vertex -0.0040493 0.00701427 0.0120993
    endloop
  endfacet
  facet normal -0.500007 -0.866021 -0
    outer loop
      vertex 0.00809956 0 0.0120993
      vertex -0.0040493 0.00701427 0.00409412
      vertex 0.00809956 0 0.00409412
    endloop
  endfacet
  facet normal -0.500007 0.866021 0
    outer loop
      vertex 0.00809956 0 0.00409412
      vertex -0.0040493 -0.00701427 0.0120993
      vertex 0.00809956 0 0.0120993
    endloop
  endfacet
  facet normal -0.500007 0.866021 0
    outer loop
      vertex -0.0040493 -0.00701427 0.0120993
      vertex 0.00809956 0 0.00409412
      vertex -0.0040493 -0.00701427 0.00409412
    endloop
  endfacet
  facet normal 0 0 1
    outer loop
      vertex 0.00809956 0 0.00409412
      vertex -0.00194931 0.00337696 0.00409412
      vertex 0.00389957 0 0.00409412
    endloop
  endfacet
  facet normal 0 0 1
    outer loop
      vertex -0.00194931 0.00337696 0.00409412
      vertex -0.0040493 0.00701427 0.00409412
      vertex -0.00194931 -0.00337696 0.00409412
    endloop
  endfacet
  facet normal 0 0 1
    outer loop
      vertex -0.0040493 0.00701427 0.00409412
      vertex -0.00194931 0.00337696 0.00409412
      vertex 0.00809956 0 0.00409412
    endloop
  endfacet
  facet normal 0 0 1
    outer loop
      vertex -0.00194931 -0.00337696 0.00409412
      vertex 0.00809956 0 0.00409412
      vertex 0.00389957 0 0.00409412
    endloop
  endfacet
  facet normal -0 0 1
    outer loop
      vertex -0.00194931 -0.00337696 0.00409412
      vertex -0.0040493 -0.00701427 0.00409412
      vertex 0.00809956 0 0.00409412
    endloop
  endfacet
  facet normal 0 0 1
    outer loop
      vertex -0.0040493 -0.00701427 0.00409412
      vertex -0.00194931 -0.00337696 0.00409412
      vertex -0.0040493 0.00701427 0.00409412
    endloop
  endfacet
  facet normal -1 0 0
    outer loop
      vertex -0.00194931 -0.00337696 0.00409412
      vertex -0.00194931 0.00337696 0.012105
      vertex -0.00194931 0.00337696 0.00409412
    endloop
  endfacet
  facet normal -1 -0 0
    outer loop
      vertex -0.00194931 0.00337696 0.012105
      vertex -0.00194931 -0.00337696 0.00409412
      vertex -0.00194931 -0.00337696 0.012105
    endloop
  endfacet
  facet normal 0.500012 0.866019 -0
    outer loop
      vertex 0.00389957 0 0.00409412
      vertex -0.00194931 0.00337696 0.012105
      vertex 0.00389957 0 0.012105
    endloop
  endfacet
  facet normal 0.500012 0.866019 0
    outer loop
      vertex -0.00194931 0.00337696 0.012105
      vertex 0.00389957 0 0.00409412
      vertex -0.00194931 0.00337696 0.00409412
    endloop
  endfacet
  facet normal 0.500012 -0.866019 0
    outer loop
      vertex -0.00194931 -0.00337696 0.00409412
      vertex 0.00389957 0 0.012105
      vertex -0.00194931 -0.00337696 0.012105
    endloop
  endfacet
  facet normal 0.500012 -0.866019 0
    outer loop
      vertex 0.00389957 0 0.012105
      vertex -0.00194931 -0.00337696 0.00409412
      vertex 0.00389957 0 0.00409412
    endloop
  endfacet
  facet normal 0 0 1
    outer loop
      vertex -0.00194931 0.00337696 0.012105
      vertex -0.00194931 -0.00337696 0.012105
      vertex 0.00389957 0 0.012105
    endloop
  endfacet
endsolid OpenSCAD_Model
