solid OpenSCAD_Model
  facet normal -1 0 0
    outer loop
      vertex -0.0119991 -0.0150042 -0.0120993
      vertex -0.0119991 0.0150042 0.0120993
      vertex -0.0119991 0.0150042 -0.0120993
    endloop
  endfacet
  facet normal -1 -0 0
    outer loop
      vertex -0.0119991 0.0150042 0.0120993
      vertex -0.0119991 -0.0150042 -0.0120993
      vertex -0.0119991 -0.0150042 0.0120993
    endloop
  endfacet
  facet normal 0 0 1
    outer loop
      vertex 0.0119991 0.0150042 0.0120993
      vertex 0.00819969 0 0.0120993
      vertex 0.0119991 -0.0150042 0.0120993
    endloop
  endfacet
  facet normal 0 0 1
    outer loop
      vertex 0.0119991 0.0150042 0.0120993
      vertex -0.00409985 0.00710106 0.0120993
      vertex 0.00819969 0 0.0120993
    endloop
  endfacet
  facet normal 0 0 1
    outer loop
      vertex -0.00409985 0.00710106 0.0120993
      vertex -0.0119991 0.0150042 0.0120993
      vertex -0.00409985 -0.00710106 0.0120993
    endloop
  endfacet
  facet normal -0 0 1
    outer loop
      vertex -0.0119991 0.0150042 0.0120993
      vertex -0.00409985 0.00710106 0.0120993
      vertex 0.0119991 0.0150042 0.0120993
    endloop
  endfacet
  facet normal -0 0 1
    outer loop
      vertex -0.00409985 -0.00710106 0.0120993
      vertex 0.0119991 -0.0150042 0.0120993
      vertex 0.00819969 0 0.0120993
    endloop
  endfacet
  facet normal 0 0 1
    outer loop
      vertex -0.00409985 -0.00710106 0.0120993
      vertex -0.0119991 -0.0150042 0.0120993
      vertex 0.0119991 -0.0150042 0.0120993
    endloop
  endfacet
  facet normal 0 0 1
    outer loop
      vertex -0.0119991 -0.0150042 0.0120993
      vertex -0.00409985 -0.00710106 0.0120993
      vertex -0.0119991 0.0150042 0.0120993
    endloop
  endfacet
  facet normal 1 -0 0
    outer loop
      vertex 0.0119991 -0.0150042 0.0120993
      vertex 0.0119991 0.0150042 -0.0120993
      vertex 0.0119991 0.0150042 0.0120993
    endloop
  endfacet
  facet normal 1 0 0
    outer loop
      vertex 0.0119991 0.0150042 -0.0120993
      vertex 0.0119991 -0.0150042 0.0120993
      vertex 0.0119991 -0.0150042 -0.0120993
    endloop
  endfacet
  facet normal 0 0 -1
    outer loop
      vertex -0.0119991 -0.0150042 -0.0120993
      vertex 0.0119991 0.0150042 -0.0120993
      vertex 0.0119991 -0.0150042 -0.0120993
    endloop
  endfacet
  facet normal -0 0 -1
    outer loop
      vertex 0.0119991 0.0150042 -0.0120993
      vertex -0.0119991 -0.0150042 -0.0120993
      vertex -0.0119991 0.0150042 -0.0120993
    endloop
  endfacet
  facet normal 0 -1 0
    outer loop
      vertex -0.0119991 -0.0150042 -0.0120993
      vertex 0.0119991 -0.0150042 0.0120993
      vertex -0.0119991 -0.0150042 0.0120993
    endloop
  endfacet
  facet normal 0 -1 -0
    outer loop
      vertex 0.0119991 -0.0150042 0.0120993
      vertex -0.0119991 -0.0150042 -0.0120993
      vertex 0.0119991 -0.0150042 -0.0120993
    endloop
  endfacet
  facet normal 0 1 -0
    outer loop
      vertex 0.0119991 0.0150042 -0.0120993
      vertex -0.0119991 0.0150042 0.0120993
      vertex 0.0119991 0.0150042 0.0120993
    endloop
  endfacet
  facet normal 0 1 0
    outer loop
      vertex -0.0119991 0.0150042 0.0120993
      vertex 0.0119991 0.0150042 -0.0120993
      vertex -0.0119991 0.0150042 -0.0120993
    endloop
  endfacet
  facet normal 1 -0 0
    outer loop
      vertex -0.00409985 -0.00710106 0.0120993
      vertex -0.00409985 0.00710106 0.00409412
      vertex -0.00409985 0.00710106 0.0120993
    endloop
  endfacet
  facet normal 1 0 0
    outer loop
      vertex -0.00409985 0.00710106 0.00409412
      vertex -0.00409985 -0.00710106 0.0120993
      vertex -0.00409985 -0.00710106 0.00409412
    endloop
  endfacet
  facet normal -0.499996 -0.866028 0
    outer loop
      vertex -0.00409985 0.00710106 0.00409412
      vertex 0.00819969 0 0.0120993
      vertex -0.00409985 0.00710106 0.0120993
    endloop
  endfacet
  facet normal -0.499996 -0.866028 -0
    outer loop
      vertex 0.00819969 0 0.0120993
      vertex -0.00409985 0.00710106 0.00409412
      vertex 0.00819969 0 0.00409412
    endloop
  endfacet
  facet normal -0.499996 0.866028 0
    outer loop
      vertex 0.00819969 0 0.00409412
      vertex -0.00409985 -0.00710106 0.0120993
      vertex 0.00819969 0 0.0120993
    endloop
  endfacet
  facet normal -0.499996 0.866028 0
    outer loop
      vertex -0.00409985 -0.00710106 0.0120993
      vertex 0.00819969 0 0.00409412
      vertex -0.00409985 -0.00710106 0.00409412
    endloop
  endfacet
  facet normal 0 0 1
    outer loop
      vertex 0.00819969 0 0.00409412
      vertex -0.00189972 0.00329018 0.00409412
      vertex 0.00379944 0 0.00409412
    endloop
  endfacet
  facet normal 0 0 1
    outer loop
      vertex -0.00189972 0.00329018 0.00409412
      vertex -0.00409985 0.00710106 0.00409412
      vertex -0.00189972 -0.00329018 0.00409412
    endloop
  endfacet
  facet normal 0 0 1
    outer loop
      vertex -0.00409985 0.00710106 0.00409412
      vertex -0.00189972 0.00329018 0.00409412
      vertex 0.00819969 0 0.00409412
    endloop
  endfacet
  facet normal 0 0 1
    outer loop
      vertex -0.00189972 -0.00329018 0.00409412
      vertex 0.00819969 0 0.00409412
      vertex 0.00379944 0 0.00409412
    endloop
  endfacet
  facet normal -0 0 1
    outer loop
      vertex -0.00189972 -0.00329018 0.00409412
      vertex -0.00409985 -0.00710106 0.00409412
      vertex 0.00819969 0 0.00409412
    endloop
  endfacet
  facet normal 0 0 1
    outer loop
      vertex -0.00409985 -0.00710106 0.00409412
      vertex -0.00189972 -0.00329018 0.00409412
      vertex -0.00409985 0.00710106 0.00409412
    endloop
  endfacet
  facet normal -1 0 0
    outer loop
      vertex -0.00189972 -0.00329018 0.00409412
      vertex -0.00189972 0.00329018 0.012105
      vertex -0.00189972 0.00329018 0.00409412
    endloop
  endfacet
  facet normal -1 -0 0
    outer loop
      vertex -0.00189972 0.00329018 0.012105
      vertex -0.00189972 -0.00329018 0.00409412
      vertex -0.00189972 -0.00329018 0.012105
    endloop
  endfacet
  facet normal 0.499973 0.866041 -0
    outer loop
      vertex 0.00379944 0 0.00409412
      vertex -0.00189972 0.00329018 0.012105
      vertex 0.00379944 0 0.012105
    endloop
  endfacet
  facet normal 0.499973 0.866041 0
    outer loop
      vertex -0.00189972 0.00329018 0.012105
      vertex 0.00379944 0 0.00409412
      vertex -0.00189972 0.00329018 0.00409412
    endloop
  endfacet
  facet normal 0.499973 -0.866041 0
    outer loop
      vertex -0.00189972 -0.00329018 0.00409412
      vertex 0.00379944 0 0.012105
      vertex -0.00189972 -0.00329018 0.012105
    endloop
  endfacet
  facet normal 0.499973 -0.866041 0
    outer loop
      vertex 0.00379944 0 0.012105
      vertex -0.00189972 -0.00329018 0.00409412
      vertex 0.00379944 0 0.00409412
    endloop
  endfacet
  facet normal 0 0 1
    outer loop
      vertex -0.00189972 0.00329018 0.012105
      vertex -0.00189972 -0.00329018 0.012105
      vertex 0.00379944 0 0.012105
    endloop
  endfacet
endsolid OpenSCAD_Model
