####
#
#	OBJ File Generated by LightWave3D
#	LightWave3D OBJ Export v2.2
#
####
#	Object: 1
#
#	                Vertices: 225
#	                  Points: 0
#	                   Lines: 0
#	                   Faces: 446
#	               Materials: 2
#
####

o 1

#	             Vertex list

v -3.3715 0.620189 -7.12563
v -3.37165 -2.2 -7.39777
v -2.90751 1.53896 7.59895
v -2.73104 -2.04985 7.68161
v -2.06222 1.74523 6.42716
v -3.52672 -2.12912 6.48904
v -3.20498 1.48459 3.40928
v -3.48403 -2.20485 3.36147
v -3.44739 1.2523 -3.86221
v -3.48403 -2.20485 -3.86652
v -3.40851 0.804264 -6.57797
v -3.4833 -2.2 -6.80059
v -3.42888 1.15146 -5.33898
v -3.02197 1.71263 4.83281
v -3.3715 -0.645036 -7.44955
v -3.1516 0.31354 7.80089
v -3.82282 -0.236957 6.0186
v -3.81282 -0.304499 3.76127
v -3.81457 -0.272242 -4.3789
v -3.80763 -0.319202 -6.37968
v -3.87015 0.0110073 -5.32831
v -3.87015 0.0831813 4.94693
v -3.22533 1.27578 -2.47186
v -3.48403 -2.20485 -2.52427
v -3.76751 0.234366 -2.51964
v -3.34376 1.23587 2.57199
v -3.48403 -2.20485 2.64311
v -3.65465 0.234366 2.64771
v -3.68582 -1.16368 3.34613
v -3.6822 -1.16693 -3.91627
v -3.67724 -1.13343 -2.51456
v -3.67724 -1.13343 2.6528
v -3.3715 -1.50733 -7.4113
v -3.66778 -1.39615 -6.80612
v -2.98323 -0.810407 7.79968
v -3.69336 -1.11279 6.47712
v -2.18312 2.77585 4.08886
v -2.31264 3.0995 2.66847
v -2.27564 3.03568 3.21687
v -2.5717 2.76164 -0.696916
v -2.36261 3.13235 2.13221
v -3.40851 1.26506 -0.235277
v -3.48403 -2.20485 -0.244979
v -3.69349 0.234366 -0.252261
v -3.67724 -1.13343 -0.235277
v -2.48843 3.00262 -0.087687
v -3.21989 0.343792 -7.33132
v -3.12196 -0.347576 -7.62435
v -3.11194 0.332782 -7.34262
v -3.01012 -0.209858 -7.61873
v -1.2581 3.22753 2.15428
v -1.2581 3.12359 -0.0856059
v -1.2581 3.19471 2.66847
v -1.74682 1.52303 8.15439
v -1.37155 1.81571 6.58893
v -1.72605 1.41232 -3.00454
v -1.64144 1.38731 -3.85759
v -1.48957 1.28216 -5.36894
v -1.17384 0.80879 -7.53599
v -1.84771 -1.04296 -8.08331
v -2.07089 -1.69861 -8.02174
v -1.74682 -0.733549 8.2392
v -1.74682 0.380208 8.3121
v -1.68575 0.526406 -7.8839
v -1.68576 -2.2 -7.99451
v -1.2581 3.13089 3.21687
v -1.74201 -2.20809 2.64311
v -1.24884 2.85888 4.20218
v -1.74201 -2.20809 -2.52427
v -1.74201 -2.20809 -0.244979
v -1.32332 2.83899 -1.07012
v -1.56098 -0.506388 -8.08402
v -1.60994 0.294905 -7.95019
v -1.50506 -0.348003 -8.01252
v -1.55597 0.292909 -7.89526
v -1.83959 -1.09682 -8.00927
v -1.99893 -1.56832 -7.97034
v -3.14765 1.64824 6.21728
v -1.72796 -2.02022 8.02714
v -1.34686 1.47426 -3.22077
v -1.28909 1.46925 -3.88582
v -1.21541 1.3641 -5.40322
v 3.3715 0.620189 -7.12563
v 3.37165 -2.2 -7.39777
v 2.90749 1.53896 7.59895
v 2.73105 -2.04985 7.68161
v 2.06222 1.74523 6.42716
v 3.5267 -2.12912 6.48904
v 3.20497 1.48459 3.40928
v 3.48403 -2.20485 3.36147
v 3.44736 1.2523 -3.86221
v 3.48403 -2.20485 -3.86652
v 3.40851 0.804264 -6.57797
v 3.48328 -2.2 -6.80059
v 3.42886 1.15146 -5.33898
v 3.02196 1.71263 4.83281
v 3.3715 -0.645036 -7.44955
v 3.1516 0.31354 7.80089
v 3.82282 -0.236957 6.0186
v 3.81282 -0.304499 3.76127
v 3.81457 -0.272242 -4.3789
v 3.80763 -0.319202 -6.37968
v 3.87015 0.0110073 -5.32831
v 3.87015 0.0831813 4.94693
v 3.22531 1.27578 -2.47186
v 3.48403 -2.20485 -2.52427
v 3.76751 0.234366 -2.51964
v 3.34375 1.23587 2.57199
v 3.48403 -2.20485 2.64311
v 3.65465 0.234366 2.64771
v 3.68582 -1.16368 3.34613
v 3.6822 -1.16693 -3.91627
v 3.67724 -1.13343 -2.51456
v 3.67724 -1.13343 2.6528
v 3.3715 -1.50733 -7.4113
v 3.66775 -1.39615 -6.80612
v 2.98323 -0.810407 7.79968
v 3.69336 -1.11279 6.47712
v 2.1831 2.77585 4.08886
v 2.31263 3.0995 2.66847
v 2.27563 3.03568 3.21687
v 2.5717 2.76164 -0.696916
v 2.3626 3.13235 2.13221
v 3.40851 1.26506 -0.235277
v 3.48403 -2.20485 -0.244979
v 3.69349 0.234366 -0.252261
v 3.67724 -1.13343 -0.235277
v 2.48843 3.00262 -0.087687
v -2.83576e-006 0.432622 -8.40357
v -2.83576e-006 -2.2 -8.3517
v -2.83594e-006 1.56344 8.4624
v -2.83592e-006 1.85138 6.67378
v -2.83592e-006 -2.11756 6.48948
v -2.83588e-006 -2.21133 3.36147
v -2.83581e-006 -2.21133 -3.86652
v -2.83577e-006 0.813315 -7.83558
v -2.83578e-006 -2.2 -6.80372
v -2.83576e-006 -1.16787 -8.61868
v -2.83594e-006 0.425923 8.61868
v -2.83582e-006 1.67015 -2.94562
v -2.83582e-006 -2.21133 -2.52427
v -2.83588e-006 -2.21133 2.64311
v -2.83576e-006 -1.80862 -8.5783
v -2.83594e-006 -0.725849 8.54737
v -2.83589e-006 2.94193 4.20678
v -2.83588e-006 3.28992 2.66847
v -2.83588e-006 3.2261 3.21687
v -2.83584e-006 2.91635 -1.14917
v -2.83587e-006 3.32273 2.15428
v -2.83585e-006 -2.21133 -0.244983
v -2.83585e-006 3.24452 -0.0835221
v 3.21988 0.343792 -7.33132
v 3.12196 -0.347576 -7.62435
v -2.83576e-006 0.235684 -8.45126
v -2.83576e-006 -0.672963 -8.58011
v 3.11193 0.332782 -7.34262
v 3.01012 -0.209858 -7.61873
v -2.83576e-006 0.242704 -8.3301
v -2.83576e-006 -0.493942 -8.44269
v 1.2581 3.22753 2.15428
v 1.2581 3.12359 -0.0856059
v 1.2581 3.19471 2.66847
v 2.63043 -2.20809 3.36147
v 2.78279 -1.16368 3.34613
v 1.74681 1.52303 8.15439
v 1.37155 1.81571 6.58893
v 1.72604 1.41232 -3.00454
v 1.64143 1.38731 -3.85759
v 1.48957 1.28216 -5.36894
v 1.17383 0.80879 -7.53599
v 1.8477 -1.04296 -8.08331
v 2.07088 -1.69861 -8.02174
v 1.74681 -0.733549 8.2392
v 2.66267 -2.12334 6.48926
v 2.87869 -0.304499 3.76127
v 2.87475 -0.356472 -6.37968
v 2.92196 -0.0219478 -5.32831
v 1.74681 0.380208 8.3121
v 1.68575 0.526406 -7.8839
v 2.78005 -1.21288 -3.91627
v 2.63043 -2.20809 -3.86652
v 1.68576 -2.2 -7.99451
v 2.62979 -2.2 -6.80215
v 1.2581 3.13089 3.21687
v 2.88 -0.309067 -4.3789
v 1.74201 -2.20809 2.64311
v 1.24884 2.85888 4.20218
v 2.76916 -1.37727 -6.80612
v 1.74201 -2.20809 -2.52427
v 1.74201 -2.20809 -0.244979
v 2.78848 -1.11279 6.47712
v 2.92196 0.0831813 4.94693
v 2.88623 -0.236957 6.0186
v 1.32332 2.83899 -1.07012
v 1.56098 -0.506388 -8.08402
v 1.60993 0.294905 -7.95019
v 1.50506 -0.348003 -8.01252
v 1.55597 0.292909 -7.89526
v -2.83576e-006 -1.1949 -8.50718
v -2.83576e-006 -1.64135 -8.47163
v 1.83959 -1.09682 -8.00927
v 1.99893 -1.56832 -7.97034
v 3.14764 1.64824 6.21728
v -2.83593e-006 -2.00556 8.33636
v 1.72796 -2.02022 8.02714
v -2.83581e-006 1.60422 -3.86368
v -2.83579e-006 1.49483 -5.41804
v -2.83582e-006 1.65209 -3.26407
v 1.34684 1.47426 -3.22077
v 1.28909 1.46925 -3.88582
v 1.2154 1.3641 -5.40322
v -2.8787 -0.304499 3.76127
v -2.62979 -2.2 -6.80215
v -2.76917 -1.37727 -6.80612
v -2.87476 -0.356472 -6.37968
v -2.92196 -0.0219478 -5.32831
v -2.88 -0.309067 -4.3789
v -2.78006 -1.21288 -3.91627
v -2.63044 -2.20809 -3.86652
v -2.63044 -2.20809 3.36147
v -2.7828 -1.16368 3.34613
v -2.92196 0.0831813 4.94693
v -2.88624 -0.236957 6.0186
v -2.66268 -2.12334 6.48926
v -2.78849 -1.11279 6.47712

#	               Face list

usemtl None
f 35 36 4
f 4 36 6
f 8 29 27
f 29 32 27
f 34 33 12
f 12 33 2
f 5 14 78
f 5 78 3
f 3 78 16
f 16 78 17
f 7 26 28
f 9 13 21
f 11 1 20
f 20 1 15
f 13 11 21
f 21 11 20
f 31 30 24
f 24 30 10
f 23 9 25
f 32 45 27
f 27 45 43
f 28 26 44
f 26 42 44
f 18 32 29
f 18 28 32
f 31 25 30
f 25 19 30
f 32 28 45
f 28 44 45
f 20 15 34
f 34 15 33
f 16 17 35
f 35 17 36
f 38 41 26
f 7 38 26
f 37 39 14
f 5 37 14
f 41 46 26
f 46 42 26
f 39 38 7
f 14 39 7
f 45 31 43
f 43 31 24
f 42 23 44
f 44 23 25
f 45 44 31
f 44 25 31
f 46 40 42
f 40 23 42
f 51 151 52
f 149 151 51
f 149 51 53
f 146 149 53
f 132 55 131
f 131 55 54
f 60 76 77
f 60 77 61
f 140 80 56
f 140 208 80
f 139 63 144
f 144 63 62
f 64 59 129
f 59 136 129
f 137 65 130
f 213 65 137
f 146 53 66
f 147 146 66
f 220 67 134
f 134 67 142
f 145 68 132
f 132 68 55
f 141 69 135
f 69 219 135
f 131 54 139
f 139 54 63
f 147 66 68
f 145 147 68
f 70 69 150
f 150 69 141
f 67 70 142
f 142 70 150
f 48 72 60
f 15 48 60
f 65 143 130
f 61 143 65
f 52 148 71
f 52 151 148
f 71 140 56
f 71 148 140
f 47 49 50
f 47 50 48
f 47 48 15
f 1 47 15
f 73 129 154
f 64 129 73
f 74 158 159
f 75 158 74
f 158 75 154
f 75 73 154
f 50 74 72
f 48 50 72
f 41 52 46
f 41 51 52
f 51 41 38
f 53 51 38
f 221 29 8
f 221 8 220
f 55 5 54
f 5 3 54
f 56 57 9
f 23 56 9
f 58 59 11
f 13 58 11
f 33 60 61
f 15 60 33
f 212 18 29
f 212 29 221
f 216 21 20
f 216 20 215
f 57 58 13
f 9 57 13
f 63 16 35
f 62 63 35
f 1 11 64
f 11 59 64
f 10 218 219
f 30 218 10
f 213 12 2
f 213 2 65
f 53 38 39
f 66 53 39
f 19 216 217
f 21 216 19
f 8 27 220
f 220 27 67
f 68 37 5
f 55 68 5
f 215 20 34
f 214 215 34
f 69 24 219
f 24 10 219
f 54 3 63
f 63 3 16
f 66 39 37
f 68 66 37
f 43 24 70
f 70 24 69
f 225 224 6
f 36 225 6
f 30 217 218
f 19 217 30
f 17 222 223
f 22 222 17
f 27 43 67
f 67 43 70
f 222 22 18
f 222 18 212
f 72 155 138
f 60 72 138
f 2 61 65
f 33 61 2
f 36 223 225
f 17 223 36
f 214 34 12
f 214 12 213
f 52 71 40
f 46 52 40
f 40 56 23
f 40 71 56
f 47 64 73
f 1 64 47
f 50 75 74
f 49 75 50
f 49 73 75
f 49 47 73
f 74 159 155
f 72 74 155
f 77 76 200
f 76 199 200
f 60 138 199
f 76 60 199
f 61 77 143
f 77 200 143
f 78 22 17
f 79 4 224
f 224 4 6
f 62 35 79
f 79 35 4
f 80 208 81
f 208 206 81
f 206 207 82
f 81 206 82
f 81 82 58
f 57 81 58
f 80 81 57
f 56 80 57
f 58 82 59
f 207 136 59
f 82 207 59
f 133 79 224
f 204 79 133
f 144 62 204
f 204 62 79
f 118 86 88
f 118 117 86
f 111 90 109
f 114 111 109
f 115 94 84
f 115 116 94
f 96 87 203
f 203 87 85
f 203 98 99
f 203 85 98
f 108 89 110
f 95 91 103
f 83 102 97
f 83 93 102
f 93 103 102
f 93 95 103
f 112 106 92
f 112 113 106
f 91 105 107
f 127 109 125
f 127 114 109
f 108 110 126
f 124 108 126
f 114 100 111
f 110 100 114
f 107 113 112
f 101 107 112
f 110 114 127
f 126 110 127
f 97 116 115
f 97 102 116
f 99 117 118
f 99 98 117
f 120 89 108
f 123 120 108
f 119 87 96
f 121 119 96
f 128 123 108
f 124 128 108
f 121 96 89
f 120 121 89
f 113 125 106
f 113 127 125
f 105 126 107
f 105 124 126
f 126 127 113
f 107 126 113
f 122 128 124
f 105 122 124
f 151 149 160
f 151 160 161
f 149 146 162
f 160 149 162
f 166 132 131
f 166 131 165
f 201 171 202
f 202 171 172
f 208 140 209
f 209 140 167
f 178 139 144
f 178 144 173
f 136 170 129
f 170 179 129
f 182 137 130
f 182 183 137
f 146 147 184
f 162 146 184
f 186 134 142
f 186 163 134
f 187 145 132
f 187 132 166
f 189 141 135
f 181 189 135
f 165 131 139
f 165 139 178
f 147 145 187
f 184 147 187
f 189 150 141
f 189 190 150
f 190 142 150
f 190 186 142
f 153 97 171
f 195 153 171
f 143 182 130
f 143 172 182
f 148 161 194
f 151 161 148
f 140 194 167
f 148 194 140
f 156 152 157
f 157 152 153
f 152 83 97
f 153 152 97
f 129 196 154
f 129 179 196
f 158 197 159
f 158 198 197
f 198 158 154
f 196 198 154
f 157 153 195
f 197 157 195
f 160 123 161
f 161 123 128
f 160 162 120
f 123 160 120
f 90 164 163
f 111 164 90
f 87 166 165
f 85 87 165
f 168 167 91
f 167 105 91
f 170 169 93
f 169 95 93
f 171 115 172
f 171 97 115
f 111 175 164
f 100 175 111
f 102 177 176
f 103 177 102
f 169 168 95
f 168 91 95
f 178 173 117
f 98 178 117
f 170 93 179
f 93 83 179
f 180 92 181
f 180 112 92
f 84 183 182
f 94 183 84
f 162 184 121
f 120 162 121
f 177 101 185
f 177 103 101
f 109 163 186
f 109 90 163
f 187 166 87
f 119 187 87
f 176 188 116
f 102 176 116
f 106 189 181
f 92 106 181
f 85 165 178
f 85 178 98
f 184 187 119
f 121 184 119
f 106 190 189
f 106 125 190
f 174 191 88
f 191 118 88
f 185 112 180
f 185 101 112
f 192 99 193
f 192 104 99
f 125 186 190
f 125 109 186
f 100 192 175
f 104 192 100
f 195 171 138
f 155 195 138
f 172 84 182
f 172 115 84
f 193 118 191
f 193 99 118
f 94 188 183
f 116 188 94
f 194 161 122
f 161 128 122
f 194 122 167
f 167 122 105
f 179 152 196
f 179 83 152
f 198 157 197
f 198 156 157
f 196 156 198
f 152 156 196
f 159 197 155
f 197 195 155
f 199 201 200
f 201 202 200
f 138 171 199
f 171 201 199
f 202 172 143
f 200 202 143
f 104 203 99
f 86 205 174
f 86 174 88
f 117 173 205
f 117 205 86
f 208 209 210
f 206 208 210
f 207 206 211
f 206 210 211
f 210 168 169
f 211 210 169
f 209 167 168
f 210 209 168
f 211 169 170
f 136 207 170
f 207 211 170
f 205 204 133
f 205 133 174
f 173 144 204
f 173 204 205
usemtl Default
f 133 224 220
f 133 220 134
f 163 133 134
f 174 133 163
f 181 135 183
f 183 135 137
f 135 213 137
f 135 219 213
f 164 191 174
f 164 174 163
f 175 193 191
f 175 191 164
usemtl None
f 192 193 175
usemtl Default
f 188 180 181
f 188 181 183
f 185 180 188
f 176 185 188
usemtl None
f 177 185 176
usemtl Default
f 224 221 220
f 225 221 224
f 225 212 221
f 223 212 225
usemtl None
f 223 222 212
usemtl Default
f 219 214 213
f 218 214 219
f 218 217 214
f 217 215 214
usemtl None
f 217 216 215
usemtl Default
f 25 9 21
usemtl None
f 25 21 19
usemtl Default
f 103 91 107
f 101 103 107
f 110 89 104
usemtl None
f 110 104 100
usemtl Default
f 22 7 28
usemtl None
f 22 28 18
usemtl Default
f 78 14 7
f 78 7 22
f 89 96 203
usemtl None
f 89 203 104

#	             End of file
