newmtl wire_027177027
illum 4
Kd 0.11 0.69 0.11
Ka 0.11 0.69 0.11
Tf 1.00 1.00 1.00
Ni 1.00
Ks 0.35 0.35 0.35
Ns 32.00
newmtl wire_177027088
illum 4
Kd 0.69 0.11 0.35
Ka 0.69 0.11 0.35
Tf 1.00 1.00 1.00
Ni 1.00
Ks 0.35 0.35 0.35
Ns 32.00
newmtl wire_198224087
illum 4
Kd 0.78 0.88 0.34
Ka 0.78 0.88 0.34
Tf 1.00 1.00 1.00
Ni 1.00
Ks 0.35 0.35 0.35
Ns 32.00
newmtl wire_214229166
illum 4
Kd 0.84 0.90 0.65
Ka 0.84 0.90 0.65
Tf 1.00 1.00 1.00
Ni 1.00
Ks 0.35 0.35 0.35
Ns 32.00
