v -0.091804 0.000402 0.061101
v -0.091153 0.000511 0.061200
v -0.091153 0.000511 0.061200
v -0.091153 0.000511 0.061200
v -0.091153 0.000511 0.061200
v -0.091153 0.000510 0.061201
v -0.091113 0.000944 0.061415
v -0.091144 -0.000046 0.061686
v -0.091143 -0.000059 0.061697
v -0.091135 -0.000505 0.062092
v -0.091066 0.000972 0.061974
v -0.090897 0.001810 0.061854
v -0.090825 0.001883 0.061895
v -0.090788 0.001919 0.061915
v -0.090788 0.001919 0.061915
v -0.090788 0.001920 0.061915
v -0.090804 -0.000778 0.062436
v -0.090803 0.002578 0.062236
v -0.090803 0.002580 0.062237
v -0.092693 -0.002551 0.063400
v -0.092734 -0.002683 0.063503
v -0.090632 -0.000915 0.062614
v -0.090437 -0.001070 0.062815
v -0.090828 0.003736 0.062800
v -0.090828 0.003737 0.062800
v -0.090828 0.003737 0.062801
v -0.090828 0.003738 0.062801
v -0.090828 0.003738 0.062801
v -0.089771 0.003169 0.062630
v -0.089595 0.003075 0.062602
v -0.089544 0.003123 0.062631
v -0.089116 0.003524 0.062871
v -0.089152 0.001112 0.063629
v -0.087668 0.004089 0.063295
v -0.088910 -0.002195 0.064312
v -0.088779 -0.002291 0.064440
v -0.088597 -0.002312 0.064519
v -0.088236 -0.002353 0.064676
v -0.086602 0.004506 0.063607
v -0.086601 0.004506 0.063607
v -0.086601 0.004506 0.063607
v -0.086601 0.004506 0.063607
v -0.086600 0.004506 0.063607
v -0.086350 0.004608 0.063680
v -0.086385 0.004427 0.063724
v -0.086333 0.004759 0.063758
v -0.086333 0.004760 0.063758
v -0.086329 0.004760 0.063759
v -0.086328 0.004764 0.063761
v -0.086328 0.004765 0.063762
v -0.086585 0.003381 0.063974
v -0.086321 0.004821 0.063790
v -0.087670 -0.002418 0.064921
v -0.087348 -0.000664 0.064715
v -0.087268 -0.000230 0.064664
v -0.087002 0.001221 0.064493
v -0.086358 0.005305 0.064023
v -0.087765 -0.002825 0.065247
v -0.086230 0.005477 0.064120
v -0.087813 -0.003032 0.065413
v -0.086168 0.005927 0.064347
v -0.089319 0.008895 0.065478
v -0.089318 0.008898 0.065480
v -0.089318 0.008899 0.065480
v -0.089318 0.008899 0.065480
v -0.087924 -0.003508 0.065794
v -0.087984 -0.003764 0.066000
v -0.086089 0.006502 0.064637
v -0.089181 0.009368 0.065745
v -0.086470 0.006906 0.064795
v -0.086049 0.006629 0.064702
v -0.088054 -0.004060 0.066237
v -0.088091 -0.004221 0.066366
v -0.088127 -0.004376 0.066491
v -0.085914 0.007055 0.064924
v -0.088157 -0.004503 0.066592
v -0.086271 0.007584 0.065147
v -0.085810 0.007385 0.065097
v -0.085810 0.007386 0.065097
v -0.085809 0.007392 0.065101
v -0.085593 0.008074 0.065456
v -0.088713 0.010967 0.066611
v -0.088713 0.010968 0.066611
v -0.088713 0.010968 0.066611
v -0.088713 0.010968 0.066611
v -0.088713 0.010968 0.066611
v -0.088713 0.010968 0.066611
v -0.088713 0.010968 0.066611
v -0.088713 0.010968 0.066611
v -0.088713 0.010968 0.066611
v -0.088713 0.010968 0.066612
v -0.086011 0.007435 0.065783
v -0.086792 0.003233 0.066418
v -0.086877 0.002783 0.066486
v -0.085667 0.008091 0.065708
v -0.087451 -0.000307 0.066961
v -0.087723 -0.001763 0.067195
v -0.085465 0.008477 0.065666
v -0.088577 -0.006300 0.068033
v -0.088578 -0.006302 0.068034
v -0.088576 -0.006290 0.068041
v -0.088581 -0.006315 0.068045
v -0.088522 -0.006295 0.068047
v -0.088570 0.011914 0.067110
v -0.084299 0.008484 0.065789
v -0.084823 0.009298 0.066136
v -0.088420 0.012905 0.067669
v -0.083170 0.008491 0.065907
v -0.083147 0.008453 0.065915
v -0.083046 0.008279 0.065954
v -0.082987 0.008179 0.065977
v -0.086145 -0.005485 0.068125
v -0.082872 0.007987 0.066022
v -0.082804 0.007872 0.066049
v -0.083113 0.009347 0.066331
v -0.083106 0.009410 0.066365
v -0.083102 0.009451 0.066388
v -0.083102 0.009451 0.066388
v -0.082069 0.006638 0.066337
v -0.093046 -0.013422 0.072842
v -0.082896 0.011329 0.067410
v -0.083038 0.011497 0.067484
v -0.082880 0.011475 0.067489
v -0.082879 0.011491 0.067498
v -0.082877 0.011512 0.067509
v -0.082864 0.011530 0.067519
v -0.082628 0.011851 0.067709
v -0.081595 -0.003723 0.068234
v -0.082507 0.012015 0.067805
v -0.079752 0.002750 0.067248
v -0.082485 0.012045 0.067823
v -0.082485 0.012045 0.067823
v -0.079750 0.002463 0.067297
v -0.082459 0.012078 0.067844
v -0.080816 -0.002367 0.068052
v -0.079624 0.002535 0.067297
v -0.079581 0.002461 0.067314
v -0.080923 -0.003460 0.068250
v -0.082391 0.012168 0.067900
v -0.080884 -0.003445 0.068251
v -0.082418 0.012223 0.067927
v -0.082420 0.012226 0.067929
v -0.082420 0.012226 0.067929
v -0.079601 0.001597 0.067467
v -0.087804 0.016981 0.069891
v -0.079479 0.001867 0.067431
v -0.091217 -0.013123 0.073156
v -0.079370 0.002111 0.067399
v -0.079640 0.000747 0.067615
v -0.080292 -0.002361 0.068102
v -0.080233 -0.002101 0.068064
v -0.080453 -0.003276 0.068261
v -0.080411 -0.003283 0.068282
v -0.080391 -0.003287 0.068294
v -0.083002 0.013372 0.068495
v -0.079959 -0.003358 0.068522
v -0.078853 0.001635 0.067767
v -0.082039 0.011584 0.068464
v -0.083588 0.014283 0.068932
v -0.087608 0.018267 0.070635
v -0.093112 -0.015661 0.074992
v -0.093132 -0.016315 0.075633
v -0.077577 -0.002410 0.068562
v -0.076568 0.001718 0.067998
v -0.080964 0.014385 0.069264
v -0.080964 0.014385 0.069264
v -0.080868 0.014389 0.069277
v -0.076268 -0.001934 0.068624
v -0.093155 -0.017122 0.076458
v -0.093168 -0.017540 0.076871
v -0.079649 0.014435 0.069431
v -0.091087 -0.015972 0.075961
v -0.087193 0.020984 0.072232
v -0.079285 0.014676 0.069601
v -0.079262 0.014691 0.069612
v -0.087134 0.021379 0.072466
v -0.080866 0.016294 0.070320
v -0.073789 -0.001052 0.068762
v -0.076198 0.011803 0.069201
v -0.072472 -0.000591 0.068836
v -0.078604 0.015998 0.070397
v -0.072225 -0.000483 0.068847
v -0.078461 0.016282 0.070567
v -0.078408 0.016364 0.070620
v -0.093302 -0.019826 0.079106
v -0.071035 0.000015 0.068901
v -0.070224 0.000373 0.068934
v -0.077617 0.017582 0.071403
v -0.077615 0.017584 0.071405
v -0.086571 0.025067 0.074645
v -0.082440 -0.011758 0.075213
v -0.090971 -0.019432 0.079444
v -0.068154 0.001359 0.069009
v -0.086260 0.025639 0.075009
v -0.080051 0.020558 0.072810
v -0.067338 0.001779 0.069033
v -0.066838 0.002075 0.069042
v -0.065971 0.002469 0.069183
v -0.065281 0.002814 0.069301
v -0.065242 0.002834 0.069307
v -0.093499 -0.023191 0.082441
v -0.065013 0.002949 0.069358
v -0.064463 0.003228 0.069473
v -0.082131 -0.014301 0.077831
v -0.075892 0.020453 0.073210
v -0.075891 0.020454 0.073211
v -0.063596 0.003722 0.069663
v -0.093580 -0.024577 0.083894
v -0.084471 0.028936 0.077139
v -0.075369 0.021562 0.073901
v -0.080390 0.025689 0.075713
v -0.062725 0.004245 0.069858
v -0.062674 0.004269 0.069868
v -0.064819 0.012230 0.070619
v -0.074825 0.022103 0.074270
v -0.074823 0.022106 0.074272
v -0.074822 0.022109 0.074274
v -0.061408 0.004953 0.070140
v -0.074688 0.022697 0.074624
v -0.061158 0.005087 0.070194
v -0.074164 0.022136 0.074479
v -0.090705 -0.024133 0.084275
v -0.074550 0.023297 0.074983
v -0.074398 0.023386 0.075050
v -0.060154 0.005582 0.070403
v -0.082142 -0.017297 0.080814
v -0.073975 0.023483 0.075152
v -0.074006 0.023515 0.075167
v -0.074068 0.023578 0.075196
v -0.074069 0.023579 0.075196
v -0.074791 0.024306 0.075534
v -0.059678 0.005832 0.070504
v -0.062015 0.012340 0.071063
v -0.064340 0.014785 0.071864
v -0.072449 0.022202 0.074723
v -0.073871 0.023396 0.075231
v -0.074931 0.024448 0.075600
v -0.083103 0.031453 0.078831
v -0.074627 0.025510 0.076242
v -0.093801 -0.028354 0.087544
v -0.057453 0.006957 0.071026
v -0.080055 0.031342 0.079051
v -0.093921 -0.030405 0.089656
v -0.093923 -0.030433 0.089680
v -0.054651 0.008289 0.071778
v -0.073775 0.029084 0.078369
v -0.053992 0.008712 0.071973
v -0.053350 0.009056 0.072152
v -0.081739 -0.022019 0.085754
v -0.090358 -0.029938 0.090083
v -0.073113 0.030808 0.079443
v -0.073030 0.031022 0.079576
v -0.073026 0.031031 0.079582
v -0.073024 0.031036 0.079585
v -0.073024 0.031037 0.079586
v -0.080206 0.036793 0.082199
v -0.080206 0.036795 0.082200
v -0.080205 0.036795 0.082201
v -0.080147 0.036903 0.082272
v -0.073899 -0.015102 0.082890
v -0.072994 0.031310 0.079741
v -0.080010 0.036901 0.082280
v -0.053127 0.012704 0.072803
v -0.062673 0.022580 0.076170
v -0.080000 0.037174 0.082436
v -0.072856 0.032478 0.080409
v -0.050617 0.010525 0.072907
v -0.072560 0.033027 0.080745
v -0.093033 -0.034310 0.093367
v -0.071766 0.032524 0.080647
v -0.049442 0.011130 0.073262
v -0.072333 0.033846 0.081226
v -0.072134 0.033803 0.081222
v -0.072095 0.033950 0.081308
v -0.049101 0.011369 0.073377
v -0.092653 -0.035967 0.094996
v -0.071630 0.035670 0.082317
v -0.071298 0.036543 0.082853
v -0.071296 0.036549 0.082857
v -0.071295 0.036551 0.082858
v -0.071295 0.036553 0.082859
v -0.046273 0.012990 0.074261
v -0.077393 0.041988 0.085350
v -0.073476 -0.019321 0.087493
v -0.090093 -0.035686 0.095298
v -0.071218 0.037194 0.083212
v -0.067049 -0.012597 0.084669
v -0.077115 0.042425 0.085618
v -0.081175 -0.027786 0.091717
v -0.076836 0.042860 0.085885
v -0.076836 0.042860 0.085885
v -0.076837 0.042860 0.085885
v -0.076837 0.042861 0.085885
v -0.076836 0.042861 0.085885
v -0.044937 0.013633 0.074832
v -0.051480 0.020785 0.077069
v -0.053658 0.022944 0.077826
v -0.061023 0.029771 0.080418
v -0.064540 0.032800 0.081669
v -0.070542 0.038012 0.083803
v -0.071050 0.038582 0.083975
v -0.044407 0.013885 0.075062
v -0.076252 0.043782 0.086391
v -0.072541 0.041133 0.085222
v -0.072536 0.041136 0.085224
v -0.091813 -0.039630 0.098049
v -0.072717 0.042386 0.085918
v -0.072716 0.042387 0.085918
v -0.072415 0.042212 0.085841
v -0.091624 -0.040452 0.098739
v -0.050987 0.023053 0.078342
v -0.043140 0.014576 0.075655
v -0.091544 -0.040806 0.098989
v -0.075326 0.045242 0.087193
v -0.042815 0.014748 0.075813
v -0.091464 -0.041162 0.099240
v -0.070446 0.041737 0.085730
v -0.060288 0.032965 0.082310
v -0.062492 -0.010558 0.085923
v -0.089974 -0.040297 0.098948
v -0.070341 0.042284 0.086034
v -0.070341 0.042286 0.086035
v -0.070335 0.042304 0.086046
v -0.071283 0.043356 0.086531
v -0.041832 0.015279 0.076278
v -0.070236 0.042597 0.086220
v -0.070332 0.042718 0.086277
v -0.070214 0.042659 0.086256
v -0.070223 0.042862 0.086358
v -0.070215 0.042864 0.086359
v -0.070187 0.042870 0.086364
v -0.070183 0.042871 0.086365
v -0.069842 0.042957 0.086432
v -0.069674 0.042998 0.086466
v -0.069586 0.043015 0.086484
v -0.069502 0.043030 0.086502
v -0.069498 0.043038 0.086506
v -0.069497 0.043040 0.086508
v -0.069478 0.042894 0.086549
v -0.066462 -0.016068 0.088912
v -0.069145 0.043057 0.086558
v -0.068860 0.043070 0.086599
v -0.068860 0.043070 0.086599
v -0.040727 0.015877 0.076801
v -0.040458 0.016049 0.076896
v -0.040457 0.016050 0.076896
v -0.040386 0.016095 0.076921
v -0.040342 0.016123 0.076937
v -0.039963 0.016365 0.077071
v -0.039961 0.016366 0.077072
v -0.039958 0.016368 0.077074
v -0.073357 0.048344 0.088944
v -0.080684 -0.033570 0.097287
v -0.072711 -0.024706 0.093603
v -0.090562 -0.045178 0.102144
v -0.090483 -0.045533 0.102345
v -0.089972 -0.045131 0.102229
v -0.053988 -0.003355 0.085379
v -0.050276 0.000922 0.083665
v -0.072101 0.050335 0.089928
v -0.072101 0.050335 0.089927
v -0.072101 0.050335 0.089928
v -0.072101 0.050335 0.089928
v -0.072101 0.050335 0.089928
v -0.072101 0.050335 0.089928
v -0.072100 0.050335 0.089928
v -0.072089 0.050337 0.089930
v -0.072078 0.050338 0.089931
v -0.061224 -0.012730 0.089524
v -0.069362 0.048306 0.089164
v -0.090014 -0.047621 0.103596
v -0.046505 0.004893 0.083164
v -0.039105 0.020669 0.079415
v -0.057046 -0.008888 0.088660
v -0.036520 0.018276 0.078641
v -0.069352 0.050771 0.090290
v -0.080500 -0.038355 0.101343
v -0.059469 0.043536 0.087937
v -0.059462 0.043536 0.087938
v -0.059462 0.043536 0.087938
v -0.038613 0.022986 0.080677
v -0.089221 -0.051156 0.105873
v -0.059309 0.043532 0.087964
v -0.039109 0.023554 0.080983
v -0.038421 0.023174 0.080812
v -0.048598 0.033438 0.084489
v -0.089077 -0.051799 0.106312
v -0.052461 -0.005087 0.088568
v -0.038045 0.023452 0.081019
v -0.037985 0.023537 0.081077
v -0.058216 0.043499 0.088143
v -0.037947 0.023593 0.081114
v -0.037944 0.023597 0.081117
v -0.037943 0.023600 0.081119
v -0.058181 0.043569 0.088183
v -0.037934 0.023631 0.081137
v -0.037934 0.023633 0.081139
v -0.045081 0.004708 0.085269
v -0.057996 0.043337 0.088219
v -0.065431 -0.020788 0.095176
v -0.058100 0.043724 0.088275
v -0.057976 0.043685 0.088277
v -0.037841 0.023941 0.081321
v -0.037772 0.024173 0.081459
v -0.037790 0.024191 0.081467
v -0.037795 0.024196 0.081469
v -0.037795 0.024196 0.081469
v -0.037795 0.024197 0.081470
v -0.037794 0.024198 0.081470
v -0.037775 0.024228 0.081491
v -0.037650 0.024599 0.081711
v -0.056759 0.043691 0.088497
v -0.056758 0.043691 0.088498
v -0.056754 0.043691 0.088498
v -0.037595 0.025035 0.081962
v -0.038590 0.025836 0.082319
v -0.046291 0.033535 0.084995
v -0.048151 0.035402 0.085640
v -0.056392 0.043402 0.088518
v -0.056503 0.043701 0.088545
v -0.064064 0.051464 0.091226
v -0.041332 0.008805 0.084596
v -0.037260 0.025040 0.082030
v -0.048298 -0.000675 0.088308
v -0.036982 0.025112 0.082134
v -0.071991 -0.030347 0.099799
v -0.036102 0.025084 0.082331
v -0.058989 0.048115 0.090306
v -0.080691 -0.043509 0.104984
v -0.031003 0.021627 0.081049
v -0.035141 0.025351 0.082669
v -0.087757 -0.057676 0.109231
v -0.053665 0.043990 0.089168
v -0.035212 0.025571 0.082797
v -0.035209 0.025571 0.082798
v -0.035209 0.025571 0.082798
v -0.035208 0.025571 0.082798
v -0.034948 0.025458 0.082770
v -0.034926 0.025448 0.082768
v -0.059837 -0.016561 0.095821
v -0.043741 0.003767 0.088616
v -0.059271 0.052090 0.092079
v -0.087221 -0.060070 0.110463
v -0.055459 -0.012301 0.095411
v -0.032163 0.025942 0.083648
v -0.032143 0.025945 0.083655
v -0.031176 0.025254 0.083310
v -0.031908 0.026008 0.083740
v -0.031908 0.026008 0.083740
v -0.031908 0.026008 0.083741
v -0.081220 -0.050754 0.109013
v -0.049122 0.044451 0.090165
v -0.039420 0.008505 0.088492
v -0.086172 -0.064742 0.112074
v -0.056195 0.052402 0.092772
v -0.071793 -0.035365 0.104642
v -0.036304 0.012663 0.087246
v -0.048421 0.044382 0.090295
v -0.048004 0.044340 0.090372
v -0.085857 -0.066149 0.112552
v -0.050974 -0.007811 0.095186
v -0.047078 0.044279 0.090559
v -0.046693 0.044253 0.090637
v -0.064395 -0.026042 0.102220
v -0.036638 0.033952 0.087332
v -0.046203 0.043825 0.090651
v -0.046152 0.044305 0.090792
v -0.046139 0.044303 0.090794
v -0.046120 0.044299 0.090796
v -0.053396 0.052685 0.093403
v -0.053043 0.052702 0.093473
v -0.048401 0.048224 0.092249
v -0.081833 -0.059619 0.112500
v -0.046650 -0.002976 0.094728
v -0.083911 -0.069403 0.114139
v -0.034939 0.013074 0.089429
v -0.044001 0.044463 0.091380
v -0.083210 -0.070574 0.114549
v -0.024934 0.025890 0.085094
v -0.072465 -0.041156 0.108862
v -0.042975 0.044542 0.091662
v -0.050085 0.052840 0.094066
v -0.082197 -0.069349 0.114802
v -0.082173 -0.072309 0.115085
v -0.042341 0.001978 0.094548
v -0.081792 -0.072947 0.115372
v -0.026679 0.028943 0.086775
v -0.025990 0.028814 0.086798
v -0.026417 0.029158 0.086978
v -0.041180 0.044789 0.092185
v -0.026262 0.029227 0.087054
v -0.025176 0.029120 0.086848
v -0.030660 0.018053 0.089900
v -0.024815 0.029257 0.086871
v -0.058445 -0.021069 0.103695
v -0.038040 0.007417 0.094005
v -0.039986 0.044953 0.092532
v -0.039986 0.044953 0.092532
v -0.039974 0.044953 0.092535
v -0.023498 0.029391 0.086761
v -0.025667 0.029859 0.087618
v -0.030152 0.034245 0.089182
v -0.035233 0.039586 0.090932
v -0.039560 0.044120 0.092423
v -0.039965 0.044952 0.092537
v -0.023498 0.029391 0.086761
v -0.046304 0.052937 0.094953
v -0.039849 0.046005 0.093142
v -0.038777 0.045044 0.092928
v -0.044117 0.051298 0.094755
v -0.054012 -0.015820 0.102985
v -0.073669 -0.049190 0.113200
v -0.033919 0.012692 0.093496
v -0.064090 -0.031328 0.108507
v -0.044499 0.052958 0.095422
v -0.037447 0.045146 0.093366
v -0.037444 0.045147 0.093367
v -0.037444 0.045147 0.093367
v -0.037001 0.045182 0.093513
v -0.078253 -0.073264 0.117542
v -0.024542 0.031938 0.089297
v -0.024542 0.031938 0.089298
v -0.024489 0.032171 0.089499
v -0.024875 0.025324 0.090120
v -0.015431 0.030521 0.086253
v -0.015429 0.030522 0.086253
v -0.015428 0.030522 0.086253
v -0.015424 0.030524 0.086253
v -0.029731 0.018322 0.092991
v -0.042188 0.052969 0.096047
v -0.014820 0.030754 0.086293
v -0.049599 -0.010802 0.103145
v -0.024305 0.025837 0.090863
v -0.074829 -0.058782 0.116716
v -0.019874 0.032302 0.088777
v -0.019873 0.032302 0.088777
v -0.019871 0.032302 0.088777
v -0.034981 0.045340 0.094179
v -0.013525 0.031248 0.086379
v -0.013524 0.031249 0.086378
v -0.013524 0.031249 0.086378
v -0.038832 0.050509 0.095728
v -0.013509 0.031449 0.086568
v -0.013506 0.031503 0.086620
v -0.013507 0.031504 0.086621
v -0.013509 0.031504 0.086621
v -0.033946 0.044383 0.094222
v -0.017975 0.032430 0.088529
v -0.013409 0.031652 0.086735
v -0.033954 0.045102 0.094344
v -0.033901 0.045090 0.094353
v -0.033884 0.045077 0.094351
v -0.033539 0.044819 0.094311
v -0.033530 0.044821 0.094314
v -0.033528 0.044821 0.094314
v -0.033527 0.044821 0.094315
v -0.013309 0.031817 0.086865
v -0.013305 0.031818 0.086864
v -0.013303 0.031818 0.086863
v -0.045435 -0.005355 0.102234
v -0.013300 0.031835 0.086879
v -0.013214 0.031994 0.087008
v -0.033133 0.044831 0.094481
v -0.013120 0.032173 0.087153
v -0.013122 0.032173 0.087154
v -0.013123 0.032173 0.087155
v -0.023772 0.026572 0.091855
v -0.024102 0.034551 0.091585
v -0.023954 0.034533 0.091542
v -0.075455 -0.069124 0.118860
v -0.023946 0.034555 0.091561
v -0.075392 -0.073510 0.119123
v -0.014699 0.032651 0.088101
v -0.013143 0.032519 0.087496
v -0.013525 0.032583 0.087677
v -0.039065 0.053004 0.096861
v -0.065851 -0.038459 0.113407
v -0.022653 0.028031 0.092796
v -0.033575 0.011931 0.098291
v -0.041318 -0.000047 0.102292
v -0.033844 0.049017 0.096500
v -0.036446 0.052960 0.097665
v -0.030235 0.044903 0.095704
v -0.021982 0.029399 0.093509
v -0.026391 0.040446 0.094793
v -0.020505 0.034458 0.092920
v -0.036620 0.006774 0.101192
v -0.023155 0.037508 0.093987
v -0.053059 -0.018566 0.109607
v -0.025845 0.040380 0.094960
v -0.023223 0.037763 0.094139
v -0.068052 -0.047686 0.117830
v -0.072790 -0.073784 0.121375
v 0.000162 0.032906 0.085161
v -0.027198 0.042786 0.095883
v -0.034418 0.052938 0.098269
v -0.024980 0.040273 0.095223
v -0.024973 0.040270 0.095224
v -0.024602 0.040099 0.095246
v 0.000271 0.033310 0.085577
v 0.000272 0.033311 0.085578
v 0.000278 0.033313 0.085580
v 0.000282 0.033314 0.085581
v 0.000283 0.033314 0.085581
v 0.000291 0.033317 0.085583
v -0.023643 0.039318 0.095070
v -0.023647 0.039334 0.095080
v -0.023777 0.039544 0.095175
v -0.023934 0.039781 0.095279
v 0.000367 0.033518 0.085853
v -0.056967 -0.026108 0.113048
v -0.029645 0.017602 0.099443
v 0.000304 0.032612 0.086568
v 0.000301 0.032608 0.086571
v 0.000298 0.032602 0.086577
v 0.000291 0.032423 0.086718
v 0.000256 0.032219 0.086872
v 0.000262 0.032220 0.086873
v 0.000267 0.032221 0.086874
v 0.000272 0.032221 0.086875
v 0.000277 0.032222 0.086877
v -0.071169 -0.073947 0.122636
v -0.069807 -0.058119 0.121136
v 0.000323 0.031960 0.087485
v -0.033258 0.011644 0.102575
v -0.025090 0.043904 0.097348
v -0.025839 0.044800 0.097599
v -0.025816 0.044943 0.097581
v -0.070503 -0.073902 0.123153
v -0.031188 0.052741 0.099509
v -0.070633 -0.069040 0.123005
v -0.025363 0.044820 0.097708
v -0.044862 -0.007188 0.108897
v -0.061217 -0.036257 0.118119
v -0.022060 0.042019 0.097645
v -0.048398 -0.013656 0.112257
v -0.085854 -0.066149 0.130750
v -0.026077 0.024128 0.101052
v -0.068837 -0.073785 0.125035
v -0.064535 -0.046813 0.122020
v -0.027112 0.051944 0.100793
v -0.084940 0.025067 0.126223
v -0.052096 -0.020505 0.115654
v -0.033591 0.010714 0.106713
v -0.036594 0.005344 0.108286
v -0.066731 -0.057864 0.124838
v -0.022463 0.047765 0.100450
v -0.022463 0.047766 0.100451
v -0.022463 0.047767 0.100451
v -0.022463 0.047769 0.100452
v -0.022463 0.047770 0.100453
v -0.022465 0.047772 0.100455
v -0.022464 0.047773 0.100454
v -0.022464 0.047773 0.100454
v -0.022466 0.047786 0.100461
v -0.022465 0.047786 0.100461
v -0.022465 0.047787 0.100461
v -0.022467 0.047811 0.100473
v -0.022436 0.047783 0.100471
v -0.067474 -0.073690 0.126431
v -0.067648 -0.069089 0.126377
v -0.040919 -0.002276 0.111475
v -0.067246 -0.073673 0.126757
v -0.024435 0.029324 0.103221
v -0.093864 -0.030433 0.135864
v -0.022754 0.051119 0.102121
v -0.022754 0.051119 0.102122
v -0.022740 0.051117 0.102126
v -0.093210 -0.002683 0.134339
v -0.044551 -0.008646 0.114872
v -0.031462 0.014446 0.108985
v -0.066002 -0.073787 0.128527
v -0.058614 -0.037049 0.124421
v -0.054787 -0.028587 0.122461
v -0.035366 0.007096 0.112533
v -0.062020 -0.047175 0.126791
v -0.064875 -0.073880 0.129990
v -0.064242 -0.058110 0.128842
v -0.038332 0.001754 0.114703
v -0.065108 -0.069273 0.129994
v -0.027772 0.022696 0.109218
v -0.080951 -0.074347 0.137307
v -0.051222 -0.022266 0.122305
v -0.023176 0.048111 0.106973
v -0.047717 -0.015806 0.121434
v -0.025495 0.030562 0.110614
v -0.063281 -0.074074 0.133027
v -0.044383 -0.010015 0.121509
v -0.089611 -0.043094 0.142015
v -0.041239 -0.004139 0.120562
v -0.038596 0.000840 0.120638
v -0.061988 -0.074218 0.135290
v -0.035694 0.006733 0.119673
v -0.062329 -0.069629 0.135283
v -0.059828 -0.048033 0.133066
v -0.061682 -0.058710 0.134511
v -0.032346 0.014070 0.118531
v -0.056806 -0.038122 0.131733
v -0.053522 -0.029920 0.130862
v -0.029266 0.022204 0.118353
v -0.061311 -0.074347 0.137307
v -0.050570 -0.023411 0.130417
v -0.096073 -0.011998 0.148347
v -0.047440 -0.016890 0.129955
v -0.060734 -0.074384 0.139040
v -0.027025 0.030785 0.119103
v -0.044466 -0.010852 0.129598
v -0.041553 -0.004760 0.128930
v -0.039143 0.000294 0.127834
v -0.093460 -0.028889 0.152095
v -0.025730 0.039631 0.120584
v -0.025727 0.039663 0.120592
v -0.025730 0.039655 0.120605
v -0.025740 0.039635 0.120637
v -0.058536 -0.049035 0.139733
v -0.036536 0.006204 0.127444
v -0.060129 -0.070231 0.141795
v -0.059620 -0.074445 0.141980
v -0.059700 -0.059502 0.141315
v -0.055958 -0.038851 0.138860
v -0.033587 0.013650 0.127195
v -0.052997 -0.030295 0.138861
v -0.030844 0.021989 0.127293
v -0.050464 -0.023509 0.138315
v -0.027085 0.036810 0.125192
v -0.039704 0.000330 0.133494
v -0.047661 -0.016954 0.138064
v -0.058850 -0.074537 0.146307
v -0.028670 0.030889 0.127803
v -0.059726 -0.061794 0.146227
v -0.044942 -0.010831 0.137803
v -0.027986 0.034979 0.128144
v -0.037637 0.005729 0.134175
v -0.058807 -0.071786 0.148320
v -0.041714 -0.003487 0.137423
v -0.058263 -0.074590 0.148844
v -0.028663 0.033678 0.130241
v -0.034971 0.013276 0.134581
v -0.038900 0.029987 0.136191
v -0.050624 -0.021964 0.144520
v -0.032425 0.021812 0.134989
v -0.039046 0.004426 0.139546
v -0.048183 -0.015991 0.144781
v -0.030142 0.030892 0.134733
v -0.030323 0.030591 0.135218
v -0.030411 0.030434 0.135471
v -0.092542 -0.032260 0.164706
v -0.092532 -0.032295 0.164705
v -0.092284 -0.033210 0.164694
v -0.091056 -0.037736 0.164633
v -0.090665 -0.039180 0.164584
v -0.090591 -0.039451 0.164572
v -0.030595 0.030135 0.135952
v -0.093559 -0.028471 0.165227
v -0.093704 -0.027537 0.165375
v -0.030687 0.029987 0.136191
v -0.045913 -0.010401 0.145097
v -0.094022 -0.025501 0.165725
v -0.089465 -0.043604 0.164971
v -0.091101 -0.032333 0.164961
v -0.089081 -0.044992 0.165105
v -0.088683 -0.046426 0.165226
v -0.036337 0.012793 0.140444
v -0.094505 -0.022404 0.166519
v -0.094535 -0.022209 0.166584
v -0.094648 -0.020872 0.167039
v -0.087640 -0.050190 0.166050
v -0.091135 -0.025985 0.166145
v -0.087051 -0.052312 0.166494
v -0.043369 -0.003728 0.145862
v -0.094858 -0.018343 0.167990
v -0.059130 -0.074766 0.157198
v -0.033861 0.021638 0.141075
v -0.086375 -0.054750 0.167236
v -0.095092 -0.015536 0.169027
v -0.090447 -0.021254 0.167635
v -0.085670 -0.057297 0.168066
v -0.081702 -0.046388 0.165837
v -0.081522 -0.039486 0.165439
v -0.082216 -0.052181 0.166872
v -0.032131 0.029248 0.141547
v -0.040783 0.004253 0.146932
v -0.085079 -0.059425 0.168994
v -0.081477 -0.032586 0.165928
v -0.032355 0.029144 0.142296
v -0.095349 -0.012320 0.170566
v -0.084602 -0.061146 0.169699
v -0.095434 -0.011244 0.171120
v -0.081531 -0.057126 0.168318
v -0.090908 -0.015561 0.169779
v -0.081446 -0.026538 0.167074
v -0.084108 -0.062939 0.170434
v -0.094956 -0.009850 0.171936
v -0.076368 -0.051915 0.166913
v -0.094877 -0.009705 0.172025
v -0.073910 -0.046692 0.165991
v -0.038235 0.012735 0.147861
v -0.073619 -0.039370 0.165687
v -0.059207 -0.074867 0.161990
v -0.081357 -0.062882 0.170586
v -0.072787 -0.050838 0.166627
v -0.081239 -0.021675 0.168495
v -0.073340 -0.032545 0.166312
v -0.073915 -0.056165 0.168006
v -0.069833 -0.045378 0.165786
v -0.070202 -0.050486 0.166415
v -0.090932 -0.009871 0.172581
v -0.082838 -0.067548 0.172827
v -0.069250 -0.038662 0.165678
v -0.033814 0.028470 0.147181
v -0.035870 0.021639 0.148641
v -0.059712 -0.074917 0.164391
v -0.082576 -0.068499 0.173345
v -0.070285 -0.056837 0.168045
v -0.082380 -0.069211 0.173811
v -0.073145 -0.026677 0.167519
v -0.081191 -0.068483 0.173403
v -0.062620 -0.050035 0.165065
v -0.092738 -0.005768 0.174689
v -0.081298 -0.015854 0.170724
v -0.068471 -0.031937 0.166476
v -0.073908 -0.062959 0.170616
v -0.034393 0.028203 0.149118
v -0.062266 -0.045614 0.165009
v -0.042788 0.005138 0.154423
v -0.092254 -0.004883 0.175329
v -0.092225 -0.004796 0.175390
v -0.061363 -0.038985 0.164904
v -0.062981 -0.056876 0.166978
v -0.072853 -0.021878 0.168968
v -0.090722 -0.004863 0.175553
v -0.059842 -0.074977 0.167211
v -0.070014 -0.063642 0.170775
v -0.067964 -0.026401 0.167748
v -0.081080 -0.073927 0.176708
v -0.081053 -0.074026 0.176768
v -0.081048 -0.074045 0.176779
v -0.060331 -0.032467 0.165799
v -0.073652 -0.068737 0.173453
v -0.081040 -0.074072 0.176798
v -0.066143 -0.025898 0.167928
v -0.081318 -0.010199 0.173430
v -0.080730 -0.075195 0.177569
v -0.040601 0.013243 0.155844
v -0.059799 -0.029188 0.166580
v -0.067197 -0.021856 0.169173
v -0.079553 -0.075194 0.177527
v -0.072803 -0.016079 0.171280
v -0.062839 -0.064081 0.170302
v -0.069533 -0.069442 0.173618
v -0.036169 0.027481 0.154354
v -0.064890 -0.022061 0.169112
v -0.060780 -0.075051 0.170738
v -0.059299 -0.026008 0.167426
v -0.090621 -0.000049 0.178760
v -0.090610 -0.000020 0.178784
v -0.090556 -0.000021 0.178788
v -0.090550 0.000158 0.178919
v -0.068248 -0.070666 0.174183
v -0.073532 -0.074382 0.176836
v -0.062571 -0.067803 0.172036
v -0.038416 0.021918 0.156952
v -0.081201 -0.005178 0.176246
v -0.073494 -0.075191 0.177386
v -0.072907 -0.075190 0.177358
v -0.066874 -0.016098 0.171678
v -0.058978 -0.022179 0.168832
v -0.072877 -0.010497 0.173970
v -0.037249 0.027055 0.157440
v -0.062279 -0.071881 0.173951
v -0.069302 -0.075018 0.177041
v -0.069286 -0.075187 0.177156
v -0.069247 -0.075187 0.177154
v -0.069012 -0.075186 0.177138
v -0.067885 -0.075185 0.177096
v -0.066869 -0.075181 0.176918
v -0.064028 -0.015404 0.172223
v -0.058643 -0.019117 0.170523
v -0.063262 -0.015397 0.172303
v -0.081198 -0.000273 0.179289
v -0.067024 -0.010763 0.174334
v -0.043020 0.014376 0.163111
v -0.072798 -0.005419 0.176778
v -0.061909 -0.075175 0.176584
v -0.088803 0.005310 0.182736
v -0.038779 0.026519 0.161326
v -0.088641 0.005629 0.182973
v -0.064583 -0.011152 0.174400
v -0.063586 -0.011455 0.174362
v -0.063113 -0.011555 0.174358
v -0.058328 -0.015333 0.172641
v -0.087685 0.007532 0.184326
v -0.041194 0.022465 0.164792
v -0.073221 -0.000572 0.179669
v -0.058156 -0.012276 0.174355
v -0.066662 -0.005240 0.177399
v -0.058155 -0.012254 0.174366
v -0.063787 -0.007197 0.176601
v -0.063249 -0.007626 0.176438
v -0.040393 0.025979 0.165247
v -0.081010 0.005518 0.183170
v -0.044938 0.016018 0.168515
v -0.068476 -0.000872 0.179902
v -0.041419 0.025669 0.167487
v -0.057943 -0.008410 0.176534
v -0.041915 0.025523 0.168541
v -0.065805 -0.000712 0.180254
v -0.064107 -0.001542 0.179879
v -0.085361 0.012123 0.187797
v -0.072812 0.005092 0.183322
v -0.057848 -0.005273 0.178256
v -0.043798 0.023034 0.171230
v -0.043371 0.024936 0.171526
v -0.081076 0.012164 0.187770
v -0.067055 0.003835 0.182963
v -0.057794 -0.001817 0.180220
v -0.064733 0.003748 0.183168
v -0.083017 0.016820 0.190959
v -0.045724 0.024079 0.175613
v -0.045752 0.024023 0.175635
v -0.045741 0.024072 0.175647
v -0.045756 0.024066 0.175671
v -0.045792 0.024055 0.175727
v -0.072943 0.011900 0.187799
v -0.081423 0.017020 0.191075
v -0.058070 0.003769 0.183967
v -0.067535 0.011163 0.187647
v -0.065338 0.009908 0.187035
v -0.049135 0.022910 0.180936
v -0.073905 0.017959 0.191681
v -0.073673 0.017986 0.191705
v -0.049701 0.022732 0.181696
v -0.072108 0.018175 0.191889
v -0.058384 0.008935 0.187281
v -0.065942 0.016166 0.190918
v -0.068963 0.018553 0.192247
v -0.068268 0.018277 0.192109
v -0.068495 0.018615 0.192303
v -0.068364 0.018633 0.192318
v -0.068256 0.018647 0.192333
v -0.068134 0.018663 0.192354
v -0.066250 0.018913 0.192596
v -0.058721 0.014573 0.190647
v -0.061989 0.019442 0.193451
v -0.059158 0.019798 0.193979
v -0.059179 0.019792 0.194008

f 1 3 2 
f 6 1 2 
f 1 5 3 
f 7 5 1 
f 8 1 6 
f 26 7 1 
f 20 1 8 
f 20 27 1 
f 24 26 1 
f 1 27 24 
f 2 3 4 
f 4 5 2 
f 2 5 6 
f 5 4 3 
f 5 11 6 
f 7 11 5 
f 11 8 6 
f 12 11 7 
f 26 12 7 
f 11 9 8 
f 20 8 9 
f 9 11 10 
f 21 9 10 
f 20 9 21 
f 11 17 10 
f 21 10 17 
f 12 13 11 
f 13 14 11 
f 11 14 16 
f 11 16 33 
f 11 22 17 
f 23 22 11 
f 11 33 23 
f 19 13 12 
f 26 19 12 
f 14 13 18 
f 13 19 18 
f 15 16 14 
f 14 18 15 
f 15 18 16 
f 16 18 29 
f 30 16 29 
f 16 30 33 
f 21 17 147 
f 17 22 99 
f 100 17 99 
f 102 17 100 
f 147 17 102 
f 29 18 19 
f 26 29 19 
f 20 21 27 
f 27 21 64 
f 64 21 69 
f 21 87 69 
f 642 87 21 
f 120 21 147 
f 21 120 669 
f 642 21 669 
f 22 23 99 
f 23 33 35 
f 23 35 76 
f 99 23 76 
f 24 25 26 
f 24 27 25 
f 25 28 26 
f 25 27 28 
f 28 63 26 
f 26 32 29 
f 26 71 32 
f 63 70 26 
f 70 71 26 
f 27 64 28 
f 62 63 28 
f 28 64 62 
f 30 29 31 
f 29 32 31 
f 30 31 33 
f 31 32 33 
f 32 34 33 
f 61 34 32 
f 68 61 32 
f 71 68 32 
f 34 39 33 
f 33 36 35 
f 37 36 33 
f 38 37 33 
f 53 38 33 
f 39 56 33 
f 54 53 33 
f 55 54 33 
f 56 55 33 
f 39 34 57 
f 61 57 34 
f 72 35 36 
f 73 35 72 
f 74 35 73 
f 74 76 35 
f 67 36 37 
f 67 72 36 
f 66 37 38 
f 66 67 37 
f 58 38 53 
f 60 38 58 
f 66 38 60 
f 40 56 39 
f 40 39 57 
f 41 40 43 
f 41 56 40 
f 40 47 43 
f 40 46 47 
f 40 57 46 
f 42 41 43 
f 51 41 42 
f 51 56 41 
f 42 43 51 
f 44 45 43 
f 43 47 44 
f 43 45 51 
f 44 48 45 
f 47 48 44 
f 48 49 45 
f 49 50 45 
f 50 52 45 
f 45 68 51 
f 52 59 45 
f 59 61 45 
f 61 68 45 
f 49 47 46 
f 50 49 46 
f 50 46 52 
f 52 46 59 
f 46 57 59 
f 49 48 47 
f 51 92 56 
f 51 68 92 
f 54 94 53 
f 53 94 58 
f 55 93 54 
f 54 93 94 
f 55 56 93 
f 56 92 93 
f 59 57 61 
f 60 58 96 
f 58 94 96 
f 60 96 66 
f 65 63 62 
f 62 64 65 
f 69 63 65 
f 69 106 63 
f 63 77 70 
f 80 77 63 
f 63 81 80 
f 63 98 81 
f 63 115 98 
f 106 115 63 
f 64 69 65 
f 66 96 67 
f 67 97 72 
f 67 96 97 
f 68 71 92 
f 69 87 82 
f 91 69 82 
f 91 122 69 
f 106 69 117 
f 69 118 117 
f 69 121 118 
f 123 121 69 
f 69 122 124 
f 124 123 69 
f 75 71 70 
f 70 77 75 
f 71 75 92 
f 72 97 73 
f 73 97 74 
f 74 97 76 
f 75 77 78 
f 75 78 92 
f 76 97 99 
f 78 77 79 
f 80 79 77 
f 79 80 78 
f 78 80 92 
f 81 95 80 
f 80 95 92 
f 81 98 95 
f 83 82 90 
f 91 82 83 
f 82 87 90 
f 83 90 84 
f 91 83 84 
f 85 84 90 
f 91 84 85 
f 90 86 85 
f 91 85 86 
f 88 86 90 
f 91 86 88 
f 87 104 90 
f 87 107 104 
f 642 107 87 
f 89 88 90 
f 89 91 88 
f 90 91 89 
f 104 91 90 
f 104 127 91 
f 91 127 122 
f 92 114 93 
f 95 114 92 
f 93 133 94 
f 114 119 93 
f 119 133 93 
f 94 133 96 
f 105 95 98 
f 105 111 95 
f 95 111 113 
f 113 114 95 
f 96 135 97 
f 133 135 96 
f 99 97 101 
f 97 135 101 
f 98 115 105 
f 99 101 100 
f 101 102 100 
f 101 103 102 
f 112 103 101 
f 135 112 101 
f 147 102 103 
f 147 103 112 
f 104 107 131 
f 104 129 127 
f 129 104 131 
f 108 109 105 
f 115 108 105 
f 109 110 105 
f 110 111 105 
f 116 115 106 
f 106 117 116 
f 131 107 142 
f 142 107 143 
f 143 107 155 
f 107 160 145 
f 107 145 177 
f 107 159 155 
f 107 177 159 
f 642 160 107 
f 158 109 108 
f 115 158 108 
f 109 158 110 
f 110 158 111 
f 111 158 113 
f 135 128 112 
f 112 128 191 
f 147 112 191 
f 113 158 114 
f 114 158 119 
f 116 158 115 
f 117 158 116 
f 118 158 117 
f 121 158 118 
f 130 133 119 
f 119 158 130 
f 120 147 161 
f 120 161 669 
f 123 158 121 
f 125 124 122 
f 125 122 126 
f 122 127 126 
f 124 158 123 
f 125 158 124 
f 158 125 126 
f 158 126 127 
f 158 127 129 
f 135 138 128 
f 191 128 138 
f 158 129 131 
f 130 136 133 
f 130 157 136 
f 130 158 157 
f 132 131 142 
f 158 131 132 
f 134 132 142 
f 158 132 134 
f 133 151 135 
f 136 137 133 
f 133 137 144 
f 149 133 144 
f 149 151 133 
f 139 134 141 
f 158 134 139 
f 134 142 141 
f 135 140 138 
f 135 152 140 
f 151 150 135 
f 135 150 152 
f 136 157 137 
f 137 146 144 
f 137 148 146 
f 148 137 157 
f 156 138 140 
f 156 191 138 
f 158 139 141 
f 152 154 140 
f 154 156 140 
f 158 141 142 
f 158 142 143 
f 158 143 155 
f 146 157 144 
f 157 149 144 
f 160 177 145 
f 148 157 146 
f 161 147 172 
f 147 204 172 
f 147 191 204 
f 151 149 157 
f 150 151 154 
f 150 153 152 
f 150 154 153 
f 154 151 156 
f 156 151 157 
f 153 154 152 
f 159 158 155 
f 157 163 156 
f 163 191 156 
f 158 164 157 
f 157 164 163 
f 165 158 159 
f 158 179 164 
f 166 158 165 
f 158 166 167 
f 158 167 171 
f 179 158 171 
f 159 177 165 
f 160 173 195 
f 642 173 160 
f 195 177 160 
f 161 162 169 
f 161 172 162 
f 161 169 669 
f 169 162 172 
f 163 164 168 
f 168 191 163 
f 164 178 168 
f 164 180 178 
f 179 214 164 
f 164 182 180 
f 164 186 182 
f 164 187 186 
f 164 193 187 
f 164 196 193 
f 164 197 196 
f 164 214 197 
f 166 165 177 
f 167 166 177 
f 177 171 167 
f 191 168 178 
f 169 172 170 
f 169 170 669 
f 170 172 192 
f 185 170 192 
f 170 185 665 
f 170 665 669 
f 174 179 171 
f 181 174 171 
f 177 183 171 
f 183 181 171 
f 192 172 204 
f 173 176 195 
f 642 176 173 
f 175 179 174 
f 174 181 175 
f 181 179 175 
f 176 190 211 
f 642 190 176 
f 176 211 195 
f 184 183 177 
f 177 188 184 
f 177 189 188 
f 177 195 189 
f 191 178 180 
f 183 179 181 
f 179 183 184 
f 179 184 188 
f 179 188 189 
f 179 189 205 
f 179 205 206 
f 179 206 215 
f 214 179 221 
f 216 179 215 
f 221 179 216 
f 191 180 182 
f 182 186 204 
f 191 182 204 
f 185 192 201 
f 185 201 665 
f 226 186 187 
f 226 204 186 
f 187 193 260 
f 226 187 260 
f 189 195 205 
f 190 194 211 
f 642 194 190 
f 201 192 222 
f 192 204 226 
f 192 249 222 
f 192 226 249 
f 260 193 196 
f 209 211 194 
f 642 209 194 
f 205 195 206 
f 195 210 206 
f 223 210 195 
f 211 239 195 
f 224 223 195 
f 195 230 224 
f 195 231 230 
f 237 231 195 
f 239 237 195 
f 196 197 287 
f 260 196 287 
f 214 198 197 
f 197 198 287 
f 198 214 199 
f 287 198 199 
f 199 214 200 
f 319 199 200 
f 287 199 319 
f 202 200 214 
f 319 200 202 
f 201 222 208 
f 201 208 665 
f 203 202 233 
f 202 203 319 
f 233 202 214 
f 207 203 233 
f 374 203 207 
f 319 203 374 
f 206 210 215 
f 212 207 233 
f 207 212 374 
f 208 222 240 
f 208 240 665 
f 242 211 209 
f 238 242 209 
f 642 238 209 
f 215 210 219 
f 219 210 223 
f 246 239 211 
f 211 242 254 
f 251 246 211 
f 251 211 254 
f 213 212 233 
f 212 213 388 
f 212 388 374 
f 218 213 233 
f 213 218 358 
f 213 358 388 
f 214 221 235 
f 214 234 233 
f 234 214 235 
f 216 215 217 
f 215 219 217 
f 216 217 236 
f 221 216 236 
f 219 223 217 
f 217 223 236 
f 220 218 233 
f 218 220 359 
f 218 359 358 
f 225 220 233 
f 225 359 220 
f 221 236 235 
f 240 222 250 
f 222 249 289 
f 222 289 250 
f 224 227 223 
f 223 227 236 
f 228 227 224 
f 228 224 229 
f 224 230 229 
f 232 225 233 
f 225 232 359 
f 226 284 249 
f 226 260 284 
f 227 228 236 
f 228 229 236 
f 229 230 236 
f 231 236 230 
f 231 237 236 
f 233 241 232 
f 232 241 359 
f 233 234 296 
f 233 263 241 
f 263 233 296 
f 235 264 234 
f 234 264 297 
f 234 297 296 
f 235 236 298 
f 264 235 298 
f 237 239 236 
f 253 236 239 
f 253 254 236 
f 254 270 236 
f 236 270 299 
f 236 299 298 
f 256 242 238 
f 642 256 238 
f 251 239 246 
f 252 239 251 
f 252 253 239 
f 240 250 243 
f 240 243 665 
f 241 263 245 
f 241 245 359 
f 242 261 254 
f 262 242 256 
f 266 261 242 
f 242 262 280 
f 272 266 242 
f 242 277 272 
f 242 278 277 
f 242 279 278 
f 279 242 280 
f 243 250 244 
f 243 244 665 
f 269 244 250 
f 269 665 244 
f 245 263 247 
f 245 247 359 
f 247 263 248 
f 247 248 372 
f 247 372 359 
f 267 248 263 
f 248 267 372 
f 249 284 354 
f 249 354 289 
f 269 250 285 
f 250 353 285 
f 250 289 353 
f 251 254 252 
f 253 252 254 
f 254 261 255 
f 255 270 254 
f 261 270 255 
f 262 256 257 
f 642 257 256 
f 257 259 258 
f 262 257 258 
f 642 259 257 
f 259 262 258 
f 259 265 262 
f 642 265 259 
f 260 340 284 
f 260 287 340 
f 266 270 261 
f 262 265 304 
f 262 286 280 
f 301 286 262 
f 317 301 262 
f 304 323 262 
f 262 321 317 
f 262 322 321 
f 323 322 262 
f 267 263 271 
f 271 263 275 
f 275 263 282 
f 263 296 282 
f 264 298 297 
f 304 265 283 
f 642 283 265 
f 266 268 270 
f 268 266 272 
f 267 271 372 
f 268 273 270 
f 273 268 272 
f 269 285 276 
f 276 665 269 
f 273 278 270 
f 278 279 270 
f 279 280 270 
f 280 300 270 
f 270 300 299 
f 271 275 372 
f 272 274 273 
f 272 277 274 
f 274 278 273 
f 278 274 277 
f 275 282 422 
f 275 422 372 
f 276 285 306 
f 306 665 276 
f 280 286 281 
f 281 300 280 
f 286 300 281 
f 296 295 282 
f 282 295 422 
f 283 288 307 
f 642 288 283 
f 307 304 283 
f 284 340 400 
f 284 400 354 
f 306 285 320 
f 285 377 320 
f 285 353 377 
f 301 300 286 
f 287 319 369 
f 287 369 340 
f 290 292 288 
f 288 293 290 
f 292 308 288 
f 642 293 288 
f 307 288 308 
f 289 426 353 
f 289 354 426 
f 290 291 292 
f 290 293 291 
f 291 294 292 
f 291 293 294 
f 294 303 292 
f 303 327 292 
f 292 326 308 
f 328 326 292 
f 327 328 292 
f 293 303 294 
f 293 314 303 
f 293 642 314 
f 302 295 296 
f 295 302 422 
f 297 311 296 
f 312 302 296 
f 311 312 296 
f 311 297 298 
f 299 318 298 
f 318 311 298 
f 318 299 300 
f 301 339 300 
f 339 318 300 
f 323 301 317 
f 326 301 323 
f 328 301 326 
f 328 339 301 
f 302 312 422 
f 324 303 314 
f 327 303 324 
f 309 305 304 
f 305 323 304 
f 307 309 304 
f 309 323 305 
f 306 320 310 
f 306 310 665 
f 309 307 308 
f 326 309 308 
f 326 323 309 
f 313 310 320 
f 313 665 310 
f 315 312 311 
f 384 315 311 
f 386 311 318 
f 384 311 386 
f 312 315 422 
f 316 313 320 
f 313 316 665 
f 324 314 331 
f 314 370 331 
f 314 352 370 
f 642 352 314 
f 325 315 384 
f 315 325 422 
f 316 320 357 
f 355 316 357 
f 665 316 355 
f 323 317 321 
f 399 318 339 
f 386 318 399 
f 319 374 369 
f 357 320 377 
f 323 321 322 
f 329 327 324 
f 324 330 329 
f 330 324 331 
f 384 344 325 
f 325 344 422 
f 329 328 327 
f 329 339 328 
f 331 329 330 
f 331 339 329 
f 332 339 331 
f 331 370 332 
f 339 332 333 
f 332 370 333 
f 334 339 333 
f 334 333 370 
f 338 335 334 
f 335 339 334 
f 370 338 334 
f 336 335 337 
f 336 339 335 
f 338 337 335 
f 336 337 339 
f 337 338 339 
f 341 339 338 
f 370 341 338 
f 342 339 341 
f 343 339 342 
f 378 339 343 
f 399 339 378 
f 340 369 440 
f 340 440 400 
f 342 341 370 
f 343 342 370 
f 343 370 428 
f 343 428 378 
f 345 344 384 
f 344 345 422 
f 346 345 384 
f 345 346 422 
f 347 346 373 
f 346 347 422 
f 373 346 384 
f 348 347 373 
f 347 348 422 
f 349 348 373 
f 348 349 422 
f 350 349 373 
f 349 350 422 
f 350 385 351 
f 350 351 422 
f 385 350 373 
f 389 375 351 
f 351 375 422 
f 351 385 389 
f 352 360 361 
f 642 360 352 
f 352 361 365 
f 365 366 352 
f 366 370 352 
f 353 456 377 
f 353 426 456 
f 354 400 464 
f 354 464 426 
f 356 355 357 
f 355 356 665 
f 356 357 371 
f 356 371 665 
f 371 357 429 
f 357 377 429 
f 358 359 424 
f 358 424 388 
f 359 372 422 
f 359 422 398 
f 359 398 441 
f 359 441 424 
f 360 362 361 
f 363 362 360 
f 364 363 360 
f 364 360 365 
f 365 360 642 
f 362 363 361 
f 363 364 361 
f 361 364 365 
f 642 366 365 
f 367 370 366 
f 642 367 366 
f 370 367 368 
f 367 421 368 
f 367 470 421 
f 470 367 642 
f 376 370 368 
f 421 376 368 
f 369 374 444 
f 369 444 440 
f 376 421 370 
f 421 428 370 
f 382 371 429 
f 371 382 665 
f 381 373 384 
f 381 385 373 
f 374 388 461 
f 374 461 444 
f 389 390 375 
f 375 390 393 
f 375 393 403 
f 403 404 375 
f 404 431 375 
f 422 375 430 
f 375 448 430 
f 375 431 439 
f 445 375 439 
f 446 375 445 
f 375 446 450 
f 375 449 448 
f 375 450 449 
f 429 377 456 
f 378 379 380 
f 378 428 379 
f 399 378 380 
f 380 379 428 
f 399 380 383 
f 383 380 428 
f 381 384 385 
f 382 429 387 
f 665 382 387 
f 399 383 391 
f 428 391 383 
f 385 384 393 
f 384 386 417 
f 384 416 393 
f 416 384 417 
f 385 390 389 
f 385 392 390 
f 385 393 392 
f 386 399 419 
f 386 418 417 
f 418 386 419 
f 387 429 451 
f 432 387 451 
f 387 432 665 
f 388 424 474 
f 388 474 461 
f 393 390 392 
f 399 391 395 
f 428 395 391 
f 397 393 394 
f 393 416 394 
f 403 393 397 
f 394 396 397 
f 396 394 415 
f 394 416 415 
f 399 395 401 
f 395 428 401 
f 396 406 397 
f 396 415 406 
f 397 407 403 
f 397 406 407 
f 398 422 453 
f 398 453 441 
f 402 399 401 
f 399 402 412 
f 399 412 419 
f 400 440 495 
f 400 495 464 
f 401 428 402 
f 402 428 412 
f 403 405 404 
f 407 405 403 
f 427 404 405 
f 427 431 404 
f 405 407 427 
f 427 407 406 
f 406 408 410 
f 406 415 408 
f 406 410 425 
f 406 425 434 
f 427 406 435 
f 406 434 435 
f 409 410 408 
f 408 415 409 
f 410 409 411 
f 409 415 411 
f 423 410 411 
f 425 410 423 
f 423 411 415 
f 412 413 419 
f 413 412 428 
f 413 414 419 
f 413 472 414 
f 413 428 472 
f 414 420 419 
f 414 472 420 
f 415 416 423 
f 417 465 416 
f 423 416 425 
f 425 416 434 
f 434 416 435 
f 435 416 501 
f 416 465 502 
f 416 502 501 
f 417 418 503 
f 465 417 503 
f 419 466 418 
f 418 466 504 
f 418 504 503 
f 419 420 433 
f 419 433 452 
f 466 419 452 
f 420 472 433 
f 442 428 421 
f 455 442 421 
f 470 455 421 
f 422 430 457 
f 422 476 453 
f 422 457 476 
f 424 441 485 
f 424 485 474 
f 426 514 456 
f 426 464 514 
f 431 427 438 
f 427 435 436 
f 427 436 437 
f 427 437 438 
f 442 455 428 
f 428 455 470 
f 428 470 471 
f 471 472 428 
f 451 429 480 
f 429 456 480 
f 448 447 430 
f 430 447 487 
f 457 430 493 
f 491 479 430 
f 430 479 524 
f 487 489 430 
f 489 491 430 
f 430 524 493 
f 438 439 431 
f 432 451 443 
f 432 443 665 
f 472 452 433 
f 436 435 501 
f 436 445 437 
f 436 501 445 
f 438 437 445 
f 438 445 439 
f 440 444 511 
f 440 511 495 
f 441 453 496 
f 441 496 485 
f 443 451 473 
f 454 443 473 
f 443 454 665 
f 444 461 532 
f 444 532 511 
f 501 446 445 
f 450 446 501 
f 447 448 487 
f 448 449 489 
f 487 448 489 
f 449 450 501 
f 489 449 501 
f 473 451 512 
f 451 480 512 
f 466 452 458 
f 472 458 452 
f 453 476 513 
f 453 513 496 
f 454 473 460 
f 454 460 665 
f 480 456 514 
f 457 493 476 
f 466 458 459 
f 458 472 459 
f 462 466 459 
f 462 459 472 
f 475 460 473 
f 637 460 475 
f 460 637 665 
f 461 474 560 
f 461 560 532 
f 463 466 462 
f 472 463 462 
f 466 463 467 
f 472 467 463 
f 464 495 611 
f 464 611 514 
f 465 503 502 
f 468 466 467 
f 469 466 468 
f 477 466 469 
f 481 466 477 
f 504 466 481 
f 472 468 467 
f 468 472 469 
f 469 472 477 
f 471 470 515 
f 515 470 530 
f 530 470 630 
f 470 739 630 
f 470 642 739 
f 471 482 472 
f 482 471 507 
f 507 471 515 
f 472 481 477 
f 472 508 481 
f 472 482 507 
f 472 507 510 
f 542 508 472 
f 510 542 472 
f 475 473 483 
f 483 473 534 
f 473 512 534 
f 474 485 580 
f 474 580 560 
f 478 475 483 
f 637 475 478 
f 476 493 529 
f 476 529 513 
f 478 483 484 
f 486 478 484 
f 637 478 486 
f 491 488 479 
f 488 492 479 
f 479 492 494 
f 479 494 500 
f 479 500 506 
f 525 479 506 
f 479 617 524 
f 526 479 525 
f 479 526 600 
f 600 594 479 
f 479 594 617 
f 512 480 577 
f 480 514 577 
f 504 481 490 
f 508 490 481 
f 484 483 486 
f 520 486 483 
f 520 483 570 
f 483 534 570 
f 485 496 587 
f 485 587 580 
f 682 486 520 
f 637 486 682 
f 488 491 501 
f 501 492 488 
f 491 489 501 
f 504 490 497 
f 490 508 497 
f 501 494 492 
f 493 524 533 
f 493 533 529 
f 494 501 500 
f 495 511 589 
f 495 589 611 
f 496 513 579 
f 496 579 587 
f 504 497 498 
f 498 497 508 
f 504 498 499 
f 499 498 508 
f 504 499 505 
f 508 505 499 
f 535 500 501 
f 506 500 535 
f 502 568 501 
f 521 501 522 
f 535 501 521 
f 522 501 523 
f 523 501 569 
f 571 501 568 
f 569 501 571 
f 502 503 597 
f 568 502 607 
f 502 597 598 
f 502 598 599 
f 502 599 609 
f 502 608 607 
f 502 609 608 
f 504 547 503 
f 503 547 627 
f 503 585 590 
f 503 595 585 
f 503 590 597 
f 503 627 595 
f 505 509 504 
f 509 516 504 
f 516 517 504 
f 518 504 517 
f 518 547 504 
f 508 509 505 
f 525 506 537 
f 536 506 535 
f 537 506 536 
f 507 515 510 
f 509 508 516 
f 516 508 517 
f 508 581 517 
f 542 581 508 
f 510 515 530 
f 510 530 542 
f 511 532 636 
f 511 636 589 
f 534 512 592 
f 512 577 592 
f 513 529 612 
f 513 612 579 
f 577 514 611 
f 517 581 518 
f 519 547 518 
f 518 581 519 
f 538 547 519 
f 538 519 581 
f 520 570 572 
f 593 520 572 
f 682 520 593 
f 522 586 521 
f 521 586 535 
f 523 586 522 
f 586 523 569 
f 524 618 533 
f 524 617 618 
f 573 526 525 
f 548 525 537 
f 573 525 548 
f 527 526 573 
f 600 526 527 
f 528 527 575 
f 600 527 528 
f 575 527 573 
f 531 528 546 
f 528 531 600 
f 546 528 575 
f 529 533 567 
f 529 567 612 
f 530 576 542 
f 576 530 582 
f 582 530 630 
f 539 531 546 
f 539 600 531 
f 532 560 633 
f 532 633 636 
f 533 619 567 
f 533 618 619 
f 570 534 623 
f 534 592 623 
f 535 586 536 
f 536 586 537 
f 537 586 548 
f 547 538 550 
f 581 550 538 
f 540 539 541 
f 540 600 539 
f 541 539 543 
f 543 539 546 
f 540 541 600 
f 541 543 601 
f 541 601 600 
f 542 576 582 
f 582 581 542 
f 543 546 544 
f 543 544 601 
f 545 544 546 
f 544 545 601 
f 602 545 546 
f 545 602 601 
f 549 546 558 
f 549 602 546 
f 558 546 557 
f 557 546 574 
f 574 546 575 
f 547 550 551 
f 552 547 551 
f 553 547 552 
f 547 553 555 
f 556 547 555 
f 563 547 556 
f 563 583 547 
f 627 547 583 
f 586 573 548 
f 549 558 559 
f 549 559 602 
f 550 581 551 
f 551 581 552 
f 581 553 552 
f 555 553 554 
f 581 554 553 
f 555 554 556 
f 554 581 556 
f 563 556 581 
f 558 557 559 
f 557 603 559 
f 557 561 562 
f 561 557 574 
f 557 562 603 
f 559 603 602 
f 560 580 662 
f 560 662 633 
f 561 574 562 
f 562 566 564 
f 603 562 564 
f 562 574 566 
f 581 583 563 
f 564 566 565 
f 564 565 604 
f 603 564 604 
f 605 565 566 
f 565 605 604 
f 574 605 566 
f 612 567 578 
f 567 620 578 
f 567 619 620 
f 568 588 571 
f 568 591 588 
f 568 606 591 
f 568 607 606 
f 571 586 569 
f 572 570 593 
f 593 570 631 
f 570 623 631 
f 588 586 571 
f 586 575 573 
f 610 574 575 
f 610 605 574 
f 586 610 575 
f 592 577 634 
f 577 611 634 
f 578 621 584 
f 638 578 584 
f 612 578 638 
f 578 620 621 
f 587 579 612 
f 580 587 645 
f 580 645 662 
f 596 581 582 
f 581 652 583 
f 581 596 630 
f 581 630 641 
f 641 655 581 
f 655 652 581 
f 596 582 630 
f 583 628 627 
f 652 628 583 
f 584 610 586 
f 664 584 586 
f 584 615 610 
f 615 584 616 
f 584 621 616 
f 638 584 664 
f 635 590 585 
f 595 635 585 
f 635 586 588 
f 664 586 635 
f 587 612 625 
f 587 625 644 
f 587 644 645 
f 635 588 591 
f 611 589 636 
f 590 635 597 
f 591 606 635 
f 623 592 640 
f 592 634 640 
f 593 631 622 
f 682 593 622 
f 594 600 615 
f 616 594 615 
f 594 616 624 
f 594 624 617 
f 627 626 595 
f 626 635 595 
f 597 635 598 
f 598 635 599 
f 635 609 599 
f 600 601 602 
f 600 602 614 
f 615 600 614 
f 602 603 613 
f 602 613 614 
f 603 604 605 
f 603 605 613 
f 624 605 610 
f 613 605 624 
f 607 635 606 
f 608 635 607 
f 635 608 609 
f 614 613 610 
f 624 610 613 
f 615 614 610 
f 634 611 674 
f 611 636 643 
f 611 643 683 
f 611 683 674 
f 625 612 671 
f 612 638 681 
f 612 681 671 
f 624 616 621 
f 617 624 618 
f 618 620 619 
f 618 624 620 
f 624 621 620 
f 622 631 629 
f 629 639 622 
f 639 682 622 
f 631 623 646 
f 623 640 646 
f 625 671 644 
f 627 632 626 
f 626 632 652 
f 652 635 626 
f 628 632 627 
f 652 632 628 
f 629 631 639 
f 684 641 630 
f 712 684 630 
f 712 630 739 
f 639 631 661 
f 631 646 661 
f 636 633 662 
f 640 634 673 
f 634 674 673 
f 652 647 635 
f 647 659 635 
f 664 635 659 
f 643 636 685 
f 636 662 670 
f 636 670 688 
f 636 688 685 
f 689 665 637 
f 689 637 682 
f 638 664 686 
f 638 686 681 
f 639 661 660 
f 660 682 639 
f 646 640 676 
f 640 673 676 
f 667 655 641 
f 641 666 667 
f 641 668 666 
f 684 668 641 
f 826 642 669 
f 739 642 918 
f 826 827 642 
f 827 855 642 
f 858 642 855 
f 885 642 858 
f 885 892 642 
f 892 909 642 
f 909 918 642 
f 643 685 683 
f 645 644 671 
f 662 645 675 
f 645 671 675 
f 661 646 678 
f 646 676 678 
f 652 648 647 
f 648 659 647 
f 652 649 648 
f 649 659 648 
f 652 650 649 
f 649 650 659 
f 652 651 650 
f 651 659 650 
f 652 653 651 
f 653 654 651 
f 654 659 651 
f 652 654 653 
f 652 656 654 
f 652 655 656 
f 654 656 659 
f 656 655 657 
f 655 658 657 
f 655 667 658 
f 656 657 659 
f 657 658 659 
f 658 668 659 
f 658 667 666 
f 658 666 668 
f 664 659 686 
f 659 668 684 
f 659 684 711 
f 686 659 711 
f 660 661 663 
f 663 682 660 
f 672 663 661 
f 672 661 680 
f 661 678 680 
f 670 662 690 
f 662 675 679 
f 662 679 691 
f 662 691 690 
f 672 682 663 
f 665 703 669 
f 710 665 689 
f 710 703 665 
f 669 703 793 
f 795 669 793 
f 819 669 795 
f 826 669 819 
f 670 690 688 
f 675 671 697 
f 671 681 700 
f 671 700 697 
f 672 680 677 
f 672 677 682 
f 673 674 699 
f 676 673 698 
f 673 699 698 
f 674 683 702 
f 674 702 699 
f 679 675 693 
f 675 697 693 
f 678 676 695 
f 676 698 695 
f 677 680 687 
f 677 687 682 
f 680 678 696 
f 678 695 696 
f 679 693 691 
f 687 680 694 
f 680 696 694 
f 681 686 706 
f 681 706 700 
f 687 692 682 
f 682 762 689 
f 701 682 692 
f 705 682 701 
f 718 682 705 
f 728 682 718 
f 736 682 728 
f 772 682 736 
f 682 767 762 
f 682 769 767 
f 682 774 769 
f 772 843 682 
f 682 777 774 
f 682 783 777 
f 682 787 783 
f 682 792 787 
f 682 808 792 
f 682 813 808 
f 682 815 813 
f 682 835 815 
f 682 837 835 
f 682 840 837 
f 682 843 840 
f 683 685 704 
f 683 704 702 
f 684 712 711 
f 685 688 707 
f 685 707 704 
f 686 711 706 
f 687 694 692 
f 688 690 708 
f 688 708 707 
f 689 759 710 
f 762 759 689 
f 690 691 709 
f 690 709 708 
f 691 693 716 
f 691 716 709 
f 692 694 701 
f 693 697 721 
f 693 721 716 
f 694 696 719 
f 705 701 694 
f 705 694 717 
f 694 719 717 
f 696 695 715 
f 695 698 720 
f 695 720 715 
f 696 715 719 
f 697 700 723 
f 697 723 721 
f 698 699 722 
f 698 722 720 
f 699 702 724 
f 699 724 722 
f 700 706 729 
f 700 729 723 
f 702 704 727 
f 702 727 724 
f 758 703 710 
f 758 764 703 
f 764 765 703 
f 765 766 703 
f 766 771 703 
f 703 771 775 
f 775 786 703 
f 786 788 703 
f 793 703 788 
f 704 707 731 
f 704 731 727 
f 705 717 718 
f 706 711 714 
f 706 714 725 
f 706 725 729 
f 707 708 735 
f 707 735 731 
f 708 709 726 
f 708 726 735 
f 709 716 733 
f 709 733 726 
f 748 747 710 
f 747 754 710 
f 710 752 748 
f 710 759 752 
f 754 755 710 
f 755 758 710 
f 711 712 713 
f 711 713 714 
f 714 713 712 
f 714 712 739 
f 725 714 739 
f 719 715 824 
f 715 720 828 
f 715 828 824 
f 716 721 738 
f 716 738 733 
f 718 717 728 
f 717 719 730 
f 728 717 734 
f 717 730 734 
f 719 824 730 
f 720 722 838 
f 720 838 828 
f 721 723 741 
f 721 741 738 
f 722 724 740 
f 722 740 838 
f 723 729 744 
f 723 745 741 
f 723 744 745 
f 724 727 743 
f 724 743 740 
f 725 732 729 
f 732 725 739 
f 735 726 733 
f 727 731 757 
f 727 757 743 
f 728 734 736 
f 729 732 737 
f 729 737 744 
f 734 730 829 
f 730 824 818 
f 730 818 829 
f 731 735 770 
f 731 770 757 
f 737 732 739 
f 735 733 742 
f 742 733 738 
f 736 734 772 
f 772 734 849 
f 734 829 849 
f 735 742 782 
f 735 782 770 
f 744 737 739 
f 763 738 741 
f 742 738 763 
f 745 744 739 
f 746 745 739 
f 753 746 739 
f 756 753 739 
f 781 756 739 
f 785 781 739 
f 785 739 810 
f 810 739 823 
f 851 823 739 
f 869 851 739 
f 869 739 886 
f 886 739 900 
f 904 900 739 
f 904 739 906 
f 739 936 906 
f 925 739 918 
f 930 739 925 
f 931 739 930 
f 936 739 931 
f 740 743 867 
f 838 740 854 
f 740 867 854 
f 745 746 741 
f 753 741 746 
f 773 741 753 
f 763 741 773 
f 742 763 797 
f 742 797 782 
f 743 757 878 
f 743 878 867 
f 748 760 747 
f 747 760 754 
f 748 752 749 
f 749 760 748 
f 749 751 750 
f 749 750 760 
f 749 752 751 
f 750 751 760 
f 752 779 751 
f 751 784 760 
f 751 779 784 
f 759 779 752 
f 773 753 756 
f 755 754 760 
f 755 768 758 
f 755 760 768 
f 773 756 781 
f 757 770 891 
f 757 891 878 
f 758 768 764 
f 762 761 759 
f 761 779 759 
f 760 791 768 
f 760 784 791 
f 761 762 779 
f 767 778 762 
f 762 778 779 
f 763 773 811 
f 763 811 797 
f 764 776 765 
f 764 768 776 
f 765 776 766 
f 766 776 771 
f 767 769 778 
f 768 802 776 
f 768 791 802 
f 769 774 780 
f 769 780 778 
f 770 782 825 
f 770 825 891 
f 771 790 775 
f 771 776 790 
f 799 843 772 
f 772 849 799 
f 773 781 785 
f 773 785 810 
f 773 810 811 
f 774 777 789 
f 774 789 780 
f 775 790 786 
f 776 820 790 
f 776 802 820 
f 783 789 777 
f 778 798 779 
f 780 796 778 
f 778 796 798 
f 779 803 784 
f 779 798 803 
f 780 789 804 
f 780 794 796 
f 780 804 794 
f 782 797 844 
f 782 844 825 
f 783 787 789 
f 784 816 791 
f 784 803 816 
f 786 807 788 
f 786 790 807 
f 787 800 789 
f 792 800 787 
f 788 807 793 
f 800 804 789 
f 790 842 807 
f 790 820 842 
f 791 830 802 
f 791 816 830 
f 792 808 800 
f 793 807 795 
f 794 801 796 
f 794 804 801 
f 795 807 819 
f 796 809 798 
f 796 801 806 
f 796 806 805 
f 796 805 809 
f 797 811 862 
f 797 862 844 
f 798 821 803 
f 798 809 821 
f 812 843 799 
f 799 849 812 
f 800 822 804 
f 808 817 800 
f 800 817 839 
f 800 839 822 
f 804 806 801 
f 802 848 820 
f 802 830 848 
f 803 834 816 
f 803 821 834 
f 804 814 806 
f 822 814 804 
f 805 806 818 
f 805 828 809 
f 805 818 824 
f 805 824 828 
f 814 818 806 
f 819 807 831 
f 807 863 831 
f 807 842 863 
f 808 813 817 
f 809 838 821 
f 809 828 838 
f 810 823 811 
f 811 823 851 
f 811 851 862 
f 832 843 812 
f 812 861 832 
f 812 849 861 
f 815 817 813 
f 814 829 818 
f 822 833 814 
f 833 829 814 
f 815 835 817 
f 816 846 830 
f 816 834 846 
f 835 839 817 
f 819 831 826 
f 820 868 842 
f 820 848 868 
f 821 841 834 
f 821 838 841 
f 822 850 833 
f 822 839 850 
f 825 844 882 
f 825 882 905 
f 891 825 895 
f 895 825 897 
f 897 825 905 
f 826 831 827 
f 827 831 855 
f 833 849 829 
f 830 846 866 
f 830 866 848 
f 855 831 857 
f 831 880 857 
f 831 863 880 
f 853 843 832 
f 832 861 853 
f 833 859 849 
f 833 850 859 
f 834 841 852 
f 834 852 846 
f 835 837 836 
f 836 839 835 
f 837 860 836 
f 836 860 839 
f 837 840 860 
f 838 852 841 
f 838 845 852 
f 838 854 845 
f 860 850 839 
f 840 843 847 
f 840 847 864 
f 840 864 860 
f 842 883 863 
f 842 868 883 
f 847 843 876 
f 884 843 853 
f 884 876 843 
f 844 862 893 
f 844 893 882 
f 845 867 852 
f 845 854 867 
f 846 852 877 
f 846 877 866 
f 865 864 847 
f 872 865 847 
f 872 847 874 
f 876 874 847 
f 848 866 881 
f 848 881 868 
f 849 859 870 
f 849 870 861 
f 871 859 850 
f 860 871 850 
f 851 869 862 
f 852 867 879 
f 852 879 877 
f 853 861 870 
f 853 870 884 
f 855 857 856 
f 855 856 858 
f 856 857 858 
f 857 901 858 
f 857 880 901 
f 858 901 885 
f 876 870 859 
f 871 875 859 
f 875 876 859 
f 860 864 865 
f 860 865 872 
f 860 872 871 
f 862 869 886 
f 862 886 893 
f 863 894 880 
f 863 883 894 
f 866 877 888 
f 866 888 881 
f 867 878 891 
f 867 891 879 
f 868 881 896 
f 868 896 883 
f 876 884 870 
f 871 872 873 
f 871 873 874 
f 871 874 875 
f 873 872 874 
f 876 875 874 
f 877 879 890 
f 877 898 888 
f 877 890 889 
f 877 889 898 
f 879 895 890 
f 879 891 895 
f 880 894 910 
f 880 910 901 
f 881 888 898 
f 881 898 896 
f 882 893 912 
f 905 882 902 
f 882 912 902 
f 883 903 894 
f 883 896 903 
f 885 887 892 
f 885 901 887 
f 886 900 893 
f 887 901 892 
f 889 890 899 
f 889 899 898 
f 895 897 890 
f 890 897 905 
f 890 905 899 
f 892 901 914 
f 892 914 909 
f 893 900 904 
f 893 904 906 
f 893 906 912 
f 894 903 915 
f 894 915 910 
f 896 898 908 
f 896 915 903 
f 896 908 907 
f 896 907 915 
f 898 899 916 
f 898 916 908 
f 899 905 911 
f 899 911 916 
f 901 910 924 
f 901 924 914 
f 905 902 911 
f 916 911 902 
f 926 902 912 
f 916 902 926 
f 906 913 912 
f 906 936 913 
f 907 908 917 
f 907 917 915 
f 908 916 926 
f 908 926 917 
f 909 914 918 
f 910 915 927 
f 910 927 924 
f 919 912 913 
f 920 912 919 
f 926 912 920 
f 913 936 919 
f 918 914 925 
f 914 924 930 
f 914 930 925 
f 915 917 928 
f 915 928 927 
f 917 926 934 
f 917 934 928 
f 920 919 921 
f 922 921 919 
f 922 919 923 
f 919 936 923 
f 920 921 922 
f 920 922 923 
f 926 920 923 
f 926 923 929 
f 923 936 929 
f 924 927 937 
f 930 924 931 
f 924 937 931 
f 926 929 932 
f 926 932 934 
f 927 928 935 
f 927 935 937 
f 928 934 943 
f 928 943 935 
f 929 936 932 
f 933 936 931 
f 931 937 933 
f 934 932 946 
f 932 936 939 
f 932 939 942 
f 932 942 944 
f 932 944 945 
f 946 932 945 
f 933 937 936 
f 934 946 943 
f 937 935 942 
f 935 944 942 
f 935 943 944 
f 936 937 938 
f 939 936 938 
f 937 939 938 
f 937 940 939 
f 937 941 940 
f 937 942 941 
f 942 939 940 
f 942 940 941 
f 944 943 945 
f 946 945 943 


